{
  "name":"helicopters",
  "constants":
  {
    "nrInitialLength": 250,
    "nrAttachLength": 28.125,
    "minBounceUp": -0.0000152587890625,
    "minBounceDown": 0.30517578125,
    "minBounceHoriz": 0.0000152587890625,
    "wormGravity": 0.0152587890625,
    "wormAcc": 0.0457763671875,
    "wormMaxVel": 0.4453125,
    "jumpForce": 0.030517578125,
    "maxAimVel": 0.05243098363280296,
    "aimAcc": 0.002996056340634823,
    "ninjaropeGravity": 0.0152587890625,
    "nrMinLength": 10.625,
    "nrMaxLength": 250,
    "bonusGravity": 0.02288818359375,
    "wormFricMult": 0.8899999856948853,
    "aimFric": 0.8299999833106995,
    "nrThrowVel": 4,
    "nrForce": 0.0833333358168602,
    "bonusBounce": 0.4000000059604645,
    "bonusFlickerTime": 220,
    "aimMaxAngle": 1.5707963705062866,
    "aimMinAngle": -0.9817476868629456,
    "nrAdjustVel": 1.5,
    "nrColourBegin": 62,
    "nrColourEnd": 64,
    "bonusExplodeRisk": 13,
    "bonusHealthVar": 255,
    "bonusMinHealth": 16,
    "firstBloodColour": 24,
    "numBloodColours": 2,
    "bObjGravity": 0.0152587890625,
    "splinterLarpaVelDiv": 3,
    "splinterCracklerVelDiv": 3,
    "fallDamageHoriz": 1,
    "fallDamageDown": 10,
    "fallDamageUp": 1,
    "hFallDamage": true,
    "hBonusReloadOnly": false
  },
  "weapons":
  [
    {
      "parts": 15,
      "bulletType": 0,
      "bulletSpeed": 2.5,
      "bulletSpeedInherit": 0.4000000059604645,
      "distribution": 0.18310546875,
      "recoil": 0.550000011920929,
      "ammo": 5,
      "delay": 57,
      "loadingTime": 235,
      "leaveShells": 1,
      "leaveShellDelay": 28,
      "fireCone": 9,
      "laserSight": false,
      "laserBeam": false,
      "launchSound": 0,
      "playReloadSound": true,
      "name": "HELIX MISSILE"
    },
    {
      "parts": 1,
      "bulletType": 1,
      "bulletSpeed": 2.5,
      "bulletSpeedInherit": 0.4000000059604645,
      "distribution": 0.0457763671875,
      "recoil": 0.05999999865889549,
      "ammo": 50,
      "delay": 3,
      "loadingTime": 315,
      "leaveShells": 2,
      "leaveShellDelay": 1,
      "fireCone": 6,
      "laserSight": false,
      "laserBeam": false,
      "launchSound": 1,
      "playReloadSound": true,
      "name": "MINI PODS"
    },
    {
      "parts": 15,
      "bulletType": 2,
      "bulletSpeed": 2.5,
      "bulletSpeedInherit": 0.4000000059604645,
      "distribution": 0.152587890625,
      "recoil": 0.699999988079071,
      "ammo": 1,
      "delay": 50,
      "loadingTime": 275,
      "leaveShells": 1,
      "leaveShellDelay": 1,
      "fireCone": 8,
      "laserSight": true,
      "laserBeam": false,
      "launchSound": 2,
      "playReloadSound": true,
      "name": "CUPID MISSILE"
    },
    {
      "parts": 1,
      "bulletType": 3,
      "bulletSpeed": 2,
      "bulletSpeedInherit": 0.5,
      "distribution": 0,
      "recoil": 0.15000000596046448,
      "ammo": 4,
      "delay": 75,
      "loadingTime": 410,
      "leaveShells": 0,
      "leaveShellDelay": 1,
      "fireCone": 9,
      "laserSight": false,
      "laserBeam": false,
      "launchSound": 3,
      "playReloadSound": true,
      "name": "SIDE ARM"
    },
    {
      "parts": 1,
      "bulletType": 4,
      "bulletSpeed": 2,
      "bulletSpeedInherit": 0.5,
      "distribution": 0.18310546875,
      "recoil": 0,
      "ammo": 5,
      "delay": 20,
      "loadingTime": 225,
      "leaveShells": 0,
      "leaveShellDelay": 1,
      "fireCone": 0,
      "laserSight": false,
      "laserBeam": false,
      "launchSound": 4,
      "playReloadSound": true,
      "name": "DEAD DIRT"
    },
    {
      "parts": 3,
      "bulletType": 5,
      "bulletSpeed": 1.5,
      "bulletSpeedInherit": 0.6666666865348816,
      "distribution": 0.244140625,
      "recoil": 0,
      "ammo": 1,
      "delay": 0,
      "loadingTime": 113,
      "leaveShells": 0,
      "leaveShellDelay": 1,
      "fireCone": 0,
      "laserSight": false,
      "laserBeam": false,
      "launchSound": 5,
      "playReloadSound": false,
      "name": "EXPL BOX"
    },
    {
      "parts": 1,
      "bulletType": 6,
      "bulletSpeed": 1,
      "bulletSpeedInherit": 1,
      "distribution": 0.1220703125,
      "recoil": 0,
      "ammo": 1,
      "delay": 0,
      "loadingTime": 220,
      "leaveShells": 0,
      "leaveShellDelay": 1,
      "fireCone": 0,
      "laserSight": false,
      "laserBeam": false,
      "launchSound": 5,
      "playReloadSound": false,
      "name": "LAND MINE"
    },
    {
      "parts": 1,
      "bulletType": 7,
      "bulletSpeed": 2.5,
      "bulletSpeedInherit": 0.4000000059604645,
      "distribution": 0.00152587890625,
      "recoil": 0.3499999940395355,
      "ammo": 9,
      "delay": 35,
      "loadingTime": 410,
      "leaveShells": 1,
      "leaveShellDelay": 1,
      "fireCone": 8,
      "laserSight": false,
      "laserBeam": false,
      "launchSound": 2,
      "playReloadSound": true,
      "name": "ANTI MATTER"
    },
    {
      "parts": 2,
      "bulletType": 8,
      "bulletSpeed": 1.7000000476837158,
      "bulletSpeedInherit": 0.5882352590560913,
      "distribution": 0.030517578125,
      "recoil": 0.15000000596046448,
      "ammo": 8,
      "delay": 11,
      "loadingTime": 500,
      "leaveShells": 0,
      "leaveShellDelay": 1,
      "fireCone": 8,
      "laserSight": false,
      "laserBeam": false,
      "launchSound": 6,
      "playReloadSound": true,
      "name": "FIRE ARM"
    },
    {
      "parts": 20,
      "bulletType": 9,
      "bulletSpeed": 1.399999976158142,
      "bulletSpeedInherit": 0.7142857313156128,
      "distribution": 0.152587890625,
      "recoil": 0,
      "ammo": 100,
      "delay": 2,
      "loadingTime": 320,
      "leaveShells": 0,
      "leaveShellDelay": 1,
      "fireCone": 0,
      "laserSight": false,
      "laserBeam": false,
      "launchSound": -1,
      "playReloadSound": false,
      "name": "FLAMER"
    },
    {
      "parts": 1,
      "bulletType": 10,
      "bulletSpeed": 1.7000000476837158,
      "bulletSpeedInherit": 0.5882352590560913,
      "distribution": 0.1068115234375,
      "recoil": 0,
      "ammo": 1,
      "delay": 0,
      "loadingTime": 260,
      "leaveShells": 0,
      "leaveShellDelay": 1,
      "fireCone": 0,
      "laserSight": false,
      "laserBeam": false,
      "launchSound": 5,
      "playReloadSound": false,
      "name": "GRENADE L"
    },
    {
      "parts": 1,
      "bulletType": 11,
      "bulletSpeed": 2.200000047683716,
      "bulletSpeedInherit": 0.45454543828964233,
      "distribution": 0,
      "recoil": 0.20000000298023224,
      "ammo": 5,
      "delay": 20,
      "loadingTime": 360,
      "leaveShells": 0,
      "leaveShellDelay": 1,
      "fireCone": 7,
      "laserSight": false,
      "laserBeam": false,
      "launchSound": 6,
      "playReloadSound": true,
      "name": "AIR TO AIR"
    },
    {
      "parts": 1,
      "bulletType": 12,
      "bulletSpeed": 1.5,
      "bulletSpeedInherit": 0.6666666865348816,
      "distribution": 0,
      "recoil": 0.30000001192092896,
      "ammo": 3,
      "delay": 80,
      "loadingTime": 320,
      "leaveShells": 0,
      "leaveShellDelay": 1,
      "fireCone": 8,
      "laserSight": false,
      "laserBeam": false,
      "launchSound": 4,
      "playReloadSound": true,
      "name": "SIDE WINDER"
    },
    {
      "parts": 1,
      "bulletType": 13,
      "bulletSpeed": 1,
      "bulletSpeedInherit": 1,
      "distribution": 0.1220703125,
      "recoil": 0,
      "ammo": 1,
      "delay": 0,
      "loadingTime": 250,
      "leaveShells": 0,
      "leaveShellDelay": 1,
      "fireCone": 0,
      "laserSight": false,
      "laserBeam": false,
      "launchSound": 5,
      "playReloadSound": false,
      "name": "SAW"
    },
    {
      "parts": 1,
      "bulletType": 14,
      "bulletSpeed": 2.5999999046325684,
      "bulletSpeedInherit": 0.38461539149284363,
      "distribution": 0.091552734375,
      "recoil": 0.05999999865889549,
      "ammo": 70,
      "delay": 2,
      "loadingTime": 500,
      "leaveShells": 4,
      "leaveShellDelay": 1,
      "fireCone": 6,
      "laserSight": false,
      "laserBeam": false,
      "launchSound": 1,
      "playReloadSound": true,
      "name": "MINIGUN"
    },
    {
      "parts": 1,
      "bulletType": 15,
      "bulletSpeed": 1.7000000476837158,
      "bulletSpeedInherit": 0.5882352590560913,
      "distribution": 0.1068115234375,
      "recoil": 0,
      "ammo": 1,
      "delay": 0,
      "loadingTime": 400,
      "leaveShells": 0,
      "leaveShellDelay": 1,
      "fireCone": 0,
      "laserSight": false,
      "laserBeam": false,
      "launchSound": 5,
      "playReloadSound": false,
      "name": "HAWK"
    },
    {
      "parts": 40,
      "bulletType": 16,
      "bulletSpeed": 2.5999999046325684,
      "bulletSpeedInherit": 0.38461539149284363,
      "distribution": 0.30517578125,
      "recoil": -0.5600000023841858,
      "ammo": 2,
      "delay": 80,
      "loadingTime": 420,
      "leaveShells": 1,
      "leaveShellDelay": 28,
      "fireCone": 10,
      "laserSight": false,
      "laserBeam": false,
      "launchSound": 0,
      "playReloadSound": true,
      "name": "BFM MISSILE"
    },
    {
      "parts": 1,
      "bulletType": 17,
      "bulletSpeed": 3.5999999046325684,
      "bulletSpeedInherit": 0.2777777910232544,
      "distribution": 0.030517578125,
      "recoil": 0.20000000298023224,
      "ammo": 15,
      "delay": 20,
      "loadingTime": 220,
      "leaveShells": 1,
      "leaveShellDelay": 1,
      "fireCone": 6,
      "laserSight": true,
      "laserBeam": false,
      "launchSound": 1,
      "playReloadSound": true,
      "name": "TORPEDO"
    },
    {
      "parts": 255,
      "bulletType": 18,
      "bulletSpeed": 2.0199999809265137,
      "bulletSpeedInherit": 0.49504950642585754,
      "distribution": 0.4999847412109375,
      "recoil": 0.10000000149011612,
      "ammo": 40,
      "delay": 4,
      "loadingTime": 220,
      "leaveShells": 0,
      "leaveShellDelay": 1,
      "fireCone": 0,
      "laserSight": false,
      "laserBeam": false,
      "launchSound": -1,
      "playReloadSound": true,
      "name": "GREEN SHIELD"
    },
    {
      "parts": 1,
      "bulletType": 19,
      "bulletSpeed": 1.7000000476837158,
      "bulletSpeedInherit": 0.5882352590560913,
      "distribution": 0.30517578125,
      "recoil": 0,
      "ammo": 1,
      "delay": 0,
      "loadingTime": 700,
      "leaveShells": 0,
      "leaveShellDelay": 1,
      "fireCone": 0,
      "laserSight": false,
      "laserBeam": false,
      "launchSound": 5,
      "playReloadSound": false,
      "name": "HELL FIRE"
    },
    {
      "parts": 1,
      "bulletType": 20,
      "bulletSpeed": 1.7000000476837158,
      "bulletSpeedInherit": 0.5882352590560913,
      "distribution": 0.48828125,
      "recoil": 0,
      "ammo": 1,
      "delay": 0,
      "loadingTime": 550,
      "leaveShells": 0,
      "leaveShellDelay": 1,
      "fireCone": 0,
      "laserSight": false,
      "laserBeam": false,
      "launchSound": 5,
      "playReloadSound": true,
      "name": "FIRE WINDER"
    },
    {
      "parts": 1,
      "bulletType": 21,
      "bulletSpeed": 3,
      "bulletSpeedInherit": 0.3333333432674408,
      "distribution": 0,
      "recoil": 0.30000001192092896,
      "ammo": 2,
      "delay": 70,
      "loadingTime": 540,
      "leaveShells": 0,
      "leaveShellDelay": 1,
      "fireCone": 0,
      "laserSight": false,
      "laserBeam": false,
      "launchSound": 6,
      "playReloadSound": true,
      "name": "ALPHA GUN"
    },
    {
      "parts": 1,
      "bulletType": 22,
      "bulletSpeed": 1.7999999523162842,
      "bulletSpeedInherit": 0.5555555820465088,
      "distribution": 0.1220703125,
      "recoil": 0.20000000298023224,
      "ammo": 2,
      "delay": 30,
      "loadingTime": 450,
      "leaveShells": 0,
      "leaveShellDelay": 1,
      "fireCone": 0,
      "laserSight": false,
      "laserBeam": false,
      "launchSound": 5,
      "playReloadSound": false,
      "name": "NUKED HELL"
    },
    {
      "parts": 1,
      "bulletType": 23,
      "bulletSpeed": 1,
      "bulletSpeedInherit": 1,
      "distribution": 0.213623046875,
      "recoil": 0,
      "ammo": 2,
      "delay": 20,
      "loadingTime": 280,
      "leaveShells": 0,
      "leaveShellDelay": 1,
      "fireCone": 0,
      "laserSight": false,
      "laserBeam": false,
      "launchSound": 5,
      "playReloadSound": true,
      "name": "SEEDER"
    },
    {
      "parts": 15,
      "bulletType": 24,
      "bulletSpeed": 1.7999999523162842,
      "bulletSpeedInherit": 0.5555555820465088,
      "distribution": 0.18310546875,
      "recoil": 0.019999999552965164,
      "ammo": 150,
      "delay": 0,
      "loadingTime": 220,
      "leaveShells": 0,
      "leaveShellDelay": 1,
      "fireCone": 0,
      "laserSight": false,
      "laserBeam": false,
      "launchSound": -1,
      "playReloadSound": false,
      "name": "EXPL FANTA"
    },
    {
      "parts": 1,
      "bulletType": 25,
      "bulletSpeed": 1.5,
      "bulletSpeedInherit": 0.6666666865348816,
      "distribution": 0.01220703125,
      "recoil": 0.5,
      "ammo": 1,
      "delay": 0,
      "loadingTime": 640,
      "leaveShells": 0,
      "leaveShellDelay": 1,
      "fireCone": 8,
      "laserSight": false,
      "laserBeam": false,
      "launchSound": 3,
      "playReloadSound": true,
      "name": "EAGLE FIRE"
    },
    {
      "parts": 1,
      "bulletType": 26,
      "bulletSpeed": 2,
      "bulletSpeedInherit": 0.5,
      "distribution": 0.00457763671875,
      "recoil": 0.4000000059604645,
      "ammo": 6,
      "delay": 3,
      "loadingTime": 450,
      "leaveShells": 0,
      "leaveShellDelay": 1,
      "fireCone": 8,
      "laserSight": false,
      "laserBeam": false,
      "launchSound": 11,
      "playReloadSound": true,
      "name": "CANNON"
    },
    {
      "parts": 1,
      "bulletType": 27,
      "bulletSpeed": 2.200000047683716,
      "bulletSpeedInherit": 0.45454543828964233,
      "distribution": 0.00762939453125,
      "recoil": 0.20000000298023224,
      "ammo": 4,
      "delay": 3,
      "loadingTime": 390,
      "leaveShells": 0,
      "leaveShellDelay": 1,
      "fireCone": 7,
      "laserSight": false,
      "laserBeam": false,
      "launchSound": 6,
      "playReloadSound": true,
      "name": "MACHINE GUN"
    },
    {
      "parts": 1,
      "bulletType": 28,
      "bulletSpeed": 1,
      "bulletSpeedInherit": 0,
      "distribution": 0.0015411376953125,
      "recoil": 0,
      "ammo": 80,
      "delay": 1,
      "loadingTime": 400,
      "leaveShells": 0,
      "leaveShellDelay": 1,
      "fireCone": 0,
      "laserSight": false,
      "laserBeam": true,
      "launchSound": -1,
      "playReloadSound": true,
      "name": "TAZER"
    },
    {
      "parts": 8,
      "bulletType": 29,
      "bulletSpeed": 1.100000023841858,
      "bulletSpeedInherit": 0.9090908765792847,
      "distribution": 0.3662109375,
      "recoil": 0,
      "ammo": 1,
      "delay": 0,
      "loadingTime": 400,
      "leaveShells": 0,
      "leaveShellDelay": 1,
      "fireCone": 0,
      "laserSight": false,
      "laserBeam": false,
      "launchSound": 5,
      "playReloadSound": true,
      "name": "HIVE MISSILE"
    },
    {
      "parts": 1,
      "bulletType": 30,
      "bulletSpeed": 1.2999999523162842,
      "bulletSpeedInherit": 0.7692307829856873,
      "distribution": 0.030517578125,
      "recoil": 0,
      "ammo": 1,
      "delay": 0,
      "loadingTime": 260,
      "leaveShells": 0,
      "leaveShellDelay": 1,
      "fireCone": 0,
      "laserSight": false,
      "laserBeam": false,
      "launchSound": 5,
      "playReloadSound": false,
      "name": "NAPALM BOMB"
    },
    {
      "parts": 1,
      "bulletType": 31,
      "bulletSpeed": 4,
      "bulletSpeedInherit": 0.25,
      "distribution": 0.0152587890625,
      "recoil": 0.019999999552965164,
      "ammo": 15,
      "delay": 50,
      "loadingTime": 140,
      "leaveShells": 2,
      "leaveShellDelay": 1,
      "fireCone": 6,
      "laserSight": false,
      "laserBeam": false,
      "launchSound": 1,
      "playReloadSound": true,
      "name": "MOTAR"
    },
    {
      "parts": 1,
      "bulletType": 32,
      "bulletSpeed": 2.299999952316284,
      "bulletSpeedInherit": 0.43478262424468994,
      "distribution": 0,
      "recoil": 0.15000000596046448,
      "ammo": 1,
      "delay": 0,
      "loadingTime": 480,
      "leaveShells": 0,
      "leaveShellDelay": 1,
      "fireCone": 9,
      "laserSight": false,
      "laserBeam": false,
      "launchSound": 3,
      "playReloadSound": true,
      "name": "MISSILE"
    },
    {
      "parts": 10,
      "bulletType": 33,
      "bulletSpeed": 1.7000000476837158,
      "bulletSpeedInherit": 0.5882352590560913,
      "distribution": 0.4999847412109375,
      "recoil": 0,
      "ammo": 1,
      "delay": 10,
      "loadingTime": 600,
      "leaveShells": 0,
      "leaveShellDelay": 1,
      "fireCone": 0,
      "laserSight": false,
      "laserBeam": false,
      "launchSound": 5,
      "playReloadSound": false,
      "name": "MISSILE RAIN"
    },
    {
      "parts": 1,
      "bulletType": 34,
      "bulletSpeed": 1,
      "bulletSpeedInherit": 1,
      "distribution": 0.30517578125,
      "recoil": 0,
      "ammo": 1,
      "delay": 0,
      "loadingTime": 300,
      "leaveShells": 0,
      "leaveShellDelay": 1,
      "fireCone": 0,
      "laserSight": false,
      "laserBeam": false,
      "launchSound": 5,
      "playReloadSound": false,
      "name": "AIR TO GROUND"
    },
    {
      "parts": 1,
      "bulletType": 35,
      "bulletSpeed": 1,
      "bulletSpeedInherit": 1,
      "distribution": 0.001068115234375,
      "recoil": 0,
      "ammo": 1,
      "delay": 10,
      "loadingTime": 300,
      "leaveShells": 0,
      "leaveShellDelay": 1,
      "fireCone": 0,
      "laserSight": false,
      "laserBeam": false,
      "launchSound": 5,
      "playReloadSound": false,
      "name": "EXPL FLAPS"
    },
    {
      "parts": 1,
      "bulletType": 36,
      "bulletSpeed": 1.7000000476837158,
      "bulletSpeedInherit": 0.5882352590560913,
      "distribution": 0.0091552734375,
      "recoil": 0.05000000074505806,
      "ammo": 10,
      "delay": 7,
      "loadingTime": 380,
      "leaveShells": 0,
      "leaveShellDelay": 1,
      "fireCone": 7,
      "laserSight": false,
      "laserBeam": false,
      "launchSound": 6,
      "playReloadSound": true,
      "name": "ROCKET"
    },
    {
      "parts": 1,
      "bulletType": 37,
      "bulletSpeed": 2.200000047683716,
      "bulletSpeedInherit": 0.45454543828964233,
      "distribution": 0,
      "recoil": 0,
      "ammo": 5,
      "delay": 30,
      "loadingTime": 200,
      "leaveShells": 0,
      "leaveShellDelay": 1,
      "fireCone": 0,
      "laserSight": false,
      "laserBeam": false,
      "launchSound": 5,
      "playReloadSound": false,
      "name": "SS MISSILE"
    },
    {
      "parts": 1,
      "bulletType": 38,
      "bulletSpeed": 1.899999976158142,
      "bulletSpeedInherit": 0.5263158082962036,
      "distribution": 0.0152587890625,
      "recoil": 0.03999999910593033,
      "ammo": 10,
      "delay": 2,
      "loadingTime": 260,
      "leaveShells": 1,
      "leaveShellDelay": 1,
      "fireCone": 6,
      "laserSight": false,
      "laserBeam": false,
      "launchSound": 1,
      "playReloadSound": true,
      "name": "LIMITED HSM"
    },
    {
      "parts": 5,
      "bulletType": 39,
      "bulletSpeed": 2,
      "bulletSpeedInherit": 0.5,
      "distribution": 0,
      "recoil": 0.8999999761581421,
      "ammo": 1,
      "delay": 5,
      "loadingTime": 400,
      "leaveShells": 0,
      "leaveShellDelay": 1,
      "fireCone": 10,
      "laserSight": false,
      "laserBeam": false,
      "launchSound": 10,
      "playReloadSound": true,
      "name": "POISON AIR"
    }
  ],
  "wObjects":
  [
    {
 // wid0 bullet for: HELIX MISSILE
      "detectDistance": 0,
      "blowAway": 0.03999999910593033,
      "gravity": 0.01068115234375,
      "exploSound": -1,
      "addSpeed": 0,
      "distribution": 0.18310546875,
      "multSpeed": 1,
      "createOnExp": 2,
      "dirtEffect": -1,
      "wormExplode": false,
      "explGround": true,
      "wormCollide": true,
      "collideWithObjects": false,
      "affectByExplosions": false,
      "bounce": 0,
      "bounceFriction": 0.800000011920929,
      "timeToExplo": 0,
      "timeToExploV": 0,
      "hitDamage": 1,
      "bloodOnHit": 3,
      "startFrame": 110,
      "numFrames": 0,
      "loopAnim": false,
      "shotType": 2,
      "repeat": 1,
      "colorBullets": 75,
      "splinterAmount": 100,
      "splinterColour": 0,
      "splinterType": 8,
      "splinterScatter": 1,
      "objTrailType": -1,
      "objTrailDelay": 0,
      "partTrailType": 0,
      "partTrailObj": -1,
      "partTrailDelay": 0,
      "speed": 250
    },
    {
 // wid1 bullet for: MINI PODS
      "detectDistance": 0,
      "blowAway": 0.05000000074505806,
      "gravity": 0.01068115234375,
      "exploSound": -1,
      "addSpeed": 0,
      "distribution": 0.0457763671875,
      "multSpeed": 1,
      "createOnExp": 2,
      "dirtEffect": -1,
      "wormExplode": true,
      "explGround": true,
      "wormCollide": true,
      "collideWithObjects": false,
      "affectByExplosions": false,
      "bounce": 0,
      "bounceFriction": 0.800000011920929,
      "timeToExplo": 0,
      "timeToExploV": 0,
      "hitDamage": 3,
      "bloodOnHit": 4,
      "startFrame": -1,
      "numFrames": 0,
      "loopAnim": false,
      "shotType": 0,
      "repeat": 1,
      "colorBullets": 68,
      "splinterAmount": 6,
      "splinterColour": 0,
      "splinterType": 2,
      "splinterScatter": 0,
      "objTrailType": -1,
      "objTrailDelay": 0,
      "partTrailType": 0,
      "partTrailObj": -1,
      "partTrailDelay": 0,
      "speed": 250
    },
    {
 // wid2 bullet for: CUPID MISSILE
      "detectDistance": 0,
      "blowAway": 0.699999988079071,
      "gravity": 0.00030517578125,
      "exploSound": -1,
      "addSpeed": 0,
      "distribution": 0.152587890625,
      "multSpeed": 1,
      "createOnExp": 2,
      "dirtEffect": -1,
      "wormExplode": true,
      "explGround": true,
      "wormCollide": true,
      "collideWithObjects": false,
      "affectByExplosions": false,
      "bounce": 0,
      "bounceFriction": 0.800000011920929,
      "timeToExplo": 0,
      "timeToExploV": 0,
      "hitDamage": 34,
      "bloodOnHit": 20,
      "startFrame": -1,
      "numFrames": 0,
      "loopAnim": false,
      "shotType": 4,
      "repeat": 8,
      "colorBullets": 68,
      "splinterAmount": 4,
      "splinterColour": 67,
      "splinterType": 3,
      "splinterScatter": 0,
      "objTrailType": 6,
      "objTrailDelay": 1,
      "partTrailType": 0,
      "partTrailObj": -1,
      "partTrailDelay": 0,
      "speed": 250
    },
    {
 // wid3 bullet for: SIDE ARM
      "detectDistance": 1,
      "blowAway": 0,
      "gravity": 0,
      "exploSound": -1,
      "addSpeed": 3,
      "distribution": 0,
      "multSpeed": 1,
      "createOnExp": 0,
      "dirtEffect": -1,
      "wormExplode": true,
      "explGround": true,
      "wormCollide": true,
      "collideWithObjects": false,
      "affectByExplosions": false,
      "bounce": 0,
      "bounceFriction": 0.800000011920929,
      "timeToExplo": 0,
      "timeToExploV": 0,
      "hitDamage": 12,
      "bloodOnHit": 30,
      "startFrame": 112,
      "numFrames": 0,
      "loopAnim": false,
      "shotType": 1,
      "repeat": 1,
      "colorBullets": 0,
      "splinterAmount": 0,
      "splinterColour": 66,
      "splinterType": -1,
      "splinterScatter": 0,
      "objTrailType": 3,
      "objTrailDelay": 4,
      "partTrailType": 0,
      "partTrailObj": -1,
      "partTrailDelay": 0,
      "speed": 200
    },
    {
 // wid4 bullet for: DEAD DIRT
      "detectDistance": 3,
      "blowAway": 0,
      "gravity": 0,
      "exploSound": 13,
      "addSpeed": 0,
      "distribution": 0.18310546875,
      "multSpeed": 1,
      "createOnExp": -1,
      "dirtEffect": 4,
      "wormExplode": true,
      "explGround": true,
      "wormCollide": true,
      "collideWithObjects": false,
      "affectByExplosions": true,
      "bounce": 0,
      "bounceFriction": 0.800000011920929,
      "timeToExplo": 80,
      "timeToExploV": 20,
      "hitDamage": 0,
      "bloodOnHit": 0,
      "startFrame": 197,
      "numFrames": 0,
      "loopAnim": false,
      "shotType": 0,
      "repeat": 1,
      "colorBullets": 0,
      "splinterAmount": 5,
      "splinterColour": 0,
      "splinterType": 13,
      "splinterScatter": 1,
      "objTrailType": -1,
      "objTrailDelay": 0,
      "partTrailType": 0,
      "partTrailObj": -1,
      "partTrailDelay": 0,
      "speed": 200
    },
    {
 // wid5 bullet for: EXPL BOX
      "detectDistance": 0,
      "blowAway": 0,
      "gravity": 0.152587890625,
      "exploSound": -1,
      "addSpeed": 0,
      "distribution": 0.244140625,
      "multSpeed": 1,
      "createOnExp": 0,
      "dirtEffect": -1,
      "wormExplode": true,
      "explGround": false,
      "wormCollide": false,
      "collideWithObjects": false,
      "affectByExplosions": true,
      "bounce": 0,
      "bounceFriction": 0.800000011920929,
      "timeToExplo": 55,
      "timeToExploV": 10,
      "hitDamage": 0,
      "bloodOnHit": 0,
      "startFrame": 210,
      "numFrames": 0,
      "loopAnim": false,
      "shotType": 0,
      "repeat": 1,
      "colorBullets": 0,
      "splinterAmount": 255,
      "splinterColour": 0,
      "splinterType": 11,
      "splinterScatter": 0,
      "objTrailType": -1,
      "objTrailDelay": 0,
      "partTrailType": 0,
      "partTrailObj": -1,
      "partTrailDelay": 0,
      "speed": 150
    },
    {
 // wid6 bullet for: LAND MINE
      "detectDistance": 2,
      "blowAway": 0.6000000238418579,
      "gravity": 0.0152587890625,
      "exploSound": -1,
      "addSpeed": 0,
      "distribution": 0.1220703125,
      "multSpeed": 1,
      "createOnExp": 0,
      "dirtEffect": -1,
      "wormExplode": true,
      "explGround": false,
      "wormCollide": true,
      "collideWithObjects": false,
      "affectByExplosions": true,
      "bounce": 0.4000000059604645,
      "bounceFriction": 0.800000011920929,
      "timeToExplo": 15000,
      "timeToExploV": 600,
      "hitDamage": 12,
      "bloodOnHit": 20,
      "startFrame": 173,
      "numFrames": 3,
      "loopAnim": true,
      "shotType": 0,
      "repeat": 1,
      "colorBullets": 0,
      "splinterAmount": 5,
      "splinterColour": 66,
      "splinterType": 11,
      "splinterScatter": 0,
      "objTrailType": -1,
      "objTrailDelay": 0,
      "partTrailType": 0,
      "partTrailObj": -1,
      "partTrailDelay": 0,
      "speed": 95
    },
    {
 // wid7 bullet for: ANTI MATTER
      "detectDistance": 0,
      "blowAway": 0.699999988079071,
      "gravity": 0.00030517578125,
      "exploSound": -1,
      "addSpeed": 0,
      "distribution": 0.00152587890625,
      "multSpeed": 1.0199999809265137,
      "createOnExp": 0,
      "dirtEffect": -1,
      "wormExplode": false,
      "explGround": true,
      "wormCollide": true,
      "collideWithObjects": false,
      "affectByExplosions": false,
      "bounce": 0.10000000149011612,
      "bounceFriction": 0.800000011920929,
      "timeToExplo": 0,
      "timeToExploV": 0,
      "hitDamage": 120,
      "bloodOnHit": 15,
      "startFrame": 142,
      "numFrames": 0,
      "loopAnim": false,
      "shotType": 0,
      "repeat": 1,
      "colorBullets": 68,
      "splinterAmount": 3,
      "splinterColour": 67,
      "splinterType": 3,
      "splinterScatter": 0,
      "objTrailType": -1,
      "objTrailDelay": 0,
      "partTrailType": 0,
      "partTrailObj": -1,
      "partTrailDelay": 0,
      "speed": 250
    },
    {
 // wid8 bullet for: FIRE ARM
      "detectDistance": 1,
      "blowAway": 0.15000000596046448,
      "gravity": 0,
      "exploSound": -1,
      "addSpeed": 3,
      "distribution": 0.030517578125,
      "multSpeed": 1,
      "createOnExp": 1,
      "dirtEffect": -1,
      "wormExplode": true,
      "explGround": true,
      "wormCollide": true,
      "collideWithObjects": false,
      "affectByExplosions": false,
      "bounce": 0,
      "bounceFriction": 0.800000011920929,
      "timeToExplo": 0,
      "timeToExploV": 0,
      "hitDamage": 0,
      "bloodOnHit": 10,
      "startFrame": 127,
      "numFrames": 0,
      "loopAnim": false,
      "shotType": 3,
      "repeat": 1,
      "colorBullets": 0,
      "splinterAmount": 0,
      "splinterColour": 0,
      "splinterType": 2,
      "splinterScatter": 0,
      "objTrailType": 6,
      "objTrailDelay": 2,
      "partTrailType": 0,
      "partTrailObj": -1,
      "partTrailDelay": 0,
      "speed": 170
    },
    {
 // wid9 bullet for: FLAMER
      "detectDistance": 1,
      "blowAway": 0,
      "gravity": -0.006103515625,
      "exploSound": -1,
      "addSpeed": 0,
      "distribution": 0.152587890625,
      "multSpeed": 1,
      "createOnExp": -1,
      "dirtEffect": 5,
      "wormExplode": false,
      "explGround": true,
      "wormCollide": true,
      "collideWithObjects": false,
      "affectByExplosions": false,
      "bounce": 0,
      "bounceFriction": 0.800000011920929,
      "timeToExplo": 80,
      "timeToExploV": 35,
      "hitDamage": 1,
      "bloodOnHit": 0,
      "startFrame": 159,
      "numFrames": 5,
      "loopAnim": true,
      "shotType": 0,
      "repeat": 1,
      "colorBullets": 0,
      "splinterAmount": 0,
      "splinterColour": 0,
      "splinterType": -1,
      "splinterScatter": 0,
      "objTrailType": -1,
      "objTrailDelay": 0,
      "partTrailType": 0,
      "partTrailObj": -1,
      "partTrailDelay": 0,
      "speed": 140
    },
    {
 // wid10 bullet for: GRENADE L
      "detectDistance": 0,
      "blowAway": 0,
      "gravity": 0.01983642578125,
      "exploSound": -1,
      "addSpeed": 0,
      "distribution": 0.1068115234375,
      "multSpeed": 1,
      "createOnExp": 0,
      "dirtEffect": -1,
      "wormExplode": false,
      "explGround": false,
      "wormCollide": false,
      "collideWithObjects": false,
      "affectByExplosions": true,
      "bounce": 0.4000000059604645,
      "bounceFriction": 0.800000011920929,
      "timeToExplo": 115,
      "timeToExploV": 10,
      "hitDamage": 0,
      "bloodOnHit": 0,
      "startFrame": 206,
      "numFrames": 3,
      "loopAnim": true,
      "shotType": 0,
      "repeat": 1,
      "colorBullets": 0,
      "splinterAmount": 50,
      "splinterColour": 54,
      "splinterType": 11,
      "splinterScatter": 0,
      "objTrailType": -1,
      "objTrailDelay": 0,
      "partTrailType": 0,
      "partTrailObj": -1,
      "partTrailDelay": 0,
      "speed": 170
    },
    {
 // wid11 bullet for: AIR TO AIR
      "detectDistance": 1,
      "blowAway": 0.4000000059604645,
      "gravity": 0,
      "exploSound": -1,
      "addSpeed": 0,
      "distribution": 0,
      "multSpeed": 1,
      "createOnExp": 1,
      "dirtEffect": -1,
      "wormExplode": true,
      "explGround": true,
      "wormCollide": true,
      "collideWithObjects": false,
      "affectByExplosions": false,
      "bounce": 0,
      "bounceFriction": 0.800000011920929,
      "timeToExplo": 0,
      "timeToExploV": 0,
      "hitDamage": 0,
      "bloodOnHit": 6,
      "startFrame": 140,
      "numFrames": 0,
      "loopAnim": false,
      "shotType": 3,
      "repeat": 1,
      "colorBullets": 0,
      "splinterAmount": 5,
      "splinterColour": 67,
      "splinterType": 3,
      "splinterScatter": 0,
      "objTrailType": -1,
      "objTrailDelay": 0,
      "partTrailType": 1,
      "partTrailObj": -1,
      "partTrailDelay": 4,
      "speed": 220
    },
    {
 // wid12 bullet for: SIDE WINDER
      "detectDistance": 0,
      "blowAway": 0,
      "gravity": 0,
      "exploSound": -1,
      "addSpeed": 0,
      "distribution": 0,
      "multSpeed": 1,
      "createOnExp": 0,
      "dirtEffect": -1,
      "wormExplode": true,
      "explGround": true,
      "wormCollide": false,
      "collideWithObjects": false,
      "affectByExplosions": false,
      "bounce": 0,
      "bounceFriction": 0.800000011920929,
      "timeToExplo": 0,
      "timeToExploV": 0,
      "hitDamage": 0,
      "bloodOnHit": 0,
      "startFrame": 127,
      "numFrames": 12,
      "loopAnim": false,
      "shotType": 1,
      "repeat": 1,
      "colorBullets": 0,
      "splinterAmount": 45,
      "splinterColour": 25,
      "splinterType": 3,
      "splinterScatter": 0,
      "objTrailType": 3,
      "objTrailDelay": 8,
      "partTrailType": 0,
      "partTrailObj": -1,
      "partTrailDelay": 0,
      "speed": 150
    },
    {
 // wid13 bullet for: SAW
      "detectDistance": 2,
      "blowAway": 0.2199999988079071,
      "gravity": 0.152587890625,
      "exploSound": -1,
      "addSpeed": 0,
      "distribution": 0.1220703125,
      "multSpeed": 1,
      "createOnExp": 1,
      "dirtEffect": -1,
      "wormExplode": true,
      "explGround": false,
      "wormCollide": true,
      "collideWithObjects": false,
      "affectByExplosions": true,
      "bounce": 0.10000000149011612,
      "bounceFriction": 0.800000011920929,
      "timeToExplo": 12000,
      "timeToExploV": 800,
      "hitDamage": 18,
      "bloodOnHit": 18,
      "startFrame": 181,
      "numFrames": 3,
      "loopAnim": true,
      "shotType": 0,
      "repeat": 1,
      "colorBullets": 0,
      "splinterAmount": 7,
      "splinterColour": 66,
      "splinterType": 3,
      "splinterScatter": 0,
      "objTrailType": -1,
      "objTrailDelay": 0,
      "partTrailType": 0,
      "partTrailObj": -1,
      "partTrailDelay": 0,
      "speed": 100
    },
    {
 // wid14 bullet for: MINIGUN
      "detectDistance": 0,
      "blowAway": 0.05000000074505806,
      "gravity": 0.01068115234375,
      "exploSound": -1,
      "addSpeed": 0,
      "distribution": 0.091552734375,
      "multSpeed": 1,
      "createOnExp": 5,
      "dirtEffect": -1,
      "wormExplode": false,
      "explGround": true,
      "wormCollide": true,
      "collideWithObjects": false,
      "affectByExplosions": false,
      "bounce": 0,
      "bounceFriction": 0.800000011920929,
      "timeToExplo": 0,
      "timeToExploV": 0,
      "hitDamage": 2,
      "bloodOnHit": 2,
      "startFrame": -1,
      "numFrames": 0,
      "loopAnim": false,
      "shotType": 0,
      "repeat": 1,
      "colorBullets": 68,
      "splinterAmount": 10,
      "splinterColour": 0,
      "splinterType": 5,
      "splinterScatter": 0,
      "objTrailType": -1,
      "objTrailDelay": 0,
      "partTrailType": 0,
      "partTrailObj": -1,
      "partTrailDelay": 0,
      "speed": 260
    },
    {
 // wid15 bullet for: HAWK
      "detectDistance": 0,
      "blowAway": 0,
      "gravity": 0.01983642578125,
      "exploSound": -1,
      "addSpeed": 0,
      "distribution": 0.1068115234375,
      "multSpeed": 1,
      "createOnExp": 0,
      "dirtEffect": -1,
      "wormExplode": false,
      "explGround": false,
      "wormCollide": false,
      "collideWithObjects": false,
      "affectByExplosions": true,
      "bounce": 1,
      "bounceFriction": 1,
      "timeToExplo": 135,
      "timeToExploV": 15,
      "hitDamage": 0,
      "bloodOnHit": 0,
      "startFrame": 206,
      "numFrames": 3,
      "loopAnim": true,
      "shotType": 0,
      "repeat": 1,
      "colorBullets": 0,
      "splinterAmount": 20,
      "splinterColour": 0,
      "splinterType": 5,
      "splinterScatter": 0,
      "objTrailType": -1,
      "objTrailDelay": 0,
      "partTrailType": 0,
      "partTrailObj": -1,
      "partTrailDelay": 0,
      "speed": 170
    },
    {
 // wid16 bullet for: BFM MISSILE
      "detectDistance": 0,
      "blowAway": 0.029999999329447746,
      "gravity": 0.01068115234375,
      "exploSound": -1,
      "addSpeed": 0,
      "distribution": 0.30517578125,
      "multSpeed": 1,
      "createOnExp": 2,
      "dirtEffect": -1,
      "wormExplode": false,
      "explGround": true,
      "wormCollide": true,
      "collideWithObjects": false,
      "affectByExplosions": false,
      "bounce": 0,
      "bounceFriction": 0.800000011920929,
      "timeToExplo": 0,
      "timeToExploV": 0,
      "hitDamage": 1,
      "bloodOnHit": 2,
      "startFrame": -1,
      "numFrames": 0,
      "loopAnim": false,
      "shotType": 1,
      "repeat": 1,
      "colorBullets": 75,
      "splinterAmount": 0,
      "splinterColour": 0,
      "splinterType": -1,
      "splinterScatter": 0,
      "objTrailType": -1,
      "objTrailDelay": 0,
      "partTrailType": 0,
      "partTrailObj": -1,
      "partTrailDelay": 0,
      "speed": 260
    },
    {
 // wid17 bullet for: TORPEDO
      "detectDistance": 0,
      "blowAway": 0.20000000298023224,
      "gravity": 0.01068115234375,
      "exploSound": -1,
      "addSpeed": 0,
      "distribution": 0.030517578125,
      "multSpeed": 1,
      "createOnExp": 2,
      "dirtEffect": -1,
      "wormExplode": true,
      "explGround": true,
      "wormCollide": true,
      "collideWithObjects": false,
      "affectByExplosions": false,
      "bounce": 0,
      "bounceFriction": 0.800000011920929,
      "timeToExplo": 0,
      "timeToExploV": 0,
      "hitDamage": 6,
      "bloodOnHit": 4,
      "startFrame": 127,
      "numFrames": 0,
      "loopAnim": false,
      "shotType": 1,
      "repeat": 1,
      "colorBullets": 68,
      "splinterAmount": 0,
      "splinterColour": 0,
      "splinterType": -1,
      "splinterScatter": 0,
      "objTrailType": -1,
      "objTrailDelay": 0,
      "partTrailType": 0,
      "partTrailObj": -1,
      "partTrailDelay": 0,
      "speed": 360
    },
    {
 // wid18 bullet for: GREEN SHIELD
      "detectDistance": 3,
      "blowAway": 0,
      "gravity": 0.01068115234375,
      "exploSound": 13,
      "addSpeed": 0,
      "distribution": 0.4999847412109375,
      "multSpeed": 1,
      "createOnExp": -1,
      "dirtEffect": 6,
      "wormExplode": true,
      "explGround": true,
      "wormCollide": true,
      "collideWithObjects": false,
      "affectByExplosions": true,
      "bounce": 0,
      "bounceFriction": 0.800000011920929,
      "timeToExplo": 3,
      "timeToExploV": 3,
      "hitDamage": 0,
      "bloodOnHit": 0,
      "startFrame": -1,
      "numFrames": 0,
      "loopAnim": false,
      "shotType": 0,
      "repeat": 1,
      "colorBullets": 54,
      "splinterAmount": 0,
      "splinterColour": 0,
      "splinterType": -1,
      "splinterScatter": 0,
      "objTrailType": -1,
      "objTrailDelay": 0,
      "partTrailType": 0,
      "partTrailObj": -1,
      "partTrailDelay": 0,
      "speed": 202
    },
    {
 // wid19 bullet for: HELL FIRE
      "detectDistance": 3,
      "blowAway": 0,
      "gravity": 0,
      "exploSound": 4,
      "addSpeed": 0,
      "distribution": 0.30517578125,
      "multSpeed": 1,
      "createOnExp": 0,
      "dirtEffect": -1,
      "wormExplode": true,
      "explGround": true,
      "wormCollide": true,
      "collideWithObjects": false,
      "affectByExplosions": false,
      "bounce": 0,
      "bounceFriction": 0.800000011920929,
      "timeToExplo": 0,
      "timeToExploV": 0,
      "hitDamage": 200,
      "bloodOnHit": 0,
      "startFrame": 110,
      "numFrames": 15,
      "loopAnim": false,
      "shotType": 2,
      "repeat": 1,
      "colorBullets": 0,
      "splinterAmount": 12,
      "splinterColour": 0,
      "splinterType": 11,
      "splinterScatter": 0,
      "objTrailType": 3,
      "objTrailDelay": 1,
      "partTrailType": 0,
      "partTrailObj": -1,
      "partTrailDelay": 0,
      "speed": 170
    },
    {
 // wid20 bullet for: FIRE WINDER
      "detectDistance": 0,
      "blowAway": 0,
      "gravity": 0.0152587890625,
      "exploSound": -1,
      "addSpeed": 0,
      "distribution": 0.48828125,
      "multSpeed": 1,
      "createOnExp": 1,
      "dirtEffect": -1,
      "wormExplode": false,
      "explGround": true,
      "wormCollide": false,
      "collideWithObjects": false,
      "affectByExplosions": true,
      "bounce": 0,
      "bounceFriction": 0.800000011920929,
      "timeToExplo": 400,
      "timeToExploV": 50,
      "hitDamage": 0,
      "bloodOnHit": 0,
      "startFrame": 127,
      "numFrames": 12,
      "loopAnim": false,
      "shotType": 0,
      "repeat": 1,
      "colorBullets": 0,
      "splinterAmount": 8,
      "splinterColour": 75,
      "splinterType": 4,
      "splinterScatter": 0,
      "objTrailType": 6,
      "objTrailDelay": 1,
      "partTrailType": 0,
      "partTrailObj": -1,
      "partTrailDelay": 2,
      "speed": 170
    },
    {
 // wid21 bullet for: ALPHA GUN
      "detectDistance": 1,
      "blowAway": 0,
      "gravity": 0,
      "exploSound": -1,
      "addSpeed": 0,
      "distribution": 0,
      "multSpeed": 1,
      "createOnExp": 4,
      "dirtEffect": -1,
      "wormExplode": true,
      "explGround": true,
      "wormCollide": true,
      "collideWithObjects": false,
      "affectByExplosions": false,
      "bounce": 0,
      "bounceFriction": 0.800000011920929,
      "timeToExplo": 1000,
      "timeToExploV": 300,
      "hitDamage": 49,
      "bloodOnHit": 15,
      "startFrame": 180,
      "numFrames": 0,
      "loopAnim": false,
      "shotType": 4,
      "repeat": 8,
      "colorBullets": 0,
      "splinterAmount": 0,
      "splinterColour": 0,
      "splinterType": -1,
      "splinterScatter": 0,
      "objTrailType": 5,
      "objTrailDelay": 1,
      "partTrailType": 0,
      "partTrailObj": -1,
      "partTrailDelay": 0,
      "speed": 300
    },
    {
 // wid22 bullet for: NUKED HELL
      "detectDistance": 0,
      "blowAway": 0,
      "gravity": 0.0152587890625,
      "exploSound": 4,
      "addSpeed": 0,
      "distribution": 0.1220703125,
      "multSpeed": 1,
      "createOnExp": -1,
      "dirtEffect": 4,
      "wormExplode": true,
      "explGround": true,
      "wormCollide": true,
      "collideWithObjects": false,
      "affectByExplosions": true,
      "bounce": 0.75,
      "bounceFriction": 0.800000011920929,
      "timeToExplo": 0,
      "timeToExploV": 0,
      "hitDamage": 0,
      "bloodOnHit": 0,
      "startFrame": -1,
      "numFrames": 0,
      "loopAnim": false,
      "shotType": 0,
      "repeat": 1,
      "colorBullets": 65,
      "splinterAmount": 255,
      "splinterColour": 0,
      "splinterType": 9,
      "splinterScatter": 1,
      "objTrailType": -1,
      "objTrailDelay": 0,
      "partTrailType": 0,
      "partTrailObj": -1,
      "partTrailDelay": 0,
      "speed": 180
    },
    {
 // wid23 bullet for: SEEDER
      "detectDistance": 2,
      "blowAway": 0.2199999988079071,
      "gravity": 0.0000762939453125,
      "exploSound": -1,
      "addSpeed": 0,
      "distribution": 0.213623046875,
      "multSpeed": 1,
      "createOnExp": 0,
      "dirtEffect": -1,
      "wormExplode": true,
      "explGround": true,
      "wormCollide": true,
      "collideWithObjects": false,
      "affectByExplosions": true,
      "bounce": 0,
      "bounceFriction": 0.800000011920929,
      "timeToExplo": 13000,
      "timeToExploV": 600,
      "hitDamage": 0,
      "bloodOnHit": 18,
      "startFrame": 208,
      "numFrames": 0,
      "loopAnim": false,
      "shotType": 0,
      "repeat": 1,
      "colorBullets": 0,
      "splinterAmount": 8,
      "splinterColour": 67,
      "splinterType": 3,
      "splinterScatter": 0,
      "objTrailType": -1,
      "objTrailDelay": 0,
      "partTrailType": 1,
      "partTrailObj": 3,
      "partTrailDelay": 1,
      "speed": 10
    },
    {
 // wid24 bullet for: EXPL FANTA
      "detectDistance": 1,
      "blowAway": 0,
      "gravity": 0.079681396484375,
      "exploSound": -1,
      "addSpeed": 0,
      "distribution": 0.18310546875,
      "multSpeed": 1,
      "createOnExp": 0,
      "dirtEffect": -1,
      "wormExplode": false,
      "explGround": false,
      "wormCollide": false,
      "collideWithObjects": true,
      "affectByExplosions": false,
      "bounce": 0,
      "bounceFriction": 0.800000011920929,
      "timeToExplo": 45,
      "timeToExploV": 10,
      "hitDamage": 0,
      "bloodOnHit": 0,
      "startFrame": -1,
      "numFrames": 0,
      "loopAnim": false,
      "shotType": 0,
      "repeat": 1,
      "colorBullets": 239,
      "splinterAmount": 0,
      "splinterColour": 0,
      "splinterType": -1,
      "splinterScatter": 0,
      "objTrailType": -1,
      "objTrailDelay": 0,
      "partTrailType": 0,
      "partTrailObj": -1,
      "partTrailDelay": 0,
      "speed": 180
    },
    {
 // wid25 bullet for: EAGLE FIRE
      "detectDistance": 0,
      "blowAway": 0.6000000238418579,
      "gravity": 0.0152587890625,
      "exploSound": -1,
      "addSpeed": 0,
      "distribution": 0.01220703125,
      "multSpeed": 1,
      "createOnExp": 0,
      "dirtEffect": -1,
      "wormExplode": true,
      "explGround": false,
      "wormCollide": false,
      "collideWithObjects": false,
      "affectByExplosions": false,
      "bounce": 0,
      "bounceFriction": 0.800000011920929,
      "timeToExplo": 150,
      "timeToExploV": 20,
      "hitDamage": 5,
      "bloodOnHit": 15,
      "startFrame": 110,
      "numFrames": 0,
      "loopAnim": false,
      "shotType": 2,
      "repeat": 1,
      "colorBullets": 0,
      "splinterAmount": 10,
      "splinterColour": 0,
      "splinterType": 23,
      "splinterScatter": 1,
      "objTrailType": 1,
      "objTrailDelay": 8,
      "partTrailType": 0,
      "partTrailObj": -1,
      "partTrailDelay": 0,
      "speed": 150
    },
    {
 // wid26 bullet for: CANNON
      "detectDistance": 1,
      "blowAway": 0.20000000298023224,
      "gravity": 0.01068115234375,
      "exploSound": -1,
      "addSpeed": 0,
      "distribution": 0.00457763671875,
      "multSpeed": 1,
      "createOnExp": 1,
      "dirtEffect": -1,
      "wormExplode": true,
      "explGround": true,
      "wormCollide": true,
      "collideWithObjects": false,
      "affectByExplosions": true,
      "bounce": 0,
      "bounceFriction": 0.800000011920929,
      "timeToExplo": 0,
      "timeToExploV": 0,
      "hitDamage": 0,
      "bloodOnHit": 15,
      "startFrame": -1,
      "numFrames": 0,
      "loopAnim": false,
      "shotType": 0,
      "repeat": 1,
      "colorBullets": 25,
      "splinterAmount": 5,
      "splinterColour": 66,
      "splinterType": 3,
      "splinterScatter": 0,
      "objTrailType": -1,
      "objTrailDelay": 0,
      "partTrailType": 0,
      "partTrailObj": -1,
      "partTrailDelay": 0,
      "speed": 200
    },
    {
 // wid27 bullet for: MACHINE GUN
      "detectDistance": 1,
      "blowAway": 0.4000000059604645,
      "gravity": 0.0030517578125,
      "exploSound": -1,
      "addSpeed": 0,
      "distribution": 0.00762939453125,
      "multSpeed": 1,
      "createOnExp": 1,
      "dirtEffect": -1,
      "wormExplode": true,
      "explGround": true,
      "wormCollide": true,
      "collideWithObjects": false,
      "affectByExplosions": false,
      "bounce": 0,
      "bounceFriction": 0.800000011920929,
      "timeToExplo": 0,
      "timeToExploV": 0,
      "hitDamage": 0,
      "bloodOnHit": 6,
      "startFrame": -1,
      "numFrames": 0,
      "loopAnim": false,
      "shotType": 0,
      "repeat": 1,
      "colorBullets": 25,
      "splinterAmount": 5,
      "splinterColour": 67,
      "splinterType": 3,
      "splinterScatter": 0,
      "objTrailType": -1,
      "objTrailDelay": 0,
      "partTrailType": 1,
      "partTrailObj": -1,
      "partTrailDelay": 4,
      "speed": 220
    },
    {
 // wid28 bullet for: TAZER
      "detectDistance": 0,
      "blowAway": 0,
      "gravity": 0,
      "exploSound": -1,
      "addSpeed": 0,
      "distribution": 0.0015411376953125,
      "multSpeed": 1,
      "createOnExp": 9,
      "dirtEffect": -1,
      "wormExplode": false,
      "explGround": true,
      "wormCollide": true,
      "collideWithObjects": false,
      "affectByExplosions": true,
      "bounce": 0,
      "bounceFriction": 0.800000011920929,
      "timeToExplo": 0,
      "timeToExploV": 0,
      "hitDamage": 1,
      "bloodOnHit": 0,
      "startFrame": -1,
      "numFrames": 0,
      "loopAnim": false,
      "shotType": 4,
      "repeat": 1000,
      "colorBullets": 25,
      "splinterAmount": 0,
      "splinterColour": 0,
      "splinterType": -1,
      "splinterScatter": 0,
      "objTrailType": -1,
      "objTrailDelay": 0,
      "partTrailType": 0,
      "partTrailObj": -1,
      "partTrailDelay": 0,
      "speed": 100
    },
    {
 // wid29 bullet for: HIVE MISSILE
      "detectDistance": 2,
      "blowAway": 0.20000000298023224,
      "gravity": 0.0152587890625,
      "exploSound": -1,
      "addSpeed": 0,
      "distribution": 0.3662109375,
      "multSpeed": 1,
      "createOnExp": 2,
      "dirtEffect": -1,
      "wormExplode": false,
      "explGround": false,
      "wormCollide": true,
      "collideWithObjects": false,
      "affectByExplosions": true,
      "bounce": 0.6000000238418579,
      "bounceFriction": 0.800000011920929,
      "timeToExplo": 700,
      "timeToExploV": 100,
      "hitDamage": 9,
      "bloodOnHit": 20,
      "startFrame": 127,
      "numFrames": 0,
      "loopAnim": true,
      "shotType": 1,
      "repeat": 1,
      "colorBullets": 0,
      "splinterAmount": 0,
      "splinterColour": 0,
      "splinterType": -1,
      "splinterScatter": 0,
      "objTrailType": -1,
      "objTrailDelay": 0,
      "partTrailType": 0,
      "partTrailObj": -1,
      "partTrailDelay": 0,
      "speed": 110
    },
    {
 // wid30 bullet for: NAPALM BOMB
      "detectDistance": 0,
      "blowAway": 0,
      "gravity": 0.0152587890625,
      "exploSound": 4,
      "addSpeed": 0,
      "distribution": 0.030517578125,
      "multSpeed": 1,
      "createOnExp": -1,
      "dirtEffect": -1,
      "wormExplode": true,
      "explGround": true,
      "wormCollide": false,
      "collideWithObjects": false,
      "affectByExplosions": true,
      "bounce": 0,
      "bounceFriction": 0.800000011920929,
      "timeToExplo": 120,
      "timeToExploV": 10,
      "hitDamage": 0,
      "bloodOnHit": 0,
      "startFrame": 185,
      "numFrames": 7,
      "loopAnim": true,
      "shotType": 0,
      "repeat": 1,
      "colorBullets": 0,
      "splinterAmount": 17,
      "splinterColour": 114,
      "splinterType": 22,
      "splinterScatter": 0,
      "objTrailType": -1,
      "objTrailDelay": 0,
      "partTrailType": 0,
      "partTrailObj": -1,
      "partTrailDelay": 0,
      "speed": 130
    },
    {
 // wid31 bullet for: MOTAR
      "detectDistance": 0,
      "blowAway": 0.05000000074505806,
      "gravity": 0.0762939453125,
      "exploSound": -1,
      "addSpeed": 0,
      "distribution": 0.0152587890625,
      "multSpeed": 1,
      "createOnExp": 2,
      "dirtEffect": -1,
      "wormExplode": false,
      "explGround": true,
      "wormCollide": true,
      "collideWithObjects": false,
      "affectByExplosions": false,
      "bounce": 0,
      "bounceFriction": 0.800000011920929,
      "timeToExplo": 0,
      "timeToExploV": 0,
      "hitDamage": 2,
      "bloodOnHit": 3,
      "startFrame": 196,
      "numFrames": 0,
      "loopAnim": false,
      "shotType": 0,
      "repeat": 1,
      "colorBullets": 75,
      "splinterAmount": 100,
      "splinterColour": 0,
      "splinterType": 8,
      "splinterScatter": 0,
      "objTrailType": -1,
      "objTrailDelay": 0,
      "partTrailType": 0,
      "partTrailObj": -1,
      "partTrailDelay": 0,
      "speed": 400
    },
    {
 // wid32 bullet for: MISSILE
      "detectDistance": 1,
      "blowAway": 0,
      "gravity": 0,
      "exploSound": -1,
      "addSpeed": 150,
      "distribution": 0,
      "multSpeed": 1,
      "createOnExp": 0,
      "dirtEffect": -1,
      "wormExplode": true,
      "explGround": true,
      "wormCollide": true,
      "collideWithObjects": false,
      "affectByExplosions": false,
      "bounce": 0,
      "bounceFriction": 0.800000011920929,
      "timeToExplo": 0,
      "timeToExploV": 0,
      "hitDamage": 12,
      "bloodOnHit": 30,
      "startFrame": 110,
      "numFrames": 0,
      "loopAnim": false,
      "shotType": 2,
      "repeat": 1,
      "colorBullets": 0,
      "splinterAmount": 12,
      "splinterColour": 66,
      "splinterType": 3,
      "splinterScatter": 0,
      "objTrailType": 3,
      "objTrailDelay": 4,
      "partTrailType": 0,
      "partTrailObj": -1,
      "partTrailDelay": 0,
      "speed": 230
    },
    {
 // wid33 bullet for: MISSILE RAIN
      "detectDistance": 0,
      "blowAway": 0,
      "gravity": 0.01983642578125,
      "exploSound": -1,
      "addSpeed": 100,
      "distribution": 0.4999847412109375,
      "multSpeed": 1,
      "createOnExp": 0,
      "dirtEffect": -1,
      "wormExplode": true,
      "explGround": true,
      "wormCollide": true,
      "collideWithObjects": false,
      "affectByExplosions": false,
      "bounce": 0,
      "bounceFriction": 0.800000011920929,
      "timeToExplo": 0,
      "timeToExploV": 0,
      "hitDamage": 0,
      "bloodOnHit": 0,
      "startFrame": 110,
      "numFrames": 15,
      "loopAnim": false,
      "shotType": 1,
      "repeat": 1,
      "colorBullets": 0,
      "splinterAmount": 22,
      "splinterColour": 0,
      "splinterType": 14,
      "splinterScatter": 1,
      "objTrailType": -1,
      "objTrailDelay": 0,
      "partTrailType": 0,
      "partTrailObj": -1,
      "partTrailDelay": 0,
      "speed": 170
    },
    {
 // wid34 bullet for: AIR TO GROUND
      "detectDistance": 3,
      "blowAway": 0,
      "gravity": 0.4999847412109375,
      "exploSound": -1,
      "addSpeed": 0,
      "distribution": 0.30517578125,
      "multSpeed": 1,
      "createOnExp": 0,
      "dirtEffect": -1,
      "wormExplode": true,
      "explGround": true,
      "wormCollide": true,
      "collideWithObjects": false,
      "affectByExplosions": true,
      "bounce": 0,
      "bounceFriction": 0.800000011920929,
      "timeToExplo": 4000,
      "timeToExploV": 600,
      "hitDamage": 5,
      "bloodOnHit": 20,
      "startFrame": 212,
      "numFrames": 0,
      "loopAnim": false,
      "shotType": 0,
      "repeat": 1,
      "colorBullets": 0,
      "splinterAmount": 100,
      "splinterColour": 0,
      "splinterType": 11,
      "splinterScatter": 0,
      "objTrailType": -1,
      "objTrailDelay": 0,
      "partTrailType": 0,
      "partTrailObj": -1,
      "partTrailDelay": 0,
      "speed": 100
    },
    {
 // wid35 bullet for: EXPL FLAPS
      "detectDistance": 0,
      "blowAway": 0,
      "gravity": 0.01678466796875,
      "exploSound": -1,
      "addSpeed": 0,
      "distribution": 0.001068115234375,
      "multSpeed": 1,
      "createOnExp": 0,
      "dirtEffect": -1,
      "wormExplode": false,
      "explGround": true,
      "wormCollide": false,
      "collideWithObjects": false,
      "affectByExplosions": true,
      "bounce": 0,
      "bounceFriction": 0.800000011920929,
      "timeToExplo": 130,
      "timeToExploV": 50,
      "hitDamage": 0,
      "bloodOnHit": 0,
      "startFrame": 239,
      "numFrames": 0,
      "loopAnim": false,
      "shotType": 0,
      "repeat": 1,
      "colorBullets": 0,
      "splinterAmount": 10,
      "splinterColour": 0,
      "splinterType": 12,
      "splinterScatter": 0,
      "objTrailType": -1,
      "objTrailDelay": 0,
      "partTrailType": 0,
      "partTrailObj": -1,
      "partTrailDelay": 0,
      "speed": -190
    },
    {
 // wid36 bullet for: ROCKET
      "detectDistance": 1,
      "blowAway": 0.10000000149011612,
      "gravity": 0,
      "exploSound": -1,
      "addSpeed": 3,
      "distribution": 0.0091552734375,
      "multSpeed": 1,
      "createOnExp": 10,
      "dirtEffect": -1,
      "wormExplode": true,
      "explGround": true,
      "wormCollide": true,
      "collideWithObjects": false,
      "affectByExplosions": false,
      "bounce": 0,
      "bounceFriction": 0.800000011920929,
      "timeToExplo": 0,
      "timeToExploV": 0,
      "hitDamage": 2,
      "bloodOnHit": 8,
      "startFrame": 110,
      "numFrames": 0,
      "loopAnim": false,
      "shotType": 1,
      "repeat": 1,
      "colorBullets": 0,
      "splinterAmount": 255,
      "splinterColour": 0,
      "splinterType": 11,
      "splinterScatter": 0,
      "objTrailType": 6,
      "objTrailDelay": 2,
      "partTrailType": 0,
      "partTrailObj": -1,
      "partTrailDelay": 0,
      "speed": 170
    },
    {
 // wid37 bullet for: SS MISSILE
      "detectDistance": 0,
      "blowAway": 0.2800000011920929,
      "gravity": 0.0030517578125,
      "exploSound": -1,
      "addSpeed": 0,
      "distribution": 0,
      "multSpeed": 1,
      "createOnExp": 2,
      "dirtEffect": -1,
      "wormExplode": false,
      "explGround": true,
      "wormCollide": false,
      "collideWithObjects": false,
      "affectByExplosions": false,
      "bounce": 0,
      "bounceFriction": 0.800000011920929,
      "timeToExplo": 0,
      "timeToExploV": 0,
      "hitDamage": 5,
      "bloodOnHit": 10,
      "startFrame": 223,
      "numFrames": 0,
      "loopAnim": false,
      "shotType": 1,
      "repeat": 1,
      "colorBullets": 0,
      "splinterAmount": 0,
      "splinterColour": 0,
      "splinterType": -1,
      "splinterScatter": 0,
      "objTrailType": -1,
      "objTrailDelay": 0,
      "partTrailType": 0,
      "partTrailObj": -1,
      "partTrailDelay": 0,
      "speed": 220
    },
    {
 // wid38 bullet for: LIMITED HSM
      "detectDistance": 0,
      "blowAway": 0.03999999910593033,
      "gravity": 0,
      "exploSound": -1,
      "addSpeed": 0,
      "distribution": 0.0152587890625,
      "multSpeed": 1,
      "createOnExp": 2,
      "dirtEffect": -1,
      "wormExplode": true,
      "explGround": true,
      "wormCollide": true,
      "collideWithObjects": false,
      "affectByExplosions": false,
      "bounce": 0,
      "bounceFriction": 0.800000011920929,
      "timeToExplo": 580,
      "timeToExploV": 70,
      "hitDamage": 0,
      "bloodOnHit": 4,
      "startFrame": -1,
      "numFrames": 0,
      "loopAnim": false,
      "shotType": 3,
      "repeat": 1,
      "colorBullets": 101,
      "splinterAmount": 0,
      "splinterColour": 0,
      "splinterType": -1,
      "splinterScatter": 0,
      "objTrailType": -1,
      "objTrailDelay": 0,
      "partTrailType": 0,
      "partTrailObj": -1,
      "partTrailDelay": 0,
      "speed": 190
    },
    {
 // wid39 bullet for: POISON AIR
      "detectDistance": 1,
      "blowAway": 0.20000000298023224,
      "gravity": 0.000762939453125,
      "exploSound": -1,
      "addSpeed": 0,
      "distribution": 0,
      "multSpeed": 1,
      "createOnExp": 1,
      "dirtEffect": -1,
      "wormExplode": true,
      "explGround": true,
      "wormCollide": true,
      "collideWithObjects": false,
      "affectByExplosions": false,
      "bounce": 0,
      "bounceFriction": 0.800000011920929,
      "timeToExplo": 0,
      "timeToExploV": 0,
      "hitDamage": 0,
      "bloodOnHit": 7,
      "startFrame": 196,
      "numFrames": 0,
      "loopAnim": false,
      "shotType": 4,
      "repeat": 8,
      "colorBullets": 0,
      "splinterAmount": 1,
      "splinterColour": 75,
      "splinterType": 4,
      "splinterScatter": 0,
      "objTrailType": 3,
      "objTrailDelay": 1,
      "partTrailType": 0,
      "partTrailObj": -1,
      "partTrailDelay": 0,
      "speed": 200
    }
  ],
  "nObjects":
  [
    {
 // nid0 
      "detectDistance": 0,
      "gravity": 0.0152587890625,
      "speed": 1.2000000476837158,
      "speedV": 0.4000000059604645,
      "distribution": 0.1220703125,
      "blowAway": 0,
      "bounce": 0.10000000149011612,
      "hitDamage": 0,
      "wormExplode": false,
      "explGround": true,
      "wormDestroy": false,
      "bloodOnHit": 0,
      "startFrame": 165,
      "numFrames": 3,
      "drawOnMap": false,
      "colorBullets": 0,
      "createOnExp": 0,
      "affectByExplosions": false,
      "dirtEffect": -1,
      "splinterAmount": 0,
      "splinterColour": 0,
      "splinterType": -1,
      "bloodTrail": true,
      "bloodTrailDelay": 10,
      "leaveObj": -1,
      "leaveObjDelay": 0,
      "timeToExplo": 0,
      "timeToExploV": 0
    },
    {
 // nid1 
      "detectDistance": 0,
      "gravity": 0.0152587890625,
      "speed": 1.2000000476837158,
      "speedV": 0.4000000059604645,
      "distribution": 0.1220703125,
      "blowAway": 0,
      "bounce": 0.10000000149011612,
      "hitDamage": 0,
      "wormExplode": false,
      "explGround": true,
      "wormDestroy": false,
      "bloodOnHit": 0,
      "startFrame": 169,
      "numFrames": 3,
      "drawOnMap": false,
      "colorBullets": 0,
      "createOnExp": 0,
      "affectByExplosions": false,
      "dirtEffect": -1,
      "splinterAmount": 0,
      "splinterColour": 0,
      "splinterType": -1,
      "bloodTrail": true,
      "bloodTrailDelay": 10,
      "leaveObj": -1,
      "leaveObjDelay": 0,
      "timeToExplo": 0,
      "timeToExploV": 0
    },
    {
 // nid2  splinterType for wObjects: [1,8]
      "detectDistance": 0,
      "gravity": 0.01068115234375,
      "speed": 0.800000011920929,
      "speedV": 0.4000000059604645,
      "distribution": 0.152587890625,
      "blowAway": 0,
      "bounce": 0,
      "hitDamage": 0,
      "wormExplode": false,
      "explGround": true,
      "wormDestroy": false,
      "bloodOnHit": 0,
      "startFrame": 0,
      "numFrames": 0,
      "drawOnMap": false,
      "colorBullets": 17,
      "createOnExp": -1,
      "affectByExplosions": false,
      "dirtEffect": -1,
      "splinterAmount": 0,
      "splinterColour": 0,
      "splinterType": -1,
      "bloodTrail": false,
      "bloodTrailDelay": 0,
      "leaveObj": -1,
      "leaveObjDelay": 0,
      "timeToExplo": 0,
      "timeToExploV": 0
    },
    {
 // nid3  splinterType for wObjects: [2,7,11,12,13,23,26,27,32] partTrailObj for wObjects: [23] splinterType for nObjects: [10]
      "detectDistance": 0,
      "gravity": 0.01068115234375,
      "speed": 1.600000023841858,
      "speedV": 1.399999976158142,
      "distribution": 0.030517578125,
      "blowAway": 0.10000000149011612,
      "bounce": 0,
      "hitDamage": 2,
      "wormExplode": false,
      "explGround": true,
      "wormDestroy": true,
      "bloodOnHit": 1,
      "startFrame": 0,
      "numFrames": 0,
      "drawOnMap": false,
      "colorBullets": 67,
      "createOnExp": 2,
      "affectByExplosions": false,
      "dirtEffect": -1,
      "splinterAmount": 0,
      "splinterColour": 0,
      "splinterType": -1,
      "bloodTrail": false,
      "bloodTrailDelay": 0,
      "leaveObj": -1,
      "leaveObjDelay": 0,
      "timeToExplo": 0,
      "timeToExploV": 0
    },
    {
 // nid4  splinterType for wObjects: [20,39] splinterType for nObjects: [11]
      "detectDistance": 0,
      "gravity": 0.01068115234375,
      "speed": 1.899999976158142,
      "speedV": 1.600000023841858,
      "distribution": 0.030517578125,
      "blowAway": 0.10000000149011612,
      "bounce": 0,
      "hitDamage": 3,
      "wormExplode": false,
      "explGround": true,
      "wormDestroy": true,
      "bloodOnHit": 1,
      "startFrame": 0,
      "numFrames": 0,
      "drawOnMap": false,
      "colorBullets": 67,
      "createOnExp": 2,
      "affectByExplosions": false,
      "dirtEffect": -1,
      "splinterAmount": 0,
      "splinterColour": 0,
      "splinterType": -1,
      "bloodTrail": false,
      "bloodTrailDelay": 0,
      "leaveObj": -1,
      "leaveObjDelay": 0,
      "timeToExplo": 0,
      "timeToExploV": 0
    },
    {
 // nid5  splinterType for wObjects: [14,15] splinterType for nObjects: [9]
      "detectDistance": 0,
      "gravity": 0.01068115234375,
      "speed": 2.200000047683716,
      "speedV": 1.7999999523162842,
      "distribution": 0.030517578125,
      "blowAway": 0.15000000596046448,
      "bounce": 0,
      "hitDamage": 4,
      "wormExplode": false,
      "explGround": true,
      "wormDestroy": true,
      "bloodOnHit": 1,
      "startFrame": 0,
      "numFrames": 0,
      "drawOnMap": false,
      "colorBullets": 67,
      "createOnExp": 2,
      "affectByExplosions": false,
      "dirtEffect": -1,
      "splinterAmount": 0,
      "splinterColour": 0,
      "splinterType": -1,
      "bloodTrail": false,
      "bloodTrailDelay": 0,
      "leaveObj": -1,
      "leaveObjDelay": 0,
      "timeToExplo": 0,
      "timeToExploV": 0
    },
    {
 // nid6 
      "detectDistance": 0,
      "gravity": 0.01068115234375,
      "speed": 0.75,
      "speedV": 0.4000000059604645,
      "distribution": 0.30517578125,
      "blowAway": 0,
      "bounce": 0,
      "hitDamage": 0,
      "wormExplode": false,
      "explGround": true,
      "wormDestroy": false,
      "bloodOnHit": 0,
      "startFrame": 0,
      "numFrames": 0,
      "drawOnMap": false,
      "colorBullets": 25,
      "createOnExp": -1,
      "affectByExplosions": false,
      "dirtEffect": -1,
      "splinterAmount": 0,
      "splinterColour": 0,
      "splinterType": -1,
      "bloodTrail": true,
      "bloodTrailDelay": 10,
      "leaveObj": 3,
      "leaveObjDelay": 10,
      "timeToExplo": 0,
      "timeToExploV": 0
    },
    {
 // nid7 
      "detectDistance": 0,
      "gravity": 0.0152587890625,
      "speed": 0,
      "speedV": 0,
      "distribution": 0.1220703125,
      "blowAway": 0,
      "bounce": 0.4000000059604645,
      "hitDamage": 0,
      "wormExplode": false,
      "explGround": true,
      "wormDestroy": false,
      "bloodOnHit": 0,
      "startFrame": 155,
      "numFrames": 3,
      "drawOnMap": true,
      "colorBullets": 0,
      "createOnExp": -1,
      "affectByExplosions": false,
      "dirtEffect": -1,
      "splinterAmount": 0,
      "splinterColour": 0,
      "splinterType": -1,
      "bloodTrail": false,
      "bloodTrailDelay": 0,
      "leaveObj": -1,
      "leaveObjDelay": 0,
      "timeToExplo": 0,
      "timeToExploV": 0
    },
    {
 // nid8  splinterType for wObjects: [0,31]
      "detectDistance": 1,
      "gravity": 0.0152587890625,
      "speed": 2.200000047683716,
      "speedV": 1.399999976158142,
      "distribution": 0.152587890625,
      "blowAway": 0,
      "bounce": 0,
      "hitDamage": 1,
      "wormExplode": true,
      "explGround": true,
      "wormDestroy": true,
      "bloodOnHit": 5,
      "startFrame": 202,
      "numFrames": 3,
      "drawOnMap": false,
      "colorBullets": 0,
      "createOnExp": 1,
      "affectByExplosions": false,
      "dirtEffect": -1,
      "splinterAmount": 0,
      "splinterColour": 0,
      "splinterType": -1,
      "bloodTrail": false,
      "bloodTrailDelay": 0,
      "leaveObj": -1,
      "leaveObjDelay": 0,
      "timeToExplo": 0,
      "timeToExploV": 0
    },
    {
 // nid9  splinterType for wObjects: [22]
      "detectDistance": 0,
      "gravity": 0.0152587890625,
      "speed": 2,
      "speedV": 1.2000000476837158,
      "distribution": 0.30517578125,
      "blowAway": 0,
      "bounce": 0.6000000238418579,
      "hitDamage": 0,
      "wormExplode": false,
      "explGround": false,
      "wormDestroy": false,
      "bloodOnHit": 0,
      "startFrame": 177,
      "numFrames": 0,
      "drawOnMap": false,
      "colorBullets": 0,
      "createOnExp": 0,
      "affectByExplosions": true,
      "dirtEffect": -1,
      "splinterAmount": 3,
      "splinterColour": 75,
      "splinterType": 5,
      "bloodTrail": false,
      "bloodTrailDelay": 0,
      "leaveObj": 5,
      "leaveObjDelay": 5,
      "timeToExplo": 200,
      "timeToExploV": 50
    },
    {
 // nid10 
      "detectDistance": 1,
      "gravity": 0.0152587890625,
      "speed": 1.399999976158142,
      "speedV": 0.20000000298023224,
      "distribution": 0.30517578125,
      "blowAway": 0.15000000596046448,
      "bounce": 0,
      "hitDamage": 3,
      "wormExplode": true,
      "explGround": true,
      "wormDestroy": true,
      "bloodOnHit": 10,
      "startFrame": 193,
      "numFrames": 0,
      "drawOnMap": false,
      "colorBullets": 0,
      "createOnExp": 0,
      "affectByExplosions": false,
      "dirtEffect": -1,
      "splinterAmount": 5,
      "splinterColour": 66,
      "splinterType": 3,
      "bloodTrail": false,
      "bloodTrailDelay": 0,
      "leaveObj": 3,
      "leaveObjDelay": 8,
      "timeToExplo": 0,
      "timeToExploV": 0
    },
    {
 // nid11  splinterType for wObjects: [5,6,10,19,34,36]
      "detectDistance": 1,
      "gravity": 0.0152587890625,
      "speed": 2,
      "speedV": 1.2000000476837158,
      "distribution": 0.30517578125,
      "blowAway": 0,
      "bounce": 0.6000000238418579,
      "hitDamage": 1,
      "wormExplode": true,
      "explGround": true,
      "wormDestroy": true,
      "bloodOnHit": 9,
      "startFrame": 0,
      "numFrames": 0,
      "drawOnMap": false,
      "colorBullets": 1,
      "createOnExp": 0,
      "affectByExplosions": true,
      "dirtEffect": -1,
      "splinterAmount": 6,
      "splinterColour": 75,
      "splinterType": 4,
      "bloodTrail": false,
      "bloodTrailDelay": 0,
      "leaveObj": -1,
      "leaveObjDelay": 5,
      "timeToExplo": 3,
      "timeToExploV": 1
    },
    {
 // nid12  splinterType for wObjects: [35]
      "detectDistance": 0,
      "gravity": 0.0152587890625,
      "speed": 1.5,
      "speedV": 0.8999999761581421,
      "distribution": 0.152587890625,
      "blowAway": 0,
      "bounce": 0,
      "hitDamage": 0,
      "wormExplode": false,
      "explGround": true,
      "wormDestroy": false,
      "bloodOnHit": 0,
      "startFrame": 0,
      "numFrames": 0,
      "drawOnMap": false,
      "colorBullets": 10,
      "createOnExp": 8,
      "affectByExplosions": false,
      "dirtEffect": -1,
      "splinterAmount": 0,
      "splinterColour": 0,
      "splinterType": -1,
      "bloodTrail": false,
      "bloodTrailDelay": 0,
      "leaveObj": 8,
      "leaveObjDelay": 4,
      "timeToExplo": 40,
      "timeToExploV": 10
    },
    {
 // nid13  splinterType for wObjects: [4]
      "detectDistance": 0,
      "gravity": 0,
      "speed": 4,
      "speedV": 8,
      "distribution": 0.152587890625,
      "blowAway": 0,
      "bounce": 1,
      "hitDamage": 0,
      "wormExplode": false,
      "explGround": false,
      "wormDestroy": false,
      "bloodOnHit": 0,
      "startFrame": 0,
      "numFrames": 0,
      "drawOnMap": false,
      "colorBullets": 0,
      "createOnExp": -1,
      "affectByExplosions": false,
      "dirtEffect": 4,
      "splinterAmount": 0,
      "splinterColour": 0,
      "splinterType": -1,
      "bloodTrail": false,
      "bloodTrailDelay": 0,
      "leaveObj": -1,
      "leaveObjDelay": 0,
      "timeToExplo": 10,
      "timeToExploV": 9
    },
    {
 // nid14  splinterType for wObjects: [33]
      "detectDistance": 1,
      "gravity": 0.0152587890625,
      "speed": 2.200000047683716,
      "speedV": 1.5,
      "distribution": 0.152587890625,
      "blowAway": 0,
      "bounce": 0,
      "hitDamage": 4,
      "wormExplode": true,
      "explGround": true,
      "wormDestroy": true,
      "bloodOnHit": 10,
      "startFrame": 219,
      "numFrames": 3,
      "drawOnMap": false,
      "colorBullets": 0,
      "createOnExp": 0,
      "affectByExplosions": false,
      "dirtEffect": -1,
      "splinterAmount": 0,
      "splinterColour": 0,
      "splinterType": -1,
      "bloodTrail": false,
      "bloodTrailDelay": 0,
      "leaveObj": -1,
      "leaveObjDelay": 0,
      "timeToExplo": 0,
      "timeToExploV": 0
    },
    {
 // nid15 
      "detectDistance": 1,
      "gravity": 0.0152587890625,
      "speed": 1.2000000476837158,
      "speedV": 0.4000000059604645,
      "distribution": 0.152587890625,
      "blowAway": 0,
      "bounce": 0.6000000238418579,
      "hitDamage": 1,
      "wormExplode": true,
      "explGround": false,
      "wormDestroy": true,
      "bloodOnHit": 0,
      "startFrame": 0,
      "numFrames": 0,
      "drawOnMap": false,
      "colorBullets": 0,
      "createOnExp": 0,
      "affectByExplosions": true,
      "dirtEffect": -1,
      "splinterAmount": 1,
      "splinterColour": 0,
      "splinterType": 16,
      "bloodTrail": false,
      "bloodTrailDelay": 0,
      "leaveObj": -1,
      "leaveObjDelay": 0,
      "timeToExplo": 70,
      "timeToExploV": 60
    },
    {
 // nid16  splinterType for nObjects: [15]
      "detectDistance": 1,
      "gravity": 0.0152587890625,
      "speed": 1.2000000476837158,
      "speedV": 0.4000000059604645,
      "distribution": 0.152587890625,
      "blowAway": 0,
      "bounce": 0.6000000238418579,
      "hitDamage": 1,
      "wormExplode": true,
      "explGround": false,
      "wormDestroy": true,
      "bloodOnHit": 0,
      "startFrame": 0,
      "numFrames": 0,
      "drawOnMap": false,
      "colorBullets": 0,
      "createOnExp": 0,
      "affectByExplosions": true,
      "dirtEffect": -1,
      "splinterAmount": 1,
      "splinterColour": 0,
      "splinterType": 17,
      "bloodTrail": false,
      "bloodTrailDelay": 0,
      "leaveObj": -1,
      "leaveObjDelay": 0,
      "timeToExplo": 70,
      "timeToExploV": 60
    },
    {
 // nid17  splinterType for nObjects: [16]
      "detectDistance": 1,
      "gravity": 0.0152587890625,
      "speed": 1.2000000476837158,
      "speedV": 0.4000000059604645,
      "distribution": 0.152587890625,
      "blowAway": 0,
      "bounce": 0.6000000238418579,
      "hitDamage": 1,
      "wormExplode": true,
      "explGround": false,
      "wormDestroy": true,
      "bloodOnHit": 0,
      "startFrame": 0,
      "numFrames": 0,
      "drawOnMap": false,
      "colorBullets": 0,
      "createOnExp": 0,
      "affectByExplosions": true,
      "dirtEffect": -1,
      "splinterAmount": 1,
      "splinterColour": 0,
      "splinterType": 18,
      "bloodTrail": false,
      "bloodTrailDelay": 0,
      "leaveObj": -1,
      "leaveObjDelay": 0,
      "timeToExplo": 70,
      "timeToExploV": 60
    },
    {
 // nid18  splinterType for nObjects: [17]
      "detectDistance": 1,
      "gravity": 0.0152587890625,
      "speed": 1.2000000476837158,
      "speedV": 0.4000000059604645,
      "distribution": 0.152587890625,
      "blowAway": 0,
      "bounce": 0.6000000238418579,
      "hitDamage": 1,
      "wormExplode": true,
      "explGround": false,
      "wormDestroy": true,
      "bloodOnHit": 0,
      "startFrame": 0,
      "numFrames": 0,
      "drawOnMap": false,
      "colorBullets": 0,
      "createOnExp": 11,
      "affectByExplosions": true,
      "dirtEffect": -1,
      "splinterAmount": 1,
      "splinterColour": 0,
      "splinterType": 19,
      "bloodTrail": false,
      "bloodTrailDelay": 0,
      "leaveObj": -1,
      "leaveObjDelay": 0,
      "timeToExplo": 70,
      "timeToExploV": 60
    },
    {
 // nid19  splinterType for nObjects: [18]
      "detectDistance": 1,
      "gravity": 0.0152587890625,
      "speed": 1.2000000476837158,
      "speedV": 0.4000000059604645,
      "distribution": 0.152587890625,
      "blowAway": 0,
      "bounce": 0.6000000238418579,
      "hitDamage": 1,
      "wormExplode": true,
      "explGround": false,
      "wormDestroy": true,
      "bloodOnHit": 0,
      "startFrame": 0,
      "numFrames": 0,
      "drawOnMap": false,
      "colorBullets": 0,
      "createOnExp": 12,
      "affectByExplosions": true,
      "dirtEffect": -1,
      "splinterAmount": 1,
      "splinterColour": 0,
      "splinterType": 22,
      "bloodTrail": false,
      "bloodTrailDelay": 0,
      "leaveObj": -1,
      "leaveObjDelay": 0,
      "timeToExplo": 70,
      "timeToExploV": 60
    },
    {
 // nid20 
      "detectDistance": 3,
      "gravity": 0.0152587890625,
      "speed": 0,
      "speedV": 0,
      "distribution": 0,
      "blowAway": 0,
      "bounce": 0.4000000059604645,
      "hitDamage": 0,
      "wormExplode": false,
      "explGround": false,
      "wormDestroy": false,
      "bloodOnHit": 0,
      "startFrame": 213,
      "numFrames": 0,
      "drawOnMap": false,
      "colorBullets": 0,
      "createOnExp": -1,
      "affectByExplosions": true,
      "dirtEffect": -1,
      "splinterAmount": 0,
      "splinterColour": 0,
      "splinterType": -1,
      "bloodTrail": false,
      "bloodTrailDelay": 0,
      "leaveObj": -1,
      "leaveObjDelay": 0,
      "timeToExplo": 0,
      "timeToExploV": 0
    },
    {
 // nid21 
      "detectDistance": 3,
      "gravity": 0.0152587890625,
      "speed": 0,
      "speedV": 0,
      "distribution": 0,
      "blowAway": 0,
      "bounce": 0.4000000059604645,
      "hitDamage": 0,
      "wormExplode": false,
      "explGround": false,
      "wormDestroy": false,
      "bloodOnHit": 0,
      "startFrame": 214,
      "numFrames": 0,
      "drawOnMap": false,
      "colorBullets": 0,
      "createOnExp": -1,
      "affectByExplosions": true,
      "dirtEffect": -1,
      "splinterAmount": 0,
      "splinterColour": 0,
      "splinterType": -1,
      "bloodTrail": false,
      "bloodTrailDelay": 0,
      "leaveObj": -1,
      "leaveObjDelay": 0,
      "timeToExplo": 0,
      "timeToExploV": 0
    },
    {
 // nid22  splinterType for wObjects: [30] splinterType for nObjects: [19]
      "detectDistance": 1,
      "gravity": 0.0152587890625,
      "speed": 1.2000000476837158,
      "speedV": 0.4000000059604645,
      "distribution": 0.152587890625,
      "blowAway": 0,
      "bounce": 0.4000000059604645,
      "hitDamage": 1,
      "wormExplode": true,
      "explGround": true,
      "wormDestroy": true,
      "bloodOnHit": 0,
      "startFrame": 0,
      "numFrames": 0,
      "drawOnMap": false,
      "colorBullets": 0,
      "createOnExp": -1,
      "affectByExplosions": true,
      "dirtEffect": -1,
      "splinterAmount": 255,
      "splinterColour": 0,
      "splinterType": 23,
      "bloodTrail": false,
      "bloodTrailDelay": 0,
      "leaveObj": -1,
      "leaveObjDelay": 0,
      "timeToExplo": 1,
      "timeToExploV": 0
    },
    {
 // nid23  splinterType for wObjects: [25] splinterType for nObjects: [22]
      "detectDistance": 1,
      "gravity": 0.006103515625,
      "speed": 1.2000000476837158,
      "speedV": 0.5,
      "distribution": 0.0457763671875,
      "blowAway": 0.019999999552965164,
      "bounce": 0.25,
      "hitDamage": 3,
      "wormExplode": false,
      "explGround": true,
      "wormDestroy": true,
      "bloodOnHit": 0,
      "startFrame": 159,
      "numFrames": 5,
      "drawOnMap": false,
      "colorBullets": 0,
      "createOnExp": 9,
      "affectByExplosions": true,
      "dirtEffect": -1,
      "splinterAmount": 0,
      "splinterColour": 0,
      "splinterType": -1,
      "bloodTrail": false,
      "bloodTrailDelay": 0,
      "leaveObj": -1,
      "leaveObjDelay": 0,
      "timeToExplo": 400,
      "timeToExploV": 50
    }
  ],
  "sObjects":
  [
    {
 // sid0  createOnExp for wObjects: [3,5,6,7,10,12,15,19,23,24,25,32,33,34,35] createOnExp for nObjects: [0,1,9,10,11,14,15,16,17]
      "startSound": 9,
      "numSounds": 4,
      "animDelay": 2,
      "startFrame": 40,
      "numFrames": 15,
      "detectRange": 20,
      "damage": 15,
      "blowAway": 0.0457763671875,
      "shadow": true,
      "shake": 4,
      "flash": 8,
      "dirtEffect": 0
    },
    {
 // sid1  createOnExp for wObjects: [8,11,13,20,26,27,39] objTrailType for wObjects: [25] createOnExp for nObjects: [8]
      "startSound": 9,
      "numSounds": 4,
      "animDelay": 2,
      "startFrame": 45,
      "numFrames": 10,
      "detectRange": 14,
      "damage": 10,
      "blowAway": 0.0457763671875,
      "shadow": true,
      "shake": 2,
      "flash": 4,
      "dirtEffect": 1
    },
    {
 // sid2  createOnExp for wObjects: [0,1,2,16,17,29,31,37,38] createOnExp for nObjects: [3,4,5]
      "startSound": 7,
      "numSounds": 2,
      "animDelay": 2,
      "startFrame": 50,
      "numFrames": 5,
      "detectRange": 8,
      "damage": 5,
      "blowAway": 0.0457763671875,
      "shadow": true,
      "shake": 1,
      "flash": 0,
      "dirtEffect": 2
    },
    {
 // sid3  objTrailType for wObjects: [3,12,19,32,39] leaveObj for nObjects: [6,10]
      "startSound": -1,
      "numSounds": 0,
      "animDelay": 4,
      "startFrame": 64,
      "numFrames": 4,
      "detectRange": 0,
      "damage": 0,
      "blowAway": 0,
      "shadow": false,
      "shake": 0,
      "flash": 0,
      "dirtEffect": -1
    },
    {
 // sid4  createOnExp for wObjects: [21]
      "startSound": -1,
      "numSounds": 0,
      "animDelay": 4,
      "startFrame": 100,
      "numFrames": 3,
      "detectRange": 0,
      "damage": 0,
      "blowAway": 0,
      "shadow": true,
      "shake": 0,
      "flash": 0,
      "dirtEffect": 5
    },
    {
 // sid5  createOnExp for wObjects: [14] objTrailType for wObjects: [21] leaveObj for nObjects: [9]
      "startSound": -1,
      "numSounds": 0,
      "animDelay": 2,
      "startFrame": 104,
      "numFrames": 3,
      "detectRange": 0,
      "damage": 0,
      "blowAway": 0,
      "shadow": false,
      "shake": 0,
      "flash": 0,
      "dirtEffect": -1
    },
    {
 // sid6  objTrailType for wObjects: [2,8,20,36]
      "startSound": -1,
      "numSounds": 0,
      "animDelay": 2,
      "startFrame": 76,
      "numFrames": 2,
      "detectRange": 0,
      "damage": 0,
      "blowAway": 0,
      "shadow": true,
      "shake": 0,
      "flash": 0,
      "dirtEffect": -1
    },
    {
 // sid7 
      "startSound": -1,
      "numSounds": 0,
      "animDelay": 2,
      "startFrame": 91,
      "numFrames": 4,
      "detectRange": 0,
      "damage": 0,
      "blowAway": 0,
      "shadow": true,
      "shake": 0,
      "flash": 0,
      "dirtEffect": -1
    },
    {
 // sid8  createOnExp for nObjects: [12] leaveObj for nObjects: [12]
      "startSound": -1,
      "numSounds": 0,
      "animDelay": 2,
      "startFrame": 49,
      "numFrames": 6,
      "detectRange": 8,
      "damage": 7,
      "blowAway": 0,
      "shadow": true,
      "shake": 0,
      "flash": 0,
      "dirtEffect": 2
    },
    {
 // sid9  createOnExp for wObjects: [28] createOnExp for nObjects: [23]
      "startSound": -1,
      "numSounds": 0,
      "animDelay": 2,
      "startFrame": 53,
      "numFrames": 2,
      "detectRange": 6,
      "damage": 0,
      "blowAway": 0,
      "shadow": true,
      "shake": 0,
      "flash": 0,
      "dirtEffect": 5
    },
    {
 // sid10  createOnExp for wObjects: [36]
      "startSound": 9,
      "numSounds": 4,
      "animDelay": 2,
      "startFrame": 47,
      "numFrames": 8,
      "detectRange": 10,
      "damage": 8,
      "blowAway": 0.0457763671875,
      "shadow": true,
      "shake": 2,
      "flash": 3,
      "dirtEffect": 8
    },
    {
 // sid11  createOnExp for nObjects: [18]
      "startSound": 9,
      "numSounds": 4,
      "animDelay": 2,
      "startFrame": 42,
      "numFrames": 13,
      "detectRange": 15,
      "damage": 13,
      "blowAway": 0.0457763671875,
      "shadow": true,
      "shake": 3,
      "flash": 6,
      "dirtEffect": 1
    },
    {
 // sid12  createOnExp for nObjects: [19]
      "startSound": 9,
      "numSounds": 4,
      "animDelay": 2,
      "startFrame": 44,
      "numFrames": 11,
      "detectRange": 14,
      "damage": 12,
      "blowAway": 0.0457763671875,
      "shadow": true,
      "shake": 3,
      "flash": 5,
      "dirtEffect": 1
    },
    {
 // sid13 
      "startSound": -1,
      "numSounds": 0,
      "animDelay": 0,
      "startFrame": 0,
      "numFrames": 0,
      "detectRange": 0,
      "damage": 0,
      "blowAway": 1.0039215087890625,
      "shadow": false,
      "shake": 0,
      "flash": 0,
      "dirtEffect": -1
    }
  ],
  "textures":
  [
    {
      "nDrawBack": true,
      "mFrame": 0,
      "sFrame": 73,
      "rFrame": 2
    },
    {
      "nDrawBack": true,
      "mFrame": 1,
      "sFrame": 73,
      "rFrame": 2
    },
    {
      "nDrawBack": true,
      "mFrame": 2,
      "sFrame": 73,
      "rFrame": 2
    },
    {
      "nDrawBack": true,
      "mFrame": 37,
      "sFrame": 73,
      "rFrame": 2
    },
    {
      "nDrawBack": false,
      "mFrame": 0,
      "sFrame": 87,
      "rFrame": 2
    },
    {
      "nDrawBack": true,
      "mFrame": 39,
      "sFrame": 73,
      "rFrame": 2
    },
    {
      "nDrawBack": false,
      "mFrame": 38,
      "sFrame": 82,
      "rFrame": 2
    },
    {
      "nDrawBack": true,
      "mFrame": 99,
      "sFrame": 73,
      "rFrame": 2
    },
    {
      "nDrawBack": true,
      "mFrame": 37,
      "sFrame": 73,
      "rFrame": 2
    }
  ],
  "colorAnim":
  [
    129,
    131,
    133,
    136,
    152,
    159,
    168,
    171
  ],
  "textSpritesStartIdx": 240,
  "crossHairSprite": 153,
  "author":"DvDmanDT"
}
