{
  name: "French Confec Vs. The Sharkz",
  author: "Fudge Puppy",
  constants: {
    nrInitialLength: 250,
    nrAttachLength: 28.125,
    minBounceUp: -0.8125,
    minBounceDown: 0.8125,
    minBounceHoriz: 0.8125,
    wormGravity: 0.02288818359375,
    wormAcc: 0.0457763671875,
    wormMaxVel: 0.4453125,
    jumpForce: 0.85546875,
    maxAimVel: 0.05243098363280296,
    aimAcc: 0.002996056340634823,
    ninjaropeGravity: 0.0152587890625,
    nrMinLength: 10.625,
    nrMaxLength: 250,
    bonusGravity: 0.02288818359375,
    wormFricMult: 0.8899999856948853,
    aimFric: 0.8299999833106995,
    nrThrowVel: 4,
    nrForce: 0.0833333358168602,
    bonusBounce: 0.4000000059604645,
    bonusFlickerTime: 220,
    aimMaxAngle: 1.5707963705062866,
    aimMinAngle: -0.9817476868629456,
    nrAdjustVel: 1.5,
    nrColourBegin: 62,
    nrColourEnd: 64,
    bonusExplodeRisk: 10,
    bonusHealthVar: 51,
    bonusMinHealth: 10,
    firstBloodColour: 80,
    numBloodColours: 2,
    bObjGravity: 0.0152587890625,
    splinterLarpaVelDiv: 3,
    splinterCracklerVelDiv: 3,
    fallDamageHoriz: 0,
    fallDamageDown: 0,
    fallDamageUp: 0,
    hFallDamage: false,
    hBonusReloadOnly: false,
  },
  weapons: [
    {
      parts: 15,
      bulletType: 0,
      bulletSpeed: 2.5,
      bulletSpeedInherit: 0.4000000059604645,
      distribution: 0.18310546875,
      recoil: 0.550000011920929,
      ammo: 5,
      delay: 57,
      loadingTime: 235,
      leaveShells: 1,
      leaveShellDelay: 28,
      fireCone: 9,
      laserSight: false,
      laserBeam: false,
      launchSound: 0,
      playReloadSound: true,
      name: 'SHOTGUN',
    },
    {
      parts: 1,
      bulletType: 1,
      bulletSpeed: 2.5,
      bulletSpeedInherit: 0.4000000059604645,
      distribution: 0.0457763671875,
      recoil: 0.05999999865889549,
      ammo: 40,
      delay: 5,
      loadingTime: 320,
      leaveShells: 2,
      leaveShellDelay: 1,
      fireCone: 6,
      laserSight: false,
      laserBeam: false,
      launchSound: 1,
      playReloadSound: true,
      name: 'CHAINGUN',
    },
    {
      parts: 1,
      bulletType: 2,
      bulletSpeed: 2.5,
      bulletSpeedInherit: 0,
      distribution: 0,
      recoil: 0.699999988079071,
      ammo: 1,
      delay: 0,
      loadingTime: 850,
      leaveShells: 1,
      leaveShellDelay: 1,
      fireCone: 8,
      laserSight: true,
      laserBeam: false,
      launchSound: 27,
      playReloadSound: true,
      name: 'SNIPER RIFLE',
    },
    {
      parts: 40,
      bulletType: 3,
      bulletSpeed: 2.5999999046325684,
      bulletSpeedInherit: 0.38461539149284363,
      distribution: 0.30517578125,
      recoil: 2,
      ammo: 2,
      delay: 80,
      loadingTime: 420,
      leaveShells: 1,
      leaveShellDelay: 1,
      fireCone: 10,
      laserSight: false,
      laserBeam: false,
      launchSound: 0,
      playReloadSound: true,
      name: 'SMOKEIN',
    },
    {
      parts: 1,
      bulletType: 4,
      bulletSpeed: 1.5,
      bulletSpeedInherit: 0.6666666865348816,
      distribution: 0,
      recoil: 0.30000001192092896,
      ammo: 1,
      delay: 0,
      loadingTime: 600,
      leaveShells: 0,
      leaveShellDelay: 1,
      fireCone: 0,
      laserSight: false,
      laserBeam: false,
      launchSound: 4,
      playReloadSound: true,
      name: 'PYROCON',
    },
    {
      parts: 1,
      bulletType: 5,
      bulletSpeed: 1,
      bulletSpeedInherit: 1,
      distribution: 0,
      recoil: 1,
      ammo: 1,
      delay: 1,
      loadingTime: 1000,
      leaveShells: 0,
      leaveShellDelay: 1,
      fireCone: 7,
      laserSight: false,
      laserBeam: false,
      launchSound: 4,
      playReloadSound: false,
      name: 'CREAM PUFF',
    },
    {
      parts: 1,
      bulletType: 6,
      bulletSpeed: 1,
      bulletSpeedInherit: 1,
      distribution: 0.1220703125,
      recoil: 0,
      ammo: 1,
      delay: 0,
      loadingTime: 220,
      leaveShells: 0,
      leaveShellDelay: 1,
      fireCone: 0,
      laserSight: false,
      laserBeam: false,
      launchSound: 5,
      playReloadSound: false,
      name: 'MINE',
    },
    {
      parts: 1,
      bulletType: 7,
      bulletSpeed: 2.5,
      bulletSpeedInherit: 0.4000000059604645,
      distribution: 0.00152587890625,
      recoil: 0.3499999940395355,
      ammo: 9,
      delay: 35,
      loadingTime: 410,
      leaveShells: 1,
      leaveShellDelay: 1,
      fireCone: 8,
      laserSight: true,
      laserBeam: false,
      launchSound: 27,
      playReloadSound: true,
      name: 'RIFLE',
    },
    {
      parts: 1,
      bulletType: 8,
      bulletSpeed: 3.700000047683716,
      bulletSpeedInherit: 0,
      distribution: 0.000152587890625,
      recoil: 0.03999999910593033,
      ammo: 1,
      delay: 0,
      loadingTime: 450,
      leaveShells: 0,
      leaveShellDelay: 1,
      fireCone: 8,
      laserSight: false,
      laserBeam: false,
      launchSound: 6,
      playReloadSound: true,
      name: 'MARSHMELOWS',
    },
    {
      parts: 2,
      bulletType: 9,
      bulletSpeed: 1.7999999523162842,
      bulletSpeedInherit: 0.5555555820465088,
      distribution: 0.2288818359375,
      recoil: 0,
      ammo: 70,
      delay: 2,
      loadingTime: 320,
      leaveShells: 0,
      leaveShellDelay: 1,
      fireCone: 0,
      laserSight: false,
      laserBeam: false,
      launchSound: -1,
      playReloadSound: false,
      name: 'FLAMER',
    },
    {
      parts: 45,
      bulletType: 10,
      bulletSpeed: 1,
      bulletSpeedInherit: 1,
      distribution: 0,
      recoil: 0,
      ammo: 1,
      delay: 0,
      loadingTime: 400,
      leaveShells: 0,
      leaveShellDelay: 1,
      fireCone: 0,
      laserSight: false,
      laserBeam: false,
      launchSound: 5,
      playReloadSound: false,
      name: 'POWERBALL',
    },
    {
      parts: 1,
      bulletType: 11,
      bulletSpeed: 2.200000047683716,
      bulletSpeedInherit: 0.45454543828964233,
      distribution: 0,
      recoil: 0.20000000298023224,
      ammo: 5,
      delay: 20,
      loadingTime: 360,
      leaveShells: 0,
      leaveShellDelay: 1,
      fireCone: 7,
      laserSight: false,
      laserBeam: false,
      launchSound: 6,
      playReloadSound: true,
      name: 'LARPA',
    },
    {
      parts: 10,
      bulletType: 12,
      bulletSpeed: 1,
      bulletSpeedInherit: 1,
      distribution: 0.152587890625,
      recoil: 0,
      ammo: 1,
      delay: 0,
      loadingTime: 600,
      leaveShells: 0,
      leaveShellDelay: 1,
      fireCone: 0,
      laserSight: false,
      laserBeam: false,
      launchSound: 6,
      playReloadSound: true,
      name: 'WISPS',
    },
    {
      parts: 1,
      bulletType: 13,
      bulletSpeed: 1.7000000476837158,
      bulletSpeedInherit: 0.5882352590560913,
      distribution: 0.1068115234375,
      recoil: 0,
      ammo: 1,
      delay: 0,
      loadingTime: 260,
      leaveShells: 0,
      leaveShellDelay: 1,
      fireCone: 0,
      laserSight: false,
      laserBeam: false,
      launchSound: 5,
      playReloadSound: false,
      name: 'COCCO BOMB',
    },
    {
      parts: 1,
      bulletType: 14,
      bulletSpeed: 3.5,
      bulletSpeedInherit: 0.2857142984867096,
      distribution: 0.152587890625,
      recoil: 0.05999999865889549,
      ammo: 50,
      delay: 1,
      loadingTime: 400,
      leaveShells: 3,
      leaveShellDelay: 1,
      fireCone: 6,
      laserSight: false,
      laserBeam: false,
      launchSound: 26,
      playReloadSound: true,
      name: 'MACHINE GUN',
    },
    {
      parts: 1,
      bulletType: 15,
      bulletSpeed: 1.0499999523162842,
      bulletSpeedInherit: 0.9523810148239136,
      distribution: 0,
      recoil: 0.5,
      ammo: 1,
      delay: 0,
      loadingTime: 480,
      leaveShells: 0,
      leaveShellDelay: 1,
      fireCone: 10,
      laserSight: false,
      laserBeam: false,
      launchSound: 28,
      playReloadSound: false,
      name: 'SKYROCKET',
    },
    {
      parts: 40,
      bulletType: 16,
      bulletSpeed: 2.5999999046325684,
      bulletSpeedInherit: 0.38461539149284363,
      distribution: 0.30517578125,
      recoil: 2,
      ammo: 2,
      delay: 80,
      loadingTime: 420,
      leaveShells: 1,
      leaveShellDelay: 28,
      fireCone: 10,
      laserSight: false,
      laserBeam: false,
      launchSound: 0,
      playReloadSound: true,
      name: 'SUPER SHOTGUN',
    },
    {
      parts: 1,
      bulletType: 17,
      bulletSpeed: 1.7000000476837158,
      bulletSpeedInherit: 0.5882352590560913,
      distribution: 0.1068115234375,
      recoil: 0,
      ammo: 5,
      delay: 1,
      loadingTime: 350,
      leaveShells: 0,
      leaveShellDelay: 1,
      fireCone: 0,
      laserSight: false,
      laserBeam: false,
      launchSound: 5,
      playReloadSound: true,
      name: 'RFM GERNADE',
    },
    {
      parts: 1,
      bulletType: 18,
      bulletSpeed: 1,
      bulletSpeedInherit: 1,
      distribution: 0.1220703125,
      recoil: 0.30000001192092896,
      ammo: 1,
      delay: 0,
      loadingTime: 600,
      leaveShells: 0,
      leaveShellDelay: 1,
      fireCone: 0,
      laserSight: false,
      laserBeam: false,
      launchSound: -1,
      playReloadSound: true,
      name: 'FAULTY PISTOL',
    },
    {
      parts: 8,
      bulletType: 19,
      bulletSpeed: 2,
      bulletSpeedInherit: 0.5,
      distribution: 0,
      recoil: 0.8999999761581421,
      ammo: 1,
      delay: 5,
      loadingTime: 550,
      leaveShells: 1,
      leaveShellDelay: 1,
      fireCone: 10,
      laserSight: false,
      laserBeam: false,
      launchSound: 10,
      playReloadSound: false,
      name: 'HVY GATTLER',
    },
    {
      parts: 1,
      bulletType: 20,
      bulletSpeed: 1.7000000476837158,
      bulletSpeedInherit: 0.5882352590560913,
      distribution: 0.30517578125,
      recoil: 0,
      ammo: 1,
      delay: 0,
      loadingTime: 700,
      leaveShells: 0,
      leaveShellDelay: 1,
      fireCone: 0,
      laserSight: false,
      laserBeam: false,
      launchSound: 5,
      playReloadSound: true,
      name: 'MOLOTOV CTL',
    },
    {
      parts: 1,
      bulletType: 21,
      bulletSpeed: 1.7999999523162842,
      bulletSpeedInherit: 0.5555555820465088,
      distribution: 0.18310546875,
      recoil: 0.019999999552965164,
      ammo: 150,
      delay: 0,
      loadingTime: 220,
      leaveShells: 0,
      leaveShellDelay: 1,
      fireCone: 0,
      laserSight: false,
      laserBeam: false,
      launchSound: -1,
      playReloadSound: true,
      name: 'STONE WALL Q',
    },
    {
      parts: 1,
      bulletType: 22,
      bulletSpeed: 1.1399999856948853,
      bulletSpeedInherit: 0.8771929740905762,
      distribution: 0,
      recoil: 0.5,
      ammo: 2,
      delay: 30,
      loadingTime: 500,
      leaveShells: 0,
      leaveShellDelay: 1,
      fireCone: 10,
      laserSight: false,
      laserBeam: false,
      launchSound: 28,
      playReloadSound: false,
      name: 'SILVER RAIN',
    },
    {
      parts: 2,
      bulletType: 23,
      bulletSpeed: 1.899999976158142,
      bulletSpeedInherit: 0.5263158082962036,
      distribution: 0.2288818359375,
      recoil: 0.03999999910593033,
      ammo: 10,
      delay: 2,
      loadingTime: 260,
      leaveShells: 1,
      leaveShellDelay: 1,
      fireCone: 6,
      laserSight: false,
      laserBeam: false,
      launchSound: 1,
      playReloadSound: true,
      name: 'ACIDIC PUDDLE',
    },
    {
      parts: 1,
      bulletType: 24,
      bulletSpeed: 1.7999999523162842,
      bulletSpeedInherit: 0.5555555820465088,
      distribution: 0.18310546875,
      recoil: 0.03999999910593033,
      ammo: 170,
      delay: 0,
      loadingTime: 255,
      leaveShells: 0,
      leaveShellDelay: 1,
      fireCone: 0,
      laserSight: false,
      laserBeam: false,
      launchSound: -1,
      playReloadSound: false,
      name: 'PRESSURE HOSE',
    },
    {
      parts: 1,
      bulletType: 25,
      bulletSpeed: 1.5,
      bulletSpeedInherit: 0.6666666865348816,
      distribution: 0.01220703125,
      recoil: 0.5,
      ammo: 1,
      delay: 0,
      loadingTime: 640,
      leaveShells: 0,
      leaveShellDelay: 1,
      fireCone: 8,
      laserSight: false,
      laserBeam: false,
      launchSound: 3,
      playReloadSound: true,
      name: 'G RAIDER',
    },
    {
      parts: 1,
      bulletType: 26,
      bulletSpeed: 1.7000000476837158,
      bulletSpeedInherit: 0.5882352590560913,
      distribution: 0.1068115234375,
      recoil: 0,
      ammo: 1,
      delay: 0,
      loadingTime: 400,
      leaveShells: 0,
      leaveShellDelay: 1,
      fireCone: 0,
      laserSight: false,
      laserBeam: false,
      launchSound: 5,
      playReloadSound: true,
      name: 'CLUSTER BOMB',
    },
    {
      parts: 30,
      bulletType: 27,
      bulletSpeed: 2.5,
      bulletSpeedInherit: 0.4000000059604645,
      distribution: 0.18310546875,
      recoil: 0.550000011920929,
      ammo: 2,
      delay: 57,
      loadingTime: 560,
      leaveShells: 1,
      leaveShellDelay: 1,
      fireCone: 9,
      laserSight: false,
      laserBeam: false,
      launchSound: 0,
      playReloadSound: true,
      name: 'RASBERRY GUN',
    },
    {
      parts: 50,
      bulletType: 28,
      bulletSpeed: 1.5,
      bulletSpeedInherit: 0.6666666865348816,
      distribution: 0.4999847412109375,
      recoil: 0,
      ammo: 1,
      delay: 0,
      loadingTime: 800,
      leaveShells: 0,
      leaveShellDelay: 1,
      fireCone: 0,
      laserSight: false,
      laserBeam: true,
      launchSound: 5,
      playReloadSound: true,
      name: 'ENGLULF',
    },
    {
      parts: 3,
      bulletType: 29,
      bulletSpeed: 1.399999976158142,
      bulletSpeedInherit: 0.7142857313156128,
      distribution: 0.30517578125,
      recoil: 0,
      ammo: 100,
      delay: 2,
      loadingTime: 320,
      leaveShells: 0,
      leaveShellDelay: 1,
      fireCone: 0,
      laserSight: false,
      laserBeam: false,
      launchSound: 25,
      playReloadSound: true,
      name: 'BUBBLE JET',
    },
    {
      parts: 1,
      bulletType: 30,
      bulletSpeed: 1.2999999523162842,
      bulletSpeedInherit: 0.7692307829856873,
      distribution: 0.030517578125,
      recoil: 0,
      ammo: 1,
      delay: 0,
      loadingTime: 260,
      leaveShells: 0,
      leaveShellDelay: 1,
      fireCone: 0,
      laserSight: false,
      laserBeam: false,
      launchSound: 5,
      playReloadSound: false,
      name: 'NAPALM',
    },
    {
      parts: 3,
      bulletType: 31,
      bulletSpeed: 2,
      bulletSpeedInherit: 0.5,
      distribution: 0,
      recoil: 0.20000000298023224,
      ammo: 2,
      delay: 35,
      loadingTime: 430,
      leaveShells: 0,
      leaveShellDelay: 1,
      fireCone: 7,
      laserSight: false,
      laserBeam: false,
      launchSound: 6,
      playReloadSound: true,
      name: 'SCORCHER',
    },
    {
      parts: 1,
      bulletType: 32,
      bulletSpeed: 2.299999952316284,
      bulletSpeedInherit: 0.43478262424468994,
      distribution: 0,
      recoil: 0.15000000596046448,
      ammo: 1,
      delay: 0,
      loadingTime: 480,
      leaveShells: 0,
      leaveShellDelay: 1,
      fireCone: 9,
      laserSight: false,
      laserBeam: false,
      launchSound: 3,
      playReloadSound: true,
      name: 'MISSILE',
    },
    {
      parts: 1,
      bulletType: 33,
      bulletSpeed: 1,
      bulletSpeedInherit: 1,
      distribution: 0,
      recoil: 0,
      ammo: 1,
      delay: 50,
      loadingTime: 375,
      leaveShells: 0,
      leaveShellDelay: 1,
      fireCone: 0,
      laserSight: false,
      laserBeam: false,
      launchSound: -1,
      playReloadSound: false,
      name: 'SHIELD',
    },
    {
      parts: 3,
      bulletType: 34,
      bulletSpeed: 3.5,
      bulletSpeedInherit: 0.2857142984867096,
      distribution: 0.091552734375,
      recoil: 0.05999999865889549,
      ammo: 5,
      delay: 10,
      loadingTime: 500,
      leaveShells: 4,
      leaveShellDelay: 1,
      fireCone: 6,
      laserSight: false,
      laserBeam: false,
      launchSound: 1,
      playReloadSound: false,
      name: 'DEVILCANNON',
    },
    {
      parts: 1,
      bulletType: 35,
      bulletSpeed: 2.5,
      bulletSpeedInherit: 0.4000000059604645,
      distribution: 0.0457763671875,
      recoil: 0.05999999865889549,
      ammo: 20,
      delay: 9,
      loadingTime: 400,
      leaveShells: 2,
      leaveShellDelay: 1,
      fireCone: 6,
      laserSight: false,
      laserBeam: false,
      launchSound: 25,
      playReloadSound: false,
      name: 'HEAVY MG',
    },
    {
      parts: 2,
      bulletType: 36,
      bulletSpeed: 1,
      bulletSpeedInherit: 1,
      distribution: 0.091552734375,
      recoil: 0,
      ammo: 25,
      delay: 0,
      loadingTime: 700,
      leaveShells: 0,
      leaveShellDelay: 1,
      fireCone: 0,
      laserSight: false,
      laserBeam: false,
      launchSound: -1,
      playReloadSound: true,
      name: 'PLAGUE',
    },
    {
      parts: 1,
      bulletType: 37,
      bulletSpeed: 1,
      bulletSpeedInherit: 1,
      distribution: 0.0457763671875,
      recoil: 0.029999999329447746,
      ammo: 10,
      delay: 5,
      loadingTime: 700,
      leaveShells: 1,
      leaveShellDelay: 1,
      fireCone: 6,
      laserSight: false,
      laserBeam: false,
      launchSound: 6,
      playReloadSound: false,
      name: 'FIREBALLS',
    },
    {
      parts: 1,
      bulletType: 38,
      bulletSpeed: 2.200000047683716,
      bulletSpeedInherit: 0.45454543828964233,
      distribution: 0.0152587890625,
      recoil: 0.019999999552965164,
      ammo: 20,
      delay: 2,
      loadingTime: 185,
      leaveShells: 2,
      leaveShellDelay: 1,
      fireCone: 6,
      laserSight: false,
      laserBeam: false,
      launchSound: 2,
      playReloadSound: true,
      name: 'SILENCED SMG',
    },
    {
      parts: 5,
      bulletType: 39,
      bulletSpeed: 2,
      bulletSpeedInherit: 0.5,
      distribution: 0,
      recoil: 0.8999999761581421,
      ammo: 1,
      delay: 5,
      loadingTime: 400,
      leaveShells: 0,
      leaveShellDelay: 1,
      fireCone: 10,
      laserSight: false,
      laserBeam: false,
      launchSound: 10,
      playReloadSound: true,
      name: 'GAUSS GUN',
    },
  ],
  wObjects: [
    {
      detectDistance: 0,
      blowAway: 0.03999999910593033,
      gravity: 0.01068115234375,
      exploSound: -1,
      addSpeed: 0,
      distribution: 0.18310546875,
      multSpeed: 1,
      createOnExp: 2,
      dirtEffect: -1,
      wormExplode: false,
      explGround: true,
      wormCollide: true,
      collideWithObjects: false,
      affectByExplosions: false,
      bounce: 0,
      bounceFriction: 0.800000011920929,
      timeToExplo: 0,
      timeToExploV: 0,
      hitDamage: 1,
      bloodOnHit: 3,
      startFrame: -1,
      numFrames: 0,
      loopAnim: false,
      shotType: 0,
      repeat: 1,
      colorBullets: 75,
      splinterAmount: 0,
      splinterColour: 0,
      splinterType: 2,
      splinterScatter: 0,
      objTrailType: -1,
      objTrailDelay: 0,
      partTrailType: 0,
      partTrailObj: -1,
      partTrailDelay: 0,
      speed: 250,
    },
    {
      detectDistance: 0,
      blowAway: 0.05000000074505806,
      gravity: 0.01068115234375,
      exploSound: -1,
      addSpeed: 0,
      distribution: 0.0457763671875,
      multSpeed: 1,
      createOnExp: 2,
      dirtEffect: -1,
      wormExplode: false,
      explGround: true,
      wormCollide: true,
      collideWithObjects: false,
      affectByExplosions: false,
      bounce: 0,
      bounceFriction: 0.800000011920929,
      timeToExplo: 0,
      timeToExploV: 0,
      hitDamage: 4,
      bloodOnHit: 4,
      startFrame: -1,
      numFrames: 0,
      loopAnim: false,
      shotType: 0,
      repeat: 1,
      colorBullets: 68,
      splinterAmount: 0,
      splinterColour: 0,
      splinterType: 2,
      splinterScatter: 0,
      objTrailType: -1,
      objTrailDelay: 0,
      partTrailType: 0,
      partTrailObj: -1,
      partTrailDelay: 0,
      speed: 250,
    },
    {
      detectDistance: 0,
      blowAway: 0.699999988079071,
      gravity: 0,
      exploSound: -1,
      addSpeed: 0,
      distribution: 0,
      multSpeed: 1,
      createOnExp: 2,
      dirtEffect: -1,
      wormExplode: false,
      explGround: true,
      wormCollide: true,
      collideWithObjects: false,
      affectByExplosions: false,
      bounce: 0,
      bounceFriction: 0.800000011920929,
      timeToExplo: 0,
      timeToExploV: 0,
      hitDamage: 70,
      bloodOnHit: 20,
      startFrame: -1,
      numFrames: 0,
      loopAnim: false,
      shotType: 4,
      repeat: 8,
      colorBullets: 68,
      splinterAmount: 4,
      splinterColour: 67,
      splinterType: 3,
      splinterScatter: 0,
      objTrailType: -1,
      objTrailDelay: 0,
      partTrailType: 0,
      partTrailObj: -1,
      partTrailDelay: 0,
      speed: 250,
    },
    {
      detectDistance: 0,
      blowAway: 0.029999999329447746,
      gravity: 0.01068115234375,
      exploSound: 7,
      addSpeed: 0,
      distribution: 0.30517578125,
      multSpeed: 1,
      createOnExp: 3,
      dirtEffect: 1,
      wormExplode: false,
      explGround: true,
      wormCollide: true,
      collideWithObjects: false,
      affectByExplosions: false,
      bounce: 0,
      bounceFriction: 0.800000011920929,
      timeToExplo: 0,
      timeToExploV: 0,
      hitDamage: 1,
      bloodOnHit: 2,
      startFrame: -1,
      numFrames: 0,
      loopAnim: false,
      shotType: 0,
      repeat: 1,
      colorBullets: 25,
      splinterAmount: 0,
      splinterColour: 0,
      splinterType: -1,
      splinterScatter: 0,
      objTrailType: -1,
      objTrailDelay: 0,
      partTrailType: 0,
      partTrailObj: -1,
      partTrailDelay: 0,
      speed: 260,
    },
    {
      detectDistance: 1,
      blowAway: 0,
      gravity: 0.0152587890625,
      exploSound: 12,
      addSpeed: 0,
      distribution: 0,
      multSpeed: 1,
      createOnExp: 2,
      dirtEffect: -1,
      wormExplode: false,
      explGround: true,
      wormCollide: false,
      collideWithObjects: false,
      affectByExplosions: true,
      bounce: 0,
      bounceFriction: 0.800000011920929,
      timeToExplo: 0,
      timeToExploV: 0,
      hitDamage: 0,
      bloodOnHit: 0,
      startFrame: 196,
      numFrames: 2,
      loopAnim: true,
      shotType: 0,
      repeat: 1,
      colorBullets: 0,
      splinterAmount: 100,
      splinterColour: 0,
      splinterType: 23,
      splinterScatter: 0,
      objTrailType: 3,
      objTrailDelay: 8,
      partTrailType: 0,
      partTrailObj: -1,
      partTrailDelay: 0,
      speed: 150,
    },
    {
      detectDistance: 1,
      blowAway: 0.4000000059604645,
      gravity: 0,
      exploSound: 8,
      addSpeed: 5,
      distribution: 0,
      multSpeed: 1,
      createOnExp: 0,
      dirtEffect: 0,
      wormExplode: false,
      explGround: true,
      wormCollide: false,
      collideWithObjects: false,
      affectByExplosions: false,
      bounce: 0,
      bounceFriction: 0.800000011920929,
      timeToExplo: 400,
      timeToExploV: 50,
      hitDamage: 0,
      bloodOnHit: 6,
      startFrame: 194,
      numFrames: 0,
      loopAnim: false,
      shotType: 0,
      repeat: 1,
      colorBullets: 0,
      splinterAmount: 255,
      splinterColour: 67,
      splinterType: 14,
      splinterScatter: 0,
      objTrailType: 4,
      objTrailDelay: 1,
      partTrailType: 1,
      partTrailObj: -1,
      partTrailDelay: 4,
      speed: 50,
    },
    {
      detectDistance: 2,
      blowAway: 0.6000000238418579,
      gravity: 0.0152587890625,
      exploSound: -1,
      addSpeed: 0,
      distribution: 0.1220703125,
      multSpeed: 1,
      createOnExp: 0,
      dirtEffect: -1,
      wormExplode: true,
      explGround: false,
      wormCollide: true,
      collideWithObjects: false,
      affectByExplosions: true,
      bounce: 0.4000000059604645,
      bounceFriction: 0.800000011920929,
      timeToExplo: 15000,
      timeToExploV: 600,
      hitDamage: 12,
      bloodOnHit: 20,
      startFrame: 173,
      numFrames: 3,
      loopAnim: true,
      shotType: 0,
      repeat: 1,
      colorBullets: 0,
      splinterAmount: 5,
      splinterColour: 66,
      splinterType: 3,
      splinterScatter: 0,
      objTrailType: -1,
      objTrailDelay: 0,
      partTrailType: 0,
      partTrailObj: -1,
      partTrailDelay: 0,
      speed: 95,
    },
    {
      detectDistance: 0,
      blowAway: 0.699999988079071,
      gravity: 0,
      exploSound: -1,
      addSpeed: 0,
      distribution: 0.00152587890625,
      multSpeed: 1,
      createOnExp: 2,
      dirtEffect: -1,
      wormExplode: false,
      explGround: true,
      wormCollide: true,
      collideWithObjects: false,
      affectByExplosions: false,
      bounce: 0,
      bounceFriction: 0.800000011920929,
      timeToExplo: 0,
      timeToExploV: 0,
      hitDamage: 12,
      bloodOnHit: 15,
      startFrame: -1,
      numFrames: 0,
      loopAnim: false,
      shotType: 4,
      repeat: 8,
      colorBullets: 68,
      splinterAmount: 3,
      splinterColour: 67,
      splinterType: 3,
      splinterScatter: 0,
      objTrailType: -1,
      objTrailDelay: 0,
      partTrailType: 0,
      partTrailObj: -1,
      partTrailDelay: 0,
      speed: 250,
    },
    {
      detectDistance: 1,
      blowAway: 0,
      gravity: 0.00030517578125,
      exploSound: -1,
      addSpeed: 0,
      distribution: 0.000152587890625,
      multSpeed: 1,
      createOnExp: 0,
      dirtEffect: -1,
      wormExplode: true,
      explGround: true,
      wormCollide: true,
      collideWithObjects: false,
      affectByExplosions: false,
      bounce: 0,
      bounceFriction: 0.800000011920929,
      timeToExplo: 0,
      timeToExploV: 0,
      hitDamage: 0,
      bloodOnHit: 70,
      startFrame: 127,
      numFrames: 0,
      loopAnim: false,
      shotType: 1,
      repeat: 1,
      colorBullets: 0,
      splinterAmount: 20,
      splinterColour: 75,
      splinterType: 3,
      splinterScatter: 0,
      objTrailType: 3,
      objTrailDelay: 8,
      partTrailType: 0,
      partTrailObj: -1,
      partTrailDelay: 0,
      speed: 370,
    },
    {
      detectDistance: 1,
      blowAway: 0,
      gravity: -0.00457763671875,
      exploSound: -1,
      addSpeed: 0,
      distribution: 0.2288818359375,
      multSpeed: 1,
      createOnExp: -1,
      dirtEffect: 5,
      wormExplode: false,
      explGround: true,
      wormCollide: true,
      collideWithObjects: false,
      affectByExplosions: false,
      bounce: 0,
      bounceFriction: 0.800000011920929,
      timeToExplo: 40,
      timeToExploV: 5,
      hitDamage: 1,
      bloodOnHit: 0,
      startFrame: 159,
      numFrames: 5,
      loopAnim: false,
      shotType: 0,
      repeat: 1,
      colorBullets: 0,
      splinterAmount: 0,
      splinterColour: 0,
      splinterType: -1,
      splinterScatter: 0,
      objTrailType: -1,
      objTrailDelay: 0,
      partTrailType: 0,
      partTrailObj: -1,
      partTrailDelay: 0,
      speed: 180,
    },
    {
      detectDistance: 0,
      blowAway: 0.05999999865889549,
      gravity: 0,
      exploSound: -1,
      addSpeed: 0,
      distribution: 0,
      multSpeed: 1,
      createOnExp: -1,
      dirtEffect: 2,
      wormExplode: true,
      explGround: true,
      wormCollide: true,
      collideWithObjects: false,
      affectByExplosions: false,
      bounce: 0,
      bounceFriction: 0.800000011920929,
      timeToExplo: 0,
      timeToExploV: 0,
      hitDamage: 1,
      bloodOnHit: 0,
      startFrame: 220,
      numFrames: 2,
      loopAnim: true,
      shotType: 0,
      repeat: 1,
      colorBullets: 0,
      splinterAmount: 0,
      splinterColour: 0,
      splinterType: -1,
      splinterScatter: 0,
      objTrailType: -1,
      objTrailDelay: 0,
      partTrailType: 0,
      partTrailObj: -1,
      partTrailDelay: 0,
      speed: 100,
    },
    {
      detectDistance: 1,
      blowAway: 0.4000000059604645,
      gravity: 0.0030517578125,
      exploSound: -1,
      addSpeed: 0,
      distribution: 0,
      multSpeed: 1,
      createOnExp: 1,
      dirtEffect: -1,
      wormExplode: true,
      explGround: true,
      wormCollide: true,
      collideWithObjects: false,
      affectByExplosions: false,
      bounce: 0,
      bounceFriction: 0.800000011920929,
      timeToExplo: 0,
      timeToExploV: 0,
      hitDamage: 0,
      bloodOnHit: 6,
      startFrame: 140,
      numFrames: 0,
      loopAnim: false,
      shotType: 1,
      repeat: 1,
      colorBullets: 0,
      splinterAmount: 5,
      splinterColour: 67,
      splinterType: 3,
      splinterScatter: 0,
      objTrailType: -1,
      objTrailDelay: 0,
      partTrailType: 1,
      partTrailObj: 5,
      partTrailDelay: 4,
      speed: 220,
    },
    {
      detectDistance: 1,
      blowAway: 0,
      gravity: 0,
      exploSound: -1,
      addSpeed: 0,
      distribution: 0.152587890625,
      multSpeed: 1,
      createOnExp: 8,
      dirtEffect: -1,
      wormExplode: true,
      explGround: true,
      wormCollide: true,
      collideWithObjects: false,
      affectByExplosions: true,
      bounce: 0,
      bounceFriction: 0.800000011920929,
      timeToExplo: 130,
      timeToExploV: 50,
      hitDamage: 10,
      bloodOnHit: 0,
      startFrame: -1,
      numFrames: 0,
      loopAnim: false,
      shotType: 3,
      repeat: 1,
      colorBullets: 0,
      splinterAmount: 0,
      splinterColour: 0,
      splinterType: -1,
      splinterScatter: 0,
      objTrailType: 6,
      objTrailDelay: 1,
      partTrailType: 0,
      partTrailObj: -1,
      partTrailDelay: 0,
      speed: 100,
    },
    {
      detectDistance: 0,
      blowAway: 0,
      gravity: 0.01983642578125,
      exploSound: 12,
      addSpeed: 0,
      distribution: 0.1068115234375,
      multSpeed: 1,
      createOnExp: -1,
      dirtEffect: 0,
      wormExplode: false,
      explGround: false,
      wormCollide: false,
      collideWithObjects: false,
      affectByExplosions: true,
      bounce: 0.4000000059604645,
      bounceFriction: 0.800000011920929,
      timeToExplo: 115,
      timeToExploV: 10,
      hitDamage: 0,
      bloodOnHit: 0,
      startFrame: 206,
      numFrames: 3,
      loopAnim: true,
      shotType: 0,
      repeat: 1,
      colorBullets: 0,
      splinterAmount: 255,
      splinterColour: 200,
      splinterType: 22,
      splinterScatter: 0,
      objTrailType: -1,
      objTrailDelay: 0,
      partTrailType: 0,
      partTrailObj: -1,
      partTrailDelay: 0,
      speed: 170,
    },
    {
      detectDistance: 0,
      blowAway: 0.05000000074505806,
      gravity: 0.00762939453125,
      exploSound: -1,
      addSpeed: 0,
      distribution: 0.152587890625,
      multSpeed: 1,
      createOnExp: 2,
      dirtEffect: -1,
      wormExplode: false,
      explGround: true,
      wormCollide: true,
      collideWithObjects: false,
      affectByExplosions: false,
      bounce: 0,
      bounceFriction: 0.800000011920929,
      timeToExplo: 0,
      timeToExploV: 0,
      hitDamage: 2,
      bloodOnHit: 4,
      startFrame: -1,
      numFrames: 0,
      loopAnim: false,
      shotType: 0,
      repeat: 1,
      colorBullets: 68,
      splinterAmount: 0,
      splinterColour: 0,
      splinterType: 2,
      splinterScatter: 0,
      objTrailType: -1,
      objTrailDelay: 0,
      partTrailType: 0,
      partTrailObj: -1,
      partTrailDelay: 0,
      speed: 350,
    },
    {
      detectDistance: 0,
      blowAway: 0,
      gravity: 0,
      exploSound: -1,
      addSpeed: 0,
      distribution: 0,
      multSpeed: 1.0199999809265137,
      createOnExp: 0,
      dirtEffect: 0,
      wormExplode: true,
      explGround: true,
      wormCollide: true,
      collideWithObjects: false,
      affectByExplosions: false,
      bounce: 0,
      bounceFriction: 0.800000011920929,
      timeToExplo: 100,
      timeToExploV: 15,
      hitDamage: 0,
      bloodOnHit: 0,
      startFrame: 223,
      numFrames: 0,
      loopAnim: false,
      shotType: 1,
      repeat: 1,
      colorBullets: 0,
      splinterAmount: 15,
      splinterColour: 38,
      splinterType: 14,
      splinterScatter: 0,
      objTrailType: 6,
      objTrailDelay: 2,
      partTrailType: 0,
      partTrailObj: -1,
      partTrailDelay: 0,
      speed: 105,
    },
    {
      detectDistance: 0,
      blowAway: 0.029999999329447746,
      gravity: 0.01068115234375,
      exploSound: -1,
      addSpeed: 0,
      distribution: 0.30517578125,
      multSpeed: 1,
      createOnExp: 2,
      dirtEffect: -1,
      wormExplode: false,
      explGround: true,
      wormCollide: true,
      collideWithObjects: false,
      affectByExplosions: false,
      bounce: 0,
      bounceFriction: 0.800000011920929,
      timeToExplo: 0,
      timeToExploV: 0,
      hitDamage: 1,
      bloodOnHit: 2,
      startFrame: -1,
      numFrames: 0,
      loopAnim: false,
      shotType: 0,
      repeat: 1,
      colorBullets: 75,
      splinterAmount: 0,
      splinterColour: 0,
      splinterType: -1,
      splinterScatter: 0,
      objTrailType: -1,
      objTrailDelay: 0,
      partTrailType: 0,
      partTrailObj: -1,
      partTrailDelay: 0,
      speed: 260,
    },
    {
      detectDistance: 0,
      blowAway: 0,
      gravity: 0.01983642578125,
      exploSound: -1,
      addSpeed: 0,
      distribution: 0.1068115234375,
      multSpeed: 1,
      createOnExp: 0,
      dirtEffect: -1,
      wormExplode: false,
      explGround: false,
      wormCollide: false,
      collideWithObjects: false,
      affectByExplosions: true,
      bounce: 0.4000000059604645,
      bounceFriction: 0.800000011920929,
      timeToExplo: 115,
      timeToExploV: 75,
      hitDamage: 0,
      bloodOnHit: 0,
      startFrame: 206,
      numFrames: 3,
      loopAnim: true,
      shotType: 0,
      repeat: 1,
      colorBullets: 0,
      splinterAmount: 15,
      splinterColour: 54,
      splinterType: 5,
      splinterScatter: 0,
      objTrailType: -1,
      objTrailDelay: 0,
      partTrailType: 0,
      partTrailObj: -1,
      partTrailDelay: 0,
      speed: 170,
    },
    {
      detectDistance: 6,
      blowAway: 0,
      gravity: 0,
      exploSound: 13,
      addSpeed: 0,
      distribution: 0.1220703125,
      multSpeed: 1,
      createOnExp: -1,
      dirtEffect: 0,
      wormExplode: false,
      explGround: false,
      wormCollide: false,
      collideWithObjects: false,
      affectByExplosions: true,
      bounce: 1,
      bounceFriction: 1,
      timeToExplo: 300,
      timeToExploV: 0,
      hitDamage: 0,
      bloodOnHit: 0,
      startFrame: -1,
      numFrames: 0,
      loopAnim: false,
      shotType: 3,
      repeat: 1,
      colorBullets: 54,
      splinterAmount: 0,
      splinterColour: 0,
      splinterType: -1,
      splinterScatter: 0,
      objTrailType: 1,
      objTrailDelay: 2,
      partTrailType: 0,
      partTrailObj: -1,
      partTrailDelay: 0,
      speed: 100,
    },
    {
      detectDistance: 1,
      blowAway: 0.20000000298023224,
      gravity: 0.000762939453125,
      exploSound: -1,
      addSpeed: 0,
      distribution: 0,
      multSpeed: 1,
      createOnExp: 1,
      dirtEffect: 0,
      wormExplode: true,
      explGround: true,
      wormCollide: true,
      collideWithObjects: false,
      affectByExplosions: false,
      bounce: 0,
      bounceFriction: 0.800000011920929,
      timeToExplo: 0,
      timeToExploV: 0,
      hitDamage: 0,
      bloodOnHit: 7,
      startFrame: 196,
      numFrames: 0,
      loopAnim: false,
      shotType: 4,
      repeat: 8,
      colorBullets: 0,
      splinterAmount: 0,
      splinterColour: 0,
      splinterType: -1,
      splinterScatter: 0,
      objTrailType: -1,
      objTrailDelay: 0,
      partTrailType: 0,
      partTrailObj: -1,
      partTrailDelay: 0,
      speed: 200,
    },
    {
      detectDistance: 0,
      blowAway: 0,
      gravity: 0,
      exploSound: 4,
      addSpeed: 0,
      distribution: 0.30517578125,
      multSpeed: 1,
      createOnExp: -1,
      dirtEffect: -1,
      wormExplode: false,
      explGround: false,
      wormCollide: false,
      collideWithObjects: false,
      affectByExplosions: true,
      bounce: 0.6499999761581421,
      bounceFriction: 0.800000011920929,
      timeToExplo: 170,
      timeToExploV: 20,
      hitDamage: 0,
      bloodOnHit: 0,
      startFrame: 180,
      numFrames: 0,
      loopAnim: false,
      shotType: 0,
      repeat: 1,
      colorBullets: 0,
      splinterAmount: 50,
      splinterColour: 255,
      splinterType: 9,
      splinterScatter: 0,
      objTrailType: 4,
      objTrailDelay: 1,
      partTrailType: 0,
      partTrailObj: -1,
      partTrailDelay: 0,
      speed: 170,
    },
    {
      detectDistance: 1,
      blowAway: 0.30000001192092896,
      gravity: 0,
      exploSound: -1,
      addSpeed: 0,
      distribution: 0.18310546875,
      multSpeed: 1,
      createOnExp: -1,
      dirtEffect: 6,
      wormExplode: false,
      explGround: false,
      wormCollide: false,
      collideWithObjects: false,
      affectByExplosions: false,
      bounce: 0,
      bounceFriction: 0.800000011920929,
      timeToExplo: 25,
      timeToExploV: 0,
      hitDamage: 0,
      bloodOnHit: 0,
      startFrame: -1,
      numFrames: 0,
      loopAnim: false,
      shotType: 0,
      repeat: 1,
      colorBullets: 25,
      splinterAmount: 1,
      splinterColour: 6,
      splinterType: 22,
      splinterScatter: 1,
      objTrailType: -1,
      objTrailDelay: 0,
      partTrailType: 0,
      partTrailObj: -1,
      partTrailDelay: 0,
      speed: 180,
    },
    {
      detectDistance: 0,
      blowAway: 0,
      gravity: 0,
      exploSound: -1,
      addSpeed: 0,
      distribution: 0,
      multSpeed: 1.0199999809265137,
      createOnExp: 4,
      dirtEffect: -1,
      wormExplode: false,
      explGround: true,
      wormCollide: false,
      collideWithObjects: false,
      affectByExplosions: false,
      bounce: 0,
      bounceFriction: 0.800000011920929,
      timeToExplo: 85,
      timeToExploV: 15,
      hitDamage: 0,
      bloodOnHit: 0,
      startFrame: 223,
      numFrames: 0,
      loopAnim: false,
      shotType: 1,
      repeat: 1,
      colorBullets: 0,
      splinterAmount: 50,
      splinterColour: 0,
      splinterType: 11,
      splinterScatter: 0,
      objTrailType: 6,
      objTrailDelay: 2,
      partTrailType: 0,
      partTrailObj: -1,
      partTrailDelay: 0,
      speed: 114,
    },
    {
      detectDistance: 3,
      blowAway: 0.03999999910593033,
      gravity: 0.01068115234375,
      exploSound: -1,
      addSpeed: 0,
      distribution: 0.2288818359375,
      multSpeed: 1,
      createOnExp: 9,
      dirtEffect: -1,
      wormExplode: true,
      explGround: false,
      wormCollide: true,
      collideWithObjects: false,
      affectByExplosions: false,
      bounce: 0.07000000029802322,
      bounceFriction: 0.800000011920929,
      timeToExplo: 1500,
      timeToExploV: 125,
      hitDamage: 1,
      bloodOnHit: 4,
      startFrame: -1,
      numFrames: 0,
      loopAnim: false,
      shotType: 0,
      repeat: 1,
      colorBullets: 102,
      splinterAmount: 0,
      splinterColour: 0,
      splinterType: -1,
      splinterScatter: 0,
      objTrailType: -1,
      objTrailDelay: 0,
      partTrailType: 0,
      partTrailObj: -1,
      partTrailDelay: 0,
      speed: 190,
    },
    {
      detectDistance: 1,
      blowAway: 0.25,
      gravity: 0.011444091796875,
      exploSound: -1,
      addSpeed: 0,
      distribution: 0.18310546875,
      multSpeed: 1,
      createOnExp: -1,
      dirtEffect: 5,
      wormExplode: false,
      explGround: true,
      wormCollide: true,
      collideWithObjects: true,
      affectByExplosions: false,
      bounce: 0,
      bounceFriction: 0.800000011920929,
      timeToExplo: 45,
      timeToExploV: 20,
      hitDamage: 1,
      bloodOnHit: 0,
      startFrame: -1,
      numFrames: 0,
      loopAnim: false,
      shotType: 0,
      repeat: 1,
      colorBullets: 49,
      splinterAmount: 0,
      splinterColour: 0,
      splinterType: -1,
      splinterScatter: 0,
      objTrailType: -1,
      objTrailDelay: 0,
      partTrailType: 0,
      partTrailObj: -1,
      partTrailDelay: 0,
      speed: 180,
    },
    {
      detectDistance: 0,
      blowAway: 0.6000000238418579,
      gravity: -0.0152587890625,
      exploSound: -1,
      addSpeed: 0,
      distribution: 0.01220703125,
      multSpeed: 1,
      createOnExp: 0,
      dirtEffect: -1,
      wormExplode: true,
      explGround: false,
      wormCollide: false,
      collideWithObjects: false,
      affectByExplosions: false,
      bounce: 0.800000011920929,
      bounceFriction: 0.800000011920929,
      timeToExplo: 150,
      timeToExploV: 20,
      hitDamage: 5,
      bloodOnHit: 15,
      startFrame: 179,
      numFrames: 0,
      loopAnim: false,
      shotType: 0,
      repeat: 1,
      colorBullets: 0,
      splinterAmount: 10,
      splinterColour: 0,
      splinterType: 10,
      splinterScatter: 0,
      objTrailType: 1,
      objTrailDelay: 8,
      partTrailType: 0,
      partTrailObj: -1,
      partTrailDelay: 0,
      speed: 150,
    },
    {
      detectDistance: 0,
      blowAway: 0,
      gravity: 0.01983642578125,
      exploSound: -1,
      addSpeed: 0,
      distribution: 0.1068115234375,
      multSpeed: 1,
      createOnExp: 0,
      dirtEffect: -1,
      wormExplode: false,
      explGround: false,
      wormCollide: false,
      collideWithObjects: false,
      affectByExplosions: true,
      bounce: 0.5,
      bounceFriction: 0.800000011920929,
      timeToExplo: 135,
      timeToExploV: 15,
      hitDamage: 0,
      bloodOnHit: 0,
      startFrame: 206,
      numFrames: 3,
      loopAnim: true,
      shotType: 0,
      repeat: 1,
      colorBullets: 0,
      splinterAmount: 16,
      splinterColour: 0,
      splinterType: 8,
      splinterScatter: 0,
      objTrailType: -1,
      objTrailDelay: 0,
      partTrailType: 0,
      partTrailObj: -1,
      partTrailDelay: 0,
      speed: 170,
    },
    {
      detectDistance: 0,
      blowAway: 0.03999999910593033,
      gravity: 0.01068115234375,
      exploSound: -1,
      addSpeed: 0,
      distribution: 0.18310546875,
      multSpeed: 1,
      createOnExp: 1,
      dirtEffect: -1,
      wormExplode: true,
      explGround: true,
      wormCollide: true,
      collideWithObjects: false,
      affectByExplosions: false,
      bounce: 0,
      bounceFriction: 0.800000011920929,
      timeToExplo: 0,
      timeToExploV: 0,
      hitDamage: 0,
      bloodOnHit: 3,
      startFrame: -1,
      numFrames: 0,
      loopAnim: false,
      shotType: 0,
      repeat: 1,
      colorBullets: 160,
      splinterAmount: 0,
      splinterColour: 0,
      splinterType: 2,
      splinterScatter: 0,
      objTrailType: -1,
      objTrailDelay: 1,
      partTrailType: 0,
      partTrailObj: -1,
      partTrailDelay: 0,
      speed: 250,
    },
    {
      detectDistance: 0,
      blowAway: 0.10000000149011612,
      gravity: 0,
      exploSound: -1,
      addSpeed: 0,
      distribution: 0.4999847412109375,
      multSpeed: 1,
      createOnExp: 3,
      dirtEffect: -1,
      wormExplode: false,
      explGround: false,
      wormCollide: false,
      collideWithObjects: false,
      affectByExplosions: true,
      bounce: 0,
      bounceFriction: 0.800000011920929,
      timeToExplo: 300,
      timeToExploV: 400,
      hitDamage: 1,
      bloodOnHit: 20,
      startFrame: 159,
      numFrames: 5,
      loopAnim: false,
      shotType: 1,
      repeat: 1,
      colorBullets: 0,
      splinterAmount: 0,
      splinterColour: 66,
      splinterType: -1,
      splinterScatter: 0,
      objTrailType: 3,
      objTrailDelay: 8,
      partTrailType: 0,
      partTrailObj: -1,
      partTrailDelay: 0,
      speed: 150,
    },
    {
      detectDistance: 0,
      blowAway: 0,
      gravity: -0.0457763671875,
      exploSound: 26,
      addSpeed: 0,
      distribution: 0.30517578125,
      multSpeed: 1,
      createOnExp: 8,
      dirtEffect: 5,
      wormExplode: false,
      explGround: true,
      wormCollide: true,
      collideWithObjects: false,
      affectByExplosions: false,
      bounce: 0,
      bounceFriction: 0.800000011920929,
      timeToExplo: 0,
      timeToExploV: 0,
      hitDamage: 2,
      bloodOnHit: 0,
      startFrame: 193,
      numFrames: 0,
      loopAnim: false,
      shotType: 0,
      repeat: 1,
      colorBullets: 0,
      splinterAmount: 0,
      splinterColour: 0,
      splinterType: -1,
      splinterScatter: 0,
      objTrailType: -1,
      objTrailDelay: 0,
      partTrailType: 0,
      partTrailObj: -1,
      partTrailDelay: 0,
      speed: 140,
    },
    {
      detectDistance: 0,
      blowAway: 0,
      gravity: 0.0152587890625,
      exploSound: 4,
      addSpeed: 0,
      distribution: 0.030517578125,
      multSpeed: 1,
      createOnExp: -1,
      dirtEffect: -1,
      wormExplode: true,
      explGround: true,
      wormCollide: false,
      collideWithObjects: false,
      affectByExplosions: true,
      bounce: 0,
      bounceFriction: 0.800000011920929,
      timeToExplo: 120,
      timeToExploV: 10,
      hitDamage: 0,
      bloodOnHit: 0,
      startFrame: 185,
      numFrames: 7,
      loopAnim: true,
      shotType: 0,
      repeat: 1,
      colorBullets: 0,
      splinterAmount: 17,
      splinterColour: 114,
      splinterType: 12,
      splinterScatter: 0,
      objTrailType: -1,
      objTrailDelay: 0,
      partTrailType: 0,
      partTrailObj: -1,
      partTrailDelay: 0,
      speed: 130,
    },
    {
      detectDistance: 1,
      blowAway: 0.4000000059604645,
      gravity: 0.002288818359375,
      exploSound: -1,
      addSpeed: 0,
      distribution: 0,
      multSpeed: 1,
      createOnExp: 2,
      dirtEffect: 1,
      wormExplode: true,
      explGround: true,
      wormCollide: true,
      collideWithObjects: false,
      affectByExplosions: false,
      bounce: 0,
      bounceFriction: 0.800000011920929,
      timeToExplo: 0,
      timeToExploV: 0,
      hitDamage: 0,
      bloodOnHit: 6,
      startFrame: 127,
      numFrames: 0,
      loopAnim: false,
      shotType: 1,
      repeat: 1,
      colorBullets: 0,
      splinterAmount: 2,
      splinterColour: 110,
      splinterType: 3,
      splinterScatter: 0,
      objTrailType: -1,
      objTrailDelay: 0,
      partTrailType: 1,
      partTrailObj: 23,
      partTrailDelay: 9,
      speed: 200,
    },
    {
      detectDistance: 1,
      blowAway: 0,
      gravity: 0,
      exploSound: -1,
      addSpeed: 150,
      distribution: 0,
      multSpeed: 1,
      createOnExp: 0,
      dirtEffect: -1,
      wormExplode: true,
      explGround: true,
      wormCollide: true,
      collideWithObjects: false,
      affectByExplosions: false,
      bounce: 0,
      bounceFriction: 0.800000011920929,
      timeToExplo: 0,
      timeToExploV: 0,
      hitDamage: 12,
      bloodOnHit: 30,
      startFrame: 110,
      numFrames: 0,
      loopAnim: false,
      shotType: 2,
      repeat: 1,
      colorBullets: 0,
      splinterAmount: 12,
      splinterColour: 66,
      splinterType: 3,
      splinterScatter: 0,
      objTrailType: 3,
      objTrailDelay: 4,
      partTrailType: 0,
      partTrailObj: -1,
      partTrailDelay: 0,
      speed: 230,
    },
    {
      detectDistance: 0,
      blowAway: 0,
      gravity: 0,
      exploSound: 23,
      addSpeed: 0,
      distribution: 0,
      multSpeed: 1,
      createOnExp: -1,
      dirtEffect: -1,
      wormExplode: false,
      explGround: false,
      wormCollide: false,
      collideWithObjects: false,
      affectByExplosions: false,
      bounce: 0,
      bounceFriction: 0.800000011920929,
      timeToExplo: 1,
      timeToExploV: 0,
      hitDamage: 0,
      bloodOnHit: 0,
      startFrame: -1,
      numFrames: 0,
      loopAnim: false,
      shotType: 0,
      repeat: 1,
      colorBullets: 0,
      splinterAmount: 100,
      splinterColour: 0,
      splinterType: 13,
      splinterScatter: 0,
      objTrailType: -1,
      objTrailDelay: 0,
      partTrailType: 0,
      partTrailObj: -1,
      partTrailDelay: 0,
      speed: 0,
    },
    {
      detectDistance: 0,
      blowAway: 0.05000000074505806,
      gravity: 0.01068115234375,
      exploSound: -1,
      addSpeed: 0,
      distribution: 0.091552734375,
      multSpeed: 1,
      createOnExp: 2,
      dirtEffect: -1,
      wormExplode: false,
      explGround: true,
      wormCollide: true,
      collideWithObjects: false,
      affectByExplosions: false,
      bounce: 0.30000001192092896,
      bounceFriction: 0.800000011920929,
      timeToExplo: 2,
      timeToExploV: 0,
      hitDamage: 5,
      bloodOnHit: 2,
      startFrame: -1,
      numFrames: 0,
      loopAnim: false,
      shotType: 0,
      repeat: 1,
      colorBullets: 68,
      splinterAmount: 1,
      splinterColour: 0,
      splinterType: 10,
      splinterScatter: 1,
      objTrailType: 6,
      objTrailDelay: 3,
      partTrailType: 0,
      partTrailObj: -1,
      partTrailDelay: 0,
      speed: 350,
    },
    {
      detectDistance: 0,
      blowAway: 0.05000000074505806,
      gravity: 0.00762939453125,
      exploSound: -1,
      addSpeed: 0,
      distribution: 0.0457763671875,
      multSpeed: 1,
      createOnExp: 2,
      dirtEffect: 3,
      wormExplode: false,
      explGround: true,
      wormCollide: true,
      collideWithObjects: false,
      affectByExplosions: false,
      bounce: 0,
      bounceFriction: 0.800000011920929,
      timeToExplo: 0,
      timeToExploV: 0,
      hitDamage: 7,
      bloodOnHit: 4,
      startFrame: -1,
      numFrames: 0,
      loopAnim: false,
      shotType: 0,
      repeat: 1,
      colorBullets: 68,
      splinterAmount: 0,
      splinterColour: 0,
      splinterType: 2,
      splinterScatter: 0,
      objTrailType: -1,
      objTrailDelay: 0,
      partTrailType: 0,
      partTrailObj: -1,
      partTrailDelay: 0,
      speed: 250,
    },
    {
      detectDistance: 1,
      blowAway: 0.10000000149011612,
      gravity: 0,
      exploSound: -1,
      addSpeed: 0,
      distribution: 0.091552734375,
      multSpeed: 0.9900000095367432,
      createOnExp: -1,
      dirtEffect: -1,
      wormExplode: false,
      explGround: false,
      wormCollide: true,
      collideWithObjects: false,
      affectByExplosions: false,
      bounce: 0.550000011920929,
      bounceFriction: 0.800000011920929,
      timeToExplo: 600,
      timeToExploV: 50,
      hitDamage: 2,
      bloodOnHit: 1,
      startFrame: 214,
      numFrames: 5,
      loopAnim: true,
      shotType: 0,
      repeat: 1,
      colorBullets: 0,
      splinterAmount: 0,
      splinterColour: 0,
      splinterType: -1,
      splinterScatter: 0,
      objTrailType: -1,
      objTrailDelay: 2,
      partTrailType: 0,
      partTrailObj: -1,
      partTrailDelay: 0,
      speed: 40,
    },
    {
      detectDistance: 3,
      blowAway: 0.05000000074505806,
      gravity: 0,
      exploSound: -1,
      addSpeed: 0,
      distribution: 0.0457763671875,
      multSpeed: 1,
      createOnExp: -1,
      dirtEffect: -1,
      wormExplode: true,
      explGround: true,
      wormCollide: true,
      collideWithObjects: false,
      affectByExplosions: false,
      bounce: 0,
      bounceFriction: 0.800000011920929,
      timeToExplo: 0,
      timeToExploV: 0,
      hitDamage: 10,
      bloodOnHit: 4,
      startFrame: -1,
      numFrames: 0,
      loopAnim: false,
      shotType: 0,
      repeat: 1,
      colorBullets: 68,
      splinterAmount: 10,
      splinterColour: 0,
      splinterType: 2,
      splinterScatter: 0,
      objTrailType: 9,
      objTrailDelay: 2,
      partTrailType: 0,
      partTrailObj: -1,
      partTrailDelay: 0,
      speed: 100,
    },
    {
      detectDistance: 0,
      blowAway: 0.05000000074505806,
      gravity: 0.01068115234375,
      exploSound: -1,
      addSpeed: 0,
      distribution: 0.0152587890625,
      multSpeed: 1,
      createOnExp: 2,
      dirtEffect: -1,
      wormExplode: false,
      explGround: true,
      wormCollide: true,
      collideWithObjects: false,
      affectByExplosions: false,
      bounce: 0,
      bounceFriction: 0.800000011920929,
      timeToExplo: 0,
      timeToExploV: 0,
      hitDamage: 2,
      bloodOnHit: 3,
      startFrame: -1,
      numFrames: 0,
      loopAnim: false,
      shotType: 0,
      repeat: 1,
      colorBullets: 75,
      splinterAmount: 0,
      splinterColour: 0,
      splinterType: -1,
      splinterScatter: 0,
      objTrailType: -1,
      objTrailDelay: 0,
      partTrailType: 0,
      partTrailObj: -1,
      partTrailDelay: 0,
      speed: 220,
    },
    {
      detectDistance: 1,
      blowAway: 0.20000000298023224,
      gravity: 0,
      exploSound: -1,
      addSpeed: 0,
      distribution: 0,
      multSpeed: 1,
      createOnExp: 1,
      dirtEffect: -1,
      wormExplode: true,
      explGround: true,
      wormCollide: true,
      collideWithObjects: false,
      affectByExplosions: false,
      bounce: 0,
      bounceFriction: 0.800000011920929,
      timeToExplo: 0,
      timeToExploV: 0,
      hitDamage: 0,
      bloodOnHit: 7,
      startFrame: 195,
      numFrames: 0,
      loopAnim: false,
      shotType: 4,
      repeat: 8,
      colorBullets: 0,
      splinterAmount: 2,
      splinterColour: 75,
      splinterType: 3,
      splinterScatter: 0,
      objTrailType: -1,
      objTrailDelay: 0,
      partTrailType: 0,
      partTrailObj: -1,
      partTrailDelay: 0,
      speed: 200,
    },
  ],
  nObjects: [
    {
      detectDistance: 0,
      gravity: 0.0152587890625,
      speed: 1.2000000476837158,
      speedV: 0.4000000059604645,
      distribution: 0.1220703125,
      blowAway: 0,
      bounce: 0.10000000149011612,
      hitDamage: 0,
      wormExplode: false,
      explGround: true,
      wormDestroy: false,
      bloodOnHit: 0,
      startFrame: 165,
      numFrames: 3,
      drawOnMap: true,
      colorBullets: 0,
      createOnExp: -1,
      affectByExplosions: false,
      dirtEffect: -1,
      splinterAmount: 0,
      splinterColour: 0,
      splinterType: -1,
      bloodTrail: true,
      bloodTrailDelay: 10,
      leaveObj: -1,
      leaveObjDelay: 0,
      timeToExplo: 0,
      timeToExploV: 0,
    },
    {
      detectDistance: 0,
      gravity: 0.0152587890625,
      speed: 1.2000000476837158,
      speedV: 0.4000000059604645,
      distribution: 0.1220703125,
      blowAway: 0,
      bounce: 0.10000000149011612,
      hitDamage: 0,
      wormExplode: false,
      explGround: true,
      wormDestroy: false,
      bloodOnHit: 0,
      startFrame: 169,
      numFrames: 3,
      drawOnMap: true,
      colorBullets: 0,
      createOnExp: -1,
      affectByExplosions: false,
      dirtEffect: -1,
      splinterAmount: 0,
      splinterColour: 0,
      splinterType: -1,
      bloodTrail: true,
      bloodTrailDelay: 10,
      leaveObj: -1,
      leaveObjDelay: 0,
      timeToExplo: 0,
      timeToExploV: 0,
    },
    {
      detectDistance: 0,
      gravity: 0.01068115234375,
      speed: 0.800000011920929,
      speedV: 0.4000000059604645,
      distribution: 0.152587890625,
      blowAway: 0,
      bounce: 0,
      hitDamage: 0,
      wormExplode: false,
      explGround: true,
      wormDestroy: false,
      bloodOnHit: 0,
      startFrame: 0,
      numFrames: 0,
      drawOnMap: false,
      colorBullets: 17,
      createOnExp: -1,
      affectByExplosions: false,
      dirtEffect: -1,
      splinterAmount: 0,
      splinterColour: 0,
      splinterType: -1,
      bloodTrail: false,
      bloodTrailDelay: 0,
      leaveObj: -1,
      leaveObjDelay: 0,
      timeToExplo: 0,
      timeToExploV: 0,
    },
    {
      detectDistance: 0,
      gravity: 0.01068115234375,
      speed: 1.600000023841858,
      speedV: 1.399999976158142,
      distribution: 0.030517578125,
      blowAway: 0.10000000149011612,
      bounce: 0,
      hitDamage: 2,
      wormExplode: false,
      explGround: true,
      wormDestroy: true,
      bloodOnHit: 1,
      startFrame: 0,
      numFrames: 0,
      drawOnMap: false,
      colorBullets: 67,
      createOnExp: 2,
      affectByExplosions: false,
      dirtEffect: -1,
      splinterAmount: 0,
      splinterColour: 0,
      splinterType: -1,
      bloodTrail: false,
      bloodTrailDelay: 0,
      leaveObj: -1,
      leaveObjDelay: 0,
      timeToExplo: 0,
      timeToExploV: 0,
    },
    {
      detectDistance: 0,
      gravity: 0.01068115234375,
      speed: 1.899999976158142,
      speedV: 1.600000023841858,
      distribution: 0.030517578125,
      blowAway: 0.10000000149011612,
      bounce: 0,
      hitDamage: 3,
      wormExplode: false,
      explGround: true,
      wormDestroy: true,
      bloodOnHit: 1,
      startFrame: 0,
      numFrames: 0,
      drawOnMap: false,
      colorBullets: 67,
      createOnExp: 2,
      affectByExplosions: false,
      dirtEffect: -1,
      splinterAmount: 0,
      splinterColour: 0,
      splinterType: -1,
      bloodTrail: false,
      bloodTrailDelay: 0,
      leaveObj: -1,
      leaveObjDelay: 0,
      timeToExplo: 0,
      timeToExploV: 0,
    },
    {
      detectDistance: 0,
      gravity: 0.01068115234375,
      speed: 2.200000047683716,
      speedV: 1.7999999523162842,
      distribution: 0.030517578125,
      blowAway: 0.15000000596046448,
      bounce: 0,
      hitDamage: 4,
      wormExplode: false,
      explGround: true,
      wormDestroy: true,
      bloodOnHit: 1,
      startFrame: 0,
      numFrames: 0,
      drawOnMap: false,
      colorBullets: 67,
      createOnExp: 2,
      affectByExplosions: false,
      dirtEffect: -1,
      splinterAmount: 0,
      splinterColour: 0,
      splinterType: -1,
      bloodTrail: false,
      bloodTrailDelay: 0,
      leaveObj: -1,
      leaveObjDelay: 0,
      timeToExplo: 0,
      timeToExploV: 0,
    },
    {
      detectDistance: 0,
      gravity: 0.01068115234375,
      speed: 0.75,
      speedV: 0.4000000059604645,
      distribution: 0.30517578125,
      blowAway: 0,
      bounce: 0,
      hitDamage: 0,
      wormExplode: false,
      explGround: true,
      wormDestroy: false,
      bloodOnHit: 0,
      startFrame: 0,
      numFrames: 0,
      drawOnMap: false,
      colorBullets: 82,
      createOnExp: -1,
      affectByExplosions: false,
      dirtEffect: -1,
      splinterAmount: 0,
      splinterColour: 0,
      splinterType: -1,
      bloodTrail: true,
      bloodTrailDelay: 10,
      leaveObj: -1,
      leaveObjDelay: 0,
      timeToExplo: 0,
      timeToExploV: 0,
    },
    {
      detectDistance: 0,
      gravity: 0.0152587890625,
      speed: 0,
      speedV: 0,
      distribution: 0.1220703125,
      blowAway: 0,
      bounce: 0.4000000059604645,
      hitDamage: 0,
      wormExplode: false,
      explGround: true,
      wormDestroy: false,
      bloodOnHit: 0,
      startFrame: 155,
      numFrames: 3,
      drawOnMap: true,
      colorBullets: 0,
      createOnExp: -1,
      affectByExplosions: false,
      dirtEffect: -1,
      splinterAmount: 0,
      splinterColour: 0,
      splinterType: -1,
      bloodTrail: false,
      bloodTrailDelay: 0,
      leaveObj: -1,
      leaveObjDelay: 0,
      timeToExplo: 0,
      timeToExploV: 0,
    },
    {
      detectDistance: 1,
      gravity: 0,
      speed: 2.200000047683716,
      speedV: 1.399999976158142,
      distribution: 0.152587890625,
      blowAway: 0,
      bounce: 0,
      hitDamage: 1,
      wormExplode: true,
      explGround: true,
      wormDestroy: true,
      bloodOnHit: 5,
      startFrame: 202,
      numFrames: 3,
      drawOnMap: false,
      colorBullets: 0,
      createOnExp: 1,
      affectByExplosions: false,
      dirtEffect: -1,
      splinterAmount: 0,
      splinterColour: 0,
      splinterType: -1,
      bloodTrail: false,
      bloodTrailDelay: 0,
      leaveObj: -1,
      leaveObjDelay: 0,
      timeToExplo: 0,
      timeToExploV: 0,
    },
    {
      detectDistance: 0,
      gravity: 0.0152587890625,
      speed: 2,
      speedV: 1.2000000476837158,
      distribution: 0.30517578125,
      blowAway: 0,
      bounce: 0.6000000238418579,
      hitDamage: 0,
      wormExplode: false,
      explGround: false,
      wormDestroy: false,
      bloodOnHit: 0,
      startFrame: 177,
      numFrames: 0,
      drawOnMap: false,
      colorBullets: 0,
      createOnExp: 0,
      affectByExplosions: true,
      dirtEffect: -1,
      splinterAmount: 3,
      splinterColour: 75,
      splinterType: 5,
      bloodTrail: false,
      bloodTrailDelay: 0,
      leaveObj: 5,
      leaveObjDelay: 5,
      timeToExplo: 140,
      timeToExploV: 50,
    },
    {
      detectDistance: 1,
      gravity: 0.0152587890625,
      speed: 1.399999976158142,
      speedV: 0.20000000298023224,
      distribution: 0.30517578125,
      blowAway: 0.15000000596046448,
      bounce: 0,
      hitDamage: 3,
      wormExplode: true,
      explGround: true,
      wormDestroy: true,
      bloodOnHit: 10,
      startFrame: 195,
      numFrames: 0,
      drawOnMap: false,
      colorBullets: 0,
      createOnExp: 0,
      affectByExplosions: false,
      dirtEffect: -1,
      splinterAmount: 5,
      splinterColour: 66,
      splinterType: 3,
      bloodTrail: false,
      bloodTrailDelay: 0,
      leaveObj: 3,
      leaveObjDelay: 8,
      timeToExplo: 0,
      timeToExploV: 0,
    },
    {
      detectDistance: 2,
      gravity: 0.00457763671875,
      speed: 0.4000000059604645,
      speedV: 0.10000000149011612,
      distribution: 0.30517578125,
      blowAway: 0,
      bounce: 0,
      hitDamage: 5,
      wormExplode: true,
      explGround: true,
      wormDestroy: true,
      bloodOnHit: 0,
      startFrame: 0,
      numFrames: 0,
      drawOnMap: false,
      colorBullets: 169,
      createOnExp: 4,
      affectByExplosions: true,
      dirtEffect: 1,
      splinterAmount: 0,
      splinterColour: 0,
      splinterType: -1,
      bloodTrail: false,
      bloodTrailDelay: 0,
      leaveObj: 13,
      leaveObjDelay: 8,
      timeToExplo: 400,
      timeToExploV: 100,
    },
    {
      detectDistance: 0,
      gravity: 0.0152587890625,
      speed: 1.5,
      speedV: 0.8999999761581421,
      distribution: 0.152587890625,
      blowAway: 0,
      bounce: 0,
      hitDamage: 0,
      wormExplode: false,
      explGround: true,
      wormDestroy: false,
      bloodOnHit: 0,
      startFrame: 0,
      numFrames: 0,
      drawOnMap: false,
      colorBullets: 10,
      createOnExp: 8,
      affectByExplosions: false,
      dirtEffect: -1,
      splinterAmount: 0,
      splinterColour: 0,
      splinterType: -1,
      bloodTrail: false,
      bloodTrailDelay: 0,
      leaveObj: 8,
      leaveObjDelay: 4,
      timeToExplo: 50,
      timeToExploV: 10,
    },
    {
      detectDistance: 0,
      gravity: 0,
      speed: 5.199999809265137,
      speedV: 0,
      distribution: 0.152587890625,
      blowAway: 0,
      bounce: 0,
      hitDamage: 0,
      wormExplode: false,
      explGround: false,
      wormDestroy: false,
      bloodOnHit: 0,
      startFrame: 0,
      numFrames: 0,
      drawOnMap: false,
      colorBullets: 0,
      createOnExp: -1,
      affectByExplosions: false,
      dirtEffect: 4,
      splinterAmount: 1,
      splinterColour: 0,
      splinterType: 22,
      bloodTrail: false,
      bloodTrailDelay: 0,
      leaveObj: -1,
      leaveObjDelay: 1,
      timeToExplo: 1,
      timeToExploV: 0,
    },
    {
      detectDistance: 1,
      gravity: 0,
      speed: 1.899999976158142,
      speedV: 0,
      distribution: 0.457763671875,
      blowAway: 0.05000000074505806,
      bounce: 0,
      hitDamage: 0,
      wormExplode: false,
      explGround: false,
      wormDestroy: false,
      bloodOnHit: 0,
      startFrame: 155,
      numFrames: 3,
      drawOnMap: false,
      colorBullets: 0,
      createOnExp: 9,
      affectByExplosions: false,
      dirtEffect: 0,
      splinterAmount: 20,
      splinterColour: 239,
      splinterType: 5,
      bloodTrail: false,
      bloodTrailDelay: 0,
      leaveObj: 6,
      leaveObjDelay: 5,
      timeToExplo: 40,
      timeToExploV: 0,
    },
    {
      detectDistance: 1,
      gravity: 0,
      speed: 1.899999976158142,
      speedV: 0,
      distribution: 0.457763671875,
      blowAway: 0.05000000074505806,
      bounce: 0,
      hitDamage: 0,
      wormExplode: false,
      explGround: false,
      wormDestroy: false,
      bloodOnHit: 0,
      startFrame: 155,
      numFrames: 3,
      drawOnMap: false,
      colorBullets: 0,
      createOnExp: 9,
      affectByExplosions: true,
      dirtEffect: -1,
      splinterAmount: 10,
      splinterColour: 0,
      splinterType: 14,
      bloodTrail: false,
      bloodTrailDelay: 0,
      leaveObj: 6,
      leaveObjDelay: 5,
      timeToExplo: 30,
      timeToExploV: 10,
    },
    {
      detectDistance: 1,
      gravity: 0,
      speed: 1.899999976158142,
      speedV: 0,
      distribution: 0.457763671875,
      blowAway: 0.05000000074505806,
      bounce: 0,
      hitDamage: 0,
      wormExplode: false,
      explGround: false,
      wormDestroy: false,
      bloodOnHit: 0,
      startFrame: 155,
      numFrames: 3,
      drawOnMap: false,
      colorBullets: 0,
      createOnExp: 9,
      affectByExplosions: true,
      dirtEffect: -1,
      splinterAmount: 4,
      splinterColour: 0,
      splinterType: 14,
      bloodTrail: false,
      bloodTrailDelay: 0,
      leaveObj: 6,
      leaveObjDelay: 5,
      timeToExplo: 30,
      timeToExploV: 10,
    },
    {
      detectDistance: 0,
      gravity: 0,
      speed: 0.5,
      speedV: 0,
      distribution: 0.48828125,
      blowAway: 0,
      bounce: 0,
      hitDamage: 0,
      wormExplode: false,
      explGround: false,
      wormDestroy: false,
      bloodOnHit: 0,
      startFrame: 0,
      numFrames: 0,
      drawOnMap: false,
      colorBullets: 0,
      createOnExp: -1,
      affectByExplosions: true,
      dirtEffect: 0,
      splinterAmount: 0,
      splinterColour: 0,
      splinterType: -1,
      bloodTrail: false,
      bloodTrailDelay: 0,
      leaveObj: -1,
      leaveObjDelay: 0,
      timeToExplo: 10,
      timeToExploV: 0,
    },
    {
      detectDistance: 0,
      gravity: 0,
      speed: 0,
      speedV: 0,
      distribution: 0,
      blowAway: 0,
      bounce: 0,
      hitDamage: 0,
      wormExplode: false,
      explGround: false,
      wormDestroy: false,
      bloodOnHit: 0,
      startFrame: 0,
      numFrames: 0,
      drawOnMap: false,
      colorBullets: 0,
      createOnExp: -1,
      affectByExplosions: true,
      dirtEffect: 1,
      splinterAmount: 3,
      splinterColour: 0,
      splinterType: 17,
      bloodTrail: false,
      bloodTrailDelay: 0,
      leaveObj: -1,
      leaveObjDelay: 0,
      timeToExplo: 10,
      timeToExploV: 0,
    },
    {
      detectDistance: 0,
      gravity: 0,
      speed: 0,
      speedV: 0,
      distribution: 0,
      blowAway: 0,
      bounce: 0,
      hitDamage: 0,
      wormExplode: false,
      explGround: false,
      wormDestroy: false,
      bloodOnHit: 0,
      startFrame: 0,
      numFrames: 0,
      drawOnMap: false,
      colorBullets: 0,
      createOnExp: -1,
      affectByExplosions: true,
      dirtEffect: 2,
      splinterAmount: 1,
      splinterColour: 0,
      splinterType: 18,
      bloodTrail: false,
      bloodTrailDelay: 0,
      leaveObj: -1,
      leaveObjDelay: 0,
      timeToExplo: 10,
      timeToExploV: 0,
    },
    {
      detectDistance: 3,
      gravity: 0.0152587890625,
      speed: 0,
      speedV: 0,
      distribution: 0,
      blowAway: 0,
      bounce: 0.4000000059604645,
      hitDamage: 0,
      wormExplode: false,
      explGround: false,
      wormDestroy: false,
      bloodOnHit: 0,
      startFrame: 213,
      numFrames: 0,
      drawOnMap: false,
      colorBullets: 0,
      createOnExp: -1,
      affectByExplosions: true,
      dirtEffect: -1,
      splinterAmount: 0,
      splinterColour: 0,
      splinterType: -1,
      bloodTrail: false,
      bloodTrailDelay: 0,
      leaveObj: -1,
      leaveObjDelay: 0,
      timeToExplo: 0,
      timeToExploV: 0,
    },
    {
      detectDistance: 3,
      gravity: 0.0152587890625,
      speed: 0,
      speedV: 0,
      distribution: 0,
      blowAway: 0,
      bounce: 0.4000000059604645,
      hitDamage: 0,
      wormExplode: false,
      explGround: false,
      wormDestroy: false,
      bloodOnHit: 0,
      startFrame: 212,
      numFrames: 0,
      drawOnMap: false,
      colorBullets: 0,
      createOnExp: -1,
      affectByExplosions: true,
      dirtEffect: -1,
      splinterAmount: 0,
      splinterColour: 0,
      splinterType: -1,
      bloodTrail: false,
      bloodTrailDelay: 0,
      leaveObj: -1,
      leaveObjDelay: 0,
      timeToExplo: 0,
      timeToExploV: 0,
    },
    {
      detectDistance: 0,
      gravity: 0.01068115234375,
      speed: 0.800000011920929,
      speedV: 0.4000000059604645,
      distribution: 0.152587890625,
      blowAway: 0,
      bounce: 0,
      hitDamage: 0,
      wormExplode: false,
      explGround: true,
      wormDestroy: false,
      bloodOnHit: 0,
      startFrame: 0,
      numFrames: 0,
      drawOnMap: true,
      colorBullets: 67,
      createOnExp: -1,
      affectByExplosions: true,
      dirtEffect: -1,
      splinterAmount: 0,
      splinterColour: 0,
      splinterType: -1,
      bloodTrail: false,
      bloodTrailDelay: 0,
      leaveObj: -1,
      leaveObjDelay: 0,
      timeToExplo: 0,
      timeToExploV: 0,
    },
    {
      detectDistance: 1,
      gravity: 0.006103515625,
      speed: 1.2000000476837158,
      speedV: 0.5,
      distribution: 0.0457763671875,
      blowAway: 0.019999999552965164,
      bounce: 0.25,
      hitDamage: 3,
      wormExplode: false,
      explGround: true,
      wormDestroy: true,
      bloodOnHit: 0,
      startFrame: 159,
      numFrames: 5,
      drawOnMap: false,
      colorBullets: 0,
      createOnExp: 9,
      affectByExplosions: true,
      dirtEffect: -1,
      splinterAmount: 0,
      splinterColour: 0,
      splinterType: -1,
      bloodTrail: false,
      bloodTrailDelay: 0,
      leaveObj: -1,
      leaveObjDelay: 0,
      timeToExplo: 400,
      timeToExploV: 50,
    },
  ],
  sObjects: [
    {
      startSound: 9,
      numSounds: 4,
      animDelay: 2,
      startFrame: 40,
      numFrames: 15,
      detectRange: 20,
      damage: 15,
      blowAway: 0.0457763671875,
      shadow: false,
      shake: 4,
      flash: 8,
      dirtEffect: 0,
    },
    {
      startSound: 9,
      numSounds: 4,
      animDelay: 2,
      startFrame: 45,
      numFrames: 10,
      detectRange: 14,
      damage: 10,
      blowAway: 0.0457763671875,
      shadow: false,
      shake: 2,
      flash: 4,
      dirtEffect: 1,
    },
    {
      startSound: 7,
      numSounds: 2,
      animDelay: 2,
      startFrame: 50,
      numFrames: 5,
      detectRange: 8,
      damage: 5,
      blowAway: 0.0457763671875,
      shadow: false,
      shake: 1,
      flash: 0,
      dirtEffect: 2,
    },
    {
      startSound: -1,
      numSounds: 0,
      animDelay: 4,
      startFrame: 64,
      numFrames: 4,
      detectRange: 0,
      damage: 0,
      blowAway: 0,
      shadow: false,
      shake: 0,
      flash: 0,
      dirtEffect: -1,
    },
    {
      startSound: -1,
      numSounds: 0,
      animDelay: 4,
      startFrame: 101,
      numFrames: 2,
      detectRange: 0,
      damage: 0,
      blowAway: 0,
      shadow: true,
      shake: 0,
      flash: 0,
      dirtEffect: 5,
    },
    {
      startSound: -1,
      numSounds: 0,
      animDelay: 2,
      startFrame: 104,
      numFrames: 3,
      detectRange: 0,
      damage: 0,
      blowAway: 0,
      shadow: false,
      shake: 0,
      flash: 0,
      dirtEffect: -1,
    },
    {
      startSound: -1,
      numSounds: 0,
      animDelay: 2,
      startFrame: 76,
      numFrames: 2,
      detectRange: 0,
      damage: 0,
      blowAway: 0,
      shadow: true,
      shake: 0,
      flash: 0,
      dirtEffect: -1,
    },
    {
      startSound: 23,
      numSounds: 1,
      animDelay: 2,
      startFrame: 91,
      numFrames: 4,
      detectRange: 0,
      damage: 0,
      blowAway: 0,
      shadow: true,
      shake: 0,
      flash: 0,
      dirtEffect: -1,
    },
    {
      startSound: -1,
      numSounds: 0,
      animDelay: 2,
      startFrame: 49,
      numFrames: 6,
      detectRange: 8,
      damage: 7,
      blowAway: 0,
      shadow: true,
      shake: 0,
      flash: 0,
      dirtEffect: 2,
    },
    {
      startSound: -1,
      numSounds: 0,
      animDelay: 2,
      startFrame: 53,
      numFrames: 2,
      detectRange: 6,
      damage: 0,
      blowAway: 0,
      shadow: true,
      shake: 0,
      flash: 0,
      dirtEffect: 5,
    },
    {
      startSound: 9,
      numSounds: 4,
      animDelay: 2,
      startFrame: 47,
      numFrames: 8,
      detectRange: 10,
      damage: 8,
      blowAway: 0.0457763671875,
      shadow: true,
      shake: 2,
      flash: 3,
      dirtEffect: 8,
    },
    {
      startSound: 9,
      numSounds: 4,
      animDelay: 2,
      startFrame: 42,
      numFrames: 13,
      detectRange: 15,
      damage: 13,
      blowAway: 0.0457763671875,
      shadow: true,
      shake: 3,
      flash: 6,
      dirtEffect: 1,
    },
    {
      startSound: 29,
      numSounds: 1,
      animDelay: 6,
      startFrame: 65,
      numFrames: 3,
      detectRange: 0,
      damage: 0,
      blowAway: 0,
      shadow: true,
      shake: 3,
      flash: 5,
      dirtEffect: 1,
    },
    {
      startSound: -1,
      numSounds: 1,
      animDelay: 6,
      startFrame: 79,
      numFrames: 0,
      detectRange: 0,
      damage: 0,
      blowAway: 0,
      shadow: false,
      shake: 0,
      flash: 0,
      dirtEffect: -1,
    },
  ],
  textures: [
    {
      nDrawBack: true,
      mFrame: 0,
      sFrame: 73,
      rFrame: 2,
    },
    {
      nDrawBack: true,
      mFrame: 1,
      sFrame: 73,
      rFrame: 2,
    },
    {
      nDrawBack: true,
      mFrame: 2,
      sFrame: 73,
      rFrame: 2,
    },
    {
      nDrawBack: true,
      mFrame: 37,
      sFrame: 73,
      rFrame: 2,
    },
    {
      nDrawBack: false,
      mFrame: 0,
      sFrame: 87,
      rFrame: 2,
    },
    {
      nDrawBack: true,
      mFrame: 39,
      sFrame: 73,
      rFrame: 2,
    },
    {
      nDrawBack: false,
      mFrame: 38,
      sFrame: 82,
      rFrame: 2,
    },
    {
      nDrawBack: true,
      mFrame: 99,
      sFrame: 73,
      rFrame: 2,
    },
    {
      nDrawBack: true,
      mFrame: 37,
      sFrame: 73,
      rFrame: 2,
    },
  ],
  colorAnim: [
    129,
    131,
    133,
    136,
    152,
    159,
    168,
    171,
  ],
  textSpritesStartIdx: 240,
  crossHairSprite: 153,
}
