{
  "name":"Jamaica v3.1",
  "author":"BenBen",
  "constants":
  {
    "nrInitialLength": 250,
    "nrAttachLength": 28.125,
    "minBounceUp": -0.8125,
    "minBounceDown": 0.8125,
    "minBounceHoriz": 0.8125,
    "wormGravity": 0.02288818359375,
    "wormAcc": 0.0457763671875,
    "wormMaxVel": 0.4453125,
    "jumpForce": 0.85546875,
    "maxAimVel": 0.05243098363280296,
    "aimAcc": 0.002996056340634823,
    "ninjaropeGravity": 0.0152587890625,
    "nrMinLength": 10.625,
    "nrMaxLength": 125,
    "bonusGravity": 0.02288818359375,
    "wormFricMult": 0.8899999856948853,
    "aimFric": 0.8299999833106995,
    "nrThrowVel": 4,
    "nrForce": 0.0833333358168602,
    "bonusBounce": 0.4000000059604645,
    "bonusFlickerTime": 220,
    "aimMaxAngle": 1.5707963705062866,
    "aimMinAngle": -0.9817476868629456,
    "nrAdjustVel": 1.5,
    "nrColourBegin": 62,
    "nrColourEnd": 5,
    "bonusExplodeRisk": 50,
    "bonusHealthVar": 51,
    "bonusMinHealth": 10,
    "firstBloodColour": 80,
    "numBloodColours": 2,
    "bObjGravity": 0.0152587890625,
    "splinterLarpaVelDiv": 3,
    "splinterCracklerVelDiv": 3,
    "fallDamageHoriz": 0,
    "fallDamageDown": 0,
    "fallDamageUp": 0,
    "hFallDamage": false,
    "hBonusReloadOnly": false
  },
  "weapons":
  [
    {
      "parts": 15,
      "bulletType": 0,
      "bulletSpeed": 2.5,
      "bulletSpeedInherit": 0.4000000059604645,
      "distribution": 0.18310546875,
      "recoil": 0.6499999761581421,
      "ammo": 6,
      "delay": 55,
      "loadingTime": 250,
      "leaveShells": 1,
      "leaveShellDelay": 28,
      "fireCone": 9,
      "laserSight": false,
      "laserBeam": false,
      "launchSound": 0,
      "playReloadSound": true,
      "name": "SHOTGUN"
    },
    {
      "parts": 1,
      "bulletType": 1,
      "bulletSpeed": 3.119999885559082,
      "bulletSpeedInherit": 0.3205128312110901,
      "distribution": 0.0762939453125,
      "recoil": 0.029999999329447746,
      "ammo": 164,
      "delay": 1,
      "loadingTime": 319,
      "leaveShells": 2,
      "leaveShellDelay": 1,
      "fireCone": 6,
      "laserSight": true,
      "laserBeam": false,
      "launchSound": 1,
      "playReloadSound": true,
      "name": "FUSIL ASSAUT"
    },
    {
      "parts": 1,
      "bulletType": 2,
      "bulletSpeed": 2.5,
      "bulletSpeedInherit": 0.4000000059604645,
      "distribution": 0,
      "recoil": 0.699999988079071,
      "ammo": 1,
      "delay": 0,
      "loadingTime": 275,
      "leaveShells": 1,
      "leaveShellDelay": 1,
      "fireCone": 8,
      "laserSight": true,
      "laserBeam": false,
      "launchSound": 8,
      "playReloadSound": true,
      "name": "SNIPPER ELITE"
    },
    {
      "parts": 1,
      "bulletType": 3,
      "bulletSpeed": 2,
      "bulletSpeedInherit": 0.5,
      "distribution": 0,
      "recoil": 0.15000000596046448,
      "ammo": 3,
      "delay": 75,
      "loadingTime": 410,
      "leaveShells": 0,
      "leaveShellDelay": 1,
      "fireCone": 9,
      "laserSight": false,
      "laserBeam": false,
      "launchSound": 3,
      "playReloadSound": true,
      "name": "BAZOOKA M72"
    },
    {
      "parts": 1,
      "bulletType": 4,
      "bulletSpeed": 2,
      "bulletSpeedInherit": 0.5,
      "distribution": 0.18310546875,
      "recoil": 0,
      "ammo": 10,
      "delay": 20,
      "loadingTime": 225,
      "leaveShells": 0,
      "leaveShellDelay": 1,
      "fireCone": 0,
      "laserSight": false,
      "laserBeam": false,
      "launchSound": 4,
      "playReloadSound": true,
      "name": "TERRE"
    },
    {
      "parts": 1,
      "bulletType": 5,
      "bulletSpeed": 2,
      "bulletSpeedInherit": 0.5,
      "distribution": 0.0000457763671875,
      "recoil": 0,
      "ammo": 7,
      "delay": 30,
      "loadingTime": 366,
      "leaveShells": 0,
      "leaveShellDelay": 1,
      "fireCone": 0,
      "laserSight": false,
      "laserBeam": false,
      "launchSound": 7,
      "playReloadSound": false,
      "name": "MORTIER M9"
    },
    {
      "parts": 1,
      "bulletType": 6,
      "bulletSpeed": 2.5,
      "bulletSpeedInherit": 0.4000000059604645,
      "distribution": 0.1220703125,
      "recoil": 0.019999999552965164,
      "ammo": 15,
      "delay": 7,
      "loadingTime": 450,
      "leaveShells": 0,
      "leaveShellDelay": 1,
      "fireCone": 0,
      "laserSight": false,
      "laserBeam": false,
      "launchSound": 5,
      "playReloadSound": false,
      "name": "BANANE"
    },
    {
      "parts": 1,
      "bulletType": 7,
      "bulletSpeed": 2.5,
      "bulletSpeedInherit": 0.4000000059604645,
      "distribution": 0.00152587890625,
      "recoil": 0,
      "ammo": 9,
      "delay": 35,
      "loadingTime": 410,
      "leaveShells": 1,
      "leaveShellDelay": 1,
      "fireCone": 8,
      "laserSight": true,
      "laserBeam": false,
      "launchSound": 23,
      "playReloadSound": true,
      "name": "WINCHESTER 32"
    },
    {
      "parts": 2,
      "bulletType": 8,
      "bulletSpeed": 2,
      "bulletSpeedInherit": 0.5,
      "distribution": 0.030517578125,
      "recoil": 0.15000000596046448,
      "ammo": 30,
      "delay": 8,
      "loadingTime": 450,
      "leaveShells": 0,
      "leaveShellDelay": 1,
      "fireCone": 8,
      "laserSight": false,
      "laserBeam": false,
      "launchSound": 5,
      "playReloadSound": true,
      "name": "SUPER BALISTE"
    },
    {
      "parts": 2,
      "bulletType": 9,
      "bulletSpeed": 1.399999976158142,
      "bulletSpeedInherit": 0.7142857313156128,
      "distribution": 0.152587890625,
      "recoil": 0,
      "ammo": 130,
      "delay": 2,
      "loadingTime": 320,
      "leaveShells": 0,
      "leaveShellDelay": 1,
      "fireCone": 0,
      "laserSight": false,
      "laserBeam": false,
      "launchSound": -1,
      "playReloadSound": false,
      "name": "LANCE FLAMMES"
    },
    {
      "parts": 1,
      "bulletType": 10,
      "bulletSpeed": 1.7000000476837158,
      "bulletSpeedInherit": 0.5882352590560913,
      "distribution": 0.1068115234375,
      "recoil": 0,
      "ammo": 3,
      "delay": 20,
      "loadingTime": 260,
      "leaveShells": 0,
      "leaveShellDelay": 1,
      "fireCone": 0,
      "laserSight": false,
      "laserBeam": false,
      "launchSound": 5,
      "playReloadSound": false,
      "name": "GRENADE"
    },
    {
      "parts": 1,
      "bulletType": 11,
      "bulletSpeed": 1.7999999523162842,
      "bulletSpeedInherit": 0.5555555820465088,
      "distribution": 0,
      "recoil": 0,
      "ammo": 5,
      "delay": 20,
      "loadingTime": 400,
      "leaveShells": 0,
      "leaveShellDelay": 1,
      "fireCone": 0,
      "laserSight": false,
      "laserBeam": false,
      "launchSound": 4,
      "playReloadSound": true,
      "name": "BOUCLIER"
    },
    {
      "parts": 1,
      "bulletType": 12,
      "bulletSpeed": 1.5,
      "bulletSpeedInherit": 0.6666666865348816,
      "distribution": 0,
      "recoil": 0.30000001192092896,
      "ammo": 3,
      "delay": 80,
      "loadingTime": 340,
      "leaveShells": 0,
      "leaveShellDelay": 1,
      "fireCone": 8,
      "laserSight": false,
      "laserBeam": false,
      "launchSound": 4,
      "playReloadSound": true,
      "name": "2002 BLASTER"
    },
    {
      "parts": 1,
      "bulletType": 13,
      "bulletSpeed": 1,
      "bulletSpeedInherit": 0,
      "distribution": 0,
      "recoil": 0.5699999928474426,
      "ammo": 15,
      "delay": 20,
      "loadingTime": 811,
      "leaveShells": 1,
      "leaveShellDelay": 1,
      "fireCone": 0,
      "laserSight": false,
      "laserBeam": false,
      "launchSound": 25,
      "playReloadSound": false,
      "name": "REMINGTON222"
    },
    {
      "parts": 1,
      "bulletType": 14,
      "bulletSpeed": 2.0999999046325684,
      "bulletSpeedInherit": 0.4761905074119568,
      "distribution": 0,
      "recoil": 0.05999999865889549,
      "ammo": 3,
      "delay": 36,
      "loadingTime": 450,
      "leaveShells": 0,
      "leaveShellDelay": 1,
      "fireCone": 6,
      "laserSight": false,
      "laserBeam": false,
      "launchSound": 23,
      "playReloadSound": true,
      "name": "MISSILE TAUPE"
    },
    {
      "parts": 4,
      "bulletType": 15,
      "bulletSpeed": 1.7000000476837158,
      "bulletSpeedInherit": 0.5882352590560913,
      "distribution": 0.06103515625,
      "recoil": 0.05000000074505806,
      "ammo": 3,
      "delay": 10,
      "loadingTime": 500,
      "leaveShells": 0,
      "leaveShellDelay": 1,
      "fireCone": 7,
      "laserSight": false,
      "laserBeam": false,
      "launchSound": 6,
      "playReloadSound": false,
      "name": "PERFORANT"
    },
    {
      "parts": 40,
      "bulletType": 16,
      "bulletSpeed": 2.5999999046325684,
      "bulletSpeedInherit": 0.38461539149284363,
      "distribution": 0.30517578125,
      "recoil": 2,
      "ammo": 2,
      "delay": 80,
      "loadingTime": 420,
      "leaveShells": 1,
      "leaveShellDelay": 28,
      "fireCone": 10,
      "laserSight": false,
      "laserBeam": false,
      "launchSound": 0,
      "playReloadSound": true,
      "name": "SUPER SHOTGUN"
    },
    {
      "parts": 2,
      "bulletType": 17,
      "bulletSpeed": 2,
      "bulletSpeedInherit": 0.5,
      "distribution": 0.1068115234375,
      "recoil": 0,
      "ammo": 1,
      "delay": 100,
      "loadingTime": 900,
      "leaveShells": 0,
      "leaveShellDelay": 1,
      "fireCone": 0,
      "laserSight": false,
      "laserBeam": false,
      "launchSound": 23,
      "playReloadSound": true,
      "name": "ROYAL BOMB"
    },
    {
      "parts": 1,
      "bulletType": 18,
      "bulletSpeed": 1.8600000143051147,
      "bulletSpeedInherit": 0.5376344323158264,
      "distribution": 0.1220703125,
      "recoil": 0.10000000149011612,
      "ammo": 1,
      "delay": 0,
      "loadingTime": 685,
      "leaveShells": 0,
      "leaveShellDelay": 1,
      "fireCone": 0,
      "laserSight": false,
      "laserBeam": false,
      "launchSound": -1,
      "playReloadSound": true,
      "name": "MINAGE BOMB"
    },
    {
      "parts": 1,
      "bulletType": 19,
      "bulletSpeed": 1.7000000476837158,
      "bulletSpeedInherit": 0.5882352590560913,
      "distribution": 0.30517578125,
      "recoil": 0,
      "ammo": 1,
      "delay": 0,
      "loadingTime": 1400,
      "leaveShells": 0,
      "leaveShellDelay": 1,
      "fireCone": 0,
      "laserSight": false,
      "laserBeam": false,
      "launchSound": 5,
      "playReloadSound": false,
      "name": "NUCLEAR FUSEE"
    },
    {
      "parts": 1,
      "bulletType": 20,
      "bulletSpeed": 1.7000000476837158,
      "bulletSpeedInherit": 0.5882352590560913,
      "distribution": 0.1068115234375,
      "recoil": 0,
      "ammo": 1,
      "delay": 20,
      "loadingTime": 600,
      "leaveShells": 0,
      "leaveShellDelay": 1,
      "fireCone": 0,
      "laserSight": false,
      "laserBeam": false,
      "launchSound": 5,
      "playReloadSound": true,
      "name": "SPACE BOMB"
    },
    {
      "parts": 4,
      "bulletType": 21,
      "bulletSpeed": 4,
      "bulletSpeedInherit": 0,
      "distribution": 0.152587890625,
      "recoil": 0.05999999865889549,
      "ammo": 100,
      "delay": 3,
      "loadingTime": 380,
      "leaveShells": 2,
      "leaveShellDelay": 1,
      "fireCone": 6,
      "laserSight": false,
      "laserBeam": false,
      "launchSound": 1,
      "playReloadSound": true,
      "name": "COLT COMMANDO"
    },
    {
      "parts": 7,
      "bulletType": 22,
      "bulletSpeed": 5,
      "bulletSpeedInherit": 0.20000000298023224,
      "distribution": 0,
      "recoil": 0.15000000596046448,
      "ammo": 10,
      "delay": 30,
      "loadingTime": 500,
      "leaveShells": 1,
      "leaveShellDelay": 1,
      "fireCone": 9,
      "laserSight": true,
      "laserBeam": false,
      "launchSound": 3,
      "playReloadSound": false,
      "name": "JAH"
    },
    {
      "parts": 1,
      "bulletType": 23,
      "bulletSpeed": 1,
      "bulletSpeedInherit": 1,
      "distribution": 0.213623046875,
      "recoil": 0,
      "ammo": 3,
      "delay": 20,
      "loadingTime": 280,
      "leaveShells": 0,
      "leaveShellDelay": 1,
      "fireCone": 0,
      "laserSight": false,
      "laserBeam": false,
      "launchSound": 5,
      "playReloadSound": true,
      "name": "MINE AERIENNE"
    },
    {
      "parts": 1,
      "bulletType": 24,
      "bulletSpeed": 3.5,
      "bulletSpeedInherit": 0.2857142984867096,
      "distribution": 0.4796142578125,
      "recoil": 0.30000001192092896,
      "ammo": 100,
      "delay": 8,
      "loadingTime": 1000,
      "leaveShells": 1,
      "leaveShellDelay": 1,
      "fireCone": 4,
      "laserSight": false,
      "laserBeam": false,
      "launchSound": 1,
      "playReloadSound": false,
      "name": "MITRAILLEUSE"
    },
    {
      "parts": 1,
      "bulletType": 25,
      "bulletSpeed": 1.5,
      "bulletSpeedInherit": 0.6666666865348816,
      "distribution": 0.01220703125,
      "recoil": 0.5,
      "ammo": 1,
      "delay": 0,
      "loadingTime": 640,
      "leaveShells": 0,
      "leaveShellDelay": 1,
      "fireCone": 8,
      "laserSight": false,
      "laserBeam": false,
      "launchSound": 3,
      "playReloadSound": true,
      "name": "BABYLONE"
    },
    {
      "parts": 1,
      "bulletType": 26,
      "bulletSpeed": 2,
      "bulletSpeedInherit": 0.5,
      "distribution": 0.00457763671875,
      "recoil": 0.4000000059604645,
      "ammo": 6,
      "delay": 10,
      "loadingTime": 450,
      "leaveShells": 0,
      "leaveShellDelay": 1,
      "fireCone": 8,
      "laserSight": false,
      "laserBeam": false,
      "launchSound": 9,
      "playReloadSound": true,
      "name": "CANNON"
    },
    {
      "parts": 1,
      "bulletType": 27,
      "bulletSpeed": 0.5199999809265137,
      "bulletSpeedInherit": 0,
      "distribution": 0,
      "recoil": 2,
      "ammo": 2,
      "delay": 100,
      "loadingTime": 600,
      "leaveShells": 0,
      "leaveShellDelay": 1,
      "fireCone": 0,
      "laserSight": false,
      "laserBeam": false,
      "launchSound": 3,
      "playReloadSound": true,
      "name": "AUTO THC"
    },
    {
      "parts": 1,
      "bulletType": 28,
      "bulletSpeed": 1,
      "bulletSpeedInherit": 0,
      "distribution": 0.000152587890625,
      "recoil": 0,
      "ammo": 80,
      "delay": 0,
      "loadingTime": 400,
      "leaveShells": 0,
      "leaveShellDelay": 1,
      "fireCone": 0,
      "laserSight": false,
      "laserBeam": true,
      "launchSound": -1,
      "playReloadSound": true,
      "name": "LASER"
    },
    {
      "parts": 8,
      "bulletType": 29,
      "bulletSpeed": 1.100000023841858,
      "bulletSpeedInherit": 0.9090908765792847,
      "distribution": 0.3662109375,
      "recoil": 0,
      "ammo": 1,
      "delay": 0,
      "loadingTime": 400,
      "leaveShells": 0,
      "leaveShellDelay": 1,
      "fireCone": 0,
      "laserSight": false,
      "laserBeam": false,
      "launchSound": 5,
      "playReloadSound": true,
      "name": "SPIKEBALLS"
    },
    {
      "parts": 1,
      "bulletType": 30,
      "bulletSpeed": 1.2999999523162842,
      "bulletSpeedInherit": 0.7692307829856873,
      "distribution": 0.030517578125,
      "recoil": 0,
      "ammo": 1,
      "delay": 0,
      "loadingTime": 260,
      "leaveShells": 0,
      "leaveShellDelay": 1,
      "fireCone": 0,
      "laserSight": false,
      "laserBeam": false,
      "launchSound": 5,
      "playReloadSound": false,
      "name": "NAPALM MINE"
    },
    {
      "parts": 1,
      "bulletType": 31,
      "bulletSpeed": 1.7000000476837158,
      "bulletSpeedInherit": 0.5882352590560913,
      "distribution": 0,
      "recoil": 0,
      "ammo": 2,
      "delay": 60,
      "loadingTime": 515,
      "leaveShells": 0,
      "leaveShellDelay": 1,
      "fireCone": 0,
      "laserSight": false,
      "laserBeam": false,
      "launchSound": 5,
      "playReloadSound": true,
      "name": "POLLEN BOMB"
    },
    {
      "parts": 1,
      "bulletType": 32,
      "bulletSpeed": 2.299999952316284,
      "bulletSpeedInherit": 0.43478262424468994,
      "distribution": 0,
      "recoil": 0.15000000596046448,
      "ammo": 1,
      "delay": 0,
      "loadingTime": 510,
      "leaveShells": 0,
      "leaveShellDelay": 1,
      "fireCone": 9,
      "laserSight": false,
      "laserBeam": false,
      "launchSound": 3,
      "playReloadSound": true,
      "name": "STINGER FIM92"
    },
    {
      "parts": 1,
      "bulletType": 33,
      "bulletSpeed": 1.7000000476837158,
      "bulletSpeedInherit": 0.5882352590560913,
      "distribution": 0.1068115234375,
      "recoil": 0,
      "ammo": 1,
      "delay": 0,
      "loadingTime": 600,
      "leaveShells": 0,
      "leaveShellDelay": 1,
      "fireCone": 0,
      "laserSight": false,
      "laserBeam": false,
      "launchSound": 5,
      "playReloadSound": false,
      "name": "CHIQUITA BOMB"
    },
    {
      "parts": 1,
      "bulletType": 34,
      "bulletSpeed": 1,
      "bulletSpeedInherit": 1,
      "distribution": 0.30517578125,
      "recoil": 0,
      "ammo": 1,
      "delay": 0,
      "loadingTime": 300,
      "leaveShells": 0,
      "leaveShellDelay": 1,
      "fireCone": 0,
      "laserSight": false,
      "laserBeam": false,
      "launchSound": 5,
      "playReloadSound": false,
      "name": "PIEGE BATARD"
    },
    {
      "parts": 1,
      "bulletType": 35,
      "bulletSpeed": 2,
      "bulletSpeedInherit": 0.5,
      "distribution": 0.18310546875,
      "recoil": 0,
      "ammo": 1,
      "delay": 20,
      "loadingTime": 1300,
      "leaveShells": 0,
      "leaveShellDelay": 1,
      "fireCone": 0,
      "laserSight": false,
      "laserBeam": false,
      "launchSound": 4,
      "playReloadSound": false,
      "name": "RELOU"
    },
    {
      "parts": 1,
      "bulletType": 36,
      "bulletSpeed": 1.9500000476837158,
      "bulletSpeedInherit": 0,
      "distribution": 0.0091552734375,
      "recoil": 0.05000000074505806,
      "ammo": 10,
      "delay": 30,
      "loadingTime": 380,
      "leaveShells": 0,
      "leaveShellDelay": 1,
      "fireCone": 7,
      "laserSight": true,
      "laserBeam": false,
      "launchSound": 6,
      "playReloadSound": true,
      "name": "ROCKETS"
    },
    {
      "parts": 1,
      "bulletType": 37,
      "bulletSpeed": 1,
      "bulletSpeedInherit": 1,
      "distribution": 0.003814697265625,
      "recoil": 0,
      "ammo": 6,
      "delay": 16,
      "loadingTime": 60,
      "leaveShells": 0,
      "leaveShellDelay": 1,
      "fireCone": 0,
      "laserSight": false,
      "laserBeam": false,
      "launchSound": 14,
      "playReloadSound": false,
      "name": "MACHETTE"
    },
    {
      "parts": 1,
      "bulletType": 38,
      "bulletSpeed": 3.299999952316284,
      "bulletSpeedInherit": 0.3030303120613098,
      "distribution": 0.00457763671875,
      "recoil": 0.25,
      "ammo": 45,
      "delay": 7,
      "loadingTime": 800,
      "leaveShells": 1,
      "leaveShellDelay": 1,
      "fireCone": 3,
      "laserSight": false,
      "laserBeam": false,
      "launchSound": 29,
      "playReloadSound": true,
      "name": "AK - 47 KALA"
    },
    {
      "parts": 1,
      "bulletType": 39,
      "bulletSpeed": 2,
      "bulletSpeedInherit": 0.5,
      "distribution": 0,
      "recoil": 0.10000000149011612,
      "ammo": 6,
      "delay": 16,
      "loadingTime": 450,
      "leaveShells": 1,
      "leaveShellDelay": 1,
      "fireCone": 10,
      "laserSight": false,
      "laserBeam": false,
      "launchSound": 11,
      "playReloadSound": true,
      "name": "MAGNUM 357"
    }
  ],
  "wObjects":
  [
    {
 // wid0 bullet for: SHOTGUN
      "detectDistance": 0,
      "blowAway": 0.03999999910593033,
      "gravity": 0.01068115234375,
      "exploSound": -1,
      "addSpeed": 0,
      "distribution": 0.18310546875,
      "multSpeed": 1,
      "createOnExp": 2,
      "dirtEffect": -1,
      "wormExplode": true,
      "explGround": true,
      "wormCollide": true,
      "collideWithObjects": false,
      "affectByExplosions": false,
      "bounce": 0,
      "bounceFriction": 0.800000011920929,
      "timeToExplo": 0,
      "timeToExploV": 0,
      "hitDamage": 1,
      "bloodOnHit": 3,
      "startFrame": -1,
      "numFrames": 0,
      "loopAnim": false,
      "shotType": 0,
      "repeat": 1,
      "colorBullets": 5,
      "splinterAmount": 0,
      "splinterColour": 0,
      "splinterType": -1,
      "splinterScatter": 0,
      "objTrailType": -1,
      "objTrailDelay": 0,
      "partTrailType": 0,
      "partTrailObj": -1,
      "partTrailDelay": 0,
      "speed": 250
    },
    {
 // wid1 bullet for: FUSIL ASSAUT
      "detectDistance": 0,
      "blowAway": 0.05999999865889549,
      "gravity": 0,
      "exploSound": -1,
      "addSpeed": 0,
      "distribution": 0.0762939453125,
      "multSpeed": 1.0299999713897705,
      "createOnExp": 9,
      "dirtEffect": 2,
      "wormExplode": false,
      "explGround": true,
      "wormCollide": true,
      "collideWithObjects": false,
      "affectByExplosions": false,
      "bounce": 0,
      "bounceFriction": 0.800000011920929,
      "timeToExplo": 0,
      "timeToExploV": 0,
      "hitDamage": 3,
      "bloodOnHit": 5,
      "startFrame": -1,
      "numFrames": 0,
      "loopAnim": false,
      "shotType": 0,
      "repeat": 1,
      "colorBullets": 68,
      "splinterAmount": 0,
      "splinterColour": 0,
      "splinterType": 2,
      "splinterScatter": 0,
      "objTrailType": -1,
      "objTrailDelay": 0,
      "partTrailType": 0,
      "partTrailObj": -1,
      "partTrailDelay": 0,
      "speed": 312
    },
    {
 // wid2 bullet for: SNIPPER ELITE
      "detectDistance": 0,
      "blowAway": 0.699999988079071,
      "gravity": 0.00030517578125,
      "exploSound": -1,
      "addSpeed": 0,
      "distribution": 0,
      "multSpeed": 1.0199999809265137,
      "createOnExp": 2,
      "dirtEffect": -1,
      "wormExplode": true,
      "explGround": true,
      "wormCollide": true,
      "collideWithObjects": false,
      "affectByExplosions": false,
      "bounce": 0,
      "bounceFriction": 0.800000011920929,
      "timeToExplo": 0,
      "timeToExploV": 0,
      "hitDamage": 99,
      "bloodOnHit": 35,
      "startFrame": 127,
      "numFrames": 10,
      "loopAnim": false,
      "shotType": 4,
      "repeat": 8,
      "colorBullets": 68,
      "splinterAmount": 13,
      "splinterColour": 67,
      "splinterType": 5,
      "splinterScatter": 0,
      "objTrailType": 9,
      "objTrailDelay": 1,
      "partTrailType": 0,
      "partTrailObj": -1,
      "partTrailDelay": 0,
      "speed": 250
    },
    {
 // wid3 bullet for: BAZOOKA M72
      "detectDistance": 1,
      "blowAway": 0,
      "gravity": 0,
      "exploSound": -1,
      "addSpeed": 3,
      "distribution": 0,
      "multSpeed": 1,
      "createOnExp": 0,
      "dirtEffect": -1,
      "wormExplode": true,
      "explGround": true,
      "wormCollide": true,
      "collideWithObjects": false,
      "affectByExplosions": false,
      "bounce": 0,
      "bounceFriction": 0.800000011920929,
      "timeToExplo": 0,
      "timeToExploV": 0,
      "hitDamage": 5,
      "bloodOnHit": 30,
      "startFrame": 112,
      "numFrames": 0,
      "loopAnim": false,
      "shotType": 3,
      "repeat": 1,
      "colorBullets": 0,
      "splinterAmount": 15,
      "splinterColour": 66,
      "splinterType": 5,
      "splinterScatter": 0,
      "objTrailType": 3,
      "objTrailDelay": 4,
      "partTrailType": 0,
      "partTrailObj": -1,
      "partTrailDelay": 0,
      "speed": 200
    },
    {
 // wid4 bullet for: TERRE
      "detectDistance": 0,
      "blowAway": 0,
      "gravity": 0.0152587890625,
      "exploSound": 13,
      "addSpeed": 0,
      "distribution": 0.18310546875,
      "multSpeed": 1,
      "createOnExp": -1,
      "dirtEffect": 4,
      "wormExplode": true,
      "explGround": false,
      "wormCollide": false,
      "collideWithObjects": false,
      "affectByExplosions": true,
      "bounce": 0.30000001192092896,
      "bounceFriction": 0.800000011920929,
      "timeToExplo": 80,
      "timeToExploV": 20,
      "hitDamage": 0,
      "bloodOnHit": 0,
      "startFrame": 197,
      "numFrames": 0,
      "loopAnim": false,
      "shotType": 0,
      "repeat": 1,
      "colorBullets": 0,
      "splinterAmount": 5,
      "splinterColour": 0,
      "splinterType": 13,
      "splinterScatter": 0,
      "objTrailType": -1,
      "objTrailDelay": 0,
      "partTrailType": 0,
      "partTrailObj": -1,
      "partTrailDelay": 0,
      "speed": 200
    },
    {
 // wid5 bullet for: MORTIER M9
      "detectDistance": 1,
      "blowAway": 0.15000000596046448,
      "gravity": 0.012969970703125,
      "exploSound": 10,
      "addSpeed": 0,
      "distribution": 0.0000457763671875,
      "multSpeed": 1,
      "createOnExp": 0,
      "dirtEffect": 1,
      "wormExplode": true,
      "explGround": true,
      "wormCollide": true,
      "collideWithObjects": false,
      "affectByExplosions": true,
      "bounce": 0,
      "bounceFriction": 0.800000011920929,
      "timeToExplo": 0,
      "timeToExploV": 0,
      "hitDamage": 27,
      "bloodOnHit": 10,
      "startFrame": 185,
      "numFrames": 5,
      "loopAnim": true,
      "shotType": 3,
      "repeat": 1,
      "colorBullets": 0,
      "splinterAmount": 26,
      "splinterColour": 0,
      "splinterType": 5,
      "splinterScatter": 0,
      "objTrailType": -1,
      "objTrailDelay": 0,
      "partTrailType": 0,
      "partTrailObj": -1,
      "partTrailDelay": 0,
      "speed": 200
    },
    {
 // wid6 bullet for: BANANE
      "detectDistance": 2,
      "blowAway": 0.30000001192092896,
      "gravity": 0.0152587890625,
      "exploSound": 9,
      "addSpeed": 0,
      "distribution": 0.1220703125,
      "multSpeed": 1,
      "createOnExp": 1,
      "dirtEffect": -1,
      "wormExplode": true,
      "explGround": true,
      "wormCollide": true,
      "collideWithObjects": false,
      "affectByExplosions": true,
      "bounce": 0.4000000059604645,
      "bounceFriction": 0.800000011920929,
      "timeToExplo": 370,
      "timeToExploV": 40,
      "hitDamage": 0,
      "bloodOnHit": 25,
      "startFrame": 219,
      "numFrames": 3,
      "loopAnim": true,
      "shotType": 0,
      "repeat": 1,
      "colorBullets": 0,
      "splinterAmount": 0,
      "splinterColour": 66,
      "splinterType": -1,
      "splinterScatter": 0,
      "objTrailType": -1,
      "objTrailDelay": 0,
      "partTrailType": 0,
      "partTrailObj": -1,
      "partTrailDelay": 0,
      "speed": 250
    },
    {
 // wid7 bullet for: WINCHESTER 32
      "detectDistance": 0,
      "blowAway": 0.699999988079071,
      "gravity": 0.00030517578125,
      "exploSound": -1,
      "addSpeed": 0,
      "distribution": 0.00152587890625,
      "multSpeed": 1,
      "createOnExp": 2,
      "dirtEffect": 1,
      "wormExplode": false,
      "explGround": true,
      "wormCollide": true,
      "collideWithObjects": false,
      "affectByExplosions": false,
      "bounce": 0,
      "bounceFriction": 0.800000011920929,
      "timeToExplo": 0,
      "timeToExploV": 0,
      "hitDamage": 20,
      "bloodOnHit": 22,
      "startFrame": -1,
      "numFrames": 0,
      "loopAnim": false,
      "shotType": 4,
      "repeat": 8,
      "colorBullets": 68,
      "splinterAmount": 5,
      "splinterColour": 67,
      "splinterType": 5,
      "splinterScatter": 0,
      "objTrailType": -1,
      "objTrailDelay": 0,
      "partTrailType": 0,
      "partTrailObj": -1,
      "partTrailDelay": 0,
      "speed": 250
    },
    {
 // wid8 bullet for: SUPER BALISTE
      "detectDistance": 1,
      "blowAway": 0.18000000715255737,
      "gravity": 0,
      "exploSound": -1,
      "addSpeed": 0,
      "distribution": 0.030517578125,
      "multSpeed": 1,
      "createOnExp": 3,
      "dirtEffect": -1,
      "wormExplode": true,
      "explGround": true,
      "wormCollide": true,
      "collideWithObjects": false,
      "affectByExplosions": false,
      "bounce": 0,
      "bounceFriction": 0.800000011920929,
      "timeToExplo": 0,
      "timeToExploV": 0,
      "hitDamage": 3,
      "bloodOnHit": 21,
      "startFrame": 127,
      "numFrames": 0,
      "loopAnim": false,
      "shotType": 3,
      "repeat": 1,
      "colorBullets": 0,
      "splinterAmount": 0,
      "splinterColour": 0,
      "splinterType": 2,
      "splinterScatter": 0,
      "objTrailType": -1,
      "objTrailDelay": 2,
      "partTrailType": 0,
      "partTrailObj": -1,
      "partTrailDelay": 0,
      "speed": 200
    },
    {
 // wid9 bullet for: LANCE FLAMMES
      "detectDistance": 1,
      "blowAway": 0,
      "gravity": -0.00457763671875,
      "exploSound": -1,
      "addSpeed": 0,
      "distribution": 0.152587890625,
      "multSpeed": 1,
      "createOnExp": -1,
      "dirtEffect": 5,
      "wormExplode": false,
      "explGround": true,
      "wormCollide": true,
      "collideWithObjects": false,
      "affectByExplosions": false,
      "bounce": 0,
      "bounceFriction": 0.800000011920929,
      "timeToExplo": 40,
      "timeToExploV": 5,
      "hitDamage": 2,
      "bloodOnHit": 0,
      "startFrame": 159,
      "numFrames": 5,
      "loopAnim": false,
      "shotType": 0,
      "repeat": 1,
      "colorBullets": 0,
      "splinterAmount": 0,
      "splinterColour": 0,
      "splinterType": -1,
      "splinterScatter": 0,
      "objTrailType": -1,
      "objTrailDelay": 0,
      "partTrailType": 0,
      "partTrailObj": -1,
      "partTrailDelay": 0,
      "speed": 140
    },
    {
 // wid10 bullet for: GRENADE
      "detectDistance": 0,
      "blowAway": 0,
      "gravity": 0.01983642578125,
      "exploSound": -1,
      "addSpeed": 0,
      "distribution": 0.1068115234375,
      "multSpeed": 1,
      "createOnExp": 0,
      "dirtEffect": -1,
      "wormExplode": false,
      "explGround": false,
      "wormCollide": false,
      "collideWithObjects": false,
      "affectByExplosions": true,
      "bounce": 0.4000000059604645,
      "bounceFriction": 0.800000011920929,
      "timeToExplo": 115,
      "timeToExploV": 10,
      "hitDamage": 0,
      "bloodOnHit": 0,
      "startFrame": 206,
      "numFrames": 3,
      "loopAnim": true,
      "shotType": 0,
      "repeat": 1,
      "colorBullets": 0,
      "splinterAmount": 59,
      "splinterColour": 54,
      "splinterType": 5,
      "splinterScatter": 0,
      "objTrailType": -1,
      "objTrailDelay": 0,
      "partTrailType": 0,
      "partTrailObj": -1,
      "partTrailDelay": 0,
      "speed": 170
    },
    {
 // wid11 bullet for: BOUCLIER
      "detectDistance": 0,
      "blowAway": 0,
      "gravity": 0,
      "exploSound": 13,
      "addSpeed": 0,
      "distribution": 0,
      "multSpeed": 1,
      "createOnExp": -1,
      "dirtEffect": 4,
      "wormExplode": true,
      "explGround": true,
      "wormCollide": false,
      "collideWithObjects": false,
      "affectByExplosions": true,
      "bounce": 0,
      "bounceFriction": 0.800000011920929,
      "timeToExplo": 0,
      "timeToExploV": 0,
      "hitDamage": 0,
      "bloodOnHit": 0,
      "startFrame": -1,
      "numFrames": 0,
      "loopAnim": false,
      "shotType": 1,
      "repeat": 1,
      "colorBullets": 54,
      "splinterAmount": 255,
      "splinterColour": 0,
      "splinterType": 18,
      "splinterScatter": 0,
      "objTrailType": -1,
      "objTrailDelay": 0,
      "partTrailType": 0,
      "partTrailObj": -1,
      "partTrailDelay": 0,
      "speed": 180
    },
    {
 // wid12 bullet for: 2002 BLASTER
      "detectDistance": 10,
      "blowAway": 0,
      "gravity": 0.0002288818359375,
      "exploSound": -1,
      "addSpeed": 0,
      "distribution": 0,
      "multSpeed": 1,
      "createOnExp": 0,
      "dirtEffect": -1,
      "wormExplode": true,
      "explGround": false,
      "wormCollide": true,
      "collideWithObjects": false,
      "affectByExplosions": false,
      "bounce": 0,
      "bounceFriction": 0.800000011920929,
      "timeToExplo": 1550,
      "timeToExploV": 100,
      "hitDamage": 0,
      "bloodOnHit": 0,
      "startFrame": 196,
      "numFrames": 0,
      "loopAnim": false,
      "shotType": 0,
      "repeat": 1,
      "colorBullets": 0,
      "splinterAmount": 15,
      "splinterColour": 75,
      "splinterType": 3,
      "splinterScatter": 0,
      "objTrailType": 5,
      "objTrailDelay": 8,
      "partTrailType": 0,
      "partTrailObj": -1,
      "partTrailDelay": 0,
      "speed": 150
    },
    {
 // wid13 bullet for: REMINGTON222
      "detectDistance": 1,
      "blowAway": 0.009999999776482582,
      "gravity": 0.000152587890625,
      "exploSound": -1,
      "addSpeed": 0,
      "distribution": 0,
      "multSpeed": 1,
      "createOnExp": 1,
      "dirtEffect": -1,
      "wormExplode": true,
      "explGround": true,
      "wormCollide": true,
      "collideWithObjects": false,
      "affectByExplosions": false,
      "bounce": 0,
      "bounceFriction": 0.800000011920929,
      "timeToExplo": 0,
      "timeToExploV": 0,
      "hitDamage": 2,
      "bloodOnHit": 18,
      "startFrame": -1,
      "numFrames": 0,
      "loopAnim": true,
      "shotType": 4,
      "repeat": 8,
      "colorBullets": 50,
      "splinterAmount": 2,
      "splinterColour": 0,
      "splinterType": 12,
      "splinterScatter": 1,
      "objTrailType": 6,
      "objTrailDelay": 1,
      "partTrailType": 0,
      "partTrailObj": -1,
      "partTrailDelay": 0,
      "speed": 100
    },
    {
 // wid14 bullet for: MISSILE TAUPE
      "detectDistance": 3,
      "blowAway": 0.05000000074505806,
      "gravity": 0,
      "exploSound": 7,
      "addSpeed": 10,
      "distribution": 0,
      "multSpeed": 1,
      "createOnExp": 5,
      "dirtEffect": -1,
      "wormExplode": true,
      "explGround": false,
      "wormCollide": true,
      "collideWithObjects": false,
      "affectByExplosions": false,
      "bounce": 0,
      "bounceFriction": 0.800000011920929,
      "timeToExplo": 155,
      "timeToExploV": 10,
      "hitDamage": 3,
      "bloodOnHit": 5,
      "startFrame": 127,
      "numFrames": 0,
      "loopAnim": false,
      "shotType": 3,
      "repeat": 1,
      "colorBullets": 6,
      "splinterAmount": 8,
      "splinterColour": 0,
      "splinterType": 12,
      "splinterScatter": 0,
      "objTrailType": 9,
      "objTrailDelay": 1,
      "partTrailType": 0,
      "partTrailObj": -1,
      "partTrailDelay": 1,
      "speed": 210
    },
    {
 // wid15 bullet for: PERFORANT
      "detectDistance": 1,
      "blowAway": 0.10000000149011612,
      "gravity": 0,
      "exploSound": -1,
      "addSpeed": 3,
      "distribution": 0.06103515625,
      "multSpeed": 1.0499999523162842,
      "createOnExp": 10,
      "dirtEffect": -1,
      "wormExplode": true,
      "explGround": false,
      "wormCollide": true,
      "collideWithObjects": false,
      "affectByExplosions": false,
      "bounce": 0,
      "bounceFriction": 0.800000011920929,
      "timeToExplo": 800,
      "timeToExploV": 100,
      "hitDamage": 1,
      "bloodOnHit": 8,
      "startFrame": 223,
      "numFrames": 0,
      "loopAnim": false,
      "shotType": 3,
      "repeat": 1,
      "colorBullets": 0,
      "splinterAmount": 3,
      "splinterColour": 0,
      "splinterType": 4,
      "splinterScatter": 1,
      "objTrailType": 9,
      "objTrailDelay": 2,
      "partTrailType": 0,
      "partTrailObj": -1,
      "partTrailDelay": 0,
      "speed": 170
    },
    {
 // wid16 bullet for: SUPER SHOTGUN
      "detectDistance": 0,
      "blowAway": 0.029999999329447746,
      "gravity": 0.01068115234375,
      "exploSound": -1,
      "addSpeed": 0,
      "distribution": 0.30517578125,
      "multSpeed": 1,
      "createOnExp": 2,
      "dirtEffect": -1,
      "wormExplode": false,
      "explGround": true,
      "wormCollide": true,
      "collideWithObjects": false,
      "affectByExplosions": false,
      "bounce": 0,
      "bounceFriction": 0.800000011920929,
      "timeToExplo": 0,
      "timeToExploV": 0,
      "hitDamage": 1,
      "bloodOnHit": 2,
      "startFrame": -1,
      "numFrames": 0,
      "loopAnim": false,
      "shotType": 0,
      "repeat": 1,
      "colorBullets": 75,
      "splinterAmount": 0,
      "splinterColour": 0,
      "splinterType": -1,
      "splinterScatter": 0,
      "objTrailType": -1,
      "objTrailDelay": 0,
      "partTrailType": 0,
      "partTrailObj": -1,
      "partTrailDelay": 0,
      "speed": 260
    },
    {
 // wid17 bullet for: ROYAL BOMB
      "detectDistance": 5,
      "blowAway": 0,
      "gravity": 0.01983642578125,
      "exploSound": 10,
      "addSpeed": 0,
      "distribution": 0.1068115234375,
      "multSpeed": 1,
      "createOnExp": 4,
      "dirtEffect": -1,
      "wormExplode": false,
      "explGround": false,
      "wormCollide": false,
      "collideWithObjects": false,
      "affectByExplosions": true,
      "bounce": 0.4000000059604645,
      "bounceFriction": 0.800000011920929,
      "timeToExplo": 160,
      "timeToExploV": 15,
      "hitDamage": 1,
      "bloodOnHit": 0,
      "startFrame": 206,
      "numFrames": 3,
      "loopAnim": true,
      "shotType": 0,
      "repeat": 1,
      "colorBullets": 0,
      "splinterAmount": 255,
      "splinterColour": 0,
      "splinterType": 4,
      "splinterScatter": 0,
      "objTrailType": -1,
      "objTrailDelay": 0,
      "partTrailType": 0,
      "partTrailObj": -1,
      "partTrailDelay": 0,
      "speed": 200
    },
    {
 // wid18 bullet for: MINAGE BOMB
      "detectDistance": 0,
      "blowAway": 0,
      "gravity": -0.000762939453125,
      "exploSound": 7,
      "addSpeed": 0,
      "distribution": 0.1220703125,
      "multSpeed": 0.949999988079071,
      "createOnExp": 10,
      "dirtEffect": -1,
      "wormExplode": false,
      "explGround": false,
      "wormCollide": false,
      "collideWithObjects": false,
      "affectByExplosions": true,
      "bounce": 0.4699999988079071,
      "bounceFriction": 0.800000011920929,
      "timeToExplo": 300,
      "timeToExploV": 15,
      "hitDamage": 0,
      "bloodOnHit": 25,
      "startFrame": 126,
      "numFrames": 0,
      "loopAnim": false,
      "shotType": 0,
      "repeat": 1,
      "colorBullets": 54,
      "splinterAmount": 8,
      "splinterColour": 0,
      "splinterType": 19,
      "splinterScatter": 0,
      "objTrailType": -1,
      "objTrailDelay": 0,
      "partTrailType": 0,
      "partTrailObj": -1,
      "partTrailDelay": 0,
      "speed": 186
    },
    {
 // wid19 bullet for: NUCLEAR FUSEE
      "detectDistance": 2,
      "blowAway": 0,
      "gravity": 0.0152587890625,
      "exploSound": 7,
      "addSpeed": 0,
      "distribution": 0.30517578125,
      "multSpeed": 1,
      "createOnExp": -1,
      "dirtEffect": 6,
      "wormExplode": true,
      "explGround": true,
      "wormCollide": true,
      "collideWithObjects": false,
      "affectByExplosions": true,
      "bounce": 0.6499999761581421,
      "bounceFriction": 0.800000011920929,
      "timeToExplo": 1160,
      "timeToExploV": 16,
      "hitDamage": 0,
      "bloodOnHit": 0,
      "startFrame": 110,
      "numFrames": 0,
      "loopAnim": false,
      "shotType": 2,
      "repeat": 1,
      "colorBullets": 0,
      "splinterAmount": 70,
      "splinterColour": 0,
      "splinterType": 9,
      "splinterScatter": 0,
      "objTrailType": 9,
      "objTrailDelay": 2,
      "partTrailType": 0,
      "partTrailObj": -1,
      "partTrailDelay": 0,
      "speed": 170
    },
    {
 // wid20 bullet for: SPACE BOMB
      "detectDistance": 0,
      "blowAway": 0,
      "gravity": 0.01983642578125,
      "exploSound": -1,
      "addSpeed": 0,
      "distribution": 0.1068115234375,
      "multSpeed": 1,
      "createOnExp": 0,
      "dirtEffect": -1,
      "wormExplode": false,
      "explGround": false,
      "wormCollide": false,
      "collideWithObjects": false,
      "affectByExplosions": true,
      "bounce": 0.5,
      "bounceFriction": 0.800000011920929,
      "timeToExplo": 135,
      "timeToExploV": 15,
      "hitDamage": 10,
      "bloodOnHit": 0,
      "startFrame": 206,
      "numFrames": 3,
      "loopAnim": true,
      "shotType": 0,
      "repeat": 1,
      "colorBullets": 0,
      "splinterAmount": 56,
      "splinterColour": 0,
      "splinterType": 22,
      "splinterScatter": 0,
      "objTrailType": -1,
      "objTrailDelay": 0,
      "partTrailType": 0,
      "partTrailObj": -1,
      "partTrailDelay": 0,
      "speed": 170
    },
    {
 // wid21 bullet for: COLT COMMANDO
      "detectDistance": 2,
      "blowAway": 0.019999999552965164,
      "gravity": 0.01220703125,
      "exploSound": -1,
      "addSpeed": 0,
      "distribution": 0.152587890625,
      "multSpeed": 1,
      "createOnExp": 9,
      "dirtEffect": 5,
      "wormExplode": true,
      "explGround": true,
      "wormCollide": true,
      "collideWithObjects": false,
      "affectByExplosions": false,
      "bounce": 0,
      "bounceFriction": 0.800000011920929,
      "timeToExplo": 0,
      "timeToExploV": 0,
      "hitDamage": 1,
      "bloodOnHit": 4,
      "startFrame": -1,
      "numFrames": 0,
      "loopAnim": false,
      "shotType": 0,
      "repeat": 1,
      "colorBullets": 161,
      "splinterAmount": 0,
      "splinterColour": 0,
      "splinterType": -1,
      "splinterScatter": 0,
      "objTrailType": -1,
      "objTrailDelay": 1,
      "partTrailType": 0,
      "partTrailObj": -1,
      "partTrailDelay": 0,
      "speed": 400
    },
    {
 // wid22 bullet for: JAH
      "detectDistance": 1,
      "blowAway": 0,
      "gravity": 0.003814697265625,
      "exploSound": -1,
      "addSpeed": 3,
      "distribution": 0,
      "multSpeed": 1.0299999713897705,
      "createOnExp": 0,
      "dirtEffect": -1,
      "wormExplode": true,
      "explGround": true,
      "wormCollide": true,
      "collideWithObjects": false,
      "affectByExplosions": false,
      "bounce": 0,
      "bounceFriction": 0.800000011920929,
      "timeToExplo": 0,
      "timeToExploV": 0,
      "hitDamage": 255,
      "bloodOnHit": 5,
      "startFrame": 112,
      "numFrames": 0,
      "loopAnim": false,
      "shotType": 3,
      "repeat": 1,
      "colorBullets": 0,
      "splinterAmount": 2,
      "splinterColour": 1,
      "splinterType": 14,
      "splinterScatter": 1,
      "objTrailType": -1,
      "objTrailDelay": 3,
      "partTrailType": 0,
      "partTrailObj": -1,
      "partTrailDelay": 0,
      "speed": 500
    },
    {
 // wid23 bullet for: MINE AERIENNE
      "detectDistance": 2,
      "blowAway": 0.2199999988079071,
      "gravity": 0.0000762939453125,
      "exploSound": -1,
      "addSpeed": 0,
      "distribution": 0.213623046875,
      "multSpeed": 0.9800000190734863,
      "createOnExp": 0,
      "dirtEffect": -1,
      "wormExplode": true,
      "explGround": false,
      "wormCollide": true,
      "collideWithObjects": false,
      "affectByExplosions": true,
      "bounce": 1,
      "bounceFriction": 1,
      "timeToExplo": 15000,
      "timeToExploV": 600,
      "hitDamage": 0,
      "bloodOnHit": 18,
      "startFrame": -1,
      "numFrames": 0,
      "loopAnim": false,
      "shotType": 0,
      "repeat": 1,
      "colorBullets": 11,
      "splinterAmount": 35,
      "splinterColour": 67,
      "splinterType": 13,
      "splinterScatter": 0,
      "objTrailType": -1,
      "objTrailDelay": 0,
      "partTrailType": 0,
      "partTrailObj": -1,
      "partTrailDelay": 0,
      "speed": 40
    },
    {
 // wid24 bullet for: MITRAILLEUSE
      "detectDistance": 1,
      "blowAway": 0.2800000011920929,
      "gravity": 0.003204345703125,
      "exploSound": -1,
      "addSpeed": 2,
      "distribution": 0.4796142578125,
      "multSpeed": 1,
      "createOnExp": 2,
      "dirtEffect": 2,
      "wormExplode": false,
      "explGround": true,
      "wormCollide": true,
      "collideWithObjects": true,
      "affectByExplosions": false,
      "bounce": 0,
      "bounceFriction": 0.800000011920929,
      "timeToExplo": 0,
      "timeToExploV": 0,
      "hitDamage": 9,
      "bloodOnHit": 3,
      "startFrame": -1,
      "numFrames": 0,
      "loopAnim": false,
      "shotType": 4,
      "repeat": 8,
      "colorBullets": 161,
      "splinterAmount": 3,
      "splinterColour": 75,
      "splinterType": 4,
      "splinterScatter": 1,
      "objTrailType": 6,
      "objTrailDelay": 1,
      "partTrailType": 0,
      "partTrailObj": -1,
      "partTrailDelay": 0,
      "speed": 350
    },
    {
 // wid25 bullet for: BABYLONE
      "detectDistance": 0,
      "blowAway": 0.6000000238418579,
      "gravity": 0.0152587890625,
      "exploSound": -1,
      "addSpeed": 0,
      "distribution": 0.01220703125,
      "multSpeed": 1,
      "createOnExp": 0,
      "dirtEffect": -1,
      "wormExplode": true,
      "explGround": false,
      "wormCollide": false,
      "collideWithObjects": false,
      "affectByExplosions": false,
      "bounce": 0.800000011920929,
      "bounceFriction": 0.800000011920929,
      "timeToExplo": 150,
      "timeToExploV": 20,
      "hitDamage": 5,
      "bloodOnHit": 15,
      "startFrame": 179,
      "numFrames": 0,
      "loopAnim": false,
      "shotType": 0,
      "repeat": 1,
      "colorBullets": 0,
      "splinterAmount": 10,
      "splinterColour": 0,
      "splinterType": 10,
      "splinterScatter": 0,
      "objTrailType": 1,
      "objTrailDelay": 8,
      "partTrailType": 0,
      "partTrailObj": -1,
      "partTrailDelay": 0,
      "speed": 150
    },
    {
 // wid26 bullet for: CANNON
      "detectDistance": 1,
      "blowAway": 0.20000000298023224,
      "gravity": 0.01068115234375,
      "exploSound": -1,
      "addSpeed": 0,
      "distribution": 0.00457763671875,
      "multSpeed": 1,
      "createOnExp": 1,
      "dirtEffect": -1,
      "wormExplode": true,
      "explGround": true,
      "wormCollide": true,
      "collideWithObjects": false,
      "affectByExplosions": true,
      "bounce": 0,
      "bounceFriction": 0.800000011920929,
      "timeToExplo": 0,
      "timeToExploV": 0,
      "hitDamage": 0,
      "bloodOnHit": 15,
      "startFrame": 193,
      "numFrames": 0,
      "loopAnim": false,
      "shotType": 0,
      "repeat": 1,
      "colorBullets": 0,
      "splinterAmount": 11,
      "splinterColour": 66,
      "splinterType": 5,
      "splinterScatter": 0,
      "objTrailType": -1,
      "objTrailDelay": 0,
      "partTrailType": 0,
      "partTrailObj": -1,
      "partTrailDelay": 0,
      "speed": 200
    },
    {
 // wid27 bullet for: AUTO THC
      "detectDistance": 5,
      "blowAway": 2.549999952316284,
      "gravity": 0,
      "exploSound": -1,
      "addSpeed": 0,
      "distribution": 0,
      "multSpeed": 1,
      "createOnExp": 0,
      "dirtEffect": -1,
      "wormExplode": true,
      "explGround": true,
      "wormCollide": true,
      "collideWithObjects": true,
      "affectByExplosions": false,
      "bounce": 0,
      "bounceFriction": 0.800000011920929,
      "timeToExplo": 350,
      "timeToExploV": 0,
      "hitDamage": 10,
      "bloodOnHit": 5,
      "startFrame": 181,
      "numFrames": 0,
      "loopAnim": false,
      "shotType": 0,
      "repeat": 1,
      "colorBullets": 0,
      "splinterAmount": 0,
      "splinterColour": 75,
      "splinterType": -1,
      "splinterScatter": 1,
      "objTrailType": -1,
      "objTrailDelay": 0,
      "partTrailType": 1,
      "partTrailObj": 5,
      "partTrailDelay": 1,
      "speed": 52
    },
    {
 // wid28 bullet for: LASER
      "detectDistance": 0,
      "blowAway": 0,
      "gravity": 0,
      "exploSound": -1,
      "addSpeed": 0,
      "distribution": 0.000152587890625,
      "multSpeed": 1,
      "createOnExp": 9,
      "dirtEffect": -1,
      "wormExplode": false,
      "explGround": true,
      "wormCollide": true,
      "collideWithObjects": false,
      "affectByExplosions": true,
      "bounce": 0,
      "bounceFriction": 0.800000011920929,
      "timeToExplo": 0,
      "timeToExploV": 0,
      "hitDamage": 1,
      "bloodOnHit": 5,
      "startFrame": -1,
      "numFrames": 0,
      "loopAnim": false,
      "shotType": 4,
      "repeat": 1000,
      "colorBullets": 5,
      "splinterAmount": 0,
      "splinterColour": 0,
      "splinterType": -1,
      "splinterScatter": 0,
      "objTrailType": -1,
      "objTrailDelay": 0,
      "partTrailType": 0,
      "partTrailObj": -1,
      "partTrailDelay": 0,
      "speed": 100
    },
    {
 // wid29 bullet for: SPIKEBALLS
      "detectDistance": 2,
      "blowAway": 0.20000000298023224,
      "gravity": 0.0152587890625,
      "exploSound": -1,
      "addSpeed": 0,
      "distribution": 0.3662109375,
      "multSpeed": 1,
      "createOnExp": 2,
      "dirtEffect": -1,
      "wormExplode": false,
      "explGround": false,
      "wormCollide": true,
      "collideWithObjects": false,
      "affectByExplosions": true,
      "bounce": 0.6000000238418579,
      "bounceFriction": 0.800000011920929,
      "timeToExplo": 700,
      "timeToExploV": 100,
      "hitDamage": 9,
      "bloodOnHit": 20,
      "startFrame": 181,
      "numFrames": 3,
      "loopAnim": true,
      "shotType": 0,
      "repeat": 1,
      "colorBullets": 0,
      "splinterAmount": 0,
      "splinterColour": 0,
      "splinterType": -1,
      "splinterScatter": 0,
      "objTrailType": -1,
      "objTrailDelay": 0,
      "partTrailType": 0,
      "partTrailObj": -1,
      "partTrailDelay": 0,
      "speed": 110
    },
    {
 // wid30 bullet for: NAPALM MINE
      "detectDistance": 5,
      "blowAway": 0,
      "gravity": 0.0152587890625,
      "exploSound": 4,
      "addSpeed": 0,
      "distribution": 0.030517578125,
      "multSpeed": 1,
      "createOnExp": -1,
      "dirtEffect": -1,
      "wormExplode": true,
      "explGround": false,
      "wormCollide": true,
      "collideWithObjects": false,
      "affectByExplosions": true,
      "bounce": 0.30000001192092896,
      "bounceFriction": 0.800000011920929,
      "timeToExplo": 11000,
      "timeToExploV": 100,
      "hitDamage": 0,
      "bloodOnHit": 3,
      "startFrame": 173,
      "numFrames": 3,
      "loopAnim": true,
      "shotType": 0,
      "repeat": 1,
      "colorBullets": 0,
      "splinterAmount": 19,
      "splinterColour": 114,
      "splinterType": 12,
      "splinterScatter": 0,
      "objTrailType": -1,
      "objTrailDelay": 0,
      "partTrailType": 0,
      "partTrailObj": -1,
      "partTrailDelay": 0,
      "speed": 130
    },
    {
 // wid31 bullet for: POLLEN BOMB
      "detectDistance": 0,
      "blowAway": 0,
      "gravity": 0.0152587890625,
      "exploSound": 12,
      "addSpeed": 0,
      "distribution": 0,
      "multSpeed": 1,
      "createOnExp": 4,
      "dirtEffect": 2,
      "wormExplode": false,
      "explGround": false,
      "wormCollide": false,
      "collideWithObjects": false,
      "affectByExplosions": true,
      "bounce": 0.5,
      "bounceFriction": 0.800000011920929,
      "timeToExplo": 115,
      "timeToExploV": 10,
      "hitDamage": 0,
      "bloodOnHit": 0,
      "startFrame": 185,
      "numFrames": 3,
      "loopAnim": true,
      "shotType": 0,
      "repeat": 1,
      "colorBullets": 0,
      "splinterAmount": 255,
      "splinterColour": 74,
      "splinterType": 3,
      "splinterScatter": 0,
      "objTrailType": -1,
      "objTrailDelay": 0,
      "partTrailType": 0,
      "partTrailObj": -1,
      "partTrailDelay": 0,
      "speed": 170
    },
    {
 // wid32 bullet for: STINGER FIM92
      "detectDistance": 2,
      "blowAway": 0,
      "gravity": 0,
      "exploSound": 10,
      "addSpeed": 150,
      "distribution": 0,
      "multSpeed": 1,
      "createOnExp": 0,
      "dirtEffect": -1,
      "wormExplode": true,
      "explGround": true,
      "wormCollide": true,
      "collideWithObjects": false,
      "affectByExplosions": false,
      "bounce": 0,
      "bounceFriction": 0.800000011920929,
      "timeToExplo": 0,
      "timeToExploV": 0,
      "hitDamage": 30,
      "bloodOnHit": 30,
      "startFrame": 110,
      "numFrames": 0,
      "loopAnim": false,
      "shotType": 2,
      "repeat": 1,
      "colorBullets": 0,
      "splinterAmount": 15,
      "splinterColour": 66,
      "splinterType": 9,
      "splinterScatter": 0,
      "objTrailType": 9,
      "objTrailDelay": 3,
      "partTrailType": 0,
      "partTrailObj": -1,
      "partTrailDelay": 0,
      "speed": 230
    },
    {
 // wid33 bullet for: CHIQUITA BOMB
      "detectDistance": 5,
      "blowAway": 0,
      "gravity": 0.01983642578125,
      "exploSound": -1,
      "addSpeed": 0,
      "distribution": 0.1068115234375,
      "multSpeed": 1,
      "createOnExp": 0,
      "dirtEffect": -1,
      "wormExplode": true,
      "explGround": false,
      "wormCollide": true,
      "collideWithObjects": false,
      "affectByExplosions": true,
      "bounce": 0.4000000059604645,
      "bounceFriction": 0.800000011920929,
      "timeToExplo": 3200,
      "timeToExploV": 50,
      "hitDamage": 0,
      "bloodOnHit": 0,
      "startFrame": 215,
      "numFrames": 3,
      "loopAnim": true,
      "shotType": 0,
      "repeat": 1,
      "colorBullets": 0,
      "splinterAmount": 18,
      "splinterColour": 0,
      "splinterType": 14,
      "splinterScatter": 0,
      "objTrailType": -1,
      "objTrailDelay": 0,
      "partTrailType": 0,
      "partTrailObj": -1,
      "partTrailDelay": 0,
      "speed": 170
    },
    {
 // wid34 bullet for: PIEGE BATARD
      "detectDistance": 3,
      "blowAway": 0,
      "gravity": 0.02288818359375,
      "exploSound": -1,
      "addSpeed": 0,
      "distribution": 0.30517578125,
      "multSpeed": 1,
      "createOnExp": 0,
      "dirtEffect": -1,
      "wormExplode": true,
      "explGround": false,
      "wormCollide": true,
      "collideWithObjects": false,
      "affectByExplosions": true,
      "bounce": 0.30000001192092896,
      "bounceFriction": 0.800000011920929,
      "timeToExplo": 4000,
      "timeToExploV": 600,
      "hitDamage": 5,
      "bloodOnHit": 20,
      "startFrame": 210,
      "numFrames": 0,
      "loopAnim": true,
      "shotType": 0,
      "repeat": 1,
      "colorBullets": 0,
      "splinterAmount": 7,
      "splinterColour": 0,
      "splinterType": 5,
      "splinterScatter": 0,
      "objTrailType": -1,
      "objTrailDelay": 0,
      "partTrailType": 0,
      "partTrailObj": -1,
      "partTrailDelay": 0,
      "speed": 100
    },
    {
 // wid35 bullet for: RELOU
      "detectDistance": 8,
      "blowAway": 0,
      "gravity": 0.0152587890625,
      "exploSound": 13,
      "addSpeed": 0,
      "distribution": 0.18310546875,
      "multSpeed": 1.0199999809265137,
      "createOnExp": -1,
      "dirtEffect": 6,
      "wormExplode": false,
      "explGround": false,
      "wormCollide": false,
      "collideWithObjects": false,
      "affectByExplosions": true,
      "bounce": 1,
      "bounceFriction": 1,
      "timeToExplo": 1500,
      "timeToExploV": 0,
      "hitDamage": 0,
      "bloodOnHit": 0,
      "startFrame": -1,
      "numFrames": 0,
      "loopAnim": false,
      "shotType": 0,
      "repeat": 1,
      "colorBullets": 54,
      "splinterAmount": 7,
      "splinterColour": 0,
      "splinterType": 13,
      "splinterScatter": 0,
      "objTrailType": -1,
      "objTrailDelay": 0,
      "partTrailType": 0,
      "partTrailObj": 13,
      "partTrailDelay": 1,
      "speed": 200
    },
    {
 // wid36 bullet for: ROCKETS
      "detectDistance": 2,
      "blowAway": 0.10000000149011612,
      "gravity": 0,
      "exploSound": -1,
      "addSpeed": 3,
      "distribution": 0.0091552734375,
      "multSpeed": 1.0199999809265137,
      "createOnExp": 0,
      "dirtEffect": -1,
      "wormExplode": true,
      "explGround": true,
      "wormCollide": true,
      "collideWithObjects": false,
      "affectByExplosions": false,
      "bounce": 0,
      "bounceFriction": 0.800000011920929,
      "timeToExplo": 0,
      "timeToExploV": 0,
      "hitDamage": 5,
      "bloodOnHit": 8,
      "startFrame": 127,
      "numFrames": 0,
      "loopAnim": false,
      "shotType": 3,
      "repeat": 1,
      "colorBullets": 0,
      "splinterAmount": 5,
      "splinterColour": 0,
      "splinterType": 5,
      "splinterScatter": 0,
      "objTrailType": 6,
      "objTrailDelay": 1,
      "partTrailType": 0,
      "partTrailObj": -1,
      "partTrailDelay": 0,
      "speed": 195
    },
    {
 // wid37 bullet for: MACHETTE
      "detectDistance": 1,
      "blowAway": 0.30000001192092896,
      "gravity": 0,
      "exploSound": -1,
      "addSpeed": 0,
      "distribution": 0.003814697265625,
      "multSpeed": 1,
      "createOnExp": -1,
      "dirtEffect": -1,
      "wormExplode": false,
      "explGround": true,
      "wormCollide": false,
      "collideWithObjects": true,
      "affectByExplosions": true,
      "bounce": 0,
      "bounceFriction": 0.800000011920929,
      "timeToExplo": 4,
      "timeToExploV": 0,
      "hitDamage": 20,
      "bloodOnHit": 26,
      "startFrame": 140,
      "numFrames": 0,
      "loopAnim": false,
      "shotType": 3,
      "repeat": 1,
      "colorBullets": 0,
      "splinterAmount": 0,
      "splinterColour": 0,
      "splinterType": -1,
      "splinterScatter": 0,
      "objTrailType": -1,
      "objTrailDelay": 1,
      "partTrailType": 0,
      "partTrailObj": -1,
      "partTrailDelay": 0,
      "speed": 100
    },
    {
 // wid38 bullet for: AK - 47 KALA
      "detectDistance": 1,
      "blowAway": 0.25,
      "gravity": 0.003204345703125,
      "exploSound": -1,
      "addSpeed": 3,
      "distribution": 0.00457763671875,
      "multSpeed": 1,
      "createOnExp": 8,
      "dirtEffect": -1,
      "wormExplode": false,
      "explGround": true,
      "wormCollide": true,
      "collideWithObjects": true,
      "affectByExplosions": true,
      "bounce": 0,
      "bounceFriction": 0.800000011920929,
      "timeToExplo": 0,
      "timeToExploV": 0,
      "hitDamage": 5,
      "bloodOnHit": 5,
      "startFrame": -1,
      "numFrames": 0,
      "loopAnim": false,
      "shotType": 4,
      "repeat": 8,
      "colorBullets": 161,
      "splinterAmount": 3,
      "splinterColour": 75,
      "splinterType": 5,
      "splinterScatter": 0,
      "objTrailType": -1,
      "objTrailDelay": 0,
      "partTrailType": 0,
      "partTrailObj": -1,
      "partTrailDelay": 0,
      "speed": 330
    },
    {
 // wid39 bullet for: MAGNUM 357
      "detectDistance": 1,
      "blowAway": 0.20000000298023224,
      "gravity": 0.000762939453125,
      "exploSound": -1,
      "addSpeed": 0,
      "distribution": 0,
      "multSpeed": 1,
      "createOnExp": 1,
      "dirtEffect": -1,
      "wormExplode": true,
      "explGround": true,
      "wormCollide": true,
      "collideWithObjects": false,
      "affectByExplosions": false,
      "bounce": 0,
      "bounceFriction": 0.800000011920929,
      "timeToExplo": 0,
      "timeToExploV": 0,
      "hitDamage": 255,
      "bloodOnHit": 20,
      "startFrame": -1,
      "numFrames": 0,
      "loopAnim": false,
      "shotType": 4,
      "repeat": 8,
      "colorBullets": 75,
      "splinterAmount": 0,
      "splinterColour": 75,
      "splinterType": -1,
      "splinterScatter": 1,
      "objTrailType": -1,
      "objTrailDelay": 0,
      "partTrailType": 0,
      "partTrailObj": -1,
      "partTrailDelay": 0,
      "speed": 200
    }
  ],
  "nObjects":
  [
    {
 // nid0 
      "detectDistance": 0,
      "gravity": 0.0152587890625,
      "speed": 1.2000000476837158,
      "speedV": 0.4000000059604645,
      "distribution": 0.1220703125,
      "blowAway": 0,
      "bounce": 0.10000000149011612,
      "hitDamage": 0,
      "wormExplode": false,
      "explGround": true,
      "wormDestroy": false,
      "bloodOnHit": 0,
      "startFrame": 165,
      "numFrames": 3,
      "drawOnMap": true,
      "colorBullets": 0,
      "createOnExp": -1,
      "affectByExplosions": false,
      "dirtEffect": -1,
      "splinterAmount": 0,
      "splinterColour": 0,
      "splinterType": -1,
      "bloodTrail": true,
      "bloodTrailDelay": 10,
      "leaveObj": -1,
      "leaveObjDelay": 0,
      "timeToExplo": 0,
      "timeToExploV": 0
    },
    {
 // nid1 
      "detectDistance": 0,
      "gravity": 0.0152587890625,
      "speed": 1.2000000476837158,
      "speedV": 0.4000000059604645,
      "distribution": 0.1220703125,
      "blowAway": 0,
      "bounce": 0.10000000149011612,
      "hitDamage": 0,
      "wormExplode": false,
      "explGround": true,
      "wormDestroy": false,
      "bloodOnHit": 0,
      "startFrame": 169,
      "numFrames": 3,
      "drawOnMap": true,
      "colorBullets": 0,
      "createOnExp": -1,
      "affectByExplosions": false,
      "dirtEffect": -1,
      "splinterAmount": 0,
      "splinterColour": 0,
      "splinterType": -1,
      "bloodTrail": true,
      "bloodTrailDelay": 10,
      "leaveObj": -1,
      "leaveObjDelay": 0,
      "timeToExplo": 0,
      "timeToExploV": 0
    },
    {
 // nid2  splinterType for wObjects: [1,8]
      "detectDistance": 0,
      "gravity": 0.01068115234375,
      "speed": 0.800000011920929,
      "speedV": 0.4000000059604645,
      "distribution": 0.152587890625,
      "blowAway": 0,
      "bounce": 0,
      "hitDamage": 0,
      "wormExplode": false,
      "explGround": true,
      "wormDestroy": false,
      "bloodOnHit": 0,
      "startFrame": 0,
      "numFrames": 0,
      "drawOnMap": false,
      "colorBullets": 5,
      "createOnExp": -1,
      "affectByExplosions": false,
      "dirtEffect": -1,
      "splinterAmount": 0,
      "splinterColour": 0,
      "splinterType": -1,
      "bloodTrail": false,
      "bloodTrailDelay": 1,
      "leaveObj": 5,
      "leaveObjDelay": 100,
      "timeToExplo": 0,
      "timeToExploV": 0
    },
    {
 // nid3  splinterType for wObjects: [12,31]
      "detectDistance": 9,
      "gravity": 0.000152587890625,
      "speed": 0.44999998807907104,
      "speedV": 0.10000000149011612,
      "distribution": 0.030517578125,
      "blowAway": 0.10000000149011612,
      "bounce": 0,
      "hitDamage": 3,
      "wormExplode": true,
      "explGround": true,
      "wormDestroy": true,
      "bloodOnHit": 1,
      "startFrame": 0,
      "numFrames": 0,
      "drawOnMap": false,
      "colorBullets": 67,
      "createOnExp": 4,
      "affectByExplosions": false,
      "dirtEffect": -1,
      "splinterAmount": 0,
      "splinterColour": 0,
      "splinterType": -1,
      "bloodTrail": false,
      "bloodTrailDelay": 0,
      "leaveObj": -1,
      "leaveObjDelay": 0,
      "timeToExplo": 0,
      "timeToExploV": 0
    },
    {
 // nid4  splinterType for wObjects: [15,17,24] splinterType for nObjects: [11,19]
      "detectDistance": 0,
      "gravity": 0.01068115234375,
      "speed": 1.899999976158142,
      "speedV": 1.600000023841858,
      "distribution": 0.030517578125,
      "blowAway": 0.10000000149011612,
      "bounce": 0,
      "hitDamage": 4,
      "wormExplode": false,
      "explGround": true,
      "wormDestroy": true,
      "bloodOnHit": 1,
      "startFrame": 0,
      "numFrames": 0,
      "drawOnMap": false,
      "colorBullets": 67,
      "createOnExp": 2,
      "affectByExplosions": false,
      "dirtEffect": -1,
      "splinterAmount": 0,
      "splinterColour": 0,
      "splinterType": -1,
      "bloodTrail": true,
      "bloodTrailDelay": 5,
      "leaveObj": 7,
      "leaveObjDelay": 5,
      "timeToExplo": 0,
      "timeToExploV": 0
    },
    {
 // nid5  splinterType for wObjects: [2,3,5,7,10,26,34,36,38] partTrailObj for wObjects: [27] splinterType for nObjects: [9,10]
      "detectDistance": 0,
      "gravity": 0.0152587890625,
      "speed": 2.200000047683716,
      "speedV": 1.7999999523162842,
      "distribution": 0.030517578125,
      "blowAway": 0.15000000596046448,
      "bounce": 0,
      "hitDamage": 3,
      "wormExplode": false,
      "explGround": true,
      "wormDestroy": true,
      "bloodOnHit": 1,
      "startFrame": 0,
      "numFrames": 0,
      "drawOnMap": false,
      "colorBullets": 67,
      "createOnExp": 9,
      "affectByExplosions": false,
      "dirtEffect": -1,
      "splinterAmount": 0,
      "splinterColour": 0,
      "splinterType": -1,
      "bloodTrail": false,
      "bloodTrailDelay": 0,
      "leaveObj": -1,
      "leaveObjDelay": 0,
      "timeToExplo": 0,
      "timeToExploV": 0
    },
    {
 // nid6 
      "detectDistance": 0,
      "gravity": 0.01068115234375,
      "speed": 0.75,
      "speedV": 0.4000000059604645,
      "distribution": 0.30517578125,
      "blowAway": 0,
      "bounce": 0,
      "hitDamage": 0,
      "wormExplode": false,
      "explGround": true,
      "wormDestroy": false,
      "bloodOnHit": 0,
      "startFrame": 0,
      "numFrames": 0,
      "drawOnMap": false,
      "colorBullets": 82,
      "createOnExp": -1,
      "affectByExplosions": false,
      "dirtEffect": -1,
      "splinterAmount": 0,
      "splinterColour": 0,
      "splinterType": -1,
      "bloodTrail": true,
      "bloodTrailDelay": 10,
      "leaveObj": -1,
      "leaveObjDelay": 0,
      "timeToExplo": 0,
      "timeToExploV": 0
    },
    {
 // nid7 
      "detectDistance": 0,
      "gravity": 0.0152587890625,
      "speed": 0,
      "speedV": 0,
      "distribution": 0.1220703125,
      "blowAway": 0,
      "bounce": 0.4000000059604645,
      "hitDamage": 0,
      "wormExplode": false,
      "explGround": true,
      "wormDestroy": false,
      "bloodOnHit": 0,
      "startFrame": 155,
      "numFrames": 3,
      "drawOnMap": true,
      "colorBullets": 0,
      "createOnExp": -1,
      "affectByExplosions": false,
      "dirtEffect": -1,
      "splinterAmount": 0,
      "splinterColour": 0,
      "splinterType": -1,
      "bloodTrail": false,
      "bloodTrailDelay": 0,
      "leaveObj": -1,
      "leaveObjDelay": 0,
      "timeToExplo": 0,
      "timeToExploV": 0
    },
    {
 // nid8 
      "detectDistance": 1,
      "gravity": 0.0152587890625,
      "speed": 2.200000047683716,
      "speedV": 1.399999976158142,
      "distribution": 0.152587890625,
      "blowAway": 0,
      "bounce": 0,
      "hitDamage": 1,
      "wormExplode": true,
      "explGround": true,
      "wormDestroy": true,
      "bloodOnHit": 5,
      "startFrame": 202,
      "numFrames": 3,
      "drawOnMap": false,
      "colorBullets": 0,
      "createOnExp": 1,
      "affectByExplosions": false,
      "dirtEffect": -1,
      "splinterAmount": 0,
      "splinterColour": 0,
      "splinterType": -1,
      "bloodTrail": false,
      "bloodTrailDelay": 0,
      "leaveObj": -1,
      "leaveObjDelay": 0,
      "timeToExplo": 0,
      "timeToExploV": 0
    },
    {
 // nid9  splinterType for wObjects: [19,32]
      "detectDistance": 0,
      "gravity": 0.0152587890625,
      "speed": 2,
      "speedV": 1.2000000476837158,
      "distribution": 0.30517578125,
      "blowAway": 0,
      "bounce": 0.6000000238418579,
      "hitDamage": 0,
      "wormExplode": false,
      "explGround": false,
      "wormDestroy": false,
      "bloodOnHit": 0,
      "startFrame": 177,
      "numFrames": 0,
      "drawOnMap": false,
      "colorBullets": 0,
      "createOnExp": 0,
      "affectByExplosions": true,
      "dirtEffect": -1,
      "splinterAmount": 3,
      "splinterColour": 75,
      "splinterType": 5,
      "bloodTrail": false,
      "bloodTrailDelay": 0,
      "leaveObj": 5,
      "leaveObjDelay": 5,
      "timeToExplo": 76,
      "timeToExploV": 30
    },
    {
 // nid10  splinterType for wObjects: [25]
      "detectDistance": 1,
      "gravity": 0.0152587890625,
      "speed": 1.399999976158142,
      "speedV": 0.20000000298023224,
      "distribution": 0.30517578125,
      "blowAway": 0.15000000596046448,
      "bounce": 0,
      "hitDamage": 3,
      "wormExplode": true,
      "explGround": true,
      "wormDestroy": true,
      "bloodOnHit": 10,
      "startFrame": 193,
      "numFrames": 0,
      "drawOnMap": false,
      "colorBullets": 0,
      "createOnExp": 0,
      "affectByExplosions": false,
      "dirtEffect": -1,
      "splinterAmount": 6,
      "splinterColour": 66,
      "splinterType": 5,
      "bloodTrail": false,
      "bloodTrailDelay": 0,
      "leaveObj": 3,
      "leaveObjDelay": 8,
      "timeToExplo": 0,
      "timeToExploV": 0
    },
    {
 // nid11 
      "detectDistance": 1,
      "gravity": 0.0152587890625,
      "speed": 2,
      "speedV": 1.2000000476837158,
      "distribution": 0.30517578125,
      "blowAway": 0,
      "bounce": 0.6000000238418579,
      "hitDamage": 1,
      "wormExplode": true,
      "explGround": false,
      "wormDestroy": true,
      "bloodOnHit": 9,
      "startFrame": 177,
      "numFrames": 0,
      "drawOnMap": false,
      "colorBullets": 0,
      "createOnExp": 0,
      "affectByExplosions": true,
      "dirtEffect": -1,
      "splinterAmount": 6,
      "splinterColour": 75,
      "splinterType": 4,
      "bloodTrail": false,
      "bloodTrailDelay": 0,
      "leaveObj": 5,
      "leaveObjDelay": 5,
      "timeToExplo": 100,
      "timeToExploV": 40
    },
    {
 // nid12  splinterType for wObjects: [13,14,30]
      "detectDistance": 0,
      "gravity": 0.0152587890625,
      "speed": 1.5,
      "speedV": 0.8999999761581421,
      "distribution": 0.152587890625,
      "blowAway": 0,
      "bounce": 0,
      "hitDamage": 0,
      "wormExplode": false,
      "explGround": true,
      "wormDestroy": false,
      "bloodOnHit": 0,
      "startFrame": 0,
      "numFrames": 0,
      "drawOnMap": false,
      "colorBullets": 10,
      "createOnExp": 8,
      "affectByExplosions": false,
      "dirtEffect": -1,
      "splinterAmount": 0,
      "splinterColour": 0,
      "splinterType": -1,
      "bloodTrail": false,
      "bloodTrailDelay": 0,
      "leaveObj": 8,
      "leaveObjDelay": 4,
      "timeToExplo": 40,
      "timeToExploV": 10
    },
    {
 // nid13  splinterType for wObjects: [4,23,35] partTrailObj for wObjects: [35] splinterType for nObjects: [18,22]
      "detectDistance": 0,
      "gravity": 0,
      "speed": 4,
      "speedV": 8,
      "distribution": 0.152587890625,
      "blowAway": 0,
      "bounce": 1,
      "hitDamage": 0,
      "wormExplode": false,
      "explGround": false,
      "wormDestroy": false,
      "bloodOnHit": 0,
      "startFrame": 0,
      "numFrames": 0,
      "drawOnMap": false,
      "colorBullets": 0,
      "createOnExp": -1,
      "affectByExplosions": false,
      "dirtEffect": 4,
      "splinterAmount": 0,
      "splinterColour": 0,
      "splinterType": -1,
      "bloodTrail": false,
      "bloodTrailDelay": 0,
      "leaveObj": -1,
      "leaveObjDelay": 0,
      "timeToExplo": 1,
      "timeToExploV": 0
    },
    {
 // nid14  splinterType for wObjects: [22,33]
      "detectDistance": 1,
      "gravity": 0.0152587890625,
      "speed": 2.200000047683716,
      "speedV": 1.5,
      "distribution": 0.152587890625,
      "blowAway": 0,
      "bounce": 0,
      "hitDamage": 4,
      "wormExplode": true,
      "explGround": true,
      "wormDestroy": true,
      "bloodOnHit": 10,
      "startFrame": 219,
      "numFrames": 3,
      "drawOnMap": false,
      "colorBullets": 0,
      "createOnExp": 0,
      "affectByExplosions": false,
      "dirtEffect": -1,
      "splinterAmount": 0,
      "splinterColour": 0,
      "splinterType": -1,
      "bloodTrail": false,
      "bloodTrailDelay": 0,
      "leaveObj": -1,
      "leaveObjDelay": 0,
      "timeToExplo": 0,
      "timeToExploV": 0
    },
    {
 // nid15 
      "detectDistance": 1,
      "gravity": 0.0152587890625,
      "speed": 1.2000000476837158,
      "speedV": 0.4000000059604645,
      "distribution": 0.152587890625,
      "blowAway": 0,
      "bounce": 0.6000000238418579,
      "hitDamage": 1,
      "wormExplode": true,
      "explGround": false,
      "wormDestroy": true,
      "bloodOnHit": 0,
      "startFrame": 239,
      "numFrames": 0,
      "drawOnMap": false,
      "colorBullets": 0,
      "createOnExp": 0,
      "affectByExplosions": true,
      "dirtEffect": -1,
      "splinterAmount": 1,
      "splinterColour": 0,
      "splinterType": 16,
      "bloodTrail": false,
      "bloodTrailDelay": 0,
      "leaveObj": -1,
      "leaveObjDelay": 0,
      "timeToExplo": 70,
      "timeToExploV": 60
    },
    {
 // nid16  splinterType for nObjects: [15]
      "detectDistance": 1,
      "gravity": 0.0152587890625,
      "speed": 1.2000000476837158,
      "speedV": 0.4000000059604645,
      "distribution": 0.152587890625,
      "blowAway": 0,
      "bounce": 0.6000000238418579,
      "hitDamage": 1,
      "wormExplode": true,
      "explGround": false,
      "wormDestroy": true,
      "bloodOnHit": 0,
      "startFrame": 239,
      "numFrames": 0,
      "drawOnMap": false,
      "colorBullets": 0,
      "createOnExp": 0,
      "affectByExplosions": true,
      "dirtEffect": -1,
      "splinterAmount": 1,
      "splinterColour": 0,
      "splinterType": 17,
      "bloodTrail": false,
      "bloodTrailDelay": 0,
      "leaveObj": -1,
      "leaveObjDelay": 0,
      "timeToExplo": 70,
      "timeToExploV": 60
    },
    {
 // nid17  splinterType for nObjects: [16]
      "detectDistance": 1,
      "gravity": 0.0152587890625,
      "speed": 1.2000000476837158,
      "speedV": 0.4000000059604645,
      "distribution": 0.152587890625,
      "blowAway": 0,
      "bounce": 0.6000000238418579,
      "hitDamage": 1,
      "wormExplode": true,
      "explGround": false,
      "wormDestroy": true,
      "bloodOnHit": 0,
      "startFrame": 239,
      "numFrames": 0,
      "drawOnMap": false,
      "colorBullets": 0,
      "createOnExp": 0,
      "affectByExplosions": true,
      "dirtEffect": -1,
      "splinterAmount": 1,
      "splinterColour": 0,
      "splinterType": 18,
      "bloodTrail": false,
      "bloodTrailDelay": 0,
      "leaveObj": -1,
      "leaveObjDelay": 0,
      "timeToExplo": 70,
      "timeToExploV": 60
    },
    {
 // nid18  splinterType for wObjects: [11] splinterType for nObjects: [17]
      "detectDistance": 1,
      "gravity": 0,
      "speed": 0.5,
      "speedV": 0.10000000149011612,
      "distribution": 0,
      "blowAway": 0,
      "bounce": 0,
      "hitDamage": 0,
      "wormExplode": false,
      "explGround": false,
      "wormDestroy": false,
      "bloodOnHit": 0,
      "startFrame": 0,
      "numFrames": 0,
      "drawOnMap": false,
      "colorBullets": 0,
      "createOnExp": -1,
      "affectByExplosions": true,
      "dirtEffect": 6,
      "splinterAmount": 8,
      "splinterColour": 0,
      "splinterType": 13,
      "bloodTrail": false,
      "bloodTrailDelay": 0,
      "leaveObj": -1,
      "leaveObjDelay": 0,
      "timeToExplo": 700,
      "timeToExploV": 700
    },
    {
 // nid19  splinterType for wObjects: [18]
      "detectDistance": 2,
      "gravity": 0.03814697265625,
      "speed": 1.7000000476837158,
      "speedV": 0.10000000149011612,
      "distribution": 0.152587890625,
      "blowAway": 0,
      "bounce": 0.25,
      "hitDamage": 15,
      "wormExplode": true,
      "explGround": false,
      "wormDestroy": true,
      "bloodOnHit": 20,
      "startFrame": 173,
      "numFrames": 3,
      "drawOnMap": false,
      "colorBullets": 0,
      "createOnExp": 0,
      "affectByExplosions": true,
      "dirtEffect": 6,
      "splinterAmount": 3,
      "splinterColour": 0,
      "splinterType": 4,
      "bloodTrail": false,
      "bloodTrailDelay": 0,
      "leaveObj": -1,
      "leaveObjDelay": 0,
      "timeToExplo": 15000,
      "timeToExploV": 200
    },
    {
 // nid20 
      "detectDistance": 3,
      "gravity": 0.0152587890625,
      "speed": 0,
      "speedV": 0,
      "distribution": 0,
      "blowAway": 0,
      "bounce": 0.4000000059604645,
      "hitDamage": 0,
      "wormExplode": false,
      "explGround": false,
      "wormDestroy": false,
      "bloodOnHit": 0,
      "startFrame": 213,
      "numFrames": 0,
      "drawOnMap": false,
      "colorBullets": 0,
      "createOnExp": -1,
      "affectByExplosions": true,
      "dirtEffect": -1,
      "splinterAmount": 0,
      "splinterColour": 0,
      "splinterType": -1,
      "bloodTrail": false,
      "bloodTrailDelay": 0,
      "leaveObj": -1,
      "leaveObjDelay": 0,
      "timeToExplo": 0,
      "timeToExploV": 0
    },
    {
 // nid21 
      "detectDistance": 3,
      "gravity": 0.0152587890625,
      "speed": 0,
      "speedV": 0,
      "distribution": 0,
      "blowAway": 0,
      "bounce": 0.4000000059604645,
      "hitDamage": 0,
      "wormExplode": false,
      "explGround": false,
      "wormDestroy": false,
      "bloodOnHit": 0,
      "startFrame": 214,
      "numFrames": 0,
      "drawOnMap": false,
      "colorBullets": 0,
      "createOnExp": -1,
      "affectByExplosions": true,
      "dirtEffect": -1,
      "splinterAmount": 0,
      "splinterColour": 0,
      "splinterType": -1,
      "bloodTrail": false,
      "bloodTrailDelay": 0,
      "leaveObj": -1,
      "leaveObjDelay": 0,
      "timeToExplo": 0,
      "timeToExploV": 0
    },
    {
 // nid22  splinterType for wObjects: [20]
      "detectDistance": 1,
      "gravity": 0.0030517578125,
      "speed": 1,
      "speedV": 0.30000001192092896,
      "distribution": 0.152587890625,
      "blowAway": 0,
      "bounce": 0.25,
      "hitDamage": 36,
      "wormExplode": true,
      "explGround": false,
      "wormDestroy": true,
      "bloodOnHit": 10,
      "startFrame": 0,
      "numFrames": 0,
      "drawOnMap": false,
      "colorBullets": 10,
      "createOnExp": 0,
      "affectByExplosions": true,
      "dirtEffect": -1,
      "splinterAmount": 76,
      "splinterColour": 0,
      "splinterType": 13,
      "bloodTrail": false,
      "bloodTrailDelay": 0,
      "leaveObj": -1,
      "leaveObjDelay": 0,
      "timeToExplo": 500,
      "timeToExploV": 66
    },
    {
 // nid23 
      "detectDistance": 1,
      "gravity": 0.0152587890625,
      "speed": 1.2000000476837158,
      "speedV": 0.4000000059604645,
      "distribution": 0.152587890625,
      "blowAway": 0,
      "bounce": 0.4000000059604645,
      "hitDamage": 1,
      "wormExplode": true,
      "explGround": false,
      "wormDestroy": true,
      "bloodOnHit": 0,
      "startFrame": 239,
      "numFrames": 0,
      "drawOnMap": false,
      "colorBullets": 0,
      "createOnExp": 10,
      "affectByExplosions": true,
      "dirtEffect": -1,
      "splinterAmount": 0,
      "splinterColour": 0,
      "splinterType": -1,
      "bloodTrail": false,
      "bloodTrailDelay": 0,
      "leaveObj": -1,
      "leaveObjDelay": 0,
      "timeToExplo": 70,
      "timeToExploV": 60
    }
  ],
  "sObjects":
  [
    {
 // sid0  createOnExp for wObjects: [3,5,10,12,20,22,23,25,27,32,33,34,36] createOnExp for nObjects: [9,10,11,14,15,16,17,19,22]
      "startSound": 9,
      "numSounds": 2,
      "animDelay": 2,
      "startFrame": 40,
      "numFrames": 15,
      "detectRange": 20,
      "damage": 15,
      "blowAway": 0.0457763671875,
      "shadow": true,
      "shake": 4,
      "flash": 8,
      "dirtEffect": 0
    },
    {
 // sid1  createOnExp for wObjects: [6,13,26,39] objTrailType for wObjects: [25] createOnExp for nObjects: [8]
      "startSound": 9,
      "numSounds": 0,
      "animDelay": 2,
      "startFrame": 45,
      "numFrames": 10,
      "detectRange": 14,
      "damage": 10,
      "blowAway": 0.0457763671875,
      "shadow": false,
      "shake": 2,
      "flash": 4,
      "dirtEffect": 1
    },
    {
 // sid2  createOnExp for wObjects: [0,2,7,16,24,29] createOnExp for nObjects: [4]
      "startSound": 7,
      "numSounds": 0,
      "animDelay": 2,
      "startFrame": 50,
      "numFrames": 5,
      "detectRange": 8,
      "damage": 5,
      "blowAway": 0.0457763671875,
      "shadow": false,
      "shake": 1,
      "flash": 0,
      "dirtEffect": 2
    },
    {
 // sid3  createOnExp for wObjects: [8] objTrailType for wObjects: [3] leaveObj for nObjects: [10]
      "startSound": -1,
      "numSounds": 0,
      "animDelay": 4,
      "startFrame": 64,
      "numFrames": 4,
      "detectRange": 0,
      "damage": 0,
      "blowAway": 0,
      "shadow": false,
      "shake": 1,
      "flash": 0,
      "dirtEffect": -1
    },
    {
 // sid4  createOnExp for wObjects: [17,31] createOnExp for nObjects: [3]
      "startSound": -1,
      "numSounds": 0,
      "animDelay": 4,
      "startFrame": 100,
      "numFrames": 3,
      "detectRange": 0,
      "damage": 0,
      "blowAway": 0,
      "shadow": true,
      "shake": 0,
      "flash": 0,
      "dirtEffect": 5
    },
    {
 // sid5  createOnExp for wObjects: [14] objTrailType for wObjects: [12] leaveObj for nObjects: [2,9,11]
      "startSound": -1,
      "numSounds": 0,
      "animDelay": 2,
      "startFrame": 104,
      "numFrames": 3,
      "detectRange": 0,
      "damage": 0,
      "blowAway": 0,
      "shadow": false,
      "shake": 0,
      "flash": 0,
      "dirtEffect": -1
    },
    {
 // sid6  objTrailType for wObjects: [13,24,36]
      "startSound": -1,
      "numSounds": 0,
      "animDelay": 4,
      "startFrame": 76,
      "numFrames": 2,
      "detectRange": 0,
      "damage": 0,
      "blowAway": 0,
      "shadow": true,
      "shake": 0,
      "flash": 0,
      "dirtEffect": -1
    },
    {
 // sid7  leaveObj for nObjects: [4]
      "startSound": -1,
      "numSounds": 0,
      "animDelay": 2,
      "startFrame": 91,
      "numFrames": 4,
      "detectRange": 0,
      "damage": 0,
      "blowAway": 0,
      "shadow": true,
      "shake": 0,
      "flash": 0,
      "dirtEffect": -1
    },
    {
 // sid8  createOnExp for wObjects: [38] createOnExp for nObjects: [12] leaveObj for nObjects: [12]
      "startSound": -1,
      "numSounds": 0,
      "animDelay": 2,
      "startFrame": 49,
      "numFrames": 6,
      "detectRange": 8,
      "damage": 7,
      "blowAway": 0,
      "shadow": true,
      "shake": 0,
      "flash": 0,
      "dirtEffect": 2
    },
    {
 // sid9  createOnExp for wObjects: [1,21,28] objTrailType for wObjects: [2,14,15,19,32] createOnExp for nObjects: [5]
      "startSound": -1,
      "numSounds": 0,
      "animDelay": 2,
      "startFrame": 53,
      "numFrames": 2,
      "detectRange": 3,
      "damage": 0,
      "blowAway": 0,
      "shadow": true,
      "shake": 0,
      "flash": 0,
      "dirtEffect": 5
    },
    {
 // sid10  createOnExp for wObjects: [15,18] createOnExp for nObjects: [23]
      "startSound": 9,
      "numSounds": 4,
      "animDelay": 2,
      "startFrame": 47,
      "numFrames": 8,
      "detectRange": 10,
      "damage": 8,
      "blowAway": 0.0457763671875,
      "shadow": true,
      "shake": 2,
      "flash": 3,
      "dirtEffect": 8
    },
    {
 // sid11 
      "startSound": 9,
      "numSounds": 4,
      "animDelay": 2,
      "startFrame": 42,
      "numFrames": 13,
      "detectRange": 15,
      "damage": 13,
      "blowAway": 0.0457763671875,
      "shadow": true,
      "shake": 3,
      "flash": 6,
      "dirtEffect": 1
    },
    {
 // sid12 
      "startSound": 9,
      "numSounds": 4,
      "animDelay": 2,
      "startFrame": 44,
      "numFrames": 11,
      "detectRange": 14,
      "damage": 12,
      "blowAway": 0.0457763671875,
      "shadow": true,
      "shake": 3,
      "flash": 5,
      "dirtEffect": 1
    },
    {
 // sid13 
      "startSound": -1,
      "numSounds": 0,
      "animDelay": 50,
      "startFrame": 4,
      "numFrames": 3,
      "detectRange": 8,
      "damage": 20,
      "blowAway": 0.00152587890625,
      "shadow": false,
      "shake": 0,
      "flash": 0,
      "dirtEffect": -1
    }
  ],
  "textures":
  [
    {
      "nDrawBack": true,
      "mFrame": 0,
      "sFrame": 73,
      "rFrame": 2
    },
    {
      "nDrawBack": true,
      "mFrame": 1,
      "sFrame": 73,
      "rFrame": 2
    },
    {
      "nDrawBack": true,
      "mFrame": 2,
      "sFrame": 73,
      "rFrame": 2
    },
    {
      "nDrawBack": true,
      "mFrame": 37,
      "sFrame": 73,
      "rFrame": 2
    },
    {
      "nDrawBack": false,
      "mFrame": 0,
      "sFrame": 87,
      "rFrame": 2
    },
    {
      "nDrawBack": true,
      "mFrame": 39,
      "sFrame": 73,
      "rFrame": 2
    },
    {
      "nDrawBack": false,
      "mFrame": 38,
      "sFrame": 82,
      "rFrame": 2
    },
    {
      "nDrawBack": true,
      "mFrame": 99,
      "sFrame": 73,
      "rFrame": 2
    },
    {
      "nDrawBack": true,
      "mFrame": 37,
      "sFrame": 73,
      "rFrame": 2
    }
  ],
  "colorAnim":
  [
    129,
    131,
    133,
    136,
    152,
    159,
    168,
    171
  ],
  "textSpritesStartIdx": 240,
  "crossHairSprite": 153
}
