{
  "constants":
  {
    "nrInitialLength": 250,
    "nrAttachLength": 28.125,
    "minBounceUp": -0.8125,
    "minBounceDown": 0.8125,
    "minBounceHoriz": 0.8125,
    "wormGravity": 0.02288818359375,
    "wormAcc": 0.0457763671875,
    "wormMaxVel": 0.4453125,
    "jumpForce": 0.85546875,
    "maxAimVel": 0.05243098363280296,
    "aimAcc": 0.002996056340634823,
    "ninjaropeGravity": 0.0152587890625,
    "nrMinLength": 10.625,
    "nrMaxLength": 250,
    "bonusGravity": 0.02288818359375,
    "wormFricMult": 0.8899999856948853,
    "aimFric": 0.8299999833106995,
    "nrThrowVel": 4,
    "nrForce": 0.0833333358168602,
    "bonusBounce": 0.4000000059604645,
    "bonusFlickerTime": 220,
    "aimMaxAngle": 1.5707963705062866,
    "aimMinAngle": -0.9817476868629456,
    "nrAdjustVel": 1.5,
    "nrColourBegin": 62,
    "nrColourEnd": 64,
    "bonusExplodeRisk": 10,
    "bonusHealthVar": 51,
    "bonusMinHealth": 10,
    "firstBloodColour": 80,
    "numBloodColours": 2,
    "bObjGravity": 0.0152587890625,
    "splinterLarpaVelDiv": 3,
    "splinterCracklerVelDiv": 3,
    "fallDamageHoriz": 0,
    "fallDamageDown": 0,
    "fallDamageUp": 0,
    "hFallDamage": false,
    "hBonusReloadOnly": false
  },
  "weapons":
  [
    {
      "parts": 50,
      "bulletType": 0,
      "bulletSpeed": 2,
      "bulletSpeedInherit": 0.5,
      "distribution": 0.4999847412109375,
      "recoil": 2.549999952316284,
      "ammo": 10,
      "delay": 15,
      "loadingTime": 100,
      "leaveShells": 1,
      "leaveShellDelay": 28,
      "fireCone": 9,
      "laserSight": true,
      "laserBeam": false,
      "launchSound": 0,
      "playReloadSound": true,
      "name": "SHOT'N'FLY",
      "id": 0,
      "reloadSound": -1
    },
    {
      "parts": 1,
      "bulletType": 1,
      "bulletSpeed": 2.5,
      "bulletSpeedInherit": 0.4000000059604645,
      "distribution": 0.0457763671875,
      "recoil": 0.05999999865889549,
      "ammo": 50,
      "delay": 3,
      "loadingTime": 315,
      "leaveShells": 2,
      "leaveShellDelay": 1,
      "fireCone": 6,
      "laserSight": false,
      "laserBeam": false,
      "launchSound": 1,
      "playReloadSound": true,
      "name": "CHAINGUN",
      "id": 1,
      "reloadSound": -1
    },
    {
      "parts": 1,
      "bulletType": 2,
      "bulletSpeed": 2.5,
      "bulletSpeedInherit": 0.4000000059604645,
      "distribution": 0,
      "recoil": 0.699999988079071,
      "ammo": 1,
      "delay": 5,
      "loadingTime": 275,
      "leaveShells": 1,
      "leaveShellDelay": 1,
      "fireCone": 8,
      "laserSight": true,
      "laserBeam": false,
      "launchSound": 2,
      "playReloadSound": true,
      "name": "RIFLE",
      "id": 2,
      "reloadSound": -1
    },
    {
      "parts": 1,
      "bulletType": 3,
      "bulletSpeed": 2,
      "bulletSpeedInherit": 0.5,
      "distribution": 0,
      "recoil": 0.10000000149011612,
      "ammo": 5,
      "delay": 100,
      "loadingTime": 300,
      "leaveShells": 0,
      "leaveShellDelay": 1,
      "fireCone": 9,
      "laserSight": false,
      "laserBeam": false,
      "launchSound": 3,
      "playReloadSound": true,
      "name": "ICE BLAST",
      "id": 3,
      "reloadSound": -1
    },
    {
      "parts": 2,
      "bulletType": 4,
      "bulletSpeed": 2,
      "bulletSpeedInherit": 0.5,
      "distribution": 0.11444091796875,
      "recoil": 0,
      "ammo": 5,
      "delay": 20,
      "loadingTime": 225,
      "leaveShells": 0,
      "leaveShellDelay": 1,
      "fireCone": 0,
      "laserSight": false,
      "laserBeam": false,
      "launchSound": 4,
      "playReloadSound": true,
      "name": "REGENERATION",
      "id": 4,
      "reloadSound": -1
    },
    {
      "parts": 15,
      "bulletType": 5,
      "bulletSpeed": 1.5,
      "bulletSpeedInherit": 0.6666666865348816,
      "distribution": 0.152587890625,
      "recoil": 0,
      "ammo": 5,
      "delay": 25,
      "loadingTime": 250,
      "leaveShells": 0,
      "leaveShellDelay": 1,
      "fireCone": 0,
      "laserSight": false,
      "laserBeam": false,
      "launchSound": 5,
      "playReloadSound": false,
      "name": "EXPLOSIVES",
      "id": 5,
      "reloadSound": -1
    },
    {
      "parts": 1,
      "bulletType": 6,
      "bulletSpeed": 1,
      "bulletSpeedInherit": 1,
      "distribution": 0.1220703125,
      "recoil": 0,
      "ammo": 1,
      "delay": 0,
      "loadingTime": 220,
      "leaveShells": 0,
      "leaveShellDelay": 1,
      "fireCone": 0,
      "laserSight": false,
      "laserBeam": false,
      "launchSound": 5,
      "playReloadSound": false,
      "name": "MINE",
      "id": 6,
      "reloadSound": -1
    },
    {
      "parts": 3,
      "bulletType": 7,
      "bulletSpeed": 3,
      "bulletSpeedInherit": 0.3333333432674408,
      "distribution": 0.0152587890625,
      "recoil": 0.15000000596046448,
      "ammo": 5,
      "delay": 100,
      "loadingTime": 350,
      "leaveShells": 1,
      "leaveShellDelay": 1,
      "fireCone": 8,
      "laserSight": false,
      "laserBeam": false,
      "launchSound": 2,
      "playReloadSound": true,
      "name": "BLINDER",
      "id": 7,
      "reloadSound": -1
    },
    {
      "parts": 5,
      "bulletType": 8,
      "bulletSpeed": 2,
      "bulletSpeedInherit": 0.5,
      "distribution": 0.457763671875,
      "recoil": 0.05000000074505806,
      "ammo": 8,
      "delay": 50,
      "loadingTime": 500,
      "leaveShells": 0,
      "leaveShellDelay": 1,
      "fireCone": 8,
      "laserSight": false,
      "laserBeam": false,
      "launchSound": 6,
      "playReloadSound": true,
      "name": "DOOMSDAY",
      "id": 8,
      "reloadSound": -1
    },
    {
      "parts": 50,
      "bulletType": 9,
      "bulletSpeed": 1,
      "bulletSpeedInherit": 1,
      "distribution": 0.30517578125,
      "recoil": 0,
      "ammo": 100,
      "delay": 2,
      "loadingTime": 320,
      "leaveShells": 0,
      "leaveShellDelay": 1,
      "fireCone": 0,
      "laserSight": false,
      "laserBeam": false,
      "launchSound": -1,
      "playReloadSound": false,
      "name": "DRAGON BREATH",
      "id": 9,
      "reloadSound": -1
    },
    {
      "parts": 1,
      "bulletType": 10,
      "bulletSpeed": 2,
      "bulletSpeedInherit": 0.5,
      "distribution": 0.152587890625,
      "recoil": 0,
      "ammo": 20,
      "delay": 15,
      "loadingTime": 300,
      "leaveShells": 0,
      "leaveShellDelay": 1,
      "fireCone": 0,
      "laserSight": false,
      "laserBeam": false,
      "launchSound": 5,
      "playReloadSound": false,
      "name": "ICE SURPRISE",
      "id": 10,
      "reloadSound": -1
    },
    {
      "parts": 1,
      "bulletType": 11,
      "bulletSpeed": 3,
      "bulletSpeedInherit": 0.3333333432674408,
      "distribution": 0.4999847412109375,
      "recoil": 0,
      "ammo": 3,
      "delay": 100,
      "loadingTime": 1000,
      "leaveShells": 1,
      "leaveShellDelay": 1,
      "fireCone": 7,
      "laserSight": false,
      "laserBeam": false,
      "launchSound": 6,
      "playReloadSound": true,
      "name": "CENTER",
      "id": 11,
      "reloadSound": -1
    },
    {
      "parts": 1,
      "bulletType": 12,
      "bulletSpeed": 2.5,
      "bulletSpeedInherit": 0.4000000059604645,
      "distribution": 0,
      "recoil": 0,
      "ammo": 10,
      "delay": 25,
      "loadingTime": 200,
      "leaveShells": 1,
      "leaveShellDelay": 1,
      "fireCone": 0,
      "laserSight": true,
      "laserBeam": false,
      "launchSound": 4,
      "playReloadSound": true,
      "name": "BLASTER",
      "id": 12,
      "reloadSound": -1
    },
    {
      "parts": 1,
      "bulletType": 13,
      "bulletSpeed": 1,
      "bulletSpeedInherit": 1,
      "distribution": 0.1220703125,
      "recoil": 0,
      "ammo": 1,
      "delay": 0,
      "loadingTime": 250,
      "leaveShells": 0,
      "leaveShellDelay": 1,
      "fireCone": 0,
      "laserSight": false,
      "laserBeam": false,
      "launchSound": 5,
      "playReloadSound": false,
      "name": "BOUNCY MINE",
      "id": 13,
      "reloadSound": -1
    },
    {
      "parts": 1,
      "bulletType": 14,
      "bulletSpeed": 2.5999999046325684,
      "bulletSpeedInherit": 0.38461539149284363,
      "distribution": 0.091552734375,
      "recoil": 0.05999999865889549,
      "ammo": 70,
      "delay": 0,
      "loadingTime": 500,
      "leaveShells": 4,
      "leaveShellDelay": 1,
      "fireCone": 6,
      "laserSight": false,
      "laserBeam": false,
      "launchSound": 1,
      "playReloadSound": true,
      "name": "MINIGUN",
      "id": 14,
      "reloadSound": -1
    },
    {
      "parts": 1,
      "bulletType": 15,
      "bulletSpeed": 1.7000000476837158,
      "bulletSpeedInherit": 0.5882352590560913,
      "distribution": 0.1068115234375,
      "recoil": 0,
      "ammo": 1,
      "delay": 0,
      "loadingTime": 400,
      "leaveShells": 0,
      "leaveShellDelay": 1,
      "fireCone": 0,
      "laserSight": false,
      "laserBeam": false,
      "launchSound": 5,
      "playReloadSound": false,
      "name": "CLUSTER BOMB",
      "id": 15,
      "reloadSound": -1
    },
    {
      "parts": 100,
      "bulletType": 16,
      "bulletSpeed": 3,
      "bulletSpeedInherit": 0.3333333432674408,
      "distribution": 0.4999847412109375,
      "recoil": 0.15000000596046448,
      "ammo": 5,
      "delay": 100,
      "loadingTime": 50,
      "leaveShells": 1,
      "leaveShellDelay": 28,
      "fireCone": 10,
      "laserSight": true,
      "laserBeam": false,
      "launchSound": 0,
      "playReloadSound": true,
      "name": "HARD BLOW",
      "id": 16,
      "reloadSound": -1
    },
    {
      "parts": 2,
      "bulletType": 17,
      "bulletSpeed": 7.5,
      "bulletSpeedInherit": 0.13333334028720856,
      "distribution": 0,
      "recoil": 0,
      "ammo": 10,
      "delay": 25,
      "loadingTime": 300,
      "leaveShells": 1,
      "leaveShellDelay": 1,
      "fireCone": 6,
      "laserSight": true,
      "laserBeam": false,
      "launchSound": 1,
      "playReloadSound": true,
      "name": "INSTANT",
      "id": 17,
      "reloadSound": -1
    },
    {
      "parts": 1,
      "bulletType": 18,
      "bulletSpeed": 2,
      "bulletSpeedInherit": 0.5,
      "distribution": 0.1220703125,
      "recoil": 0.10000000149011612,
      "ammo": 40,
      "delay": 4,
      "loadingTime": 220,
      "leaveShells": 0,
      "leaveShellDelay": 1,
      "fireCone": 0,
      "laserSight": false,
      "laserBeam": false,
      "launchSound": -1,
      "playReloadSound": true,
      "name": "GREENBALL",
      "id": 18,
      "reloadSound": -1
    },
    {
      "parts": 3,
      "bulletType": 19,
      "bulletSpeed": 1.5,
      "bulletSpeedInherit": 0.6666666865348816,
      "distribution": 0.30517578125,
      "recoil": 0,
      "ammo": 1,
      "delay": 200,
      "loadingTime": 500,
      "leaveShells": 0,
      "leaveShellDelay": 1,
      "fireCone": 0,
      "laserSight": false,
      "laserBeam": false,
      "launchSound": 5,
      "playReloadSound": false,
      "name": "BIG NUKE",
      "id": 19,
      "reloadSound": -1
    },
    {
      "parts": 1,
      "bulletType": 20,
      "bulletSpeed": 1.7000000476837158,
      "bulletSpeedInherit": 0.5882352590560913,
      "distribution": 0.48828125,
      "recoil": 0,
      "ammo": 1,
      "delay": 0,
      "loadingTime": 550,
      "leaveShells": 0,
      "leaveShellDelay": 1,
      "fireCone": 0,
      "laserSight": false,
      "laserBeam": false,
      "launchSound": 5,
      "playReloadSound": true,
      "name": "CRACKLER",
      "id": 20,
      "reloadSound": -1
    },
    {
      "parts": 3,
      "bulletType": 21,
      "bulletSpeed": 3,
      "bulletSpeedInherit": 0.3333333432674408,
      "distribution": 0.0152587890625,
      "recoil": 0,
      "ammo": 5,
      "delay": 150,
      "loadingTime": 750,
      "leaveShells": 1,
      "leaveShellDelay": 1,
      "fireCone": 0,
      "laserSight": false,
      "laserBeam": false,
      "launchSound": 1,
      "playReloadSound": true,
      "name": "INSANE",
      "id": 21,
      "reloadSound": -1
    },
    {
      "parts": 1,
      "bulletType": 22,
      "bulletSpeed": 1.7999999523162842,
      "bulletSpeedInherit": 0.5555555820465088,
      "distribution": 0.1220703125,
      "recoil": 0.20000000298023224,
      "ammo": 2,
      "delay": 30,
      "loadingTime": 450,
      "leaveShells": 0,
      "leaveShellDelay": 1,
      "fireCone": 0,
      "laserSight": false,
      "laserBeam": false,
      "launchSound": 5,
      "playReloadSound": false,
      "name": "MINI NUKE",
      "id": 22,
      "reloadSound": -1
    },
    {
      "parts": 30,
      "bulletType": 23,
      "bulletSpeed": 1,
      "bulletSpeedInherit": 1,
      "distribution": 0.2288818359375,
      "recoil": 0,
      "ammo": 10,
      "delay": 0,
      "loadingTime": 280,
      "leaveShells": 0,
      "leaveShellDelay": 1,
      "fireCone": 0,
      "laserSight": false,
      "laserBeam": false,
      "launchSound": 29,
      "playReloadSound": true,
      "name": "FROZEN WIND",
      "id": 23,
      "reloadSound": -1
    },
    {
      "parts": 5,
      "bulletType": 24,
      "bulletSpeed": 1.5,
      "bulletSpeedInherit": 0.6666666865348816,
      "distribution": 0.4999847412109375,
      "recoil": 0,
      "ammo": 150,
      "delay": 0,
      "loadingTime": 220,
      "leaveShells": 0,
      "leaveShellDelay": 1,
      "fireCone": 0,
      "laserSight": false,
      "laserBeam": false,
      "launchSound": -1,
      "playReloadSound": false,
      "name": "DEFLECT",
      "id": 24,
      "reloadSound": -1
    },
    {
      "parts": 3,
      "bulletType": 25,
      "bulletSpeed": 2,
      "bulletSpeedInherit": 0.5,
      "distribution": 0.152587890625,
      "recoil": 0.5,
      "ammo": 2,
      "delay": 500,
      "loadingTime": 1000,
      "leaveShells": 0,
      "leaveShellDelay": 1,
      "fireCone": 8,
      "laserSight": false,
      "laserBeam": false,
      "launchSound": 4,
      "playReloadSound": true,
      "name": "CHAOS",
      "id": 25,
      "reloadSound": -1
    },
    {
      "parts": 1,
      "bulletType": 26,
      "bulletSpeed": 2,
      "bulletSpeedInherit": 0.5,
      "distribution": 0.00457763671875,
      "recoil": 0.4000000059604645,
      "ammo": 6,
      "delay": 10,
      "loadingTime": 450,
      "leaveShells": 0,
      "leaveShellDelay": 1,
      "fireCone": 8,
      "laserSight": false,
      "laserBeam": false,
      "launchSound": 11,
      "playReloadSound": true,
      "name": "CANNON",
      "id": 26,
      "reloadSound": -1
    },
    {
      "parts": 1,
      "bulletType": 27,
      "bulletSpeed": 2.200000047683716,
      "bulletSpeedInherit": 0.45454543828964233,
      "distribution": 0,
      "recoil": 0.20000000298023224,
      "ammo": 4,
      "delay": 30,
      "loadingTime": 390,
      "leaveShells": 0,
      "leaveShellDelay": 1,
      "fireCone": 7,
      "laserSight": false,
      "laserBeam": false,
      "launchSound": 6,
      "playReloadSound": true,
      "name": "BOUNCY LARPA",
      "id": 27,
      "reloadSound": -1
    },
    {
      "parts": 1,
      "bulletType": 28,
      "bulletSpeed": 1,
      "bulletSpeedInherit": 0,
      "distribution": 0,
      "recoil": 0,
      "ammo": 80,
      "delay": 0,
      "loadingTime": 200,
      "leaveShells": 0,
      "leaveShellDelay": 1,
      "fireCone": 0,
      "laserSight": false,
      "laserBeam": true,
      "launchSound": -1,
      "playReloadSound": true,
      "name": "COLD RAY",
      "id": 28,
      "reloadSound": -1
    },
    {
      "parts": 8,
      "bulletType": 29,
      "bulletSpeed": 1.100000023841858,
      "bulletSpeedInherit": 0.9090908765792847,
      "distribution": 0.3662109375,
      "recoil": 0,
      "ammo": 1,
      "delay": 0,
      "loadingTime": 400,
      "leaveShells": 0,
      "leaveShellDelay": 1,
      "fireCone": 0,
      "laserSight": false,
      "laserBeam": false,
      "launchSound": 5,
      "playReloadSound": true,
      "name": "SPIKEBALLS",
      "id": 29,
      "reloadSound": -1
    },
    {
      "parts": 7,
      "bulletType": 30,
      "bulletSpeed": 1.2999999523162842,
      "bulletSpeedInherit": 0.7692307829856873,
      "distribution": 0.0762939453125,
      "recoil": 0,
      "ammo": 10,
      "delay": 15,
      "loadingTime": 260,
      "leaveShells": 0,
      "leaveShellDelay": 1,
      "fireCone": 0,
      "laserSight": false,
      "laserBeam": false,
      "launchSound": 5,
      "playReloadSound": false,
      "name": "OLYMPIC GAMES",
      "id": 30,
      "reloadSound": -1
    },
    {
      "parts": 1,
      "bulletType": 31,
      "bulletSpeed": 2.5,
      "bulletSpeedInherit": 0.4000000059604645,
      "distribution": 0,
      "recoil": 0.05000000074505806,
      "ammo": 25,
      "delay": 5,
      "loadingTime": 25,
      "leaveShells": 1,
      "leaveShellDelay": 1,
      "fireCone": 6,
      "laserSight": false,
      "laserBeam": false,
      "launchSound": 2,
      "playReloadSound": true,
      "name": "SNOWBALLS",
      "id": 31,
      "reloadSound": -1
    },
    {
      "parts": 5,
      "bulletType": 32,
      "bulletSpeed": 3,
      "bulletSpeedInherit": 0.3333333432674408,
      "distribution": 0,
      "recoil": 0,
      "ammo": 10,
      "delay": 100,
      "loadingTime": 480,
      "leaveShells": 0,
      "leaveShellDelay": 1,
      "fireCone": 9,
      "laserSight": false,
      "laserBeam": false,
      "launchSound": 3,
      "playReloadSound": true,
      "name": "HEATSEEKERS",
      "id": 32,
      "reloadSound": -1
    },
    {
      "parts": 255,
      "bulletType": 33,
      "bulletSpeed": 1,
      "bulletSpeedInherit": 1,
      "distribution": 0.4999847412109375,
      "recoil": 0.20000000298023224,
      "ammo": 1,
      "delay": 500,
      "loadingTime": 2000,
      "leaveShells": 0,
      "leaveShellDelay": 1,
      "fireCone": 0,
      "laserSight": false,
      "laserBeam": false,
      "launchSound": 5,
      "playReloadSound": false,
      "name": "APOCALYPSE",
      "id": 33,
      "reloadSound": -1
    },
    {
      "parts": 1,
      "bulletType": 34,
      "bulletSpeed": 1,
      "bulletSpeedInherit": 1,
      "distribution": 0.30517578125,
      "recoil": 0,
      "ammo": 1,
      "delay": 0,
      "loadingTime": 300,
      "leaveShells": 0,
      "leaveShellDelay": 1,
      "fireCone": 0,
      "laserSight": false,
      "laserBeam": false,
      "launchSound": 5,
      "playReloadSound": false,
      "name": "BOOBY TRAP",
      "id": 34,
      "reloadSound": -1
    },
    {
      "parts": 1,
      "bulletType": 35,
      "bulletSpeed": 1.899999976158142,
      "bulletSpeedInherit": 0.5263158082962036,
      "distribution": 0.1068115234375,
      "recoil": 0,
      "ammo": 1,
      "delay": 0,
      "loadingTime": 300,
      "leaveShells": 0,
      "leaveShellDelay": 1,
      "fireCone": 0,
      "laserSight": false,
      "laserBeam": false,
      "launchSound": 5,
      "playReloadSound": false,
      "name": "GRASSHOPPER",
      "id": 35,
      "reloadSound": -1
    },
    {
      "parts": 2,
      "bulletType": 36,
      "bulletSpeed": 2,
      "bulletSpeedInherit": 0.5,
      "distribution": 0.0152587890625,
      "recoil": 0.10000000149011612,
      "ammo": 20,
      "delay": 15,
      "loadingTime": 400,
      "leaveShells": 0,
      "leaveShellDelay": 1,
      "fireCone": 7,
      "laserSight": false,
      "laserBeam": false,
      "launchSound": 6,
      "playReloadSound": true,
      "name": "MINI ROCKETS",
      "id": 36,
      "reloadSound": -1
    },
    {
      "parts": 1,
      "bulletType": 37,
      "bulletSpeed": 2.200000047683716,
      "bulletSpeedInherit": 0.45454543828964233,
      "distribution": 0,
      "recoil": 0,
      "ammo": 5,
      "delay": 30,
      "loadingTime": 200,
      "leaveShells": 0,
      "leaveShellDelay": 1,
      "fireCone": 0,
      "laserSight": false,
      "laserBeam": false,
      "launchSound": 5,
      "playReloadSound": false,
      "name": "DART",
      "id": 37,
      "reloadSound": -1
    },
    {
      "parts": 2,
      "bulletType": 38,
      "bulletSpeed": 3,
      "bulletSpeedInherit": 0.3333333432674408,
      "distribution": 0,
      "recoil": 0,
      "ammo": 10,
      "delay": 25,
      "loadingTime": 300,
      "leaveShells": 1,
      "leaveShellDelay": 1,
      "fireCone": 6,
      "laserSight": true,
      "laserBeam": false,
      "launchSound": 1,
      "playReloadSound": true,
      "name": "BOUNCER",
      "id": 38,
      "reloadSound": -1
    },
    {
      "parts": 5,
      "bulletType": 39,
      "bulletSpeed": 2,
      "bulletSpeedInherit": 0.5,
      "distribution": 0,
      "recoil": 0.8999999761581421,
      "ammo": 1,
      "delay": 5,
      "loadingTime": 400,
      "leaveShells": 0,
      "leaveShellDelay": 1,
      "fireCone": 10,
      "laserSight": false,
      "laserBeam": false,
      "launchSound": 10,
      "playReloadSound": true,
      "name": "GAUSS GUN",
      "id": 39,
      "reloadSound": -1
    }
  ],
  "wObjects":
  [
    {
      // wid0 used in SHOT'N'FLY
      "detectDistance": 0,
      "blowAway": 0.05000000074505806,
      "gravity": 0,
      "exploSound": -1,
      "addSpeed": 100,
      "distribution": 0.4999847412109375,
      "multSpeed": 2,
      "createOnExp": 1,
      "dirtEffect": -1,
      "wormExplode": false,
      "explGround": true,
      "wormCollide": true,
      "collideWithObjects": false,
      "affectByExplosions": false,
      "bounce": 0,
      "bounceFriction": 0.800000011920929,
      "timeToExplo": 0,
      "timeToExploV": 0,
      "hitDamage": 5,
      "bloodOnHit": 25,
      "startFrame": 194,
      "numFrames": 0,
      "loopAnim": false,
      "shotType": 0,
      "repeat": 1,
      "colorBullets": 129,
      "splinterAmount": 0,
      "splinterColour": 0,
      "splinterType": -1,
      "splinterScatter": 0,
      "objTrailType": -1,
      "objTrailDelay": 0,
      "partTrailType": 0,
      "partTrailObj": -1,
      "partTrailDelay": 0,
      "speed": 200,
      "id": 0,
      "name": "wid 0",
      "teamImmunity": 0
    },
    {
      // wid1 used in CHAINGUN
      "detectDistance": 0,
      "blowAway": 0.05000000074505806,
      "gravity": 0.01068115234375,
      "exploSound": -1,
      "addSpeed": 0,
      "distribution": 0.0457763671875,
      "multSpeed": 1,
      "createOnExp": 2,
      "dirtEffect": -1,
      "wormExplode": false,
      "explGround": true,
      "wormCollide": true,
      "collideWithObjects": false,
      "affectByExplosions": false,
      "bounce": 0,
      "bounceFriction": 0.800000011920929,
      "timeToExplo": 0,
      "timeToExploV": 0,
      "hitDamage": 3,
      "bloodOnHit": 4,
      "startFrame": -1,
      "numFrames": 0,
      "loopAnim": false,
      "shotType": 0,
      "repeat": 1,
      "colorBullets": 68,
      "splinterAmount": 0,
      "splinterColour": 0,
      "splinterType": 2,
      "splinterScatter": 0,
      "objTrailType": -1,
      "objTrailDelay": 0,
      "partTrailType": 0,
      "partTrailObj": -1,
      "partTrailDelay": 0,
      "speed": 250,
      "id": 1,
      "name": "wid 1",
      "teamImmunity": 0
    },
    {
      // wid2 used in RIFLE
      "detectDistance": 0,
      "blowAway": 0.699999988079071,
      "gravity": 0.00030517578125,
      "exploSound": -1,
      "addSpeed": 100,
      "distribution": 0,
      "multSpeed": 1,
      "createOnExp": 2,
      "dirtEffect": -1,
      "wormExplode": false,
      "explGround": true,
      "wormCollide": true,
      "collideWithObjects": false,
      "affectByExplosions": false,
      "bounce": 0,
      "bounceFriction": 0.800000011920929,
      "timeToExplo": 0,
      "timeToExploV": 0,
      "hitDamage": 25,
      "bloodOnHit": 20,
      "startFrame": -1,
      "numFrames": 0,
      "loopAnim": false,
      "shotType": 4,
      "repeat": 8,
      "colorBullets": 68,
      "splinterAmount": 5,
      "splinterColour": 67,
      "splinterType": 4,
      "splinterScatter": 0,
      "objTrailType": -1,
      "objTrailDelay": 0,
      "partTrailType": 0,
      "partTrailObj": -1,
      "partTrailDelay": 0,
      "speed": 250,
      "id": 2,
      "name": "wid 2",
      "teamImmunity": 0
    },
    {
      // wid3 used in ICE BLAST
      "detectDistance": 0,
      "blowAway": 0.05000000074505806,
      "gravity": 0.0000762939453125,
      "exploSound": -1,
      "addSpeed": 50,
      "distribution": 0,
      "multSpeed": 1,
      "createOnExp": 0,
      "dirtEffect": 0,
      "wormExplode": true,
      "explGround": true,
      "wormCollide": true,
      "collideWithObjects": false,
      "affectByExplosions": true,
      "bounce": 0,
      "bounceFriction": 0.800000011920929,
      "timeToExplo": 0,
      "timeToExploV": 0,
      "hitDamage": 15,
      "bloodOnHit": 30,
      "startFrame": 127,
      "numFrames": 0,
      "loopAnim": false,
      "shotType": 3,
      "repeat": 1,
      "colorBullets": 0,
      "splinterAmount": 10,
      "splinterColour": 80,
      "splinterType": 12,
      "splinterScatter": 0,
      "objTrailType": 4,
      "objTrailDelay": 2,
      "partTrailType": 0,
      "partTrailObj": 12,
      "partTrailDelay": 2,
      "speed": 200,
      "id": 3,
      "name": "wid 3",
      "teamImmunity": 0
    },
    {
      // wid4 used in REGENERATION
      "detectDistance": 0,
      "blowAway": 0,
      "gravity": 0.0152587890625,
      "exploSound": 13,
      "addSpeed": 100,
      "distribution": 0.11444091796875,
      "multSpeed": 1,
      "createOnExp": -1,
      "dirtEffect": 4,
      "wormExplode": true,
      "explGround": false,
      "wormCollide": false,
      "collideWithObjects": false,
      "affectByExplosions": false,
      "bounce": 0,
      "bounceFriction": 0.800000011920929,
      "timeToExplo": 15,
      "timeToExploV": 35,
      "hitDamage": 0,
      "bloodOnHit": 0,
      "startFrame": 197,
      "numFrames": 0,
      "loopAnim": false,
      "shotType": 0,
      "repeat": 1,
      "colorBullets": 0,
      "splinterAmount": 255,
      "splinterColour": 72,
      "splinterType": 13,
      "splinterScatter": 0,
      "objTrailType": -1,
      "objTrailDelay": 0,
      "partTrailType": 0,
      "partTrailObj": -1,
      "partTrailDelay": 0,
      "speed": 200,
      "id": 4,
      "name": "wid 4",
      "teamImmunity": 0
    },
    {
      // wid5 used in EXPLOSIVES
      "detectDistance": 0,
      "blowAway": 0,
      "gravity": 0.030517578125,
      "exploSound": -1,
      "addSpeed": 0,
      "distribution": 0.152587890625,
      "multSpeed": 1,
      "createOnExp": 0,
      "dirtEffect": 0,
      "wormExplode": true,
      "explGround": true,
      "wormCollide": false,
      "collideWithObjects": false,
      "affectByExplosions": true,
      "bounce": 0.30000001192092896,
      "bounceFriction": 0.800000011920929,
      "timeToExplo": 100,
      "timeToExploV": 10,
      "hitDamage": 0,
      "bloodOnHit": 0,
      "startFrame": 198,
      "numFrames": 3,
      "loopAnim": true,
      "shotType": 0,
      "repeat": 1,
      "colorBullets": 0,
      "splinterAmount": 5,
      "splinterColour": 0,
      "splinterType": 6,
      "splinterScatter": 0,
      "objTrailType": -1,
      "objTrailDelay": 0,
      "partTrailType": 0,
      "partTrailObj": -1,
      "partTrailDelay": 0,
      "speed": 150,
      "id": 5,
      "name": "wid 5",
      "teamImmunity": 0
    },
    {
      // wid6 used in MINE
      "detectDistance": 2,
      "blowAway": 0.6000000238418579,
      "gravity": 0.0152587890625,
      "exploSound": -1,
      "addSpeed": 0,
      "distribution": 0.1220703125,
      "multSpeed": 1,
      "createOnExp": 0,
      "dirtEffect": -1,
      "wormExplode": true,
      "explGround": false,
      "wormCollide": true,
      "collideWithObjects": false,
      "affectByExplosions": true,
      "bounce": 0.4000000059604645,
      "bounceFriction": 0.800000011920929,
      "timeToExplo": 15000,
      "timeToExploV": 600,
      "hitDamage": 12,
      "bloodOnHit": 20,
      "startFrame": 173,
      "numFrames": 3,
      "loopAnim": true,
      "shotType": 0,
      "repeat": 1,
      "colorBullets": 0,
      "splinterAmount": 5,
      "splinterColour": 66,
      "splinterType": 3,
      "splinterScatter": 0,
      "objTrailType": -1,
      "objTrailDelay": 0,
      "partTrailType": 0,
      "partTrailObj": -1,
      "partTrailDelay": 0,
      "speed": 95,
      "id": 6,
      "name": "wid 6",
      "teamImmunity": 0
    },
    {
      // wid7 used in BLINDER
      "detectDistance": 0,
      "blowAway": 0.30000001192092896,
      "gravity": 0.000762939453125,
      "exploSound": -1,
      "addSpeed": 100,
      "distribution": 0.0152587890625,
      "multSpeed": 1,
      "createOnExp": 2,
      "dirtEffect": 5,
      "wormExplode": false,
      "explGround": true,
      "wormCollide": true,
      "collideWithObjects": false,
      "affectByExplosions": false,
      "bounce": 0,
      "bounceFriction": 0.800000011920929,
      "timeToExplo": 0,
      "timeToExploV": 0,
      "hitDamage": 10,
      "bloodOnHit": 25,
      "startFrame": -1,
      "numFrames": 0,
      "loopAnim": false,
      "shotType": 0,
      "repeat": 1,
      "colorBullets": 241,
      "splinterAmount": 3,
      "splinterColour": 240,
      "splinterType": 4,
      "splinterScatter": 1,
      "objTrailType": 4,
      "objTrailDelay": 1,
      "partTrailType": 0,
      "partTrailObj": -1,
      "partTrailDelay": 0,
      "speed": 300,
      "id": 7,
      "name": "wid 7",
      "teamImmunity": 0
    },
    {
      // wid8 used in DOOMSDAY
      "detectDistance": 0,
      "blowAway": 0.05000000074505806,
      "gravity": 0,
      "exploSound": -1,
      "addSpeed": 100,
      "distribution": 0.457763671875,
      "multSpeed": 1,
      "createOnExp": 0,
      "dirtEffect": 1,
      "wormExplode": true,
      "explGround": true,
      "wormCollide": true,
      "collideWithObjects": false,
      "affectByExplosions": false,
      "bounce": 0,
      "bounceFriction": 0.800000011920929,
      "timeToExplo": 0,
      "timeToExploV": 0,
      "hitDamage": 10,
      "bloodOnHit": 25,
      "startFrame": 127,
      "numFrames": 0,
      "loopAnim": false,
      "shotType": 1,
      "repeat": 1,
      "colorBullets": 147,
      "splinterAmount": 0,
      "splinterColour": 0,
      "splinterType": -1,
      "splinterScatter": 0,
      "objTrailType": 3,
      "objTrailDelay": 2,
      "partTrailType": 0,
      "partTrailObj": -1,
      "partTrailDelay": 0,
      "speed": 200,
      "id": 8,
      "name": "wid 8",
      "teamImmunity": 0
    },
    {
      // wid9 used in DRAGON BREATH
      "detectDistance": 0,
      "blowAway": 0,
      "gravity": -0.00457763671875,
      "exploSound": -1,
      "addSpeed": 50,
      "distribution": 0.30517578125,
      "multSpeed": 1,
      "createOnExp": 6,
      "dirtEffect": 1,
      "wormExplode": false,
      "explGround": true,
      "wormCollide": true,
      "collideWithObjects": false,
      "affectByExplosions": false,
      "bounce": 0,
      "bounceFriction": 0.800000011920929,
      "timeToExplo": 50,
      "timeToExploV": 5,
      "hitDamage": 5,
      "bloodOnHit": 0,
      "startFrame": 159,
      "numFrames": 5,
      "loopAnim": false,
      "shotType": 0,
      "repeat": 1,
      "colorBullets": 0,
      "splinterAmount": 0,
      "splinterColour": 0,
      "splinterType": -1,
      "splinterScatter": 0,
      "objTrailType": -1,
      "objTrailDelay": 0,
      "partTrailType": 0,
      "partTrailObj": -1,
      "partTrailDelay": 0,
      "speed": 100,
      "id": 9,
      "name": "wid 9",
      "teamImmunity": 0
    },
    {
      // wid10 used in ICE SURPRISE
      "detectDistance": 0,
      "blowAway": 0,
      "gravity": 0.02288818359375,
      "exploSound": -1,
      "addSpeed": 50,
      "distribution": 0.152587890625,
      "multSpeed": 1,
      "createOnExp": 7,
      "dirtEffect": 0,
      "wormExplode": true,
      "explGround": false,
      "wormCollide": false,
      "collideWithObjects": false,
      "affectByExplosions": true,
      "bounce": 0.4000000059604645,
      "bounceFriction": 0.800000011920929,
      "timeToExplo": 200,
      "timeToExploV": 50,
      "hitDamage": 0,
      "bloodOnHit": 0,
      "startFrame": 184,
      "numFrames": 0,
      "loopAnim": true,
      "shotType": 0,
      "repeat": 1,
      "colorBullets": 0,
      "splinterAmount": 35,
      "splinterColour": 54,
      "splinterType": 12,
      "splinterScatter": 0,
      "objTrailType": 7,
      "objTrailDelay": 1,
      "partTrailType": 0,
      "partTrailObj": -1,
      "partTrailDelay": 0,
      "speed": 200,
      "id": 10,
      "name": "wid 10",
      "teamImmunity": 0
    },
    {
      // wid11 used in CENTER
      "detectDistance": 100,
      "blowAway": 0,
      "gravity": 0,
      "exploSound": -1,
      "addSpeed": 0,
      "distribution": 0.4999847412109375,
      "multSpeed": 1,
      "createOnExp": 0,
      "dirtEffect": 1,
      "wormExplode": false,
      "explGround": false,
      "wormCollide": false,
      "collideWithObjects": false,
      "affectByExplosions": false,
      "bounce": 0,
      "bounceFriction": 0.800000011920929,
      "timeToExplo": 350,
      "timeToExploV": 100,
      "hitDamage": 0,
      "bloodOnHit": 0,
      "startFrame": 126,
      "numFrames": 0,
      "loopAnim": false,
      "shotType": 0,
      "repeat": 1,
      "colorBullets": 67,
      "splinterAmount": 255,
      "splinterColour": 67,
      "splinterType": 5,
      "splinterScatter": 0,
      "objTrailType": 9,
      "objTrailDelay": 1,
      "partTrailType": 0,
      "partTrailObj": 12,
      "partTrailDelay": 1,
      "speed": 300,
      "id": 11,
      "name": "wid 11",
      "teamImmunity": 0
    },
    {
      // wid12 used in BLASTER
      "detectDistance": 0,
      "blowAway": 0.05000000074505806,
      "gravity": 0,
      "exploSound": 14,
      "addSpeed": 100,
      "distribution": 0,
      "multSpeed": 1,
      "createOnExp": 0,
      "dirtEffect": -1,
      "wormExplode": true,
      "explGround": true,
      "wormCollide": true,
      "collideWithObjects": true,
      "affectByExplosions": false,
      "bounce": 0,
      "bounceFriction": 0.800000011920929,
      "timeToExplo": 0,
      "timeToExploV": 0,
      "hitDamage": 5,
      "bloodOnHit": 25,
      "startFrame": 111,
      "numFrames": 0,
      "loopAnim": true,
      "shotType": 0,
      "repeat": 1,
      "colorBullets": 150,
      "splinterAmount": 5,
      "splinterColour": 129,
      "splinterType": 12,
      "splinterScatter": 1,
      "objTrailType": 3,
      "objTrailDelay": 2,
      "partTrailType": 1,
      "partTrailObj": 12,
      "partTrailDelay": 3,
      "speed": 250,
      "id": 12,
      "name": "wid 12",
      "teamImmunity": 0
    },
    {
      // wid13 used in BOUNCY MINE
      "detectDistance": 2,
      "blowAway": 0.2199999988079071,
      "gravity": 0.0152587890625,
      "exploSound": -1,
      "addSpeed": 0,
      "distribution": 0.1220703125,
      "multSpeed": 1,
      "createOnExp": 1,
      "dirtEffect": -1,
      "wormExplode": true,
      "explGround": false,
      "wormCollide": true,
      "collideWithObjects": false,
      "affectByExplosions": true,
      "bounce": 1,
      "bounceFriction": 1,
      "timeToExplo": 12000,
      "timeToExploV": 800,
      "hitDamage": 18,
      "bloodOnHit": 18,
      "startFrame": 236,
      "numFrames": 2,
      "loopAnim": true,
      "shotType": 0,
      "repeat": 1,
      "colorBullets": 0,
      "splinterAmount": 7,
      "splinterColour": 66,
      "splinterType": 3,
      "splinterScatter": 0,
      "objTrailType": -1,
      "objTrailDelay": 0,
      "partTrailType": 0,
      "partTrailObj": -1,
      "partTrailDelay": 0,
      "speed": 100,
      "id": 13,
      "name": "wid 13",
      "teamImmunity": 0
    },
    {
      // wid14 used in MINIGUN
      "detectDistance": 0,
      "blowAway": 0.05000000074505806,
      "gravity": 0.01068115234375,
      "exploSound": -1,
      "addSpeed": 0,
      "distribution": 0.091552734375,
      "multSpeed": 1,
      "createOnExp": 2,
      "dirtEffect": -1,
      "wormExplode": false,
      "explGround": true,
      "wormCollide": true,
      "collideWithObjects": false,
      "affectByExplosions": false,
      "bounce": 0,
      "bounceFriction": 0.800000011920929,
      "timeToExplo": 0,
      "timeToExploV": 0,
      "hitDamage": 2,
      "bloodOnHit": 2,
      "startFrame": -1,
      "numFrames": 0,
      "loopAnim": false,
      "shotType": 0,
      "repeat": 1,
      "colorBullets": 68,
      "splinterAmount": 0,
      "splinterColour": 0,
      "splinterType": 2,
      "splinterScatter": 0,
      "objTrailType": -1,
      "objTrailDelay": 0,
      "partTrailType": 0,
      "partTrailObj": -1,
      "partTrailDelay": 0,
      "speed": 260,
      "id": 14,
      "name": "wid 14",
      "teamImmunity": 0
    },
    {
      // wid15 used in CLUSTER BOMB
      "detectDistance": 0,
      "blowAway": 0,
      "gravity": 0.01983642578125,
      "exploSound": -1,
      "addSpeed": 0,
      "distribution": 0.1068115234375,
      "multSpeed": 1,
      "createOnExp": 0,
      "dirtEffect": -1,
      "wormExplode": false,
      "explGround": false,
      "wormCollide": false,
      "collideWithObjects": false,
      "affectByExplosions": true,
      "bounce": 0.5,
      "bounceFriction": 0.800000011920929,
      "timeToExplo": 135,
      "timeToExploV": 15,
      "hitDamage": 0,
      "bloodOnHit": 0,
      "startFrame": 206,
      "numFrames": 3,
      "loopAnim": true,
      "shotType": 0,
      "repeat": 1,
      "colorBullets": 0,
      "splinterAmount": 20,
      "splinterColour": 0,
      "splinterType": 8,
      "splinterScatter": 0,
      "objTrailType": -1,
      "objTrailDelay": 0,
      "partTrailType": 0,
      "partTrailObj": -1,
      "partTrailDelay": 0,
      "speed": 170,
      "id": 15,
      "name": "wid 15",
      "teamImmunity": 0
    },
    {
      // wid16 used in HARD BLOW
      "detectDistance": 0,
      "blowAway": 2.549999952316284,
      "gravity": 0.000762939453125,
      "exploSound": -1,
      "addSpeed": 100,
      "distribution": 0.4999847412109375,
      "multSpeed": 1,
      "createOnExp": 2,
      "dirtEffect": -1,
      "wormExplode": false,
      "explGround": true,
      "wormCollide": true,
      "collideWithObjects": true,
      "affectByExplosions": false,
      "bounce": 0,
      "bounceFriction": 0.800000011920929,
      "timeToExplo": 0,
      "timeToExploV": 0,
      "hitDamage": 5,
      "bloodOnHit": 25,
      "startFrame": 194,
      "numFrames": 0,
      "loopAnim": false,
      "shotType": 0,
      "repeat": 1,
      "colorBullets": 135,
      "splinterAmount": 0,
      "splinterColour": 0,
      "splinterType": -1,
      "splinterScatter": 0,
      "objTrailType": -1,
      "objTrailDelay": 0,
      "partTrailType": 0,
      "partTrailObj": -1,
      "partTrailDelay": 0,
      "speed": 300,
      "id": 16,
      "name": "wid 16",
      "teamImmunity": 0
    },
    {
      // wid17 used in INSTANT
      "detectDistance": 0,
      "blowAway": 0.20000000298023224,
      "gravity": 0,
      "exploSound": -1,
      "addSpeed": 100,
      "distribution": 0,
      "multSpeed": 1,
      "createOnExp": 1,
      "dirtEffect": -1,
      "wormExplode": true,
      "explGround": true,
      "wormCollide": true,
      "collideWithObjects": false,
      "affectByExplosions": false,
      "bounce": 0,
      "bounceFriction": 0.800000011920929,
      "timeToExplo": 0,
      "timeToExploV": 0,
      "hitDamage": 255,
      "bloodOnHit": 25,
      "startFrame": -1,
      "numFrames": 0,
      "loopAnim": false,
      "shotType": 0,
      "repeat": 1,
      "colorBullets": 70,
      "splinterAmount": 0,
      "splinterColour": 0,
      "splinterType": -1,
      "splinterScatter": 0,
      "objTrailType": -1,
      "objTrailDelay": 0,
      "partTrailType": 0,
      "partTrailObj": -1,
      "partTrailDelay": 0,
      "speed": 750,
      "id": 17,
      "name": "wid 17",
      "teamImmunity": 0
    },
    {
      // wid18 used in GREENBALL
      "detectDistance": 3,
      "blowAway": 0,
      "gravity": 0.01068115234375,
      "exploSound": 13,
      "addSpeed": 0,
      "distribution": 0.1220703125,
      "multSpeed": 1,
      "createOnExp": -1,
      "dirtEffect": 6,
      "wormExplode": true,
      "explGround": true,
      "wormCollide": true,
      "collideWithObjects": false,
      "affectByExplosions": true,
      "bounce": 0,
      "bounceFriction": 0.800000011920929,
      "timeToExplo": 0,
      "timeToExploV": 0,
      "hitDamage": 0,
      "bloodOnHit": 0,
      "startFrame": -1,
      "numFrames": 0,
      "loopAnim": false,
      "shotType": 0,
      "repeat": 1,
      "colorBullets": 54,
      "splinterAmount": 0,
      "splinterColour": 0,
      "splinterType": -1,
      "splinterScatter": 0,
      "objTrailType": -1,
      "objTrailDelay": 0,
      "partTrailType": 0,
      "partTrailObj": -1,
      "partTrailDelay": 0,
      "speed": 200,
      "id": 18,
      "name": "wid 18",
      "teamImmunity": 0
    },
    {
      // wid19 used in BIG NUKE
      "detectDistance": 0,
      "blowAway": 0,
      "gravity": 0.0152587890625,
      "exploSound": 4,
      "addSpeed": 25,
      "distribution": 0.30517578125,
      "multSpeed": 1,
      "createOnExp": -1,
      "dirtEffect": -1,
      "wormExplode": false,
      "explGround": false,
      "wormCollide": false,
      "collideWithObjects": false,
      "affectByExplosions": true,
      "bounce": 0.6499999761581421,
      "bounceFriction": 0.800000011920929,
      "timeToExplo": 170,
      "timeToExploV": 20,
      "hitDamage": 3,
      "bloodOnHit": 0,
      "startFrame": 126,
      "numFrames": 0,
      "loopAnim": false,
      "shotType": 0,
      "repeat": 1,
      "colorBullets": 0,
      "splinterAmount": 50,
      "splinterColour": 0,
      "splinterType": 9,
      "splinterScatter": 0,
      "objTrailType": -1,
      "objTrailDelay": 0,
      "partTrailType": 0,
      "partTrailObj": -1,
      "partTrailDelay": 0,
      "speed": 150,
      "id": 19,
      "name": "wid 19",
      "teamImmunity": 0
    },
    {
      // wid20 used in CRACKLER
      "detectDistance": 0,
      "blowAway": 0,
      "gravity": 0.0152587890625,
      "exploSound": -1,
      "addSpeed": 0,
      "distribution": 0.48828125,
      "multSpeed": 1,
      "createOnExp": 1,
      "dirtEffect": -1,
      "wormExplode": false,
      "explGround": false,
      "wormCollide": false,
      "collideWithObjects": false,
      "affectByExplosions": true,
      "bounce": 0.8999999761581421,
      "bounceFriction": 0.800000011920929,
      "timeToExplo": 400,
      "timeToExploV": 50,
      "hitDamage": 0,
      "bloodOnHit": 0,
      "startFrame": 179,
      "numFrames": 0,
      "loopAnim": false,
      "shotType": 0,
      "repeat": 1,
      "colorBullets": 0,
      "splinterAmount": 8,
      "splinterColour": 75,
      "splinterType": 4,
      "splinterScatter": 0,
      "objTrailType": -1,
      "objTrailDelay": 0,
      "partTrailType": 0,
      "partTrailObj": 4,
      "partTrailDelay": 2,
      "speed": 170,
      "id": 20,
      "name": "wid 20",
      "teamImmunity": 0
    },
    {
      // wid21 used in INSANE
      "detectDistance": 0,
      "blowAway": 0,
      "gravity": 0,
      "exploSound": -1,
      "addSpeed": 100,
      "distribution": 0.0152587890625,
      "multSpeed": 1,
      "createOnExp": 4,
      "dirtEffect": 2,
      "wormExplode": true,
      "explGround": false,
      "wormCollide": true,
      "collideWithObjects": false,
      "affectByExplosions": true,
      "bounce": 1,
      "bounceFriction": 1,
      "timeToExplo": 1000,
      "timeToExploV": 300,
      "hitDamage": 50,
      "bloodOnHit": 15,
      "startFrame": 239,
      "numFrames": 0,
      "loopAnim": false,
      "shotType": 0,
      "repeat": 1,
      "colorBullets": 0,
      "splinterAmount": 0,
      "splinterColour": 0,
      "splinterType": -1,
      "splinterScatter": 0,
      "objTrailType": -1,
      "objTrailDelay": 0,
      "partTrailType": 0,
      "partTrailObj": -1,
      "partTrailDelay": 0,
      "speed": 300,
      "id": 21,
      "name": "wid 21",
      "teamImmunity": 0
    },
    {
      // wid22 used in MINI NUKE
      "detectDistance": 0,
      "blowAway": 0,
      "gravity": 0.0152587890625,
      "exploSound": 4,
      "addSpeed": 0,
      "distribution": 0.1220703125,
      "multSpeed": 1,
      "createOnExp": -1,
      "dirtEffect": -1,
      "wormExplode": false,
      "explGround": false,
      "wormCollide": false,
      "collideWithObjects": false,
      "affectByExplosions": true,
      "bounce": 0.75,
      "bounceFriction": 0.800000011920929,
      "timeToExplo": 70,
      "timeToExploV": 4,
      "hitDamage": 0,
      "bloodOnHit": 0,
      "startFrame": 195,
      "numFrames": 0,
      "loopAnim": false,
      "shotType": 0,
      "repeat": 1,
      "colorBullets": 0,
      "splinterAmount": 6,
      "splinterColour": 0,
      "splinterType": 11,
      "splinterScatter": 1,
      "objTrailType": -1,
      "objTrailDelay": 0,
      "partTrailType": 0,
      "partTrailObj": -1,
      "partTrailDelay": 0,
      "speed": 180,
      "id": 22,
      "name": "wid 22",
      "teamImmunity": 0
    },
    {
      // wid23 used in FROZEN WIND
      "detectDistance": 2,
      "blowAway": 0,
      "gravity": 0.0152587890625,
      "exploSound": -1,
      "addSpeed": 50,
      "distribution": 0.2288818359375,
      "multSpeed": 1,
      "createOnExp": 7,
      "dirtEffect": -1,
      "wormExplode": true,
      "explGround": false,
      "wormCollide": true,
      "collideWithObjects": false,
      "affectByExplosions": false,
      "bounce": 0,
      "bounceFriction": 0.800000011920929,
      "timeToExplo": 100,
      "timeToExploV": 100,
      "hitDamage": 25,
      "bloodOnHit": 25,
      "startFrame": 163,
      "numFrames": 0,
      "loopAnim": false,
      "shotType": 0,
      "repeat": 1,
      "colorBullets": 0,
      "splinterAmount": 0,
      "splinterColour": 0,
      "splinterType": -1,
      "splinterScatter": 0,
      "objTrailType": 7,
      "objTrailDelay": 3,
      "partTrailType": 0,
      "partTrailObj": -1,
      "partTrailDelay": 0,
      "speed": 100,
      "id": 23,
      "name": "wid 23",
      "teamImmunity": 0
    },
    {
      // wid24 used in DEFLECT
      "detectDistance": 1,
      "blowAway": 0.5,
      "gravity": 0,
      "exploSound": -1,
      "addSpeed": 50,
      "distribution": 0.4999847412109375,
      "multSpeed": 1,
      "createOnExp": -1,
      "dirtEffect": -1,
      "wormExplode": false,
      "explGround": false,
      "wormCollide": true,
      "collideWithObjects": true,
      "affectByExplosions": false,
      "bounce": 0,
      "bounceFriction": 0.800000011920929,
      "timeToExplo": 50,
      "timeToExploV": 10,
      "hitDamage": 0,
      "bloodOnHit": 0,
      "startFrame": -1,
      "numFrames": 0,
      "loopAnim": false,
      "shotType": 0,
      "repeat": 1,
      "colorBullets": 25,
      "splinterAmount": 0,
      "splinterColour": 0,
      "splinterType": -1,
      "splinterScatter": 0,
      "objTrailType": -1,
      "objTrailDelay": 0,
      "partTrailType": 0,
      "partTrailObj": -1,
      "partTrailDelay": 0,
      "speed": 150,
      "id": 24,
      "name": "wid 24",
      "teamImmunity": 0
    },
    {
      // wid25 used in CHAOS
      "detectDistance": 0,
      "blowAway": 0.6000000238418579,
      "gravity": 0.0152587890625,
      "exploSound": -1,
      "addSpeed": 50,
      "distribution": 0.152587890625,
      "multSpeed": 1,
      "createOnExp": 0,
      "dirtEffect": 0,
      "wormExplode": true,
      "explGround": false,
      "wormCollide": false,
      "collideWithObjects": false,
      "affectByExplosions": false,
      "bounce": 0.800000011920929,
      "bounceFriction": 0.800000011920929,
      "timeToExplo": 150,
      "timeToExploV": 20,
      "hitDamage": 10,
      "bloodOnHit": 15,
      "startFrame": 220,
      "numFrames": 0,
      "loopAnim": false,
      "shotType": 0,
      "repeat": 1,
      "colorBullets": 0,
      "splinterAmount": 25,
      "splinterColour": 0,
      "splinterType": 10,
      "splinterScatter": 0,
      "objTrailType": 0,
      "objTrailDelay": 8,
      "partTrailType": 0,
      "partTrailObj": -1,
      "partTrailDelay": 0,
      "speed": 200,
      "id": 25,
      "name": "wid 25",
      "teamImmunity": 0
    },
    {
      // wid26 used in CANNON
      "detectDistance": 1,
      "blowAway": 0.20000000298023224,
      "gravity": 0.01068115234375,
      "exploSound": -1,
      "addSpeed": 0,
      "distribution": 0.00457763671875,
      "multSpeed": 1,
      "createOnExp": 1,
      "dirtEffect": -1,
      "wormExplode": true,
      "explGround": true,
      "wormCollide": true,
      "collideWithObjects": false,
      "affectByExplosions": true,
      "bounce": 0,
      "bounceFriction": 0.800000011920929,
      "timeToExplo": 0,
      "timeToExploV": 0,
      "hitDamage": 0,
      "bloodOnHit": 15,
      "startFrame": 193,
      "numFrames": 0,
      "loopAnim": false,
      "shotType": 0,
      "repeat": 1,
      "colorBullets": 0,
      "splinterAmount": 5,
      "splinterColour": 66,
      "splinterType": 3,
      "splinterScatter": 0,
      "objTrailType": -1,
      "objTrailDelay": 0,
      "partTrailType": 0,
      "partTrailObj": -1,
      "partTrailDelay": 0,
      "speed": 200,
      "id": 26,
      "name": "wid 26",
      "teamImmunity": 0
    },
    {
      // wid27 used in BOUNCY LARPA
      "detectDistance": 1,
      "blowAway": 0.4000000059604645,
      "gravity": 0.0030517578125,
      "exploSound": -1,
      "addSpeed": 0,
      "distribution": 0,
      "multSpeed": 1,
      "createOnExp": 1,
      "dirtEffect": -1,
      "wormExplode": true,
      "explGround": true,
      "wormCollide": true,
      "collideWithObjects": false,
      "affectByExplosions": false,
      "bounce": 1,
      "bounceFriction": 1,
      "timeToExplo": 380,
      "timeToExploV": 50,
      "hitDamage": 0,
      "bloodOnHit": 6,
      "startFrame": 194,
      "numFrames": 0,
      "loopAnim": false,
      "shotType": 0,
      "repeat": 1,
      "colorBullets": 0,
      "splinterAmount": 5,
      "splinterColour": 67,
      "splinterType": 3,
      "splinterScatter": 0,
      "objTrailType": -1,
      "objTrailDelay": 0,
      "partTrailType": 1,
      "partTrailObj": 3,
      "partTrailDelay": 4,
      "speed": 220,
      "id": 27,
      "name": "wid 27",
      "teamImmunity": 0
    },
    {
      // wid28 used in COLD RAY
      "detectDistance": 0,
      "blowAway": 0,
      "gravity": 0,
      "exploSound": -1,
      "addSpeed": 100,
      "distribution": 0,
      "multSpeed": 1,
      "createOnExp": 10,
      "dirtEffect": -1,
      "wormExplode": false,
      "explGround": true,
      "wormCollide": true,
      "collideWithObjects": false,
      "affectByExplosions": true,
      "bounce": 0,
      "bounceFriction": 0.800000011920929,
      "timeToExplo": 0,
      "timeToExploV": 0,
      "hitDamage": 1,
      "bloodOnHit": 0,
      "startFrame": -1,
      "numFrames": 0,
      "loopAnim": false,
      "shotType": 4,
      "repeat": 1000,
      "colorBullets": 255,
      "splinterAmount": 0,
      "splinterColour": 0,
      "splinterType": -1,
      "splinterScatter": 0,
      "objTrailType": -1,
      "objTrailDelay": 0,
      "partTrailType": 0,
      "partTrailObj": -1,
      "partTrailDelay": 0,
      "speed": 100,
      "id": 28,
      "name": "wid 28",
      "teamImmunity": 0
    },
    {
      // wid29 used in SPIKEBALLS
      "detectDistance": 2,
      "blowAway": 0.20000000298023224,
      "gravity": 0.0152587890625,
      "exploSound": -1,
      "addSpeed": 0,
      "distribution": 0.3662109375,
      "multSpeed": 1,
      "createOnExp": 2,
      "dirtEffect": -1,
      "wormExplode": false,
      "explGround": false,
      "wormCollide": true,
      "collideWithObjects": false,
      "affectByExplosions": true,
      "bounce": 0.6000000238418579,
      "bounceFriction": 0.800000011920929,
      "timeToExplo": 700,
      "timeToExploV": 100,
      "hitDamage": 9,
      "bloodOnHit": 20,
      "startFrame": 181,
      "numFrames": 3,
      "loopAnim": true,
      "shotType": 0,
      "repeat": 1,
      "colorBullets": 0,
      "splinterAmount": 0,
      "splinterColour": 0,
      "splinterType": -1,
      "splinterScatter": 0,
      "objTrailType": -1,
      "objTrailDelay": 0,
      "partTrailType": 0,
      "partTrailObj": -1,
      "partTrailDelay": 0,
      "speed": 110,
      "id": 29,
      "name": "wid 29",
      "teamImmunity": 0
    },
    {
      // wid30 used in OLYMPIC GAMES
      "detectDistance": 0,
      "blowAway": 0,
      "gravity": 0.0152587890625,
      "exploSound": 4,
      "addSpeed": 0,
      "distribution": 0.0762939453125,
      "multSpeed": 1,
      "createOnExp": 7,
      "dirtEffect": -1,
      "wormExplode": true,
      "explGround": true,
      "wormCollide": false,
      "collideWithObjects": false,
      "affectByExplosions": true,
      "bounce": 0,
      "bounceFriction": 0.800000011920929,
      "timeToExplo": 120,
      "timeToExploV": 10,
      "hitDamage": 0,
      "bloodOnHit": 0,
      "startFrame": 185,
      "numFrames": 7,
      "loopAnim": true,
      "shotType": 0,
      "repeat": 1,
      "colorBullets": 0,
      "splinterAmount": 50,
      "splinterColour": 114,
      "splinterType": 12,
      "splinterScatter": 0,
      "objTrailType": -1,
      "objTrailDelay": 0,
      "partTrailType": 0,
      "partTrailObj": -1,
      "partTrailDelay": 0,
      "speed": 130,
      "id": 30,
      "name": "wid 30",
      "teamImmunity": 0
    },
    {
      // wid31 used in SNOWBALLS
      "detectDistance": 0,
      "blowAway": 0.019999999552965164,
      "gravity": 0.00152587890625,
      "exploSound": -1,
      "addSpeed": 100,
      "distribution": 0,
      "multSpeed": 1,
      "createOnExp": 2,
      "dirtEffect": -1,
      "wormExplode": false,
      "explGround": true,
      "wormCollide": true,
      "collideWithObjects": true,
      "affectByExplosions": false,
      "bounce": 0,
      "bounceFriction": 0.800000011920929,
      "timeToExplo": 0,
      "timeToExploV": 0,
      "hitDamage": 10,
      "bloodOnHit": 25,
      "startFrame": 164,
      "numFrames": 0,
      "loopAnim": false,
      "shotType": 0,
      "repeat": 1,
      "colorBullets": 130,
      "splinterAmount": 0,
      "splinterColour": 0,
      "splinterType": -1,
      "splinterScatter": 0,
      "objTrailType": -1,
      "objTrailDelay": 0,
      "partTrailType": 0,
      "partTrailObj": -1,
      "partTrailDelay": 0,
      "speed": 250,
      "id": 31,
      "name": "wid 31",
      "teamImmunity": 0
    },
    {
      // wid32 used in HEATSEEKERS
      "detectDistance": 0,
      "blowAway": 0.10000000149011612,
      "gravity": 0,
      "exploSound": -1,
      "addSpeed": 150,
      "distribution": 0,
      "multSpeed": 1,
      "createOnExp": 0,
      "dirtEffect": -1,
      "wormExplode": true,
      "explGround": true,
      "wormCollide": true,
      "collideWithObjects": false,
      "affectByExplosions": false,
      "bounce": 0,
      "bounceFriction": 0.800000011920929,
      "timeToExplo": 0,
      "timeToExploV": 0,
      "hitDamage": 50,
      "bloodOnHit": 30,
      "startFrame": 110,
      "numFrames": 0,
      "loopAnim": false,
      "shotType": 2,
      "repeat": 1,
      "colorBullets": 0,
      "splinterAmount": 12,
      "splinterColour": 247,
      "splinterType": 6,
      "splinterScatter": 0,
      "objTrailType": 3,
      "objTrailDelay": 4,
      "partTrailType": 0,
      "partTrailObj": -1,
      "partTrailDelay": 0,
      "speed": 300,
      "id": 32,
      "name": "wid 32",
      "teamImmunity": 0
    },
    {
      // wid33 used in APOCALYPSE
      "detectDistance": 0,
      "blowAway": 1,
      "gravity": 0.0152587890625,
      "exploSound": -1,
      "addSpeed": 25,
      "distribution": 0.4999847412109375,
      "multSpeed": 1,
      "createOnExp": 0,
      "dirtEffect": 0,
      "wormExplode": false,
      "explGround": false,
      "wormCollide": false,
      "collideWithObjects": false,
      "affectByExplosions": true,
      "bounce": 0,
      "bounceFriction": 0.800000011920929,
      "timeToExplo": 150,
      "timeToExploV": 75,
      "hitDamage": 0,
      "bloodOnHit": 0,
      "startFrame": 215,
      "numFrames": 3,
      "loopAnim": true,
      "shotType": 0,
      "repeat": 1,
      "colorBullets": 0,
      "splinterAmount": 255,
      "splinterColour": 30,
      "splinterType": 14,
      "splinterScatter": 0,
      "objTrailType": -1,
      "objTrailDelay": 0,
      "partTrailType": 0,
      "partTrailObj": -1,
      "partTrailDelay": 0,
      "speed": 100,
      "id": 33,
      "name": "wid 33",
      "teamImmunity": 0
    },
    {
      // wid34 used in BOOBY TRAP
      "detectDistance": 3,
      "blowAway": 0,
      "gravity": 0.02288818359375,
      "exploSound": -1,
      "addSpeed": 0,
      "distribution": 0.30517578125,
      "multSpeed": 1,
      "createOnExp": 0,
      "dirtEffect": -1,
      "wormExplode": true,
      "explGround": false,
      "wormCollide": true,
      "collideWithObjects": false,
      "affectByExplosions": true,
      "bounce": 0.30000001192092896,
      "bounceFriction": 0.800000011920929,
      "timeToExplo": 4000,
      "timeToExploV": 600,
      "hitDamage": 5,
      "bloodOnHit": 20,
      "startFrame": 210,
      "numFrames": 0,
      "loopAnim": true,
      "shotType": 0,
      "repeat": 1,
      "colorBullets": 0,
      "splinterAmount": 0,
      "splinterColour": 0,
      "splinterType": -1,
      "splinterScatter": 0,
      "objTrailType": -1,
      "objTrailDelay": 0,
      "partTrailType": 0,
      "partTrailObj": -1,
      "partTrailDelay": 0,
      "speed": 100,
      "id": 34,
      "name": "wid 34",
      "teamImmunity": 0
    },
    {
      // wid35 used in GRASSHOPPER
      "detectDistance": 1,
      "blowAway": 0,
      "gravity": 0.01678466796875,
      "exploSound": -1,
      "addSpeed": 0,
      "distribution": 0.1068115234375,
      "multSpeed": 1,
      "createOnExp": 0,
      "dirtEffect": -1,
      "wormExplode": true,
      "explGround": true,
      "wormCollide": true,
      "collideWithObjects": false,
      "affectByExplosions": true,
      "bounce": 0,
      "bounceFriction": 0.800000011920929,
      "timeToExplo": 130,
      "timeToExploV": 50,
      "hitDamage": 0,
      "bloodOnHit": 0,
      "startFrame": 239,
      "numFrames": 0,
      "loopAnim": false,
      "shotType": 0,
      "repeat": 1,
      "colorBullets": 0,
      "splinterAmount": 1,
      "splinterColour": 0,
      "splinterType": 15,
      "splinterScatter": 0,
      "objTrailType": -1,
      "objTrailDelay": 0,
      "partTrailType": 0,
      "partTrailObj": -1,
      "partTrailDelay": 0,
      "speed": 190,
      "id": 35,
      "name": "wid 35",
      "teamImmunity": 0
    },
    {
      // wid36 used in MINI ROCKETS
      "detectDistance": 0,
      "blowAway": 0.20000000298023224,
      "gravity": 0,
      "exploSound": -1,
      "addSpeed": 100,
      "distribution": 0.0152587890625,
      "multSpeed": 1,
      "createOnExp": 0,
      "dirtEffect": 0,
      "wormExplode": true,
      "explGround": true,
      "wormCollide": true,
      "collideWithObjects": false,
      "affectByExplosions": false,
      "bounce": 0,
      "bounceFriction": 0.800000011920929,
      "timeToExplo": 0,
      "timeToExploV": 0,
      "hitDamage": 20,
      "bloodOnHit": 25,
      "startFrame": 223,
      "numFrames": 0,
      "loopAnim": false,
      "shotType": 3,
      "repeat": 1,
      "colorBullets": 0,
      "splinterAmount": 0,
      "splinterColour": 0,
      "splinterType": -1,
      "splinterScatter": 0,
      "objTrailType": -1,
      "objTrailDelay": 0,
      "partTrailType": 0,
      "partTrailObj": -1,
      "partTrailDelay": 0,
      "speed": 200,
      "id": 36,
      "name": "wid 36",
      "teamImmunity": 0
    },
    {
      // wid37 used in DART
      "detectDistance": 0,
      "blowAway": 0.2800000011920929,
      "gravity": 0.0030517578125,
      "exploSound": -1,
      "addSpeed": 0,
      "distribution": 0,
      "multSpeed": 1,
      "createOnExp": 2,
      "dirtEffect": -1,
      "wormExplode": false,
      "explGround": true,
      "wormCollide": false,
      "collideWithObjects": false,
      "affectByExplosions": false,
      "bounce": 0,
      "bounceFriction": 0.800000011920929,
      "timeToExplo": 0,
      "timeToExploV": 0,
      "hitDamage": 5,
      "bloodOnHit": 10,
      "startFrame": 223,
      "numFrames": 0,
      "loopAnim": false,
      "shotType": 1,
      "repeat": 1,
      "colorBullets": 0,
      "splinterAmount": 0,
      "splinterColour": 0,
      "splinterType": -1,
      "splinterScatter": 0,
      "objTrailType": -1,
      "objTrailDelay": 0,
      "partTrailType": 0,
      "partTrailObj": -1,
      "partTrailDelay": 0,
      "speed": 220,
      "id": 37,
      "name": "wid 37",
      "teamImmunity": 0
    },
    {
      // wid38 used in BOUNCER
      "detectDistance": 0,
      "blowAway": 0,
      "gravity": 0,
      "exploSound": -1,
      "addSpeed": 100,
      "distribution": 0,
      "multSpeed": 1,
      "createOnExp": 2,
      "dirtEffect": -1,
      "wormExplode": true,
      "explGround": false,
      "wormCollide": true,
      "collideWithObjects": false,
      "affectByExplosions": false,
      "bounce": 1,
      "bounceFriction": 1,
      "timeToExplo": 300,
      "timeToExploV": 70,
      "hitDamage": 5,
      "bloodOnHit": 4,
      "startFrame": -1,
      "numFrames": 0,
      "loopAnim": false,
      "shotType": 0,
      "repeat": 1,
      "colorBullets": 246,
      "splinterAmount": 0,
      "splinterColour": 0,
      "splinterType": -1,
      "splinterScatter": 0,
      "objTrailType": 6,
      "objTrailDelay": 1,
      "partTrailType": 0,
      "partTrailObj": -1,
      "partTrailDelay": 0,
      "speed": 300,
      "id": 38,
      "name": "wid 38",
      "teamImmunity": 0
    },
    {
      // wid39 used in GAUSS GUN
      "detectDistance": 1,
      "blowAway": 0.20000000298023224,
      "gravity": 0.000762939453125,
      "exploSound": -1,
      "addSpeed": 0,
      "distribution": 0,
      "multSpeed": 1,
      "createOnExp": 1,
      "dirtEffect": -1,
      "wormExplode": true,
      "explGround": true,
      "wormCollide": true,
      "collideWithObjects": false,
      "affectByExplosions": false,
      "bounce": 0,
      "bounceFriction": 0.800000011920929,
      "timeToExplo": 0,
      "timeToExploV": 0,
      "hitDamage": 0,
      "bloodOnHit": 7,
      "startFrame": 196,
      "numFrames": 0,
      "loopAnim": false,
      "shotType": 4,
      "repeat": 8,
      "colorBullets": 0,
      "splinterAmount": 1,
      "splinterColour": 75,
      "splinterType": 3,
      "splinterScatter": 0,
      "objTrailType": -1,
      "objTrailDelay": 0,
      "partTrailType": 0,
      "partTrailObj": -1,
      "partTrailDelay": 0,
      "speed": 200,
      "id": 39,
      "name": "wid 39",
      "teamImmunity": 0
    }
  ],
  "nObjects":
  [
    {
      // nid0
      "detectDistance": 0,
      "gravity": 0.0152587890625,
      "speed": 1.2000000476837158,
      "speedV": 0.4000000059604645,
      "distribution": 0.1220703125,
      "blowAway": 0,
      "bounce": 0.10000000149011612,
      "hitDamage": 0,
      "wormExplode": false,
      "explGround": true,
      "wormDestroy": false,
      "bloodOnHit": 0,
      "startFrame": 165,
      "numFrames": 3,
      "drawOnMap": true,
      "colorBullets": 0,
      "createOnExp": -1,
      "affectByExplosions": false,
      "dirtEffect": -1,
      "splinterAmount": 0,
      "splinterColour": 0,
      "splinterType": -1,
      "bloodTrail": true,
      "bloodTrailDelay": 10,
      "leaveObj": -1,
      "leaveObjDelay": 0,
      "timeToExplo": 0,
      "timeToExploV": 0,
      "id": 0,
      "name": "nid 0",
      "teamImmunity": 0
    },
    {
      // nid1
      "detectDistance": 0,
      "gravity": 0.0152587890625,
      "speed": 1.2000000476837158,
      "speedV": 0.4000000059604645,
      "distribution": 0.1220703125,
      "blowAway": 0,
      "bounce": 0.10000000149011612,
      "hitDamage": 0,
      "wormExplode": false,
      "explGround": true,
      "wormDestroy": false,
      "bloodOnHit": 0,
      "startFrame": 169,
      "numFrames": 3,
      "drawOnMap": true,
      "colorBullets": 0,
      "createOnExp": -1,
      "affectByExplosions": false,
      "dirtEffect": -1,
      "splinterAmount": 0,
      "splinterColour": 0,
      "splinterType": -1,
      "bloodTrail": true,
      "bloodTrailDelay": 10,
      "leaveObj": -1,
      "leaveObjDelay": 0,
      "timeToExplo": 0,
      "timeToExploV": 0,
      "id": 1,
      "name": "nid 1",
      "teamImmunity": 0
    },
    {
      // nid2 splinterType for wid1 wid14
      "detectDistance": 0,
      "gravity": 0.01068115234375,
      "speed": 0.800000011920929,
      "speedV": 0.4000000059604645,
      "distribution": 0.152587890625,
      "blowAway": 0,
      "bounce": 0,
      "hitDamage": 0,
      "wormExplode": false,
      "explGround": true,
      "wormDestroy": false,
      "bloodOnHit": 0,
      "startFrame": 0,
      "numFrames": 0,
      "drawOnMap": false,
      "colorBullets": 17,
      "createOnExp": -1,
      "affectByExplosions": false,
      "dirtEffect": -1,
      "splinterAmount": 0,
      "splinterColour": 0,
      "splinterType": -1,
      "bloodTrail": false,
      "bloodTrailDelay": 0,
      "leaveObj": -1,
      "leaveObjDelay": 0,
      "timeToExplo": 0,
      "timeToExploV": 0,
      "id": 2,
      "name": "nid 2",
      "teamImmunity": 0
    },
    {
      // nid3 splinterType for wid6 wid13 wid26 wid27 wid39 partTrailObj for wid27 wid10 splinterType for nid10
      "detectDistance": 0,
      "gravity": 0.01068115234375,
      "speed": 1.600000023841858,
      "speedV": 1.399999976158142,
      "distribution": 0.030517578125,
      "blowAway": 0.10000000149011612,
      "bounce": 0,
      "hitDamage": 2,
      "wormExplode": false,
      "explGround": true,
      "wormDestroy": true,
      "bloodOnHit": 1,
      "startFrame": 0,
      "numFrames": 0,
      "drawOnMap": false,
      "colorBullets": 67,
      "createOnExp": 2,
      "affectByExplosions": false,
      "dirtEffect": -1,
      "splinterAmount": 0,
      "splinterColour": 0,
      "splinterType": -1,
      "bloodTrail": false,
      "bloodTrailDelay": 0,
      "leaveObj": -1,
      "leaveObjDelay": 0,
      "timeToExplo": 0,
      "timeToExploV": 0,
      "id": 3,
      "name": "nid 3",
      "teamImmunity": 0
    },
    {
      // nid4 splinterType for wid2 wid7 wid20 partTrailObj for wid20 splinterType for nid11
      "detectDistance": 0,
      "gravity": 0.01068115234375,
      "speed": 1.899999976158142,
      "speedV": 1.600000023841858,
      "distribution": 0.030517578125,
      "blowAway": 0.10000000149011612,
      "bounce": 0,
      "hitDamage": 3,
      "wormExplode": false,
      "explGround": true,
      "wormDestroy": true,
      "bloodOnHit": 1,
      "startFrame": 0,
      "numFrames": 0,
      "drawOnMap": false,
      "colorBullets": 67,
      "createOnExp": 2,
      "affectByExplosions": false,
      "dirtEffect": -1,
      "splinterAmount": 0,
      "splinterColour": 0,
      "splinterType": -1,
      "bloodTrail": false,
      "bloodTrailDelay": 0,
      "leaveObj": -1,
      "leaveObjDelay": 0,
      "timeToExplo": 0,
      "timeToExploV": 0,
      "id": 4,
      "name": "nid 4",
      "teamImmunity": 0
    },
    {
      // nid5 splinterType for wid11 partTrailObj for wid9 wid11 splinterType for nid9
      "detectDistance": 0,
      "gravity": 0.01068115234375,
      "speed": 2.200000047683716,
      "speedV": 1.7999999523162842,
      "distribution": 0.030517578125,
      "blowAway": 0.15000000596046448,
      "bounce": 0,
      "hitDamage": 4,
      "wormExplode": false,
      "explGround": true,
      "wormDestroy": true,
      "bloodOnHit": 1,
      "startFrame": 0,
      "numFrames": 0,
      "drawOnMap": false,
      "colorBullets": 67,
      "createOnExp": 2,
      "affectByExplosions": false,
      "dirtEffect": -1,
      "splinterAmount": 0,
      "splinterColour": 0,
      "splinterType": -1,
      "bloodTrail": false,
      "bloodTrailDelay": 0,
      "leaveObj": -1,
      "leaveObjDelay": 0,
      "timeToExplo": 0,
      "timeToExploV": 0,
      "id": 5,
      "name": "nid 5",
      "teamImmunity": 0
    },
    {
      // nid6 splinterType for wid5 wid32 partTrailObj for wid12
      "detectDistance": 0,
      "gravity": 0.01068115234375,
      "speed": 0.75,
      "speedV": 0.4000000059604645,
      "distribution": 0.30517578125,
      "blowAway": 0,
      "bounce": 0,
      "hitDamage": 0,
      "wormExplode": false,
      "explGround": true,
      "wormDestroy": false,
      "bloodOnHit": 0,
      "startFrame": 0,
      "numFrames": 0,
      "drawOnMap": false,
      "colorBullets": 82,
      "createOnExp": -1,
      "affectByExplosions": false,
      "dirtEffect": -1,
      "splinterAmount": 0,
      "splinterColour": 0,
      "splinterType": -1,
      "bloodTrail": true,
      "bloodTrailDelay": 10,
      "leaveObj": -1,
      "leaveObjDelay": 0,
      "timeToExplo": 0,
      "timeToExploV": 0,
      "id": 6,
      "name": "nid 6",
      "teamImmunity": 0
    },
    {
      // nid7
      "detectDistance": 0,
      "gravity": 0.0152587890625,
      "speed": 0,
      "speedV": 0,
      "distribution": 0.1220703125,
      "blowAway": 0,
      "bounce": 0.4000000059604645,
      "hitDamage": 0,
      "wormExplode": false,
      "explGround": true,
      "wormDestroy": false,
      "bloodOnHit": 0,
      "startFrame": 155,
      "numFrames": 3,
      "drawOnMap": true,
      "colorBullets": 0,
      "createOnExp": -1,
      "affectByExplosions": false,
      "dirtEffect": -1,
      "splinterAmount": 0,
      "splinterColour": 0,
      "splinterType": -1,
      "bloodTrail": false,
      "bloodTrailDelay": 0,
      "leaveObj": -1,
      "leaveObjDelay": 0,
      "timeToExplo": 0,
      "timeToExploV": 0,
      "id": 7,
      "name": "nid 7",
      "teamImmunity": 0
    },
    {
      // nid8 splinterType for wid15
      "detectDistance": 1,
      "gravity": 0.0152587890625,
      "speed": 2.200000047683716,
      "speedV": 1.399999976158142,
      "distribution": 0.152587890625,
      "blowAway": 0,
      "bounce": 0,
      "hitDamage": 1,
      "wormExplode": true,
      "explGround": true,
      "wormDestroy": true,
      "bloodOnHit": 5,
      "startFrame": 202,
      "numFrames": 3,
      "drawOnMap": false,
      "colorBullets": 0,
      "createOnExp": 1,
      "affectByExplosions": false,
      "dirtEffect": -1,
      "splinterAmount": 0,
      "splinterColour": 0,
      "splinterType": -1,
      "bloodTrail": false,
      "bloodTrailDelay": 0,
      "leaveObj": -1,
      "leaveObjDelay": 0,
      "timeToExplo": 0,
      "timeToExploV": 0,
      "id": 8,
      "name": "nid 8",
      "teamImmunity": 0
    },
    {
      // nid9 splinterType for wid19
      "detectDistance": 0,
      "gravity": 0.0152587890625,
      "speed": 2,
      "speedV": 1.2000000476837158,
      "distribution": 0.30517578125,
      "blowAway": 0,
      "bounce": 0.6000000238418579,
      "hitDamage": 0,
      "wormExplode": false,
      "explGround": false,
      "wormDestroy": false,
      "bloodOnHit": 0,
      "startFrame": 177,
      "numFrames": 0,
      "drawOnMap": false,
      "colorBullets": 0,
      "createOnExp": 0,
      "affectByExplosions": true,
      "dirtEffect": -1,
      "splinterAmount": 3,
      "splinterColour": 75,
      "splinterType": 5,
      "bloodTrail": false,
      "bloodTrailDelay": 0,
      "leaveObj": 5,
      "leaveObjDelay": 5,
      "timeToExplo": 200,
      "timeToExploV": 50,
      "id": 9,
      "name": "nid 9",
      "teamImmunity": 0
    },
    {
      // nid10 splinterType for wid25
      "detectDistance": 1,
      "gravity": 0.0152587890625,
      "speed": 1.399999976158142,
      "speedV": 0.20000000298023224,
      "distribution": 0.30517578125,
      "blowAway": 0.15000000596046448,
      "bounce": 0,
      "hitDamage": 3,
      "wormExplode": true,
      "explGround": true,
      "wormDestroy": true,
      "bloodOnHit": 10,
      "startFrame": 193,
      "numFrames": 0,
      "drawOnMap": false,
      "colorBullets": 0,
      "createOnExp": 0,
      "affectByExplosions": false,
      "dirtEffect": -1,
      "splinterAmount": 5,
      "splinterColour": 66,
      "splinterType": 3,
      "bloodTrail": false,
      "bloodTrailDelay": 0,
      "leaveObj": 3,
      "leaveObjDelay": 8,
      "timeToExplo": 0,
      "timeToExploV": 0,
      "id": 10,
      "name": "nid 10",
      "teamImmunity": 0
    },
    {
      // nid11 splinterType for wid22
      "detectDistance": 1,
      "gravity": 0.0152587890625,
      "speed": 2,
      "speedV": 1.2000000476837158,
      "distribution": 0.30517578125,
      "blowAway": 0,
      "bounce": 0.6000000238418579,
      "hitDamage": 1,
      "wormExplode": true,
      "explGround": false,
      "wormDestroy": true,
      "bloodOnHit": 9,
      "startFrame": 177,
      "numFrames": 0,
      "drawOnMap": false,
      "colorBullets": 0,
      "createOnExp": 0,
      "affectByExplosions": true,
      "dirtEffect": -1,
      "splinterAmount": 6,
      "splinterColour": 75,
      "splinterType": 4,
      "bloodTrail": false,
      "bloodTrailDelay": 0,
      "leaveObj": 5,
      "leaveObjDelay": 5,
      "timeToExplo": 100,
      "timeToExploV": 40,
      "id": 11,
      "name": "nid 11",
      "teamImmunity": 0
    },
    {
      // nid12 splinterType for wid3 wid10 wid12 wid30 partTrailObj for wid3 wid11 wid12 splinterType for nid14
      "detectDistance": 0,
      "gravity": 0.0152587890625,
      "speed": 1.5,
      "speedV": 0.8999999761581421,
      "distribution": 0.152587890625,
      "blowAway": 0,
      "bounce": 0,
      "hitDamage": 0,
      "wormExplode": false,
      "explGround": true,
      "wormDestroy": false,
      "bloodOnHit": 0,
      "startFrame": 0,
      "numFrames": 0,
      "drawOnMap": false,
      "colorBullets": 10,
      "createOnExp": 1,
      "affectByExplosions": false,
      "dirtEffect": 0,
      "splinterAmount": 0,
      "splinterColour": 0,
      "splinterType": -1,
      "bloodTrail": false,
      "bloodTrailDelay": 0,
      "leaveObj": 6,
      "leaveObjDelay": 2,
      "timeToExplo": 100,
      "timeToExploV": 25,
      "id": 12,
      "name": "nid 12",
      "teamImmunity": 0
    },
    {
      // nid13 splinterType for wid4
      "detectDistance": 0,
      "gravity": 0,
      "speed": 4,
      "speedV": 8,
      "distribution": 0.152587890625,
      "blowAway": 0,
      "bounce": 1,
      "hitDamage": 0,
      "wormExplode": false,
      "explGround": false,
      "wormDestroy": false,
      "bloodOnHit": 0,
      "startFrame": 0,
      "numFrames": 0,
      "drawOnMap": false,
      "colorBullets": 0,
      "createOnExp": -1,
      "affectByExplosions": false,
      "dirtEffect": 4,
      "splinterAmount": 0,
      "splinterColour": 0,
      "splinterType": -1,
      "bloodTrail": false,
      "bloodTrailDelay": 0,
      "leaveObj": -1,
      "leaveObjDelay": 0,
      "timeToExplo": 1,
      "timeToExploV": 0,
      "id": 13,
      "name": "nid 13",
      "teamImmunity": 0
    },
    {
      // nid14 splinterType for wid33
      "detectDistance": 1,
      "gravity": 0.0152587890625,
      "speed": 2.200000047683716,
      "speedV": 1.5,
      "distribution": 0.152587890625,
      "blowAway": 0,
      "bounce": 0,
      "hitDamage": 10,
      "wormExplode": true,
      "explGround": true,
      "wormDestroy": true,
      "bloodOnHit": 25,
      "startFrame": 219,
      "numFrames": 3,
      "drawOnMap": false,
      "colorBullets": 0,
      "createOnExp": 0,
      "affectByExplosions": false,
      "dirtEffect": 0,
      "splinterAmount": 255,
      "splinterColour": 151,
      "splinterType": 12,
      "bloodTrail": false,
      "bloodTrailDelay": 0,
      "leaveObj": -1,
      "leaveObjDelay": 0,
      "timeToExplo": 0,
      "timeToExploV": 0,
      "id": 14,
      "name": "nid 14",
      "teamImmunity": 0
    },
    {
      // nid15 splinterType for wid35
      "detectDistance": 1,
      "gravity": 0.0152587890625,
      "speed": 1.2000000476837158,
      "speedV": 0.4000000059604645,
      "distribution": 0.152587890625,
      "blowAway": 0,
      "bounce": 0.6000000238418579,
      "hitDamage": 1,
      "wormExplode": true,
      "explGround": false,
      "wormDestroy": true,
      "bloodOnHit": 0,
      "startFrame": 239,
      "numFrames": 0,
      "drawOnMap": false,
      "colorBullets": 0,
      "createOnExp": 0,
      "affectByExplosions": true,
      "dirtEffect": -1,
      "splinterAmount": 1,
      "splinterColour": 0,
      "splinterType": 16,
      "bloodTrail": false,
      "bloodTrailDelay": 0,
      "leaveObj": -1,
      "leaveObjDelay": 0,
      "timeToExplo": 70,
      "timeToExploV": 60,
      "id": 15,
      "name": "nid 15",
      "teamImmunity": 0
    },
    {
      // nid16 splinterType for nid15
      "detectDistance": 1,
      "gravity": 0.0152587890625,
      "speed": 1.2000000476837158,
      "speedV": 0.4000000059604645,
      "distribution": 0.152587890625,
      "blowAway": 0,
      "bounce": 0.6000000238418579,
      "hitDamage": 1,
      "wormExplode": true,
      "explGround": false,
      "wormDestroy": true,
      "bloodOnHit": 0,
      "startFrame": 239,
      "numFrames": 0,
      "drawOnMap": false,
      "colorBullets": 0,
      "createOnExp": 0,
      "affectByExplosions": true,
      "dirtEffect": -1,
      "splinterAmount": 1,
      "splinterColour": 0,
      "splinterType": 17,
      "bloodTrail": false,
      "bloodTrailDelay": 0,
      "leaveObj": -1,
      "leaveObjDelay": 0,
      "timeToExplo": 70,
      "timeToExploV": 60,
      "id": 16,
      "name": "nid 16",
      "teamImmunity": 0
    },
    {
      // nid17 splinterType for nid16
      "detectDistance": 1,
      "gravity": 0.0152587890625,
      "speed": 1.2000000476837158,
      "speedV": 0.4000000059604645,
      "distribution": 0.152587890625,
      "blowAway": 0,
      "bounce": 0.6000000238418579,
      "hitDamage": 1,
      "wormExplode": true,
      "explGround": false,
      "wormDestroy": true,
      "bloodOnHit": 0,
      "startFrame": 239,
      "numFrames": 0,
      "drawOnMap": false,
      "colorBullets": 0,
      "createOnExp": 0,
      "affectByExplosions": true,
      "dirtEffect": -1,
      "splinterAmount": 1,
      "splinterColour": 0,
      "splinterType": 18,
      "bloodTrail": false,
      "bloodTrailDelay": 0,
      "leaveObj": -1,
      "leaveObjDelay": 0,
      "timeToExplo": 70,
      "timeToExploV": 60,
      "id": 17,
      "name": "nid 17",
      "teamImmunity": 0
    },
    {
      // nid18 splinterType for nid17
      "detectDistance": 1,
      "gravity": 0.0152587890625,
      "speed": 1.2000000476837158,
      "speedV": 0.4000000059604645,
      "distribution": 0.152587890625,
      "blowAway": 0,
      "bounce": 0.6000000238418579,
      "hitDamage": 1,
      "wormExplode": true,
      "explGround": false,
      "wormDestroy": true,
      "bloodOnHit": 0,
      "startFrame": 239,
      "numFrames": 0,
      "drawOnMap": false,
      "colorBullets": 0,
      "createOnExp": 11,
      "affectByExplosions": true,
      "dirtEffect": -1,
      "splinterAmount": 1,
      "splinterColour": 0,
      "splinterType": 19,
      "bloodTrail": false,
      "bloodTrailDelay": 0,
      "leaveObj": -1,
      "leaveObjDelay": 0,
      "timeToExplo": 70,
      "timeToExploV": 60,
      "id": 18,
      "name": "nid 18",
      "teamImmunity": 0
    },
    {
      // nid19 splinterType for nid18
      "detectDistance": 1,
      "gravity": 0.0152587890625,
      "speed": 1.2000000476837158,
      "speedV": 0.4000000059604645,
      "distribution": 0.152587890625,
      "blowAway": 0,
      "bounce": 0.6000000238418579,
      "hitDamage": 1,
      "wormExplode": true,
      "explGround": false,
      "wormDestroy": true,
      "bloodOnHit": 0,
      "startFrame": 239,
      "numFrames": 0,
      "drawOnMap": false,
      "colorBullets": 0,
      "createOnExp": 12,
      "affectByExplosions": true,
      "dirtEffect": -1,
      "splinterAmount": 1,
      "splinterColour": 0,
      "splinterType": 22,
      "bloodTrail": false,
      "bloodTrailDelay": 0,
      "leaveObj": -1,
      "leaveObjDelay": 0,
      "timeToExplo": 70,
      "timeToExploV": 60,
      "id": 19,
      "name": "nid 19",
      "teamImmunity": 0
    },
    {
      // nid20
      "detectDistance": 3,
      "gravity": 0.0152587890625,
      "speed": 0,
      "speedV": 0,
      "distribution": 0,
      "blowAway": 0,
      "bounce": 0.4000000059604645,
      "hitDamage": 0,
      "wormExplode": false,
      "explGround": false,
      "wormDestroy": false,
      "bloodOnHit": 0,
      "startFrame": 213,
      "numFrames": 0,
      "drawOnMap": false,
      "colorBullets": 0,
      "createOnExp": -1,
      "affectByExplosions": true,
      "dirtEffect": -1,
      "splinterAmount": 0,
      "splinterColour": 0,
      "splinterType": -1,
      "bloodTrail": false,
      "bloodTrailDelay": 0,
      "leaveObj": -1,
      "leaveObjDelay": 0,
      "timeToExplo": 0,
      "timeToExploV": 0,
      "id": 20,
      "name": "nid 20",
      "teamImmunity": 0
    },
    {
      // nid21
      "detectDistance": 3,
      "gravity": 0.0152587890625,
      "speed": 0,
      "speedV": 0,
      "distribution": 0,
      "blowAway": 0,
      "bounce": 0.4000000059604645,
      "hitDamage": 0,
      "wormExplode": false,
      "explGround": false,
      "wormDestroy": false,
      "bloodOnHit": 0,
      "startFrame": 214,
      "numFrames": 0,
      "drawOnMap": false,
      "colorBullets": 0,
      "createOnExp": -1,
      "affectByExplosions": true,
      "dirtEffect": -1,
      "splinterAmount": 0,
      "splinterColour": 0,
      "splinterType": -1,
      "bloodTrail": false,
      "bloodTrailDelay": 0,
      "leaveObj": -1,
      "leaveObjDelay": 0,
      "timeToExplo": 0,
      "timeToExploV": 0,
      "id": 21,
      "name": "nid 21",
      "teamImmunity": 0
    },
    {
      // nid22 splinterType for nid19
      "detectDistance": 1,
      "gravity": 0.0152587890625,
      "speed": 1.2000000476837158,
      "speedV": 0.4000000059604645,
      "distribution": 0.152587890625,
      "blowAway": 0,
      "bounce": 0.4000000059604645,
      "hitDamage": 1,
      "wormExplode": true,
      "explGround": false,
      "wormDestroy": true,
      "bloodOnHit": 0,
      "startFrame": 239,
      "numFrames": 0,
      "drawOnMap": false,
      "colorBullets": 0,
      "createOnExp": 1,
      "affectByExplosions": true,
      "dirtEffect": -1,
      "splinterAmount": 1,
      "splinterColour": 0,
      "splinterType": 23,
      "bloodTrail": false,
      "bloodTrailDelay": 0,
      "leaveObj": -1,
      "leaveObjDelay": 0,
      "timeToExplo": 70,
      "timeToExploV": 60,
      "id": 22,
      "name": "nid 22",
      "teamImmunity": 0
    },
    {
      // nid23 splinterType for nid22
      "detectDistance": 1,
      "gravity": 0.0152587890625,
      "speed": 1.2000000476837158,
      "speedV": 0.4000000059604645,
      "distribution": 0.152587890625,
      "blowAway": 0,
      "bounce": 0.4000000059604645,
      "hitDamage": 1,
      "wormExplode": true,
      "explGround": false,
      "wormDestroy": true,
      "bloodOnHit": 0,
      "startFrame": 239,
      "numFrames": 0,
      "drawOnMap": false,
      "colorBullets": 0,
      "createOnExp": 10,
      "affectByExplosions": true,
      "dirtEffect": -1,
      "splinterAmount": 0,
      "splinterColour": 0,
      "splinterType": -1,
      "bloodTrail": false,
      "bloodTrailDelay": 0,
      "leaveObj": -1,
      "leaveObjDelay": 0,
      "timeToExplo": 70,
      "timeToExploV": 60,
      "id": 23,
      "name": "nid 23",
      "teamImmunity": 0
    }
  ],
  "sObjects":
  [
    {
      // sid0 createOnExp for wid3 wid5 wid6 wid8 wid11 wid12 wid15 wid25 wid32 wid33 wid34 wid35 wid36 objTrailType for wid25 createOnExp for nid9 nid10 nid11 nid14 nid15 nid16 nid17
      "startSound": 9,
      "numSounds": 4,
      "animDelay": 2,
      "startFrame": 40,
      "numFrames": 15,
      "detectRange": 20,
      "damage": 15,
      "blowAway": 0.0457763671875,
      "shadow": true,
      "shake": 4,
      "flash": 8,
      "dirtEffect": 0,
      "id": 0,
      "name": "sid 0"
    },
    {
      // sid1 createOnExp for wid0 wid13 wid17 wid20 wid26 wid27 wid39 createOnExp for nid8 nid12 nid22
      "startSound": 9,
      "numSounds": 4,
      "animDelay": 2,
      "startFrame": 45,
      "numFrames": 10,
      "detectRange": 14,
      "damage": 10,
      "blowAway": 0.0457763671875,
      "shadow": true,
      "shake": 2,
      "flash": 4,
      "dirtEffect": 1,
      "id": 1,
      "name": "sid 1"
    },
    {
      // sid2 createOnExp for wid1 wid2 wid7 wid14 wid16 wid29 wid31 wid37 wid38 createOnExp for nid3 nid4 nid5
      "startSound": 7,
      "numSounds": 2,
      "animDelay": 2,
      "startFrame": 50,
      "numFrames": 5,
      "detectRange": 8,
      "damage": 5,
      "blowAway": 0.0457763671875,
      "shadow": true,
      "shake": 1,
      "flash": 0,
      "dirtEffect": 2,
      "id": 2,
      "name": "sid 2"
    },
    {
      // sid3 objTrailType for wid8 wid12 wid32
      "startSound": -1,
      "numSounds": 0,
      "animDelay": 4,
      "startFrame": 64,
      "numFrames": 4,
      "detectRange": 0,
      "damage": 0,
      "blowAway": 0,
      "shadow": false,
      "shake": 0,
      "flash": 0,
      "dirtEffect": -1,
      "id": 3,
      "name": "sid 3"
    },
    {
      // sid4 createOnExp for wid21 objTrailType for wid3 wid7
      "startSound": -1,
      "numSounds": 0,
      "animDelay": 4,
      "startFrame": 100,
      "numFrames": 3,
      "detectRange": 0,
      "damage": 0,
      "blowAway": 0,
      "shadow": true,
      "shake": 5,
      "flash": 0,
      "dirtEffect": 5,
      "id": 4,
      "name": "sid 4"
    },
    {
      // sid5
      "startSound": -1,
      "numSounds": 0,
      "animDelay": 2,
      "startFrame": 104,
      "numFrames": 3,
      "detectRange": 0,
      "damage": 0,
      "blowAway": 0,
      "shadow": false,
      "shake": 0,
      "flash": 0,
      "dirtEffect": -1,
      "id": 5,
      "name": "sid 5"
    },
    {
      // sid6 createOnExp for wid9 objTrailType for wid38
      "startSound": -1,
      "numSounds": 0,
      "animDelay": 2,
      "startFrame": 76,
      "numFrames": 2,
      "detectRange": 0,
      "damage": 0,
      "blowAway": 0,
      "shadow": true,
      "shake": 0,
      "flash": 0,
      "dirtEffect": -1,
      "id": 6,
      "name": "sid 6"
    },
    {
      // sid7 createOnExp for wid10 wid23 wid30 objTrailType for wid10 wid23
      "startSound": -1,
      "numSounds": 0,
      "animDelay": 2,
      "startFrame": 91,
      "numFrames": 4,
      "detectRange": 0,
      "damage": 0,
      "blowAway": 0,
      "shadow": true,
      "shake": 0,
      "flash": 0,
      "dirtEffect": -1,
      "id": 7,
      "name": "sid 7"
    },
    {
      // sid8
      "startSound": -1,
      "numSounds": 0,
      "animDelay": 2,
      "startFrame": 49,
      "numFrames": 6,
      "detectRange": 8,
      "damage": 7,
      "blowAway": 0,
      "shadow": true,
      "shake": 0,
      "flash": 0,
      "dirtEffect": 2,
      "id": 8,
      "name": "sid 8"
    },
    {
      // sid9 objTrailType for wid11
      "startSound": -1,
      "numSounds": 0,
      "animDelay": 2,
      "startFrame": 53,
      "numFrames": 2,
      "detectRange": 6,
      "damage": 0,
      "blowAway": 0,
      "shadow": true,
      "shake": 0,
      "flash": 0,
      "dirtEffect": 5,
      "id": 9,
      "name": "sid 9"
    },
    {
      // sid10 createOnExp for wid28 createOnExp for nid23
      "startSound": 9,
      "numSounds": 4,
      "animDelay": 2,
      "startFrame": 47,
      "numFrames": 8,
      "detectRange": 10,
      "damage": 8,
      "blowAway": 0.0457763671875,
      "shadow": true,
      "shake": 2,
      "flash": 3,
      "dirtEffect": 8,
      "id": 10,
      "name": "sid 10"
    },
    {
      // sid11 createOnExp for nid18
      "startSound": 9,
      "numSounds": 4,
      "animDelay": 2,
      "startFrame": 42,
      "numFrames": 13,
      "detectRange": 15,
      "damage": 13,
      "blowAway": 0.0457763671875,
      "shadow": true,
      "shake": 3,
      "flash": 6,
      "dirtEffect": 1,
      "id": 11,
      "name": "sid 11"
    },
    {
      // sid12 createOnExp for nid19
      "startSound": 9,
      "numSounds": 4,
      "animDelay": 2,
      "startFrame": 44,
      "numFrames": 11,
      "detectRange": 14,
      "damage": 12,
      "blowAway": 0.0457763671875,
      "shadow": true,
      "shake": 3,
      "flash": 5,
      "dirtEffect": 1,
      "id": 12,
      "name": "sid 12"
    },
    {
      // sid13
      "startSound": -1,
      "numSounds": 0,
      "animDelay": 0,
      "startFrame": 0,
      "numFrames": 0,
      "detectRange": 0,
      "damage": 0,
      "blowAway": 1.0039215087890625,
      "shadow": false,
      "shake": 0,
      "flash": 0,
      "dirtEffect": -1,
      "id": 13,
      "name": "sid 13"
    }
  ],
  "textures":
  [
    {
      "nDrawBack": true,
      "mFrame": 0,
      "sFrame": 73,
      "rFrame": 2,
      "id": 0,
      "name": "tid 0"
    },
    {
      "nDrawBack": true,
      "mFrame": 1,
      "sFrame": 73,
      "rFrame": 2,
      "id": 1,
      "name": "tid 1"
    },
    {
      "nDrawBack": true,
      "mFrame": 2,
      "sFrame": 73,
      "rFrame": 2,
      "id": 2,
      "name": "tid 2"
    },
    {
      "nDrawBack": true,
      "mFrame": 37,
      "sFrame": 73,
      "rFrame": 2,
      "id": 3,
      "name": "tid 3"
    },
    {
      "nDrawBack": false,
      "mFrame": 0,
      "sFrame": 87,
      "rFrame": 2,
      "id": 4,
      "name": "tid 4"
    },
    {
      "nDrawBack": true,
      "mFrame": 39,
      "sFrame": 73,
      "rFrame": 2,
      "id": 5,
      "name": "tid 5"
    },
    {
      "nDrawBack": false,
      "mFrame": 38,
      "sFrame": 82,
      "rFrame": 2,
      "id": 6,
      "name": "tid 6"
    },
    {
      "nDrawBack": true,
      "mFrame": 99,
      "sFrame": 73,
      "rFrame": 2,
      "id": 7,
      "name": "tid 7"
    },
    {
      "nDrawBack": true,
      "mFrame": 37,
      "sFrame": 73,
      "rFrame": 2,
      "id": 8,
      "name": "tid 8"
    }
  ],
  "colorAnim":
  [
    129,
    131,
    133,
    136,
    152,
    159,
    168,
    171
  ],
  "textSpritesStartIdx": 240,
  "crossHairSprite": 153,
  "name": "Ice Liero",
  "author": "Ziga Urlep",
  "version": ""
}
