{
  name: 'dtk 1v1 v0.41 (all weapons)',
  author: '神風',
  soundpack: 'promode.zip',
  constants: {
    nrInitialLength: 250,
    nrAttachLength: 31.125,
    minBounceUp: -11,
    minBounceDown: 11,
    minBounceHoriz: 11,
    wormGravity: 0.03388818359375,
    wormAcc: 0.1262939453125,
    wormMaxVel: 2.669482421875,
    jumpForce: 1.45546875,
    maxAimVel: 0.092430983960935,
    aimAcc: 0.002896056226339143,
    ninjaropeGravity: 0.0152587890625,
    nrMinLength: 10.625,
    nrMaxLength: 320,
    bonusGravity: 0.02288818359375,
    wormFricMult: 0.93,
    aimFric: 0.73,
    nrThrowVel: 9.5,
    nrForce: 0.2333333333333333,
    bonusBounce: 0.4,
    bonusFlickerTime: 220,
    aimMaxAngle: 1.5707963267948966,
    aimMinAngle: -1.521708941582556,
    nrAdjustVel: 4.5,
    nrColourBegin: 24,
    nrColourEnd: 27,
    bonusExplodeRisk: 0,
    bonusHealthVar: 0,
    bonusMinHealth: 0,
    firstBloodColour: 80,
    numBloodColours: 2,
    bObjGravity: 0.0152587890625,
    splinterLarpaVelDiv: 3,
    splinterCracklerVelDiv: 3,
    fallDamageHoriz: 0,
    fallDamageDown: 0,
    fallDamageUp: 0,
    hFallDamage: false,
    hBonusReloadOnly: true,
  },
  weapons: [
    {
      parts: 1,
      bulletType: 42,
      bulletSpeed: 2.6,
      bulletSpeedInherit: 0,
      distribution: 0,
      recoil: 1,
      ammo: 1,
      delay: 360,
      loadingTime: 0,
      leaveShells: 0,
      leaveShellDelay: 1,
      fireCone: 9,
      laserSight: false,
      laserBeam: false,
      launchSound: 12,
      playReloadSound: false,
      name: 'EARTHSHAKER',
    },
    {
      parts: 1,
      bulletType: 41,
      bulletSpeed: 1,
      bulletSpeedInherit: 1,
      distribution: 0.4999847412109375,
      recoil: 0,
      ammo: 110,
      delay: 1,
      loadingTime: 9999999,
      leaveShells: 0,
      leaveShellDelay: 1,
      fireCone: 0,
      laserSight: false,
      laserBeam: false,
      launchSound: -1,
      playReloadSound: false,
      name: 'SHIELD',
    },
    {
      parts: 1,
      bulletType: 3,
      bulletSpeed: 4.6,
      bulletSpeedInherit: 0,
      distribution: 0,
      recoil: 0.8,
      ammo: 1,
      delay: 120,
      loadingTime: 0,
      leaveShells: 0,
      leaveShellDelay: 1,
      fireCone: 9,
      laserSight: false,
      laserBeam: false,
      launchSound: 3,
      playReloadSound: false,
      name: 'BAZOOKA',
    },
    {
      parts: 1,
      bulletType: 22,
      bulletSpeed: 3.4,
      bulletSpeedInherit: 0.2555555555555556,
      distribution: 0.1983642578125,
      recoil: 0,
      ammo: 1,
      delay: 360,
      loadingTime: 0,
      leaveShells: 0,
      leaveShellDelay: 1,
      fireCone: 0,
      laserSight: false,
      laserBeam: false,
      launchSound: 5,
      playReloadSound: false,
      name: 'NUKE',
    },
    {
      parts: 0,
      bulletType: 39,
      bulletSpeed: 4.8,
      bulletSpeedInherit: 0,
      distribution: 0,
      recoil: -5,
      ammo: 1,
      delay: 720,
      loadingTime: 999999,
      leaveShells: 0,
      leaveShellDelay: 1,
      fireCone: 1,
      laserSight: false,
      laserBeam: false,
      launchSound: 23,
      playReloadSound: false,
      name: 'ACCELERATE',
    },
    {
      parts: 20,
      bulletType: 20,
      bulletSpeed: 5.7,
      bulletSpeedInherit: 0,
      distribution: 0,
      recoil: 0,
      ammo: 1,
      delay: 360,
      loadingTime: 0,
      leaveShells: 0,
      leaveShellDelay: 1,
      fireCone: 10,
      laserSight: false,
      laserBeam: false,
      launchSound: 11,
      playReloadSound: false,
      name: 'DESOLATOR',
    },
    {
      parts: 1,
      bulletType: 32,
      bulletSpeed: 2.3,
      bulletSpeedInherit: 0.4347826086956522,
      distribution: 0,
      recoil: 0.15,
      ammo: 1,
      delay: 360,
      loadingTime: 0,
      leaveShells: 0,
      leaveShellDelay: 1,
      fireCone: 9,
      laserSight: false,
      laserBeam: false,
      launchSound: 3,
      playReloadSound: false,
      name: 'MISSILE',
    },
    {
      parts: 1,
      bulletType: 45,
      bulletSpeed: 9,
      bulletSpeedInherit: 0,
      distribution: 0,
      recoil: 0,
      ammo: 1,
      delay: 360,
      loadingTime: 0,
      leaveShells: 0,
      leaveShellDelay: 1,
      fireCone: 0,
      laserSight: false,
      laserBeam: false,
      launchSound: 5,
      playReloadSound: false,
      name: 'UZUMAKI',
    },
    {
      parts: 6,
      bulletType: 46,
      bulletSpeed: 4.7,
      bulletSpeedInherit: 0,
      distribution: 0,
      recoil: 0,
      ammo: 1,
      delay: 360,
      loadingTime: 9999999,
      leaveShells: 0,
      leaveShellDelay: 1,
      fireCone: 10,
      laserSight: false,
      laserBeam: false,
      launchSound: 11,
      playReloadSound: false,
      name: 'WORLD ENDER',
    },
    {
      parts: 1,
      bulletType: 47,
      bulletSpeed: 6.1,
      bulletSpeedInherit: 0,
      distribution: 0,
      recoil: 0,
      ammo: 1,
      delay: 360,
      loadingTime: 0,
      leaveShells: 0,
      leaveShellDelay: 1,
      fireCone: 1,
      laserSight: false,
      laserBeam: false,
      launchSound: -1,
      playReloadSound: false,
      name: 'ION CANNON',
    },
  ],
  wObjects: [
    {
      detectDistance: 1,
      blowAway: 0.46,
      gravity: 0.005068115234375,
      exploSound: -1,
      addSpeed: 0,
      distribution: 0.58310546875,
      multSpeed: 1,
      createOnExp: 2,
      dirtEffect: -1,
      wormExplode: false,
      explGround: true,
      wormCollide: true,
      collideWithObjects: false,
      affectByExplosions: false,
      bounce: 0,
      bounceFriction: 0.8,
      timeToExplo: 0,
      timeToExploV: 0,
      hitDamage: 7,
      bloodOnHit: 3,
      startFrame: -1,
      numFrames: 0,
      loopAnim: false,
      shotType: 0,
      repeat: 2,
      colorBullets: 75,
      splinterAmount: 1,
      splinterColour: 13,
      splinterType: 2,
      splinterScatter: 0,
      objTrailType: -1,
      objTrailDelay: 0,
      partTrailType: 0,
      partTrailObj: -1,
      partTrailDelay: 0,
      speed: 635,
    },
    {
      detectDistance: 1,
      blowAway: 0.05,
      gravity: 0.0042724609375,
      exploSound: -1,
      addSpeed: 0,
      distribution: 0.1657763671875,
      multSpeed: 1,
      createOnExp: 2,
      dirtEffect: -1,
      wormExplode: false,
      explGround: true,
      wormCollide: true,
      collideWithObjects: false,
      affectByExplosions: false,
      bounce: 0,
      bounceFriction: 0.8,
      timeToExplo: 0,
      timeToExploV: 0,
      hitDamage: 17,
      bloodOnHit: 4,
      startFrame: -1,
      numFrames: 0,
      loopAnim: false,
      shotType: 0,
      repeat: 5,
      colorBullets: 68,
      splinterAmount: 2,
      splinterColour: 13,
      splinterType: 2,
      splinterScatter: 0,
      objTrailType: -1,
      objTrailDelay: 0,
      partTrailType: 0,
      partTrailObj: -1,
      partTrailDelay: 0,
      speed: 490,
    },
    {
      detectDistance: 1,
      blowAway: 0.6,
      gravity: 0.00030517578125,
      exploSound: -1,
      addSpeed: 0,
      distribution: 0,
      multSpeed: 1,
      createOnExp: 2,
      dirtEffect: -1,
      wormExplode: false,
      explGround: true,
      wormCollide: true,
      collideWithObjects: false,
      affectByExplosions: false,
      bounce: 0,
      bounceFriction: 0.8,
      timeToExplo: 0,
      timeToExploV: 0,
      hitDamage: 28,
      bloodOnHit: 50,
      startFrame: -1,
      numFrames: 0,
      loopAnim: false,
      shotType: 4,
      repeat: 8,
      colorBullets: 68,
      splinterAmount: 10,
      splinterColour: 13,
      splinterType: 2,
      splinterScatter: 0,
      objTrailType: -1,
      objTrailDelay: 0,
      partTrailType: 0,
      partTrailObj: -1,
      partTrailDelay: 0,
      speed: 0,
    },
    {
      detectDistance: 2,
      blowAway: 0.2,
      gravity: 0,
      exploSound: -1,
      addSpeed: 3,
      distribution: 0,
      multSpeed: 1,
      createOnExp: 16,
      dirtEffect: -1,
      wormExplode: true,
      explGround: true,
      wormCollide: true,
      collideWithObjects: false,
      affectByExplosions: true,
      bounce: 0,
      bounceFriction: 0.8,
      timeToExplo: 0,
      timeToExploV: 0,
      hitDamage: 100,
      bloodOnHit: 30,
      startFrame: 112,
      numFrames: 0,
      loopAnim: false,
      shotType: 3,
      repeat: 1,
      colorBullets: 0,
      splinterAmount: 15,
      splinterColour: 66,
      splinterType: 15,
      splinterScatter: 0,
      objTrailType: 3,
      objTrailDelay: 4,
      partTrailType: 0,
      partTrailObj: -1,
      partTrailDelay: 0,
      speed: 0,
    },
    {
      detectDistance: 1,
      blowAway: -0.2,
      gravity: 0,
      exploSound: -1,
      addSpeed: 0,
      distribution: 0.024,
      multSpeed: 0.987,
      createOnExp: -1,
      dirtEffect: -1,
      wormExplode: false,
      explGround: true,
      wormCollide: true,
      collideWithObjects: false,
      affectByExplosions: false,
      bounce: 1,
      bounceFriction: 1,
      timeToExplo: 340,
      timeToExploV: 0,
      hitDamage: 2.9,
      bloodOnHit: 6,
      startFrame: -1,
      numFrames: 0,
      loopAnim: false,
      shotType: 3,
      repeat: 100,
      colorBullets: 241,
      splinterAmount: 0,
      splinterColour: 0,
      splinterType: -1,
      splinterScatter: 0,
      objTrailType: 21,
      objTrailDelay: 1,
      partTrailType: 0,
      partTrailObj: -1,
      partTrailDelay: 0,
      speed: 300,
    },
    {
      detectDistance: 1,
      blowAway: 0,
      gravity: 0,
      exploSound: -1,
      addSpeed: 0,
      distribution: 0.2288818359375,
      multSpeed: 1,
      createOnExp: -1,
      dirtEffect: -1,
      wormExplode: false,
      explGround: true,
      wormCollide: true,
      collideWithObjects: false,
      affectByExplosions: false,
      bounce: 0,
      bounceFriction: 0.8,
      timeToExplo: 0,
      timeToExploV: 0,
      hitDamage: 4.8,
      bloodOnHit: 1,
      startFrame: -1,
      numFrames: 0,
      loopAnim: false,
      shotType: 4,
      repeat: 16,
      colorBullets: 241,
      splinterAmount: 0,
      splinterColour: 0,
      splinterType: -1,
      splinterScatter: 0,
      objTrailType: 6,
      objTrailDelay: 1,
      partTrailType: 0,
      partTrailObj: -1,
      partTrailDelay: 0,
      speed: 500,
    },
    {
      detectDistance: 2,
      blowAway: 0.6,
      gravity: 0.0152587890625,
      exploSound: -1,
      addSpeed: 0,
      distribution: 0.1220703125,
      multSpeed: 1,
      createOnExp: 0,
      dirtEffect: -1,
      wormExplode: true,
      explGround: false,
      wormCollide: true,
      collideWithObjects: false,
      affectByExplosions: true,
      bounce: 0.4,
      bounceFriction: 0.8,
      timeToExplo: 3000,
      timeToExploV: 600,
      hitDamage: 12,
      bloodOnHit: 20,
      startFrame: 173,
      numFrames: 3,
      loopAnim: true,
      shotType: 0,
      repeat: 1,
      colorBullets: 0,
      splinterAmount: 5,
      splinterColour: 66,
      splinterType: 3,
      splinterScatter: 0,
      objTrailType: -1,
      objTrailDelay: 0,
      partTrailType: 0,
      partTrailObj: -1,
      partTrailDelay: 0,
      speed: 95,
    },
    {
      detectDistance: 1,
      blowAway: 1.5,
      gravity: 0.00030517578125,
      exploSound: -1,
      addSpeed: 0,
      distribution: 0.00152587890625,
      multSpeed: 1,
      createOnExp: 2,
      dirtEffect: -1,
      wormExplode: false,
      explGround: true,
      wormCollide: true,
      collideWithObjects: false,
      affectByExplosions: false,
      bounce: 0,
      bounceFriction: 0.8,
      timeToExplo: 0,
      timeToExploV: 0,
      hitDamage: 34,
      bloodOnHit: 30,
      startFrame: -1,
      numFrames: 0,
      loopAnim: false,
      shotType: 4,
      repeat: 8,
      colorBullets: 68,
      splinterAmount: 3,
      splinterColour: 13,
      splinterType: 2,
      splinterScatter: 0,
      objTrailType: -1,
      objTrailDelay: 0,
      partTrailType: 0,
      partTrailObj: -1,
      partTrailDelay: 0,
      speed: 250,
    },
    {
      detectDistance: 1,
      blowAway: 0.15,
      gravity: 0,
      exploSound: -1,
      addSpeed: 4,
      distribution: 0.030517578125,
      multSpeed: 1,
      createOnExp: 1,
      dirtEffect: -1,
      wormExplode: true,
      explGround: true,
      wormCollide: true,
      collideWithObjects: false,
      affectByExplosions: true,
      bounce: 0,
      bounceFriction: 0.8,
      timeToExplo: 0,
      timeToExploV: 0,
      hitDamage: 0,
      bloodOnHit: 10,
      startFrame: 127,
      numFrames: 0,
      loopAnim: false,
      shotType: 3,
      repeat: 1,
      colorBullets: 0,
      splinterAmount: 8,
      splinterColour: 67,
      splinterType: 17,
      splinterScatter: 0,
      objTrailType: 6,
      objTrailDelay: 2,
      partTrailType: 0,
      partTrailObj: -1,
      partTrailDelay: 0,
      speed: 210,
    },
    {
      detectDistance: 2,
      blowAway: 0,
      gravity: -0.003814697265625,
      exploSound: -1,
      addSpeed: 1,
      distribution: 0.152587890625,
      multSpeed: 1,
      createOnExp: -1,
      dirtEffect: 3,
      wormExplode: false,
      explGround: false,
      wormCollide: true,
      collideWithObjects: false,
      affectByExplosions: true,
      bounce: 0.01,
      bounceFriction: 0.8,
      timeToExplo: 25,
      timeToExploV: 5,
      hitDamage: 1,
      bloodOnHit: 0,
      startFrame: 159,
      numFrames: 5,
      loopAnim: false,
      shotType: 0,
      repeat: 2,
      colorBullets: 0,
      splinterAmount: 1,
      splinterColour: 0,
      splinterType: 26,
      splinterScatter: 1,
      objTrailType: -1,
      objTrailDelay: 0,
      partTrailType: 0,
      partTrailObj: -1,
      partTrailDelay: 0,
      speed: 165,
    },
    {
      detectDistance: 1,
      blowAway: 0.3,
      gravity: 0.01983642578125,
      exploSound: -1,
      addSpeed: 0,
      distribution: 0.000152587890625,
      multSpeed: 1,
      createOnExp: 0,
      dirtEffect: -1,
      wormExplode: true,
      explGround: false,
      wormCollide: true,
      collideWithObjects: false,
      affectByExplosions: true,
      bounce: 0.4,
      bounceFriction: 0.8,
      timeToExplo: 140,
      timeToExploV: 10,
      hitDamage: 4,
      bloodOnHit: 1,
      startFrame: 239,
      numFrames: 0,
      loopAnim: false,
      shotType: 0,
      repeat: 1,
      colorBullets: 0,
      splinterAmount: 8,
      splinterColour: 67,
      splinterType: 17,
      splinterScatter: 0,
      objTrailType: 19,
      objTrailDelay: 4,
      partTrailType: 0,
      partTrailObj: -1,
      partTrailDelay: 0,
      speed: 300,
    },
    {
      detectDistance: 1,
      blowAway: 0.4,
      gravity: 0.0030517578125,
      exploSound: -1,
      addSpeed: 0,
      distribution: 0,
      multSpeed: 1,
      createOnExp: 1,
      dirtEffect: -1,
      wormExplode: true,
      explGround: true,
      wormCollide: true,
      collideWithObjects: false,
      affectByExplosions: false,
      bounce: 0,
      bounceFriction: 0.8,
      timeToExplo: 0,
      timeToExploV: 0,
      hitDamage: 0,
      bloodOnHit: 6,
      startFrame: 140,
      numFrames: 0,
      loopAnim: false,
      shotType: 1,
      repeat: 1,
      colorBullets: 0,
      splinterAmount: 5,
      splinterColour: 67,
      splinterType: 3,
      splinterScatter: 0,
      objTrailType: -1,
      objTrailDelay: 0,
      partTrailType: 1,
      partTrailObj: 5,
      partTrailDelay: 4,
      speed: 220,
    },
    {
      detectDistance: 8,
      blowAway: 0.22,
      gravity: 0,
      exploSound: -1,
      addSpeed: 0,
      distribution: 0.0152587890625,
      multSpeed: 0.98,
      createOnExp: 23,
      dirtEffect: 0,
      wormExplode: false,
      explGround: false,
      wormCollide: false,
      collideWithObjects: false,
      affectByExplosions: true,
      bounce: 0.5,
      bounceFriction: 0.8,
      timeToExplo: 60,
      timeToExploV: 20,
      hitDamage: 0,
      bloodOnHit: 0,
      startFrame: -1,
      numFrames: 0,
      loopAnim: false,
      shotType: 0,
      repeat: 0,
      colorBullets: 17,
      splinterAmount: 55,
      splinterColour: 0,
      splinterType: 15,
      splinterScatter: 0,
      objTrailType: -1,
      objTrailDelay: 5,
      partTrailType: 0,
      partTrailObj: -1,
      partTrailDelay: 0,
      speed: 200,
    },
    {
      detectDistance: 3,
      blowAway: 0,
      gravity: 0.00091552734375,
      exploSound: -1,
      addSpeed: 0,
      distribution: 0.00762939453125,
      multSpeed: 1,
      createOnExp: 22,
      dirtEffect: 0,
      wormExplode: false,
      explGround: true,
      wormCollide: false,
      collideWithObjects: false,
      affectByExplosions: false,
      bounce: 0,
      bounceFriction: 0.8,
      timeToExplo: 0,
      timeToExploV: 0,
      hitDamage: 0,
      bloodOnHit: 0,
      startFrame: 193,
      numFrames: 0,
      loopAnim: false,
      shotType: 4,
      repeat: 8,
      colorBullets: 3,
      splinterAmount: 20,
      splinterColour: 3,
      splinterType: 21,
      splinterScatter: 0,
      objTrailType: 3,
      objTrailDelay: 4,
      partTrailType: 1,
      partTrailObj: -1,
      partTrailDelay: 0,
      speed: 45,
    },
    {
      detectDistance: 0,
      blowAway: 0.05,
      gravity: 0.00762939453125,
      exploSound: -1,
      addSpeed: 0,
      distribution: 0.091552734375,
      multSpeed: 1,
      createOnExp: 2,
      dirtEffect: -1,
      wormExplode: false,
      explGround: true,
      wormCollide: true,
      collideWithObjects: false,
      affectByExplosions: false,
      bounce: 0,
      bounceFriction: 0.8,
      timeToExplo: 0,
      timeToExploV: 0,
      hitDamage: 2,
      bloodOnHit: 2,
      startFrame: -1,
      numFrames: 0,
      loopAnim: false,
      shotType: 0,
      repeat: 2,
      colorBullets: 68,
      splinterAmount: 1,
      splinterColour: 13,
      splinterType: 2,
      splinterScatter: 0,
      objTrailType: -1,
      objTrailDelay: 0,
      partTrailType: 0,
      partTrailObj: -1,
      partTrailDelay: 0,
      speed: 355,
    },
    {
      detectDistance: 0,
      blowAway: 0,
      gravity: 0.01983642578125,
      exploSound: -1,
      addSpeed: 0,
      distribution: 0.4999847412109375,
      multSpeed: 1,
      createOnExp: -1,
      dirtEffect: -1,
      wormExplode: false,
      explGround: false,
      wormCollide: false,
      collideWithObjects: false,
      affectByExplosions: true,
      bounce: 0.2,
      bounceFriction: 0.8,
      timeToExplo: 40,
      timeToExploV: 0,
      hitDamage: 0,
      bloodOnHit: 0,
      startFrame: 202,
      numFrames: 3,
      loopAnim: true,
      shotType: 0,
      repeat: 1,
      colorBullets: 0,
      splinterAmount: 1,
      splinterColour: 0,
      splinterType: 8,
      splinterScatter: 1,
      objTrailType: -1,
      objTrailDelay: 0,
      partTrailType: 0,
      partTrailObj: -1,
      partTrailDelay: 0,
      speed: 140,
    },
    {
      detectDistance: 1,
      blowAway: 0.015,
      gravity: 0.005,
      exploSound: -1,
      addSpeed: 0,
      distribution: 0.2,
      multSpeed: 1,
      createOnExp: 2,
      dirtEffect: -1,
      wormExplode: false,
      explGround: true,
      wormCollide: true,
      collideWithObjects: false,
      affectByExplosions: false,
      bounce: 0,
      bounceFriction: 0.8,
      timeToExplo: 0,
      timeToExploV: 0,
      hitDamage: 1.3,
      bloodOnHit: 2,
      startFrame: -1,
      numFrames: 0,
      loopAnim: false,
      shotType: 0,
      repeat: 2,
      colorBullets: 75,
      splinterAmount: 1,
      splinterColour: 13,
      splinterType: 2,
      splinterScatter: 0,
      objTrailType: -1,
      objTrailDelay: 0,
      partTrailType: 0,
      partTrailObj: -1,
      partTrailDelay: 0,
      speed: 320,
    },
    {
      detectDistance: 2,
      blowAway: 0.1,
      gravity: 0.02288818359375,
      exploSound: -1,
      addSpeed: 0,
      distribution: 0.00762939453125,
      multSpeed: 1,
      createOnExp: -1,
      dirtEffect: -1,
      wormExplode: false,
      explGround: true,
      wormCollide: true,
      collideWithObjects: false,
      affectByExplosions: true,
      bounce: 0,
      bounceFriction: 0.8,
      timeToExplo: 0,
      timeToExploV: 0,
      hitDamage: 24,
      bloodOnHit: 25,
      startFrame: 223,
      numFrames: 12,
      loopAnim: true,
      shotType: 1,
      repeat: 1,
      colorBullets: 0,
      splinterAmount: 0,
      splinterColour: 0,
      splinterType: -1,
      splinterScatter: 0,
      objTrailType: -1,
      objTrailDelay: 0,
      partTrailType: 0,
      partTrailObj: -1,
      partTrailDelay: 0,
      speed: 350,
    },
    {
      detectDistance: 0,
      blowAway: 0.15,
      gravity: 0.000152587890625,
      exploSound: -1,
      addSpeed: 0,
      distribution: 0.30517578125,
      multSpeed: 1,
      createOnExp: 2,
      dirtEffect: -1,
      wormExplode: true,
      explGround: true,
      wormCollide: true,
      collideWithObjects: false,
      affectByExplosions: false,
      bounce: 0,
      bounceFriction: 0.8,
      timeToExplo: 5,
      timeToExploV: 0,
      hitDamage: 0,
      bloodOnHit: 2,
      startFrame: -1,
      numFrames: 0,
      loopAnim: false,
      shotType: 0,
      repeat: 1,
      colorBullets: 88,
      splinterAmount: 1,
      splinterColour: 0,
      splinterType: 18,
      splinterScatter: 1,
      objTrailType: -1,
      objTrailDelay: 0,
      partTrailType: 0,
      partTrailObj: -1,
      partTrailDelay: 0,
      speed: 300,
    },
    {
      detectDistance: 1,
      blowAway: 0.16,
      gravity: 0,
      exploSound: -1,
      addSpeed: 0,
      distribution: 0.48310546875,
      multSpeed: 1,
      createOnExp: -1,
      dirtEffect: 1,
      wormExplode: false,
      explGround: true,
      wormCollide: true,
      collideWithObjects: false,
      affectByExplosions: false,
      bounce: 0,
      bounceFriction: 0.8,
      timeToExplo: 28,
      timeToExploV: 10,
      hitDamage: 3.3,
      bloodOnHit: 0,
      startFrame: -1,
      numFrames: 0,
      loopAnim: false,
      shotType: 0,
      repeat: 1,
      colorBullets: 100,
      splinterAmount: 0,
      splinterColour: 0,
      splinterType: -1,
      splinterScatter: 0,
      objTrailType: -1,
      objTrailDelay: 0,
      partTrailType: 0,
      partTrailObj: -1,
      partTrailDelay: 0,
      speed: 180,
    },
    {
      detectDistance: 2,
      blowAway: 0,
      gravity: 0,
      exploSound: -1,
      addSpeed: 0,
      distribution: 1,
      multSpeed: 1,
      createOnExp: -1,
      dirtEffect: -1,
      wormExplode: true,
      explGround: true,
      wormCollide: true,
      collideWithObjects: false,
      affectByExplosions: false,
      bounce: 1,
      bounceFriction: 1,
      timeToExplo: 15,
      timeToExploV: 0,
      hitDamage: 100,
      bloodOnHit: 20,
      startFrame: 179,
      numFrames: 0,
      loopAnim: false,
      shotType: 0,
      repeat: 3,
      colorBullets: 0,
      splinterAmount: 0,
      splinterColour: 75,
      splinterType: 4,
      splinterScatter: 0,
      objTrailType: -1,
      objTrailDelay: 0,
      partTrailType: 1,
      partTrailObj: 12,
      partTrailDelay: 1,
      speed: 500,
    },
    {
      detectDistance: 1,
      blowAway: -0.6,
      gravity: 0,
      exploSound: -1,
      addSpeed: 0,
      distribution: 0,
      multSpeed: 1,
      createOnExp: 4,
      dirtEffect: -1,
      wormExplode: true,
      explGround: false,
      wormCollide: true,
      collideWithObjects: false,
      affectByExplosions: false,
      bounce: 1,
      bounceFriction: 1,
      timeToExplo: 58,
      timeToExploV: 0,
      hitDamage: 43,
      bloodOnHit: 15,
      startFrame: 180,
      numFrames: 0,
      loopAnim: false,
      shotType: 0,
      repeat: 1,
      colorBullets: 0,
      splinterAmount: 0,
      splinterColour: 0,
      splinterType: -1,
      splinterScatter: 0,
      objTrailType: -1,
      objTrailDelay: 0,
      partTrailType: 0,
      partTrailObj: -1,
      partTrailDelay: 0,
      speed: 300,
    },
    {
      detectDistance: 0,
      blowAway: 0,
      gravity: 0,
      exploSound: 4,
      addSpeed: 0,
      distribution: 0.0583642578125,
      multSpeed: 1,
      createOnExp: -1,
      dirtEffect: -1,
      wormExplode: false,
      explGround: false,
      wormCollide: false,
      collideWithObjects: false,
      affectByExplosions: true,
      bounce: 0.75,
      bounceFriction: 0.8,
      timeToExplo: 28,
      timeToExploV: 0,
      hitDamage: 0,
      bloodOnHit: 0,
      startFrame: 195,
      numFrames: 0,
      loopAnim: false,
      shotType: 0,
      repeat: 1,
      colorBullets: 0,
      splinterAmount: 16,
      splinterColour: 0,
      splinterType: 11,
      splinterScatter: 1,
      objTrailType: -1,
      objTrailDelay: 0,
      partTrailType: 0,
      partTrailObj: -1,
      partTrailDelay: 0,
      speed: 180,
    },
    {
      detectDistance: 0,
      blowAway: 0,
      gravity: 0.0152587890625,
      exploSound: 4,
      addSpeed: 0,
      distribution: 0.1983642578125,
      multSpeed: 1,
      createOnExp: -1,
      dirtEffect: -1,
      wormExplode: false,
      explGround: false,
      wormCollide: false,
      collideWithObjects: false,
      affectByExplosions: true,
      bounce: 0.75,
      bounceFriction: 0.8,
      timeToExplo: 50,
      timeToExploV: 4,
      hitDamage: 0,
      bloodOnHit: 0,
      startFrame: 195,
      numFrames: 0,
      loopAnim: false,
      shotType: 0,
      repeat: 1,
      colorBullets: 0,
      splinterAmount: 6,
      splinterColour: 0,
      splinterType: 11,
      splinterScatter: 1,
      objTrailType: -1,
      objTrailDelay: 0,
      partTrailType: 0,
      partTrailObj: -1,
      partTrailDelay: 0,
      speed: 180,
    },
    {
      detectDistance: 0,
      blowAway: 0,
      gravity: 0.0152587890625,
      exploSound: 4,
      addSpeed: 0,
      distribution: 0.1983642578125,
      multSpeed: 1,
      createOnExp: -1,
      dirtEffect: -1,
      wormExplode: false,
      explGround: false,
      wormCollide: false,
      collideWithObjects: false,
      affectByExplosions: true,
      bounce: 0.75,
      bounceFriction: 0.8,
      timeToExplo: 50,
      timeToExploV: 4,
      hitDamage: 0,
      bloodOnHit: 0,
      startFrame: 195,
      numFrames: 0,
      loopAnim: false,
      shotType: 0,
      repeat: 1,
      colorBullets: 0,
      splinterAmount: 6,
      splinterColour: 0,
      splinterType: 11,
      splinterScatter: 1,
      objTrailType: -1,
      objTrailDelay: 0,
      partTrailType: 0,
      partTrailObj: -1,
      partTrailDelay: 0,
      speed: 180,
    },
    {
      detectDistance: 1,
      blowAway: 0,
      gravity: 0,
      exploSound: -1,
      addSpeed: 0,
      distribution: 0,
      multSpeed: 0.94,
      createOnExp: 15,
      dirtEffect: 1,
      wormExplode: false,
      explGround: true,
      wormCollide: false,
      collideWithObjects: true,
      affectByExplosions: false,
      bounce: 0.9,
      bounceFriction: 0.8,
      timeToExplo: 400,
      timeToExploV: 0,
      hitDamage: 0,
      bloodOnHit: 0,
      startFrame: 179,
      numFrames: 0,
      loopAnim: false,
      shotType: 0,
      repeat: 3,
      colorBullets: 0,
      splinterAmount: 0,
      splinterColour: 0,
      splinterType: 0,
      splinterScatter: 0,
      objTrailType: -1,
      objTrailDelay: 0,
      partTrailType: 0,
      partTrailObj: 24,
      partTrailDelay: 1,
      speed: 300,
    },
    {
      detectDistance: 2,
      blowAway: 0.2,
      gravity: 0.0030517578125,
      exploSound: 7,
      addSpeed: 0,
      distribution: 0.004119873046875,
      multSpeed: 1,
      createOnExp: 1,
      dirtEffect: 1,
      wormExplode: false,
      explGround: true,
      wormCollide: true,
      collideWithObjects: false,
      affectByExplosions: true,
      bounce: 0,
      bounceFriction: 0.8,
      timeToExplo: 35,
      timeToExploV: 0,
      hitDamage: 15,
      bloodOnHit: 50,
      startFrame: 193,
      numFrames: 0,
      loopAnim: false,
      shotType: 0,
      repeat: 1,
      colorBullets: 66,
      splinterAmount: 30,
      splinterColour: 3,
      splinterType: 5,
      splinterScatter: 0,
      objTrailType: -1,
      objTrailDelay: 0,
      partTrailType: 0,
      partTrailObj: -1,
      partTrailDelay: 0,
      speed: 510,
    },
    {
      detectDistance: 1,
      blowAway: 0.4,
      gravity: 0.0030517578125,
      exploSound: -1,
      addSpeed: 0,
      distribution: 0,
      multSpeed: 1,
      createOnExp: 1,
      dirtEffect: -1,
      wormExplode: true,
      explGround: true,
      wormCollide: true,
      collideWithObjects: false,
      affectByExplosions: false,
      bounce: 1,
      bounceFriction: 1,
      timeToExplo: 380,
      timeToExploV: 50,
      hitDamage: 0,
      bloodOnHit: 6,
      startFrame: 194,
      numFrames: 0,
      loopAnim: false,
      shotType: 0,
      repeat: 1,
      colorBullets: 0,
      splinterAmount: 5,
      splinterColour: 67,
      splinterType: 3,
      splinterScatter: 0,
      objTrailType: -1,
      objTrailDelay: 0,
      partTrailType: 1,
      partTrailObj: 3,
      partTrailDelay: 4,
      speed: 220,
    },
    {
      detectDistance: 0,
      blowAway: 0,
      gravity: 0,
      exploSound: -1,
      addSpeed: 0,
      distribution: 0.000152587890625,
      multSpeed: 1,
      createOnExp: 9,
      dirtEffect: -1,
      wormExplode: false,
      explGround: true,
      wormCollide: true,
      collideWithObjects: false,
      affectByExplosions: true,
      bounce: 0,
      bounceFriction: 0.8,
      timeToExplo: 0,
      timeToExploV: 0,
      hitDamage: 1,
      bloodOnHit: 0,
      startFrame: -1,
      numFrames: 0,
      loopAnim: false,
      shotType: 4,
      repeat: 1000,
      colorBullets: 104,
      splinterAmount: 0,
      splinterColour: 0,
      splinterType: -1,
      splinterScatter: 0,
      objTrailType: -1,
      objTrailDelay: 0,
      partTrailType: 0,
      partTrailObj: -1,
      partTrailDelay: 0,
      speed: 100,
    },
    {
      detectDistance: 2,
      blowAway: 0.2,
      gravity: 0.0152587890625,
      exploSound: -1,
      addSpeed: 0,
      distribution: 0.3662109375,
      multSpeed: 1,
      createOnExp: 2,
      dirtEffect: -1,
      wormExplode: false,
      explGround: false,
      wormCollide: true,
      collideWithObjects: false,
      affectByExplosions: true,
      bounce: 0.5,
      bounceFriction: 0.8,
      timeToExplo: 230,
      timeToExploV: 50,
      hitDamage: 9,
      bloodOnHit: 20,
      startFrame: 181,
      numFrames: 3,
      loopAnim: true,
      shotType: 0,
      repeat: 1,
      colorBullets: 0,
      splinterAmount: 0,
      splinterColour: 0,
      splinterType: -1,
      splinterScatter: 0,
      objTrailType: -1,
      objTrailDelay: 0,
      partTrailType: 0,
      partTrailObj: -1,
      partTrailDelay: 0,
      speed: 110,
    },
    {
      detectDistance: 2,
      blowAway: 0,
      gravity: 0.0152587890625,
      exploSound: 4,
      addSpeed: 0,
      distribution: 0.030517578125,
      multSpeed: 1,
      createOnExp: -1,
      dirtEffect: -1,
      wormExplode: true,
      explGround: true,
      wormCollide: false,
      collideWithObjects: false,
      affectByExplosions: true,
      bounce: 0,
      bounceFriction: 0.8,
      timeToExplo: 0,
      timeToExploV: 0,
      hitDamage: 0,
      bloodOnHit: 0,
      startFrame: 185,
      numFrames: 7,
      loopAnim: true,
      shotType: 0,
      repeat: 1,
      colorBullets: 0,
      splinterAmount: 17,
      splinterColour: 114,
      splinterType: 12,
      splinterScatter: 0,
      objTrailType: -1,
      objTrailDelay: 0,
      partTrailType: 0,
      partTrailObj: -1,
      partTrailDelay: 0,
      speed: 188,
    },
    {
      detectDistance: 1,
      blowAway: 0.22,
      gravity: 0,
      exploSound: 12,
      addSpeed: 0,
      distribution: 0,
      multSpeed: 1,
      createOnExp: 0,
      dirtEffect: -1,
      wormExplode: true,
      explGround: true,
      wormCollide: true,
      collideWithObjects: false,
      affectByExplosions: false,
      bounce: 0,
      bounceFriction: 0.8,
      timeToExplo: 105,
      timeToExploV: 0,
      hitDamage: 0,
      bloodOnHit: 18,
      startFrame: 112,
      numFrames: 0,
      loopAnim: false,
      shotType: 1,
      repeat: 1,
      colorBullets: 0,
      splinterAmount: 8,
      splinterColour: 67,
      splinterType: 17,
      splinterScatter: 0,
      objTrailType: 9,
      objTrailDelay: 5,
      partTrailType: 1,
      partTrailObj: 10,
      partTrailDelay: 10,
      speed: 200,
    },
    {
      detectDistance: 2,
      gravity: 0,
      exploSound: -1,
      addSpeed: 250,
      distribution: 0,
      multSpeed: 1,
      createOnExp: 24,
      dirtEffect: -1,
      wormExplode: true,
      explGround: true,
      wormCollide: true,
      collideWithObjects: false,
      affectByExplosions: false,
      bounce: 0,
      bounceFriction: 0.8,
      timeToExplo: 0,
      timeToExploV: 0,
      hitDamage: 100,
      bloodOnHit: 30,
      startFrame: 110,
      numFrames: 0,
      loopAnim: false,
      shotType: 2,
      repeat: 1,
      colorBullets: 0,
      splinterAmount: 10,
      splinterColour: 66,
      splinterType: 25,
      splinterScatter: 0,
      objTrailType: 3,
      objTrailDelay: 4,
      partTrailType: 0,
      partTrailObj: -1,
      partTrailDelay: 0,
      speed: 230,
    },
    {
      detectDistance: 0,
      blowAway: 0,
      gravity: 0.01983642578125,
      exploSound: -1,
      addSpeed: 0,
      distribution: 0.1068115234375,
      multSpeed: 1,
      createOnExp: 0,
      dirtEffect: -1,
      wormExplode: false,
      explGround: false,
      wormCollide: false,
      collideWithObjects: false,
      affectByExplosions: true,
      bounce: 0.4,
      bounceFriction: 0.8,
      timeToExplo: 110,
      timeToExploV: 10,
      hitDamage: 0,
      bloodOnHit: 0,
      startFrame: 215,
      numFrames: 3,
      loopAnim: true,
      shotType: 0,
      repeat: 1,
      colorBullets: 0,
      splinterAmount: 22,
      splinterColour: 0,
      splinterType: 14,
      splinterScatter: 0,
      objTrailType: -1,
      objTrailDelay: 0,
      partTrailType: 0,
      partTrailObj: -1,
      partTrailDelay: 0,
      speed: 170,
    },
    {
      detectDistance: 3,
      blowAway: 0,
      gravity: 0.02288818359375,
      exploSound: -1,
      addSpeed: 0,
      distribution: 0.30517578125,
      multSpeed: 1,
      createOnExp: 0,
      dirtEffect: -1,
      wormExplode: true,
      explGround: false,
      wormCollide: true,
      collideWithObjects: false,
      affectByExplosions: true,
      bounce: 0.3,
      bounceFriction: 0.8,
      timeToExplo: 4000,
      timeToExploV: 600,
      hitDamage: 5,
      bloodOnHit: 20,
      startFrame: 210,
      numFrames: 0,
      loopAnim: true,
      shotType: 0,
      repeat: 1,
      colorBullets: 0,
      splinterAmount: 0,
      splinterColour: 0,
      splinterType: -1,
      splinterScatter: 0,
      objTrailType: -1,
      objTrailDelay: 0,
      partTrailType: 0,
      partTrailObj: -1,
      partTrailDelay: 0,
      speed: 100,
    },
    {
      detectDistance: 1,
      blowAway: 0,
      gravity: 0.01678466796875,
      exploSound: -1,
      addSpeed: 0,
      distribution: 0.1068115234375,
      multSpeed: 1,
      createOnExp: 0,
      dirtEffect: -1,
      wormExplode: true,
      explGround: true,
      wormCollide: true,
      collideWithObjects: false,
      affectByExplosions: true,
      bounce: 0,
      bounceFriction: 0.8,
      timeToExplo: 130,
      timeToExploV: 50,
      hitDamage: 0,
      bloodOnHit: 0,
      startFrame: 239,
      numFrames: 0,
      loopAnim: false,
      shotType: 0,
      repeat: 1,
      colorBullets: 0,
      splinterAmount: 1,
      splinterColour: 0,
      splinterType: 15,
      splinterScatter: 0,
      objTrailType: -1,
      objTrailDelay: 0,
      partTrailType: 0,
      partTrailObj: -1,
      partTrailDelay: 0,
      speed: 190,
    },
    {
      detectDistance: 1,
      blowAway: 0.1,
      gravity: 0,
      exploSound: -1,
      addSpeed: 3,
      distribution: 0.0091552734375,
      multSpeed: 1,
      createOnExp: 10,
      dirtEffect: -1,
      wormExplode: true,
      explGround: true,
      wormCollide: true,
      collideWithObjects: false,
      affectByExplosions: false,
      bounce: 0,
      bounceFriction: 0.8,
      timeToExplo: 0,
      timeToExploV: 0,
      hitDamage: 2,
      bloodOnHit: 8,
      startFrame: 223,
      numFrames: 0,
      loopAnim: false,
      shotType: 3,
      repeat: 1,
      colorBullets: 0,
      splinterAmount: 0,
      splinterColour: 0,
      splinterType: -1,
      splinterScatter: 0,
      objTrailType: 6,
      objTrailDelay: 2,
      partTrailType: 0,
      partTrailObj: -1,
      partTrailDelay: 0,
      speed: 230,
    },
    {
      detectDistance: 1,
      blowAway: 0.3,
      gravity: 0,
      exploSound: -1,
      addSpeed: 0,
      distribution: 0.02288818359375,
      multSpeed: 1,
      createOnExp: 19,
      dirtEffect: -1,
      wormExplode: true,
      explGround: false,
      wormCollide: true,
      collideWithObjects: false,
      affectByExplosions: false,
      bounce: 0,
      bounceFriction: 0.8,
      timeToExplo: 600,
      timeToExploV: 0,
      hitDamage: 9,
      bloodOnHit: 20,
      startFrame: 223,
      numFrames: 0,
      loopAnim: false,
      shotType: 1,
      repeat: 2,
      colorBullets: 0,
      splinterAmount: 0,
      splinterColour: 0,
      splinterType: -1,
      splinterScatter: 0,
      objTrailType: -1,
      objTrailDelay: 0,
      partTrailType: 0,
      partTrailObj: -1,
      partTrailDelay: 0,
      speed: 350,
    },
    {
      detectDistance: 0,
      blowAway: 0.05,
      gravity: 0.01068115234375,
      exploSound: -1,
      addSpeed: 0,
      distribution: 0.25,
      multSpeed: 1,
      createOnExp: 2,
      dirtEffect: -1,
      wormExplode: false,
      explGround: true,
      wormCollide: true,
      collideWithObjects: false,
      affectByExplosions: false,
      bounce: 0,
      bounceFriction: 0.8,
      timeToExplo: 0,
      timeToExploV: 0,
      hitDamage: 3,
      bloodOnHit: 4,
      startFrame: -1,
      numFrames: 0,
      loopAnim: false,
      shotType: 1,
      repeat: 2,
      colorBullets: 68,
      splinterAmount: 1,
      splinterColour: 13,
      splinterType: 2,
      splinterScatter: 0,
      objTrailType: -1,
      objTrailDelay: 0,
      partTrailType: 0,
      partTrailObj: -1,
      partTrailDelay: 0,
      speed: 315,
    },
    {
      detectDistance: 0,
      blowAway: 0,
      gravity: 0,
      exploSound: -1,
      addSpeed: 0,
      distribution: 0,
      multSpeed: 1,
      createOnExp: -1,
      dirtEffect: -1,
      wormExplode: false,
      explGround: false,
      wormCollide: false,
      collideWithObjects: false,
      affectByExplosions: false,
      bounce: 0,
      bounceFriction: 0,
      timeToExplo: 0,
      timeToExploV: 0,
      hitDamage: 0,
      bloodOnHit: 0,
      startFrame: 0,
      numFrames: 0,
      loopAnim: false,
      shotType: 4,
      repeat: 0,
      colorBullets: 0,
      splinterAmount: 0,
      splinterColour: 67,
      splinterType: -1,
      splinterScatter: 0,
      objTrailType: -1,
      objTrailDelay: 0,
      partTrailType: 0,
      partTrailObj: -1,
      partTrailDelay: 0,
      speed: 0,
    },
    {
      detectDistance: 0,
      blowAway: 0,
      gravity: 0.01983642578125,
      exploSound: -1,
      addSpeed: 0,
      distribution: 0.000152587890625,
      multSpeed: 1,
      createOnExp: 20,
      dirtEffect: -1,
      wormExplode: false,
      explGround: false,
      wormCollide: false,
      collideWithObjects: false,
      affectByExplosions: true,
      bounce: 0.4,
      bounceFriction: 0.8,
      timeToExplo: 45,
      timeToExploV: 0,
      hitDamage: 0,
      bloodOnHit: 1,
      startFrame: 206,
      numFrames: 3,
      loopAnim: true,
      shotType: 0,
      repeat: 1,
      colorBullets: 0,
      splinterAmount: 25,
      splinterColour: 66,
      splinterType: 15,
      splinterScatter: 0,
      objTrailType: -1,
      objTrailDelay: 0,
      partTrailType: 0,
      partTrailObj: -1,
      partTrailDelay: 0,
      speed: 300,
    },
    {
      detectDistance: 0,
      blowAway: 1.49011612e-9,
      gravity: 0,
      exploSound: -1,
      addSpeed: 0,
      distribution: 0.4999847412109375,
      multSpeed: 0,
      createOnExp: -1,
      dirtEffect: -1,
      wormExplode: true,
      explGround: true,
      wormCollide: false,
      collideWithObjects: false,
      affectByExplosions: false,
      bounce: 0,
      bounceFriction: 0.800000011920929,
      timeToExplo: 1,
      timeToExploV: 0,
      hitDamage: 0,
      bloodOnHit: 0,
      startFrame: -1,
      numFrames: 0,
      loopAnim: false,
      shotType: 0,
      repeat: 1,
      colorBullets: 0,
      splinterAmount: 94,
      splinterColour: 75,
      splinterType: 27,
      splinterScatter: 0,
      objTrailType: -1,
      objTrailDelay: 0,
      partTrailType: 0,
      partTrailObj: -1,
      partTrailDelay: 0,
      speed: 0,
    },
    {
      detectDistance: 1,
      blowAway: 0.1,
      gravity: 0.0009,
      exploSound: -1,
      addSpeed: 5.5,
      distribution: 0.05,
      multSpeed: 1.02,
      createOnExp: 1,
      dirtEffect: -1,
      wormExplode: false,
      explGround: true,
      wormCollide: false,
      collideWithObjects: true,
      affectByExplosions: true,
      bounce: 0,
      bounceFriction: 0.8,
      timeToExplo: 0,
      timeToExploV: 0,
      hitDamage: 0,
      bloodOnHit: 0,
      startFrame: 193,
      numFrames: 0,
      loopAnim: false,
      shotType: 4,
      repeat: 3,
      colorBullets: 0,
      splinterAmount: 1,
      splinterColour: 70,
      splinterType: 29,
      splinterScatter: 1,
      objTrailType: 3,
      objTrailDelay: 1,
      partTrailType: 1,
      partTrailObj: -1,
      partTrailDelay: 0,
      speed: 0,
    },
    {
      detectDistance: 2,
      blowAway: 0.05000000074505806,
      gravity: 0,
      exploSound: -1,
      addSpeed: 0,
      distribution: 0,
      multSpeed: 1,
      createOnExp: -1,
      dirtEffect: -1,
      wormExplode: false,
      explGround: true,
      wormCollide: false,
      collideWithObjects: false,
      affectByExplosions: false,
      bounce: 0,
      bounceFriction: 0.800000011920929,
      timeToExplo: 0,
      timeToExploV: 0,
      hitDamage: 82,
      bloodOnHit: 35,
      startFrame: 196,
      numFrames: 0,
      loopAnim: false,
      shotType: 4,
      repeat: 8,
      colorBullets: 11,
      splinterAmount: 0,
      splinterColour: 75,
      splinterType: -1,
      splinterScatter: 0,
      objTrailType: 6,
      objTrailDelay: 1,
      partTrailType: 1,
      partTrailObj: 12,
      partTrailDelay: 1,
      speed: 1050,
    },
    {
      detectDistance: 3,
      blowAway: 2.5,
      gravity: 0,
      exploSound: -1,
      addSpeed: 0,
      distribution: 0.78310546875,
      multSpeed: 1,
      createOnExp: -1,
      dirtEffect: 1,
      wormExplode: false,
      explGround: true,
      wormCollide: false,
      collideWithObjects: true,
      affectByExplosions: false,
      bounce: 0,
      bounceFriction: 0.8,
      timeToExplo: 12,
      timeToExploV: 5,
      hitDamage: 0,
      bloodOnHit: 0,
      startFrame: -1,
      numFrames: 0,
      loopAnim: false,
      shotType: 0,
      repeat: 1,
      colorBullets: 100,
      splinterAmount: 0,
      splinterColour: 0,
      splinterType: -1,
      splinterScatter: 0,
      objTrailType: -1,
      objTrailDelay: 0,
      partTrailType: 0,
      partTrailObj: -1,
      partTrailDelay: 0,
      speed: 180,
    },
    {
      detectDistance: 0,
      blowAway: 0,
      gravity: 0,
      exploSound: -1,
      addSpeed: 0,
      distribution: 0,
      multSpeed: 0.94,
      createOnExp: -1,
      dirtEffect: -1,
      wormExplode: true,
      explGround: true,
      wormCollide: false,
      collideWithObjects: false,
      affectByExplosions: true,
      bounce: -1,
      bounceFriction: -1,
      timeToExplo: 38,
      timeToExploV: 0,
      hitDamage: 0,
      bloodOnHit: 0,
      startFrame: 185,
      numFrames: 7,
      loopAnim: false,
      shotType: 0,
      repeat: 1,
      colorBullets: 0,
      splinterAmount: 225,
      splinterColour: 75,
      splinterType: 30,
      splinterScatter: 0,
      objTrailType: -1,
      objTrailDelay: 0,
      partTrailType: 0,
      partTrailObj: -1,
      partTrailDelay: 0,
      speed: 900,
    },
    {
      detectDistance: 2,
      blowAway: 0,
      gravity: 0,
      exploSound: -1,
      addSpeed: 0,
      distribution: 1.2,
      multSpeed: 1,
      createOnExp: -1,
      dirtEffect: -1,
      wormExplode: true,
      explGround: true,
      wormCollide: true,
      collideWithObjects: false,
      affectByExplosions: false,
      bounce: 1,
      bounceFriction: 1,
      timeToExplo: 15,
      timeToExploV: 0,
      hitDamage: 0,
      bloodOnHit: 20,
      startFrame: 179,
      numFrames: 0,
      loopAnim: false,
      shotType: 0,
      repeat: 3,
      colorBullets: 0,
      splinterAmount: 0,
      splinterColour: 75,
      splinterType: 4,
      splinterScatter: 0,
      objTrailType: -1,
      objTrailDelay: 0,
      partTrailType: 1,
      partTrailObj: 31,
      partTrailDelay: 1,
      speed: 500,
    },
    {
      detectDistance: 1,
      blowAway: 0,
      gravity: 0,
      exploSound: 4,
      addSpeed: 0,
      distribution: 0,
      multSpeed: 1,
      createOnExp: -1,
      dirtEffect: -1,
      wormExplode: false,
      explGround: false,
      wormCollide: false,
      collideWithObjects: false,
      affectByExplosions: false,
      bounce: 1,
      bounceFriction: 0,
      timeToExplo: 700,
      timeToExploV: 0,
      hitDamage: 0,
      bloodOnHit: 0,
      startFrame: -1,
      numFrames: 0,
      loopAnim: false,
      shotType: 0,
      repeat: 30,
      colorBullets: 11,
      splinterAmount: 0,
      splinterColour: 75,
      splinterType: -1,
      splinterScatter: 0,
      objTrailType: -1,
      objTrailDelay: 1,
      partTrailType: 0,
      partTrailObj: 32,
      partTrailDelay: 1,
      speed: 0,
    },
  ],
  nObjects: [
    {
      detectDistance: 0,
      gravity: 0.0152587890625,
      speed: 1.2,
      speedV: 0.4,
      distribution: 0.1220703125,
      blowAway: 0,
      bounce: 0.1,
      hitDamage: 0,
      wormExplode: false,
      explGround: true,
      wormDestroy: true,
      bloodOnHit: 0,
      startFrame: 165,
      numFrames: 3,
      drawOnMap: true,
      colorBullets: 0,
      createOnExp: 4,
      affectByExplosions: false,
      dirtEffect: -1,
      splinterAmount: 0,
      splinterColour: 0,
      splinterType: -1,
      bloodTrail: true,
      bloodTrailDelay: 10,
      leaveObj: -1,
      leaveObjDelay: 0,
      timeToExplo: 8000,
      timeToExploV: 2000,
    },
    {
      detectDistance: 0,
      gravity: 0.0152587890625,
      speed: 1.2,
      speedV: 0.4,
      distribution: 0.1220703125,
      blowAway: 0,
      bounce: 0.1,
      hitDamage: 0,
      wormExplode: false,
      explGround: true,
      wormDestroy: true,
      bloodOnHit: 0,
      startFrame: 169,
      numFrames: 3,
      drawOnMap: true,
      colorBullets: 0,
      createOnExp: 4,
      affectByExplosions: false,
      dirtEffect: -1,
      splinterAmount: 0,
      splinterColour: 0,
      splinterType: -1,
      bloodTrail: true,
      bloodTrailDelay: 10,
      leaveObj: -1,
      leaveObjDelay: 0,
      timeToExplo: 8000,
      timeToExploV: 2000,
    },
    {
      detectDistance: 0,
      gravity: 0.01068115234375,
      speed: 2,
      speedV: 2,
      distribution: 0.152587890625,
      blowAway: 0,
      bounce: 0,
      hitDamage: 0,
      wormExplode: false,
      explGround: true,
      wormDestroy: false,
      bloodOnHit: 0,
      startFrame: 0,
      numFrames: 0,
      drawOnMap: false,
      colorBullets: 17,
      createOnExp: -1,
      affectByExplosions: false,
      dirtEffect: -1,
      splinterAmount: 0,
      splinterColour: 0,
      splinterType: -1,
      bloodTrail: false,
      bloodTrailDelay: 0,
      leaveObj: -1,
      leaveObjDelay: 0,
      timeToExplo: 30,
      timeToExploV: 15,
    },
    {
      detectDistance: 0,
      gravity: 0.01068115234375,
      speed: 1.6,
      speedV: 1.4,
      distribution: 0.030517578125,
      blowAway: 0.1,
      bounce: 0,
      hitDamage: 2,
      wormExplode: false,
      explGround: true,
      wormDestroy: true,
      bloodOnHit: 1,
      startFrame: 0,
      numFrames: 0,
      drawOnMap: false,
      colorBullets: 67,
      createOnExp: 2,
      affectByExplosions: false,
      dirtEffect: -1,
      splinterAmount: 0,
      splinterColour: 0,
      splinterType: -1,
      bloodTrail: false,
      bloodTrailDelay: 0,
      leaveObj: -1,
      leaveObjDelay: 0,
      timeToExplo: 0,
      timeToExploV: 0,
    },
    {
      detectDistance: 1,
      gravity: 0.01068115234375,
      speed: 4,
      speedV: 3,
      distribution: 0.030517578125,
      blowAway: 0.015,
      bounce: 0,
      hitDamage: 2.7,
      wormExplode: false,
      explGround: true,
      wormDestroy: true,
      bloodOnHit: 8,
      startFrame: 0,
      numFrames: 0,
      drawOnMap: false,
      colorBullets: 67,
      createOnExp: -1,
      affectByExplosions: false,
      dirtEffect: -1,
      splinterAmount: 0,
      splinterColour: 0,
      splinterType: -1,
      bloodTrail: false,
      bloodTrailDelay: 0,
      leaveObj: -1,
      leaveObjDelay: 0,
      timeToExplo: 11,
      timeToExploV: 8,
    },
    {
      detectDistance: 1,
      gravity: 0.01068115234375,
      speed: 4,
      speedV: 3,
      distribution: 0.030517578125,
      blowAway: 0.05,
      bounce: 0,
      hitDamage: 0,
      wormExplode: false,
      explGround: true,
      wormDestroy: true,
      bloodOnHit: 6,
      startFrame: 0,
      numFrames: 0,
      drawOnMap: false,
      colorBullets: 67,
      createOnExp: -1,
      affectByExplosions: false,
      dirtEffect: -1,
      splinterAmount: 0,
      splinterColour: 0,
      splinterType: -1,
      bloodTrail: false,
      bloodTrailDelay: 0,
      leaveObj: -1,
      leaveObjDelay: 0,
      timeToExplo: 18,
      timeToExploV: 5,
    },
    {
      detectDistance: 0,
      gravity: 0.01068115234375,
      speed: 0.75,
      speedV: 0.4,
      distribution: 0.30517578125,
      blowAway: 0,
      bounce: 0,
      hitDamage: 0,
      wormExplode: false,
      explGround: true,
      wormDestroy: false,
      bloodOnHit: 0,
      startFrame: 0,
      numFrames: 0,
      drawOnMap: false,
      colorBullets: 82,
      createOnExp: -1,
      affectByExplosions: false,
      dirtEffect: -1,
      splinterAmount: 0,
      splinterColour: 0,
      splinterType: -1,
      bloodTrail: true,
      bloodTrailDelay: 10,
      leaveObj: -1,
      leaveObjDelay: 0,
      timeToExplo: 0,
      timeToExploV: 0,
    },
    {
      detectDistance: 0,
      gravity: 0.0152587890625,
      speed: 0,
      speedV: 0,
      distribution: 0.1220703125,
      blowAway: 0,
      bounce: 0.4,
      hitDamage: 0,
      wormExplode: false,
      explGround: true,
      wormDestroy: true,
      bloodOnHit: 0,
      startFrame: 155,
      numFrames: 3,
      drawOnMap: true,
      colorBullets: 0,
      createOnExp: -1,
      affectByExplosions: false,
      dirtEffect: 5,
      splinterAmount: 0,
      splinterColour: 0,
      splinterType: -1,
      bloodTrail: false,
      bloodTrailDelay: 0,
      leaveObj: -1,
      leaveObjDelay: 0,
      timeToExplo: 4000,
      timeToExploV: 1000,
    },
    {
      detectDistance: 1,
      gravity: 0.0152587890625,
      speed: 2.2,
      speedV: 1.4,
      distribution: 0.152587890625,
      blowAway: 0,
      bounce: 0,
      hitDamage: 1,
      wormExplode: true,
      explGround: true,
      wormDestroy: true,
      bloodOnHit: 5,
      startFrame: 202,
      numFrames: 3,
      drawOnMap: false,
      colorBullets: 0,
      createOnExp: 1,
      affectByExplosions: false,
      dirtEffect: -1,
      splinterAmount: 8,
      splinterColour: 67,
      splinterType: 17,
      bloodTrail: false,
      bloodTrailDelay: 0,
      leaveObj: -1,
      leaveObjDelay: 0,
      timeToExplo: 0,
      timeToExploV: 0,
    },
    {
      detectDistance: 0,
      gravity: 0.0152587890625,
      speed: 2,
      speedV: 1,
      distribution: 0.1,
      blowAway: 0,
      bounce: 0.6,
      hitDamage: 0,
      wormExplode: false,
      explGround: false,
      wormDestroy: false,
      bloodOnHit: 0,
      startFrame: 177,
      numFrames: 0,
      drawOnMap: false,
      colorBullets: 0,
      createOnExp: 0,
      affectByExplosions: true,
      dirtEffect: -1,
      splinterAmount: 3,
      splinterColour: 75,
      splinterType: 5,
      bloodTrail: false,
      bloodTrailDelay: 0,
      leaveObj: 5,
      leaveObjDelay: 5,
      timeToExplo: 200,
      timeToExploV: 50,
    },
    {
      detectDistance: 1,
      gravity: 0.030517578125,
      speed: 1.8,
      speedV: 0.2,
      distribution: 0.10517578125,
      blowAway: 0.15,
      bounce: 0,
      hitDamage: 3,
      wormExplode: true,
      explGround: true,
      wormDestroy: true,
      bloodOnHit: 10,
      startFrame: 193,
      numFrames: 0,
      drawOnMap: false,
      colorBullets: 0,
      createOnExp: 0,
      affectByExplosions: false,
      dirtEffect: -1,
      splinterAmount: 8,
      splinterColour: 67,
      splinterType: 17,
      bloodTrail: false,
      bloodTrailDelay: 0,
      leaveObj: 3,
      leaveObjDelay: 8,
      timeToExplo: 0,
      timeToExploV: 0,
    },
    {
      detectDistance: 2,
      gravity: 0,
      speed: 5.6,
      speedV: 0,
      distribution: 0.32517578125,
      blowAway: 0.2,
      bounce: 0.6,
      hitDamage: 34,
      wormExplode: true,
      explGround: false,
      wormDestroy: true,
      bloodOnHit: 40,
      startFrame: 177,
      numFrames: 0,
      drawOnMap: false,
      colorBullets: 0,
      createOnExp: 0,
      affectByExplosions: true,
      dirtEffect: -1,
      splinterAmount: 10,
      splinterColour: 3,
      splinterType: 5,
      bloodTrail: false,
      bloodTrailDelay: 0,
      leaveObj: 5,
      leaveObjDelay: 5,
      timeToExplo: 130,
      timeToExploV: 0,
    },
    {
      detectDistance: 0,
      gravity: 0.0152587890625,
      speed: 5.7,
      speedV: 0,
      distribution: 0.152587890625,
      blowAway: 0,
      bounce: 0,
      hitDamage: 0,
      wormExplode: false,
      explGround: true,
      wormDestroy: false,
      bloodOnHit: 0,
      startFrame: 0,
      numFrames: 0,
      drawOnMap: false,
      colorBullets: 10,
      createOnExp: -1,
      affectByExplosions: false,
      dirtEffect: -1,
      splinterAmount: 0,
      splinterColour: 0,
      splinterType: -1,
      bloodTrail: false,
      bloodTrailDelay: 0,
      leaveObj: 8,
      leaveObjDelay: 4,
      timeToExplo: 15,
      timeToExploV: 0,
    },
    {
      detectDistance: 0,
      gravity: 0,
      speed: 4,
      speedV: 8,
      distribution: 0.152587890625,
      blowAway: 0,
      bounce: 1,
      hitDamage: 0,
      wormExplode: false,
      explGround: false,
      wormDestroy: false,
      bloodOnHit: 0,
      startFrame: 0,
      numFrames: 0,
      drawOnMap: false,
      colorBullets: 0,
      createOnExp: -1,
      affectByExplosions: false,
      dirtEffect: 4,
      splinterAmount: 0,
      splinterColour: 0,
      splinterType: -1,
      bloodTrail: false,
      bloodTrailDelay: 0,
      leaveObj: -1,
      leaveObjDelay: 0,
      timeToExplo: 1,
      timeToExploV: 0,
    },
    {
      detectDistance: 1,
      gravity: 0.0152587890625,
      speed: 2.2,
      speedV: 1.5,
      distribution: 0.152587890625,
      blowAway: 0,
      bounce: 0,
      hitDamage: 4,
      wormExplode: true,
      explGround: true,
      wormDestroy: true,
      bloodOnHit: 10,
      startFrame: 219,
      numFrames: 3,
      drawOnMap: false,
      colorBullets: 0,
      createOnExp: 16,
      affectByExplosions: false,
      dirtEffect: -1,
      splinterAmount: 15,
      splinterColour: 66,
      splinterType: 15,
      bloodTrail: false,
      bloodTrailDelay: 0,
      leaveObj: -1,
      leaveObjDelay: 0,
      timeToExplo: 0,
      timeToExploV: 0,
    },
    {
      detectDistance: 0,
      gravity: 0,
      speed: 3,
      speedV: 3,
      distribution: 0,
      blowAway: 0,
      bounce: 0,
      hitDamage: 0,
      wormExplode: false,
      explGround: true,
      wormDestroy: false,
      bloodOnHit: 0,
      startFrame: 0,
      numFrames: 0,
      drawOnMap: false,
      colorBullets: 0,
      createOnExp: 14,
      affectByExplosions: false,
      dirtEffect: -1,
      splinterAmount: 4,
      splinterColour: 0,
      splinterType: 17,
      bloodTrail: false,
      bloodTrailDelay: 0,
      leaveObj: -1,
      leaveObjDelay: 0,
      timeToExplo: 5,
      timeToExploV: 5,
    },
    {
      detectDistance: 1,
      gravity: -0.05,
      speed: 0,
      speedV: 0,
      distribution: 0.5,
      blowAway: 0,
      bounce: 1,
      hitDamage: 0,
      wormExplode: false,
      explGround: false,
      wormDestroy: false,
      bloodOnHit: 0,
      startFrame: 65,
      numFrames: 3,
      drawOnMap: false,
      colorBullets: 0,
      createOnExp: -1,
      affectByExplosions: false,
      dirtEffect: -1,
      splinterAmount: 0,
      splinterColour: 0,
      splinterType: 0,
      bloodTrail: false,
      bloodTrailDelay: 0,
      leaveObj: -1,
      leaveObjDelay: 0,
      timeToExplo: 30,
      timeToExploV: 15,
    },
    {
      detectDistance: 0,
      gravity: 0,
      speed: 0,
      speedV: 0,
      distribution: 0,
      blowAway: 0,
      bounce: 0,
      hitDamage: 0,
      wormExplode: false,
      explGround: false,
      wormDestroy: false,
      bloodOnHit: 0,
      startFrame: -1,
      numFrames: 0,
      drawOnMap: false,
      colorBullets: 0,
      createOnExp: -1,
      affectByExplosions: false,
      dirtEffect: -1,
      splinterAmount: 1,
      splinterColour: 0,
      splinterType: 16,
      bloodTrail: false,
      bloodTrailDelay: 0,
      leaveObj: -1,
      leaveObjDelay: 0,
      timeToExplo: 20,
      timeToExploV: 10,
    },
    {
      detectDistance: 1,
      gravity: 0.0152587890625,
      speed: 2.2,
      speedV: 1.5,
      distribution: 0.152587890625,
      blowAway: 0,
      bounce: 0,
      hitDamage: 4,
      wormExplode: true,
      explGround: true,
      wormDestroy: true,
      bloodOnHit: 10,
      startFrame: 219,
      numFrames: 3,
      drawOnMap: false,
      colorBullets: 0,
      createOnExp: 0,
      affectByExplosions: false,
      dirtEffect: -1,
      splinterAmount: 8,
      splinterColour: 67,
      splinterType: 17,
      bloodTrail: false,
      bloodTrailDelay: 0,
      leaveObj: -1,
      leaveObjDelay: 0,
      timeToExplo: 0,
      timeToExploV: 0,
    },
    {
      detectDistance: 0,
      gravity: 0.01068115234375,
      speed: 4,
      speedV: 0,
      distribution: 0.030517578125,
      blowAway: 0.05,
      bounce: 0,
      hitDamage: 4,
      wormExplode: false,
      explGround: false,
      wormDestroy: true,
      bloodOnHit: 5,
      startFrame: 0,
      numFrames: 0,
      drawOnMap: false,
      colorBullets: 3,
      createOnExp: -1,
      affectByExplosions: false,
      dirtEffect: -1,
      splinterAmount: 1,
      splinterColour: 67,
      splinterType: 20,
      bloodTrail: false,
      bloodTrailDelay: 0,
      leaveObj: -1,
      leaveObjDelay: 0,
      timeToExplo: 15,
      timeToExploV: 0,
    },
    {
      detectDistance: 0,
      gravity: 0.01068115234375,
      speed: 1,
      speedV: 0.1,
      distribution: 0.0001,
      blowAway: 0.05,
      bounce: 0,
      hitDamage: 6,
      wormExplode: false,
      explGround: false,
      wormDestroy: true,
      bloodOnHit: 5,
      startFrame: 0,
      numFrames: 0,
      drawOnMap: false,
      colorBullets: 67,
      createOnExp: -1,
      affectByExplosions: false,
      dirtEffect: -1,
      splinterAmount: 0,
      splinterColour: 0,
      splinterType: -1,
      bloodTrail: false,
      bloodTrailDelay: 0,
      leaveObj: -1,
      leaveObjDelay: 0,
      timeToExplo: 5,
      timeToExploV: 0,
    },
    {
      detectDistance: 0,
      gravity: 0,
      speed: 1,
      speedV: 0,
      distribution: 0.3,
      blowAway: 0,
      bounce: 0,
      hitDamage: 0,
      wormExplode: false,
      explGround: false,
      wormDestroy: false,
      bloodOnHit: 0,
      startFrame: 0,
      numFrames: 0,
      drawOnMap: false,
      colorBullets: 67,
      createOnExp: -1,
      affectByExplosions: false,
      dirtEffect: -1,
      splinterAmount: 10,
      splinterColour: 3,
      splinterType: 4,
      bloodTrail: false,
      bloodTrailDelay: 0,
      leaveObj: -1,
      leaveObjDelay: 0,
      timeToExplo: 5,
      timeToExploV: 2,
    },
    {
      detectDistance: 1,
      gravity: 0.0152587890625,
      speed: 1.2,
      speedV: 0.4,
      distribution: 0.152587890625,
      blowAway: 0,
      bounce: 0.4,
      hitDamage: 1,
      wormExplode: true,
      explGround: false,
      wormDestroy: true,
      bloodOnHit: 0,
      startFrame: 239,
      numFrames: 0,
      drawOnMap: false,
      colorBullets: 0,
      createOnExp: 1,
      affectByExplosions: true,
      dirtEffect: -1,
      splinterAmount: 1,
      splinterColour: 0,
      splinterType: 23,
      bloodTrail: false,
      bloodTrailDelay: 0,
      leaveObj: -1,
      leaveObjDelay: 0,
      timeToExplo: 70,
      timeToExploV: 60,
    },
    {
      detectDistance: 1,
      gravity: 0.0152587890625,
      speed: 1.2,
      speedV: 0.4,
      distribution: 0.152587890625,
      blowAway: 0,
      bounce: 0.4,
      hitDamage: 1,
      wormExplode: true,
      explGround: false,
      wormDestroy: true,
      bloodOnHit: 0,
      startFrame: 239,
      numFrames: 0,
      drawOnMap: false,
      colorBullets: 0,
      createOnExp: 10,
      affectByExplosions: true,
      dirtEffect: -1,
      splinterAmount: 0,
      splinterColour: 0,
      splinterType: -1,
      bloodTrail: false,
      bloodTrailDelay: 0,
      leaveObj: -1,
      leaveObjDelay: 0,
      timeToExplo: 70,
      timeToExploV: 60,
    },
    {
      detectDistance: 1,
      gravity: 0,
      speed: 5,
      speedV: 0.05,
      distribution: 0.030517578125,
      blowAway: -0.1,
      bounce: 0,
      hitDamage: 2.2,
      wormExplode: true,
      explGround: true,
      wormDestroy: false,
      bloodOnHit: 0,
      startFrame: 0,
      numFrames: 0,
      drawOnMap: false,
      colorBullets: 4,
      createOnExp: 18,
      affectByExplosions: false,
      dirtEffect: 2,
      splinterAmount: 0,
      splinterColour: 0,
      splinterType: -1,
      bloodTrail: false,
      bloodTrailDelay: 0,
      leaveObj: -1,
      leaveObjDelay: 0,
      timeToExplo: 8,
      timeToExploV: 0,
    },
    {
      detectDistance: 0,
      gravity: 0,
      speed: 3,
      speedV: 3,
      distribution: 0,
      blowAway: 0,
      bounce: 0,
      hitDamage: 0,
      wormExplode: false,
      explGround: true,
      wormDestroy: false,
      bloodOnHit: 0,
      startFrame: 0,
      numFrames: 0,
      drawOnMap: false,
      colorBullets: 0,
      createOnExp: 14,
      affectByExplosions: false,
      dirtEffect: -1,
      splinterAmount: 4,
      splinterColour: 0,
      splinterType: 17,
      bloodTrail: false,
      bloodTrailDelay: 0,
      leaveObj: -1,
      leaveObjDelay: 0,
      timeToExplo: 2,
      timeToExploV: 2,
    },
    {
      detectDistance: 1,
      gravity: -0.05,
      speed: 0,
      speedV: 0,
      distribution: 0.5,
      blowAway: 0,
      bounce: 0.2,
      hitDamage: 0.1,
      wormExplode: false,
      explGround: false,
      wormDestroy: false,
      bloodOnHit: 0,
      startFrame: 65,
      numFrames: 3,
      drawOnMap: false,
      colorBullets: 0,
      createOnExp: -1,
      affectByExplosions: false,
      dirtEffect: -1,
      splinterAmount: 0,
      splinterColour: 0,
      splinterType: 0,
      bloodTrail: false,
      bloodTrailDelay: 0,
      leaveObj: -1,
      leaveObjDelay: 0,
      timeToExplo: 15,
      timeToExploV: 10,
    },
    {
      detectDistance: 0,
      gravity: 0.01068115234375,
      speed: 8,
      speedV: 0,
      distribution: 0.030517578125,
      blowAway: 0.10000000149011612,
      bounce: 0,
      hitDamage: 0,
      wormExplode: true,
      explGround: true,
      wormDestroy: true,
      bloodOnHit: 1,
      startFrame: -1,
      numFrames: 0,
      drawOnMap: false,
      colorBullets: 0,
      createOnExp: -1,
      affectByExplosions: false,
      dirtEffect: 6,
      splinterAmount: 1,
      splinterColour: 0,
      splinterType: 28,
      bloodTrail: false,
      bloodTrailDelay: 0,
      leaveObj: -1,
      leaveObjDelay: 0,
      timeToExplo: 1,
      timeToExploV: 0,
    },
    {
      detectDistance: 15,
      gravity: 0,
      speed: 4,
      speedV: 4,
      distribution: 0,
      blowAway: 0,
      bounce: 0.4000000059604645,
      hitDamage: 0,
      wormExplode: false,
      explGround: false,
      wormDestroy: false,
      bloodOnHit: 0,
      startFrame: -1,
      numFrames: 0,
      drawOnMap: false,
      colorBullets: 0,
      createOnExp: -1,
      affectByExplosions: true,
      dirtEffect: 0,
      splinterAmount: 0,
      splinterColour: 0,
      splinterType: -1,
      bloodTrail: false,
      bloodTrailDelay: 0,
      leaveObj: -1,
      leaveObjDelay: 0,
      timeToExplo: 2,
      timeToExploV: 0,
    },
    {
      detectDistance: 12,
      gravity: 0,
      speed: 5,
      speedV: 1.4,
      distribution: 2,
      blowAway: 0,
      bounce: 0,
      hitDamage: 0,
      wormExplode: false,
      explGround: false,
      wormDestroy: true,
      bloodOnHit: 15,
      startFrame: 193,
      numFrames: 0,
      drawOnMap: false,
      colorBullets: 68,
      createOnExp: 25,
      affectByExplosions: true,
      dirtEffect: 0,
      splinterAmount: 50,
      splinterColour: 66,
      splinterType: 15,
      bloodTrail: false,
      bloodTrailDelay: 0,
      leaveObj: -1,
      leaveObjDelay: 0,
      timeToExplo: 1,
      timeToExploV: 0,
    },
    {
      detectDistance: 2,
      gravity: 0.010681152,
      speed: 5,
      speedV: 1.6,
      distribution: 0.030517578,
      blowAway: 0.01,
      bounce: 0,
      hitDamage: 100,
      wormExplode: false,
      explGround: true,
      wormDestroy: true,
      bloodOnHit: 1,
      startFrame: 0,
      numFrames: 0,
      drawOnMap: false,
      colorBullets: 67,
      createOnExp: 26,
      affectByExplosions: false,
      dirtEffect: -1,
      splinterAmount: 0,
      splinterColour: 0,
      splinterType: -1,
      bloodTrail: false,
      bloodTrailDelay: 0,
      leaveObj: -1,
      leaveObjDelay: 0,
      timeToExplo: 9,
      timeToExploV: 0,
    },
    {
      detectDistance: 2,
      gravity: 0,
      speed: 5.6,
      speedV: 0,
      distribution: 0.42517578125,
      blowAway: 0.2,
      bounce: 0.6,
      hitDamage: 0,
      wormExplode: false,
      explGround: false,
      wormDestroy: true,
      bloodOnHit: 40,
      startFrame: 177,
      numFrames: 0,
      drawOnMap: false,
      colorBullets: 0,
      createOnExp: 27,
      affectByExplosions: true,
      dirtEffect: -1,
      splinterAmount: 10,
      splinterColour: 3,
      splinterType: 5,
      bloodTrail: false,
      bloodTrailDelay: 0,
      leaveObj: 5,
      leaveObjDelay: 5,
      timeToExplo: 120,
      timeToExploV: 0,
    },
    {
      detectDistance: 1,
      gravity: 0,
      speed: 0,
      speedV: 0,
      distribution: 0,
      blowAway: 0,
      bounce: -1,
      hitDamage: 0,
      wormExplode: false,
      explGround: false,
      wormDestroy: false,
      bloodOnHit: 0,
      startFrame: -1,
      numFrames: 0,
      drawOnMap: true,
      colorBullets: 107,
      createOnExp: 28,
      affectByExplosions: false,
      dirtEffect: -1,
      splinterAmount: 0,
      splinterColour: 15,
      splinterType: -1,
      bloodTrail: false,
      bloodTrailDelay: 0,
      leaveObj: -1,
      leaveObjDelay: 0,
      timeToExplo: 22,
      timeToExploV: 0,
    },
  ],
  sObjects: [
    {
      startSound: 9,
      numSounds: 4,
      animDelay: 2,
      startFrame: 40,
      numFrames: 15,
      detectRange: 4,
      damage: 0,
      blowAway: 0.435,
      shadow: true,
      shake: 4,
      flash: 8,
      dirtEffect: 2,
    },
    {
      startSound: 9,
      numSounds: 4,
      animDelay: 2,
      startFrame: 45,
      numFrames: 10,
      detectRange: 14,
      damage: 10,
      blowAway: 0.035,
      shadow: true,
      shake: 2,
      flash: 4,
      dirtEffect: 1,
    },
    {
      startSound: 7,
      numSounds: 2,
      animDelay: 2,
      startFrame: 50,
      numFrames: 5,
      detectRange: 8,
      damage: 0.1,
      blowAway: 0.035,
      shadow: true,
      shake: 1,
      flash: 0,
      dirtEffect: -1,
    },
    {
      startSound: -1,
      numSounds: 0,
      animDelay: 4,
      startFrame: 64,
      numFrames: 4,
      detectRange: 0,
      damage: 0,
      blowAway: 0,
      shadow: false,
      shake: 0,
      flash: 0,
      dirtEffect: -1,
    },
    {
      startSound: -1,
      numSounds: 0,
      animDelay: 4,
      startFrame: 100,
      numFrames: 3,
      detectRange: 0,
      damage: 0,
      blowAway: 0,
      shadow: true,
      shake: 0,
      flash: 0,
      dirtEffect: 5,
    },
    {
      startSound: -1,
      numSounds: 0,
      animDelay: 2,
      startFrame: 104,
      numFrames: 3,
      detectRange: 0,
      damage: 0,
      blowAway: 0,
      shadow: false,
      shake: 0,
      flash: 0,
      dirtEffect: -1,
    },
    {
      startSound: -1,
      numSounds: 0,
      animDelay: 2,
      startFrame: 76,
      numFrames: 2,
      detectRange: 0,
      damage: 0,
      blowAway: 0,
      shadow: true,
      shake: 0,
      flash: 0,
      dirtEffect: -1,
    },
    {
      startSound: -1,
      numSounds: 0,
      animDelay: 2,
      startFrame: 91,
      numFrames: 4,
      detectRange: 0,
      damage: 0,
      blowAway: 0,
      shadow: true,
      shake: 0,
      flash: 0,
      dirtEffect: -1,
    },
    {
      startSound: -1,
      numSounds: 0,
      animDelay: 2,
      startFrame: 49,
      numFrames: 6,
      detectRange: 8,
      damage: 0,
      blowAway: 0,
      shadow: true,
      shake: 0,
      flash: 0,
      dirtEffect: -1,
    },
    {
      startSound: -1,
      numSounds: 0,
      animDelay: 2,
      startFrame: 53,
      numFrames: 2,
      detectRange: 6,
      damage: 0,
      blowAway: 0,
      shadow: true,
      shake: 0,
      flash: 0,
      dirtEffect: 5,
    },
    {
      startSound: 9,
      numSounds: 4,
      animDelay: 2,
      startFrame: 47,
      numFrames: 8,
      detectRange: 10,
      damage: 8,
      blowAway: 0.0457763671875,
      shadow: true,
      shake: 2,
      flash: 3,
      dirtEffect: 8,
    },
    {
      startSound: 9,
      numSounds: 4,
      animDelay: 2,
      startFrame: 42,
      numFrames: 13,
      detectRange: 15,
      damage: 13,
      blowAway: 0.0457763671875,
      shadow: true,
      shake: 3,
      flash: 6,
      dirtEffect: 1,
    },
    {
      startSound: 9,
      numSounds: 4,
      animDelay: 2,
      startFrame: 44,
      numFrames: 11,
      detectRange: 14,
      damage: 12,
      blowAway: 0.0457763671875,
      shadow: true,
      shake: 3,
      flash: 5,
      dirtEffect: 1,
    },
    {
      startSound: -1,
      numSounds: 0,
      animDelay: 0,
      startFrame: 0,
      numFrames: 0,
      detectRange: 0,
      damage: 0,
      blowAway: 1.0039215087890625,
      shadow: false,
      shake: 0,
      flash: 0,
      dirtEffect: -1,
    },
    {
      startSound: -1,
      numSounds: 0,
      animDelay: 2,
      startFrame: 40,
      numFrames: 15,
      detectRange: 0,
      damage: 0,
      blowAway: 0,
      shadow: true,
      shake: 0,
      flash: 0,
      dirtEffect: -1,
    },
    {
      startSound: -1,
      numSounds: 0,
      animDelay: 4,
      startFrame: 65,
      numFrames: 3,
      detectRange: 0,
      damage: 0,
      blowAway: 0,
      shadow: false,
      shake: 0,
      flash: 0,
      dirtEffect: -1,
    },
    {
      startSound: 9,
      numSounds: 4,
      animDelay: 2,
      startFrame: 40,
      numFrames: 15,
      detectRange: 5,
      damage: 0,
      blowAway: 0.04,
      shadow: true,
      shake: 4,
      flash: 8,
      dirtEffect: 0,
    },
    {
      startSound: 9,
      numSounds: 4,
      animDelay: 2,
      startFrame: 45,
      numFrames: 10,
      detectRange: 15,
      damage: 0,
      blowAway: 0.0457763671875,
      shadow: true,
      shake: 2,
      flash: 4,
      dirtEffect: 1,
    },
    {
      startSound: -1,
      numSounds: 0,
      animDelay: 10,
      startFrame: 76,
      numFrames: 2,
      detectRange: 0,
      damage: 0,
      blowAway: 0,
      shadow: false,
      shake: 0,
      flash: 0,
      dirtEffect: -1,
    },
    {
      startSound: -1,
      numSounds: 0,
      animDelay: 3,
      startFrame: 65,
      numFrames: 3,
      detectRange: 0,
      damage: 0,
      blowAway: 0,
      shadow: false,
      shake: 0,
      flash: 0,
      dirtEffect: -1,
    },
    {
      startSound: 9,
      numSounds: 4,
      animDelay: 2,
      startFrame: 40,
      numFrames: 15,
      detectRange: 27,
      damage: 75,
      blowAway: 0.04,
      shadow: true,
      shake: 4,
      flash: 8,
      dirtEffect: 0,
    },
    {
      startSound: -1,
      numSounds: 0,
      animDelay: 1,
      startFrame: 76,
      numFrames: 1,
      detectRange: 0,
      damage: 0,
      blowAway: 0,
      shadow: true,
      shake: 0,
      flash: 0,
      dirtEffect: -1,
    },
    {
      startSound: 9,
      numSounds: 4,
      animDelay: 2,
      startFrame: 40,
      numFrames: 15,
      detectRange: 21,
      damage: 60,
      blowAway: 0.085,
      shadow: true,
      shake: 4,
      flash: 8,
      dirtEffect: 0,
    },
    {
      startSound: 9,
      numSounds: 4,
      animDelay: 2,
      startFrame: 40,
      numFrames: 15,
      detectRange: 26,
      damage: 999,
      blowAway: 0.08,
      shadow: true,
      shake: 4,
      flash: 8,
      dirtEffect: 0,
    },
    {
      startSound: 9,
      numSounds: 4,
      animDelay: 2,
      startFrame: 40,
      numFrames: 15,
      detectRange: 32,
      damage: 85,
      blowAway: 0.04,
      shadow: true,
      shake: 4,
      flash: 8,
      dirtEffect: 0,
    },
    {
      startSound: 9,
      numSounds: 4,
      animDelay: 2,
      startFrame: 40,
      numFrames: 15,
      detectRange: 52,
      damage: 121,
      blowAway: 0.11,
      shadow: true,
      shake: 4,
      flash: 8,
      dirtEffect: 0,
    },
    {
      startSound: 7,
      numSounds: 2,
      animDelay: 2,
      startFrame: 50,
      numFrames: 5,
      detectRange: 8,
      damage: 0,
      blowAway: 0.045776367,
      shadow: true,
      shake: 1,
      flash: 0,
      dirtEffect: -1,
    },
    {
      startSound: 9,
      numSounds: 4,
      animDelay: 2,
      startFrame: 40,
      numFrames: 15,
      detectRange: 15,
      damage: 45,
      blowAway: 0.435,
      shadow: true,
      shake: 4,
      flash: 8,
      dirtEffect: 0,
    },
    {
      startSound: 7,
      numSounds: 2,
      animDelay: 0,
      startFrame: 50,
      numFrames: 5,
      detectRange: 8,
      damage: 100,
      blowAway: 0.1,
      shadow: true,
      shake: 1,
      flash: 0,
      dirtEffect: -1,
    },
  ],
  textures: [
    {
      nDrawBack: true,
      mFrame: 0,
      sFrame: 73,
      rFrame: 2,
    },
    {
      nDrawBack: true,
      mFrame: 1,
      sFrame: 73,
      rFrame: 2,
    },
    {
      nDrawBack: true,
      mFrame: 2,
      sFrame: 73,
      rFrame: 2,
    },
    {
      nDrawBack: true,
      mFrame: 37,
      sFrame: 73,
      rFrame: 2,
    },
    {
      nDrawBack: false,
      mFrame: 0,
      sFrame: 87,
      rFrame: 2,
    },
    {
      nDrawBack: true,
      mFrame: 39,
      sFrame: 73,
      rFrame: 2,
    },
    {
      nDrawBack: false,
      mFrame: 38,
      sFrame: 82,
      rFrame: 2,
    },
    {
      nDrawBack: true,
      mFrame: 99,
      sFrame: 73,
      rFrame: 2,
    },
    {
      nDrawBack: true,
      mFrame: 37,
      sFrame: 73,
      rFrame: 2,
    },
  ],
  colorAnim: [
    129,
    131,
    133,
    136,
    152,
    159,
    168,
    171,
  ],
  textSpritesStartIdx: 240,
  crossHairSprite: 153,
}
