{
  "constants":
  {
    "nrInitialLength": 250,
    "nrAttachLength": 28.125,
    "minBounceUp": -0.8125,
    "minBounceDown": 0.8125,
    "minBounceHoriz": 0.8125,
    "wormGravity": 0.02593994140625,
    "wormAcc": 0.4999847412109375,
    "wormMaxVel": 0.4453125,
    "jumpForce": 1.0986328125,
    "maxAimVel": 0.05243098363280296,
    "aimAcc": 0.002996056340634823,
    "ninjaropeGravity": 0.0000152587890625,
    "nrMinLength": 0.625,
    "nrMaxLength": 2047.9375,
    "bonusGravity": 0.02288818359375,
    "wormFricMult": 0.800000011920929,
    "aimFric": 0.8299999833106995,
    "nrThrowVel": 8,
    "nrForce": 0.0833333358168602,
    "bonusBounce": 0.4000000059604645,
    "bonusFlickerTime": 220,
    "aimMaxAngle": 1.5707963705062866,
    "aimMinAngle": -1.5217089653015137,
    "nrAdjustVel": 1.5,
    "nrColourBegin": 19,
    "nrColourEnd": 30,
    "bonusExplodeRisk": 10,
    "bonusHealthVar": 51,
    "bonusMinHealth": 10,
    "firstBloodColour": 104,
    "numBloodColours": 3,
    "bObjGravity": 0.03814697265625,
    "splinterLarpaVelDiv": 3,
    "splinterCracklerVelDiv": 3,
    "fallDamageHoriz": 0,
    "fallDamageDown": 0,
    "fallDamageUp": 0,
    "hFallDamage": true,
    "hBonusReloadOnly": false
  },
  "weapons":
  [
    {
      "parts": 17,
      "bulletType": 0,
      "bulletSpeed": 3,
      "bulletSpeedInherit": 0,
      "distribution": 0.30517578125,
      "recoil": 0.03999999910593033,
      "ammo": 1,
      "delay": 30,
      "loadingTime": 290,
      "leaveShells": 0,
      "leaveShellDelay": 28,
      "fireCone": 9,
      "laserSight": false,
      "laserBeam": false,
      "launchSound": 0,
      "playReloadSound": true,
      "name": "GUN",
      "id": 0,
      "reloadSound": -1
    },
    {
      "parts": 1,
      "bulletType": 1,
      "bulletSpeed": 4.5,
      "bulletSpeedInherit": 0,
      "distribution": 0.0396728515625,
      "recoil": 0.25,
      "ammo": 16,
      "delay": 2,
      "loadingTime": 180,
      "leaveShells": 2,
      "leaveShellDelay": 1,
      "fireCone": 6,
      "laserSight": false,
      "laserBeam": false,
      "launchSound": 1,
      "playReloadSound": true,
      "name": "UZI",
      "id": 1,
      "reloadSound": -1
    },
    {
      "parts": 1,
      "bulletType": 2,
      "bulletSpeed": 2.5,
      "bulletSpeedInherit": 0.4000000059604645,
      "distribution": 0,
      "recoil": 0.15000000596046448,
      "ammo": 2,
      "delay": 50,
      "loadingTime": 300,
      "leaveShells": 0,
      "leaveShellDelay": 1,
      "fireCone": 0,
      "laserSight": false,
      "laserBeam": false,
      "launchSound": 5,
      "playReloadSound": true,
      "name": "HAMMERFALL",
      "id": 2,
      "reloadSound": -1
    },
    {
      "parts": 1,
      "bulletType": 3,
      "bulletSpeed": 3.4000000953674316,
      "bulletSpeedInherit": 0,
      "distribution": 0.0274658203125,
      "recoil": 0.15000000596046448,
      "ammo": 5,
      "delay": 26,
      "loadingTime": 335,
      "leaveShells": 0,
      "leaveShellDelay": 1,
      "fireCone": 9,
      "laserSight": false,
      "laserBeam": false,
      "launchSound": 3,
      "playReloadSound": true,
      "name": "MISSILES",
      "id": 3,
      "reloadSound": -1
    },
    {
      "parts": 1,
      "bulletType": 4,
      "bulletSpeed": 2.4000000953674316,
      "bulletSpeedInherit": 0.4166666567325592,
      "distribution": 0.000152587890625,
      "recoil": 0,
      "ammo": 1,
      "delay": 10,
      "loadingTime": 280,
      "leaveShells": 0,
      "leaveShellDelay": 1,
      "fireCone": 0,
      "laserSight": false,
      "laserBeam": false,
      "launchSound": 4,
      "playReloadSound": true,
      "name": "NAPALM",
      "id": 4,
      "reloadSound": -1
    },
    {
      "parts": 2,
      "bulletType": 5,
      "bulletSpeed": 2.200000047683716,
      "bulletSpeedInherit": 0.45454543828964233,
      "distribution": 0.244140625,
      "recoil": 0,
      "ammo": 2,
      "delay": 10,
      "loadingTime": 250,
      "leaveShells": 0,
      "leaveShellDelay": 1,
      "fireCone": 0,
      "laserSight": false,
      "laserBeam": false,
      "launchSound": 5,
      "playReloadSound": false,
      "name": "BANANAS",
      "id": 5,
      "reloadSound": -1
    },
    {
      "parts": 1,
      "bulletType": 6,
      "bulletSpeed": 4.5,
      "bulletSpeedInherit": 0.2222222238779068,
      "distribution": 0.1220703125,
      "recoil": 0,
      "ammo": 3,
      "delay": 35,
      "loadingTime": 350,
      "leaveShells": 0,
      "leaveShellDelay": 1,
      "fireCone": 0,
      "laserSight": false,
      "laserBeam": false,
      "launchSound": 5,
      "playReloadSound": false,
      "name": "MINE",
      "id": 6,
      "reloadSound": -1
    },
    {
      "parts": 1,
      "bulletType": 7,
      "bulletSpeed": 6,
      "bulletSpeedInherit": 0,
      "distribution": 0.00762939453125,
      "recoil": 0.10000000149011612,
      "ammo": 11,
      "delay": 9,
      "loadingTime": 340,
      "leaveShells": 0,
      "leaveShellDelay": 1,
      "fireCone": 12,
      "laserSight": false,
      "laserBeam": false,
      "launchSound": 4,
      "playReloadSound": true,
      "name": "PLASMA GUN",
      "id": 7,
      "reloadSound": -1
    },
    {
      "parts": 3,
      "bulletType": 8,
      "bulletSpeed": 2.299999952316284,
      "bulletSpeedInherit": 0,
      "distribution": 0.04119873046875,
      "recoil": 0.10000000149011612,
      "ammo": 9,
      "delay": 10,
      "loadingTime": 360,
      "leaveShells": 0,
      "leaveShellDelay": 1,
      "fireCone": 8,
      "laserSight": false,
      "laserBeam": false,
      "launchSound": 6,
      "playReloadSound": true,
      "name": "DOOMSDAY",
      "id": 8,
      "reloadSound": -1
    },
    {
      "parts": 18,
      "bulletType": 9,
      "bulletSpeed": 1.899999976158142,
      "bulletSpeedInherit": 0.5263158082962036,
      "distribution": 0.244140625,
      "recoil": 0.4000000059604645,
      "ammo": 1,
      "delay": 35,
      "loadingTime": 390,
      "leaveShells": 0,
      "leaveShellDelay": 1,
      "fireCone": 10,
      "laserSight": false,
      "laserBeam": false,
      "launchSound": 18,
      "playReloadSound": false,
      "name": "FROG RAIN",
      "id": 9,
      "reloadSound": -1
    },
    {
      "parts": 1,
      "bulletType": 10,
      "bulletSpeed": 2.799999952316284,
      "bulletSpeedInherit": 0.3571428656578064,
      "distribution": 0.1068115234375,
      "recoil": 0,
      "ammo": 1,
      "delay": 3,
      "loadingTime": 330,
      "leaveShells": 0,
      "leaveShellDelay": 1,
      "fireCone": 0,
      "laserSight": false,
      "laserBeam": false,
      "launchSound": 5,
      "playReloadSound": false,
      "name": "FALLING STARS",
      "id": 10,
      "reloadSound": -1
    },
    {
      "parts": 1,
      "bulletType": 11,
      "bulletSpeed": 2.4000000953674316,
      "bulletSpeedInherit": 0.4166666567325592,
      "distribution": 0,
      "recoil": 0.30000001192092896,
      "ammo": 4,
      "delay": 25,
      "loadingTime": 380,
      "leaveShells": 0,
      "leaveShellDelay": 1,
      "fireCone": 7,
      "laserSight": false,
      "laserBeam": false,
      "launchSound": 6,
      "playReloadSound": true,
      "name": "LARPA",
      "id": 11,
      "reloadSound": -1
    },
    {
      "parts": 1,
      "bulletType": 12,
      "bulletSpeed": 2.299999952316284,
      "bulletSpeedInherit": 0.43478262424468994,
      "distribution": 0,
      "recoil": 0.20000000298023224,
      "ammo": 4,
      "delay": 22,
      "loadingTime": 390,
      "leaveShells": 0,
      "leaveShellDelay": 1,
      "fireCone": 5,
      "laserSight": false,
      "laserBeam": false,
      "launchSound": 4,
      "playReloadSound": true,
      "name": "MROCK",
      "id": 12,
      "reloadSound": -1
    },
    {
      "parts": 2,
      "bulletType": 13,
      "bulletSpeed": 3.5,
      "bulletSpeedInherit": 0.2857142984867096,
      "distribution": 0.152587890625,
      "recoil": 0,
      "ammo": 2,
      "delay": 25,
      "loadingTime": 260,
      "leaveShells": 0,
      "leaveShellDelay": 1,
      "fireCone": 0,
      "laserSight": false,
      "laserBeam": false,
      "launchSound": 5,
      "playReloadSound": false,
      "name": "CLAWS",
      "id": 13,
      "reloadSound": -1
    },
    {
      "parts": 1,
      "bulletType": 14,
      "bulletSpeed": 6,
      "bulletSpeedInherit": 0,
      "distribution": 0.1678466796875,
      "recoil": 0.11999999731779099,
      "ammo": 39,
      "delay": 0,
      "loadingTime": 390,
      "leaveShells": 1,
      "leaveShellDelay": 1,
      "fireCone": 15,
      "laserSight": false,
      "laserBeam": false,
      "launchSound": 4,
      "playReloadSound": true,
      "name": "MINIGUN",
      "id": 14,
      "reloadSound": -1
    },
    {
      "parts": 2,
      "bulletType": 15,
      "bulletSpeed": 2,
      "bulletSpeedInherit": 0.5,
      "distribution": 0.1068115234375,
      "recoil": 0,
      "ammo": 1,
      "delay": 3,
      "loadingTime": 370,
      "leaveShells": 0,
      "leaveShellDelay": 1,
      "fireCone": 0,
      "laserSight": false,
      "laserBeam": false,
      "launchSound": 5,
      "playReloadSound": false,
      "name": "CLUSTER BOMBS",
      "id": 15,
      "reloadSound": -1
    },
    {
      "parts": 55,
      "bulletType": 16,
      "bulletSpeed": 3.9000000953674316,
      "bulletSpeedInherit": 0.25641024112701416,
      "distribution": 0.3509521484375,
      "recoil": 1.7000000476837158,
      "ammo": 2,
      "delay": 40,
      "loadingTime": 350,
      "leaveShells": 1,
      "leaveShellDelay": 28,
      "fireCone": 10,
      "laserSight": true,
      "laserBeam": false,
      "launchSound": 0,
      "playReloadSound": true,
      "name": "SUPER SHOTGUN",
      "id": 16,
      "reloadSound": -1
    },
    {
      "parts": 1,
      "bulletType": 17,
      "bulletSpeed": 1.7999999523162842,
      "bulletSpeedInherit": 0.5555555820465088,
      "distribution": 0,
      "recoil": 0.05000000074505806,
      "ammo": 1,
      "delay": 5,
      "loadingTime": 480,
      "leaveShells": 0,
      "leaveShellDelay": 1,
      "fireCone": 150,
      "laserSight": false,
      "laserBeam": false,
      "launchSound": 1,
      "playReloadSound": true,
      "name": "PIGEON",
      "id": 17,
      "reloadSound": -1
    },
    {
      "parts": 1,
      "bulletType": 18,
      "bulletSpeed": 3.5,
      "bulletSpeedInherit": 0,
      "distribution": 0,
      "recoil": 1.100000023841858,
      "ammo": 1,
      "delay": 1,
      "loadingTime": 350,
      "leaveShells": 1,
      "leaveShellDelay": 1,
      "fireCone": 8,
      "laserSight": false,
      "laserBeam": false,
      "launchSound": 29,
      "playReloadSound": true,
      "name": "MORTAR",
      "id": 18,
      "reloadSound": -1
    },
    {
      "parts": 1,
      "bulletType": 19,
      "bulletSpeed": 1.7000000476837158,
      "bulletSpeedInherit": 0.5882352590560913,
      "distribution": 0.030517578125,
      "recoil": 0,
      "ammo": 1,
      "delay": 3,
      "loadingTime": 620,
      "leaveShells": 0,
      "leaveShellDelay": 1,
      "fireCone": 0,
      "laserSight": false,
      "laserBeam": false,
      "launchSound": 5,
      "playReloadSound": false,
      "name": "VERY BIG NUKE",
      "id": 19,
      "reloadSound": -1
    },
    {
      "parts": 1,
      "bulletType": 20,
      "bulletSpeed": 2,
      "bulletSpeedInherit": 0.5,
      "distribution": 0.0152587890625,
      "recoil": 0.15000000596046448,
      "ammo": 2,
      "delay": 30,
      "loadingTime": 300,
      "leaveShells": 0,
      "leaveShellDelay": 1,
      "fireCone": 0,
      "laserSight": false,
      "laserBeam": false,
      "launchSound": 5,
      "playReloadSound": true,
      "name": "ZIMM",
      "id": 20,
      "reloadSound": -1
    },
    {
      "parts": 1,
      "bulletType": 21,
      "bulletSpeed": 2,
      "bulletSpeedInherit": 0.5,
      "distribution": 0,
      "recoil": 0,
      "ammo": 1,
      "delay": 12,
      "loadingTime": 390,
      "leaveShells": 0,
      "leaveShellDelay": 1,
      "fireCone": 0,
      "laserSight": false,
      "laserBeam": false,
      "launchSound": 6,
      "playReloadSound": true,
      "name": "TOFFA BALL",
      "id": 21,
      "reloadSound": -1
    },
    {
      "parts": 1,
      "bulletType": 22,
      "bulletSpeed": 1.600000023841858,
      "bulletSpeedInherit": 0.625,
      "distribution": 0.0457763671875,
      "recoil": 0.20000000298023224,
      "ammo": 3,
      "delay": 22,
      "loadingTime": 450,
      "leaveShells": 0,
      "leaveShellDelay": 1,
      "fireCone": 0,
      "laserSight": false,
      "laserBeam": false,
      "launchSound": 5,
      "playReloadSound": false,
      "name": "MINI NUKES",
      "id": 22,
      "reloadSound": -1
    },
    {
      "parts": 1,
      "bulletType": 23,
      "bulletSpeed": 2.200000047683716,
      "bulletSpeedInherit": 0.45454543828964233,
      "distribution": 0.213623046875,
      "recoil": 0,
      "ammo": 4,
      "delay": 20,
      "loadingTime": 270,
      "leaveShells": 0,
      "leaveShellDelay": 1,
      "fireCone": 0,
      "laserSight": false,
      "laserBeam": false,
      "launchSound": 5,
      "playReloadSound": true,
      "name": "FLOAT MINE",
      "id": 23,
      "reloadSound": -1
    },
    {
      "parts": 3,
      "bulletType": 24,
      "bulletSpeed": 2.0999999046325684,
      "bulletSpeedInherit": 0.4761905074119568,
      "distribution": 0.18310546875,
      "recoil": 0.009999999776482582,
      "ammo": 69,
      "delay": 0,
      "loadingTime": 240,
      "leaveShells": 0,
      "leaveShellDelay": 1,
      "fireCone": 0,
      "laserSight": false,
      "laserBeam": false,
      "launchSound": -1,
      "playReloadSound": false,
      "name": "WHITE MAGIC",
      "id": 24,
      "reloadSound": -1
    },
    {
      "parts": 4,
      "bulletType": 25,
      "bulletSpeed": 2.299999952316284,
      "bulletSpeedInherit": 0.43478262424468994,
      "distribution": 0.18310546875,
      "recoil": 0.009999999776482582,
      "ammo": 22,
      "delay": 1,
      "loadingTime": 320,
      "leaveShells": 0,
      "leaveShellDelay": 1,
      "fireCone": 3,
      "laserSight": false,
      "laserBeam": false,
      "launchSound": 5,
      "playReloadSound": true,
      "name": "HONEY",
      "id": 25,
      "reloadSound": -1
    },
    {
      "parts": 1,
      "bulletType": 26,
      "bulletSpeed": 3,
      "bulletSpeedInherit": 0.3333333432674408,
      "distribution": 0.00457763671875,
      "recoil": 0.10000000149011612,
      "ammo": 4,
      "delay": 35,
      "loadingTime": 330,
      "leaveShells": 0,
      "leaveShellDelay": 1,
      "fireCone": 8,
      "laserSight": false,
      "laserBeam": false,
      "launchSound": 11,
      "playReloadSound": true,
      "name": "MAD BEES",
      "id": 26,
      "reloadSound": -1
    },
    {
      "parts": 2,
      "bulletType": 27,
      "bulletSpeed": 1.5,
      "bulletSpeedInherit": 0.6666666865348816,
      "distribution": 0.1373291015625,
      "recoil": 0.10000000149011612,
      "ammo": 3,
      "delay": 25,
      "loadingTime": 310,
      "leaveShells": 0,
      "leaveShellDelay": 1,
      "fireCone": 7,
      "laserSight": false,
      "laserBeam": false,
      "launchSound": 6,
      "playReloadSound": true,
      "name": "DOUBLE LARPAS",
      "id": 27,
      "reloadSound": -1
    },
    {
      "parts": 14,
      "bulletType": 28,
      "bulletSpeed": 1.5,
      "bulletSpeedInherit": 0,
      "distribution": 0,
      "recoil": 0.30000001192092896,
      "ammo": 1,
      "delay": 1,
      "loadingTime": 400,
      "leaveShells": 0,
      "leaveShellDelay": 1,
      "fireCone": 0,
      "laserSight": true,
      "laserBeam": true,
      "launchSound": -1,
      "playReloadSound": true,
      "name": "GATLING LASER",
      "id": 28,
      "reloadSound": -1
    },
    {
      "parts": 9,
      "bulletType": 29,
      "bulletSpeed": 1.5,
      "bulletSpeedInherit": 0.6666666865348816,
      "distribution": 0.457763671875,
      "recoil": 0,
      "ammo": 1,
      "delay": 0,
      "loadingTime": 390,
      "leaveShells": 0,
      "leaveShellDelay": 1,
      "fireCone": 0,
      "laserSight": false,
      "laserBeam": false,
      "launchSound": 5,
      "playReloadSound": true,
      "name": "SPIKEBALLS",
      "id": 29,
      "reloadSound": -1
    },
    {
      "parts": 2,
      "bulletType": 30,
      "bulletSpeed": 1,
      "bulletSpeedInherit": 1,
      "distribution": 0.18310546875,
      "recoil": 0,
      "ammo": 39,
      "delay": 0,
      "loadingTime": 170,
      "leaveShells": 0,
      "leaveShellDelay": 1,
      "fireCone": 1,
      "laserSight": false,
      "laserBeam": false,
      "launchSound": -1,
      "playReloadSound": false,
      "name": "BLACK MAGIC",
      "id": 30,
      "reloadSound": -1
    },
    {
      "parts": 10,
      "bulletType": 31,
      "bulletSpeed": 3.0999999046325684,
      "bulletSpeedInherit": 0.3225806653499603,
      "distribution": 0.42724609375,
      "recoil": 0.10000000149011612,
      "ammo": 1,
      "delay": 0,
      "loadingTime": 290,
      "leaveShells": 0,
      "leaveShellDelay": 1,
      "fireCone": 1,
      "laserSight": false,
      "laserBeam": false,
      "launchSound": 1,
      "playReloadSound": true,
      "name": "MILKSWORD",
      "id": 31,
      "reloadSound": -1
    },
    {
      "parts": 10,
      "bulletType": 32,
      "bulletSpeed": 1.2000000476837158,
      "bulletSpeedInherit": 0,
      "distribution": 0.2593994140625,
      "recoil": 1,
      "ammo": 3,
      "delay": 40,
      "loadingTime": 350,
      "leaveShells": 0,
      "leaveShellDelay": 1,
      "fireCone": 1,
      "laserSight": false,
      "laserBeam": false,
      "launchSound": 3,
      "playReloadSound": true,
      "name": "HALO ROCKETS",
      "id": 32,
      "reloadSound": -1
    },
    {
      "parts": 1,
      "bulletType": 33,
      "bulletSpeed": 1.7000000476837158,
      "bulletSpeedInherit": 0.5882352590560913,
      "distribution": 0.1068115234375,
      "recoil": 0,
      "ammo": 1,
      "delay": 4,
      "loadingTime": 430,
      "leaveShells": 0,
      "leaveShellDelay": 1,
      "fireCone": 0,
      "laserSight": false,
      "laserBeam": false,
      "launchSound": 5,
      "playReloadSound": false,
      "name": "CHIQUITA BOMB",
      "id": 33,
      "reloadSound": -1
    },
    {
      "parts": 8,
      "bulletType": 34,
      "bulletSpeed": 5,
      "bulletSpeedInherit": 0,
      "distribution": 0.18310546875,
      "recoil": 0.5,
      "ammo": 5,
      "delay": 25,
      "loadingTime": 410,
      "leaveShells": 1,
      "leaveShellDelay": 1,
      "fireCone": 0,
      "laserSight": false,
      "laserBeam": false,
      "launchSound": -1,
      "playReloadSound": false,
      "name": "DESERT EAGLE",
      "id": 34,
      "reloadSound": -1
    },
    {
      "parts": 1,
      "bulletType": 35,
      "bulletSpeed": 1.100000023841858,
      "bulletSpeedInherit": 0.9090908765792847,
      "distribution": 0.0152587890625,
      "recoil": 0,
      "ammo": 1,
      "delay": 10,
      "loadingTime": 380,
      "leaveShells": 0,
      "leaveShellDelay": 1,
      "fireCone": 0,
      "laserSight": false,
      "laserBeam": false,
      "launchSound": 5,
      "playReloadSound": false,
      "name": "H H GRENADE",
      "id": 35,
      "reloadSound": -1
    },
    {
      "parts": 1,
      "bulletType": 36,
      "bulletSpeed": 0.009999999776482582,
      "bulletSpeedInherit": 0,
      "distribution": 0,
      "recoil": 0,
      "ammo": 1,
      "delay": 30,
      "loadingTime": 400,
      "leaveShells": 0,
      "leaveShellDelay": 1,
      "fireCone": 0,
      "laserSight": false,
      "laserBeam": false,
      "launchSound": 6,
      "playReloadSound": true,
      "name": "BULL DOZER",
      "id": 36,
      "reloadSound": -1
    },
    {
      "parts": 1,
      "bulletType": 37,
      "bulletSpeed": 2.299999952316284,
      "bulletSpeedInherit": 0,
      "distribution": 0.030517578125,
      "recoil": 0.05000000074505806,
      "ammo": 12,
      "delay": 5,
      "loadingTime": 290,
      "leaveShells": 0,
      "leaveShellDelay": 1,
      "fireCone": 0,
      "laserSight": false,
      "laserBeam": false,
      "launchSound": 5,
      "playReloadSound": false,
      "name": "DARTS",
      "id": 37,
      "reloadSound": -1
    },
    {
      "parts": 1,
      "bulletType": 38,
      "bulletSpeed": 3.0999999046325684,
      "bulletSpeedInherit": 0,
      "distribution": 0.0152587890625,
      "recoil": 2.549999952316284,
      "ammo": 1,
      "delay": 6,
      "loadingTime": 370,
      "leaveShells": 0,
      "leaveShellDelay": 1,
      "fireCone": 1,
      "laserSight": false,
      "laserBeam": false,
      "launchSound": 5,
      "playReloadSound": true,
      "name": "TONNA",
      "id": 38,
      "reloadSound": -1
    },
    {
      "parts": 5,
      "bulletType": 39,
      "bulletSpeed": 2.200000047683716,
      "bulletSpeedInherit": 0,
      "distribution": 0,
      "recoil": 1.600000023841858,
      "ammo": 1,
      "delay": 5,
      "loadingTime": 270,
      "leaveShells": 0,
      "leaveShellDelay": 1,
      "fireCone": 10,
      "laserSight": false,
      "laserBeam": false,
      "launchSound": 10,
      "playReloadSound": true,
      "name": "THUNDER GUN",
      "id": 39,
      "reloadSound": -1
    }
  ],
  "wObjects":
  [
    {
      // wid0 used in GUN
      "detectDistance": 0,
      "blowAway": 0.05999999865889549,
      "gravity": 0.00152587890625,
      "exploSound": -1,
      "addSpeed": 0,
      "distribution": 0.30517578125,
      "multSpeed": 1,
      "createOnExp": -1,
      "dirtEffect": -1,
      "wormExplode": true,
      "explGround": true,
      "wormCollide": true,
      "collideWithObjects": false,
      "affectByExplosions": false,
      "bounce": 0,
      "bounceFriction": 0.800000011920929,
      "timeToExplo": 1,
      "timeToExploV": 0,
      "hitDamage": 0,
      "bloodOnHit": 1,
      "startFrame": -1,
      "numFrames": 0,
      "loopAnim": false,
      "shotType": 0,
      "repeat": 1,
      "colorBullets": 75,
      "splinterAmount": 1,
      "splinterColour": 0,
      "splinterType": 23,
      "splinterScatter": 1,
      "objTrailType": -1,
      "objTrailDelay": 0,
      "partTrailType": 1,
      "partTrailObj": -1,
      "partTrailDelay": 0,
      "speed": 300,
      "id": 0,
      "name": "wid 0",
      "teamImmunity": 0
    },
    {
      // wid1 used in UZI
      "detectDistance": 2,
      "blowAway": 0.25,
      "gravity": 0.08392333984375,
      "exploSound": -1,
      "addSpeed": 0,
      "distribution": 0.0396728515625,
      "multSpeed": 1,
      "createOnExp": 9,
      "dirtEffect": 2,
      "wormExplode": true,
      "explGround": true,
      "wormCollide": true,
      "collideWithObjects": false,
      "affectByExplosions": true,
      "bounce": 0,
      "bounceFriction": 0.800000011920929,
      "timeToExplo": 0,
      "timeToExploV": 0,
      "hitDamage": 12,
      "bloodOnHit": 0,
      "startFrame": -1,
      "numFrames": 0,
      "loopAnim": false,
      "shotType": 0,
      "repeat": 1,
      "colorBullets": 68,
      "splinterAmount": 0,
      "splinterColour": 0,
      "splinterType": 2,
      "splinterScatter": 0,
      "objTrailType": -1,
      "objTrailDelay": 1,
      "partTrailType": 0,
      "partTrailObj": -1,
      "partTrailDelay": 0,
      "speed": 450,
      "id": 1,
      "name": "wid 1",
      "teamImmunity": 0
    },
    {
      // wid2 used in HAMMERFALL
      "detectDistance": 3,
      "blowAway": 1.600000023841858,
      "gravity": 0.00152587890625,
      "exploSound": -1,
      "addSpeed": 0,
      "distribution": 0,
      "multSpeed": 1,
      "createOnExp": 0,
      "dirtEffect": -1,
      "wormExplode": true,
      "explGround": true,
      "wormCollide": true,
      "collideWithObjects": true,
      "affectByExplosions": false,
      "bounce": 0.550000011920929,
      "bounceFriction": 0.800000011920929,
      "timeToExplo": 320,
      "timeToExploV": 0,
      "hitDamage": 15,
      "bloodOnHit": 10,
      "startFrame": 185,
      "numFrames": 7,
      "loopAnim": false,
      "shotType": 1,
      "repeat": 1,
      "colorBullets": 68,
      "splinterAmount": 0,
      "splinterColour": 0,
      "splinterType": -1,
      "splinterScatter": 0,
      "objTrailType": -1,
      "objTrailDelay": 1,
      "partTrailType": 0,
      "partTrailObj": -1,
      "partTrailDelay": 0,
      "speed": 250,
      "id": 2,
      "name": "wid 2",
      "teamImmunity": 0
    },
    {
      // wid3 used in MISSILES
      "detectDistance": 2,
      "blowAway": 0.6000000238418579,
      "gravity": 0,
      "exploSound": -1,
      "addSpeed": 3,
      "distribution": 0.0274658203125,
      "multSpeed": 1,
      "createOnExp": 0,
      "dirtEffect": 0,
      "wormExplode": true,
      "explGround": true,
      "wormCollide": true,
      "collideWithObjects": false,
      "affectByExplosions": false,
      "bounce": 0,
      "bounceFriction": 0.800000011920929,
      "timeToExplo": 0,
      "timeToExploV": 0,
      "hitDamage": 11,
      "bloodOnHit": 10,
      "startFrame": 112,
      "numFrames": 0,
      "loopAnim": false,
      "shotType": 3,
      "repeat": 1,
      "colorBullets": 0,
      "splinterAmount": 10,
      "splinterColour": 67,
      "splinterType": 3,
      "splinterScatter": 0,
      "objTrailType": 3,
      "objTrailDelay": 3,
      "partTrailType": 0,
      "partTrailObj": -1,
      "partTrailDelay": 0,
      "speed": 340,
      "id": 3,
      "name": "wid 3",
      "teamImmunity": 0
    },
    {
      // wid4 used in NAPALM
      "detectDistance": 2,
      "blowAway": 0,
      "gravity": 0.02288818359375,
      "exploSound": 7,
      "addSpeed": 0,
      "distribution": 0.000152587890625,
      "multSpeed": 1,
      "createOnExp": -1,
      "dirtEffect": 0,
      "wormExplode": true,
      "explGround": true,
      "wormCollide": true,
      "collideWithObjects": false,
      "affectByExplosions": false,
      "bounce": 0,
      "bounceFriction": 0.800000011920929,
      "timeToExplo": 0,
      "timeToExploV": 0,
      "hitDamage": 0,
      "bloodOnHit": 0,
      "startFrame": 195,
      "numFrames": 7,
      "loopAnim": true,
      "shotType": 1,
      "repeat": 1,
      "colorBullets": 0,
      "splinterAmount": 30,
      "splinterColour": 0,
      "splinterType": 12,
      "splinterScatter": 0,
      "objTrailType": 9,
      "objTrailDelay": 5,
      "partTrailType": 1,
      "partTrailObj": -1,
      "partTrailDelay": 0,
      "speed": 240,
      "id": 4,
      "name": "wid 4",
      "teamImmunity": 0
    },
    {
      // wid5 used in BANANAS
      "detectDistance": 0,
      "blowAway": 0.699999988079071,
      "gravity": 0.0152587890625,
      "exploSound": -1,
      "addSpeed": 0,
      "distribution": 0.244140625,
      "multSpeed": 1,
      "createOnExp": 9,
      "dirtEffect": 3,
      "wormExplode": false,
      "explGround": false,
      "wormCollide": false,
      "collideWithObjects": false,
      "affectByExplosions": true,
      "bounce": 0.699999988079071,
      "bounceFriction": 0.800000011920929,
      "timeToExplo": 50,
      "timeToExploV": 5,
      "hitDamage": 0,
      "bloodOnHit": 0,
      "startFrame": 193,
      "numFrames": 0,
      "loopAnim": false,
      "shotType": 0,
      "repeat": 1,
      "colorBullets": 0,
      "splinterAmount": 2,
      "splinterColour": 0,
      "splinterType": 14,
      "splinterScatter": 1,
      "objTrailType": -1,
      "objTrailDelay": 1,
      "partTrailType": 0,
      "partTrailObj": -1,
      "partTrailDelay": 0,
      "speed": 220,
      "id": 5,
      "name": "wid 5",
      "teamImmunity": 0
    },
    {
      // wid6 used in MINE
      "detectDistance": 2,
      "blowAway": 0.6000000238418579,
      "gravity": 0.00152587890625,
      "exploSound": -1,
      "addSpeed": 0,
      "distribution": 0.1220703125,
      "multSpeed": 0.9900000095367432,
      "createOnExp": 0,
      "dirtEffect": 0,
      "wormExplode": true,
      "explGround": false,
      "wormCollide": true,
      "collideWithObjects": false,
      "affectByExplosions": true,
      "bounce": 0.5099999904632568,
      "bounceFriction": 0.800000011920929,
      "timeToExplo": 600,
      "timeToExploV": 0,
      "hitDamage": 12,
      "bloodOnHit": 10,
      "startFrame": 173,
      "numFrames": 3,
      "loopAnim": true,
      "shotType": 0,
      "repeat": 1,
      "colorBullets": 0,
      "splinterAmount": 5,
      "splinterColour": 66,
      "splinterType": 3,
      "splinterScatter": 0,
      "objTrailType": -1,
      "objTrailDelay": 0,
      "partTrailType": 0,
      "partTrailObj": -1,
      "partTrailDelay": 0,
      "speed": 450,
      "id": 6,
      "name": "wid 6",
      "teamImmunity": 0
    },
    {
      // wid7 used in PLASMA GUN
      "detectDistance": 6,
      "blowAway": 0.3499999940395355,
      "gravity": 0,
      "exploSound": 27,
      "addSpeed": 0,
      "distribution": 0.00762939453125,
      "multSpeed": 1,
      "createOnExp": 8,
      "dirtEffect": 0,
      "wormExplode": true,
      "explGround": true,
      "wormCollide": true,
      "collideWithObjects": false,
      "affectByExplosions": false,
      "bounce": 0,
      "bounceFriction": 0.800000011920929,
      "timeToExplo": 0,
      "timeToExploV": 0,
      "hitDamage": 10,
      "bloodOnHit": 10,
      "startFrame": -1,
      "numFrames": 0,
      "loopAnim": false,
      "shotType": 0,
      "repeat": 1,
      "colorBullets": 0,
      "splinterAmount": 0,
      "splinterColour": 66,
      "splinterType": -1,
      "splinterScatter": 0,
      "objTrailType": 4,
      "objTrailDelay": 1,
      "partTrailType": 1,
      "partTrailObj": -1,
      "partTrailDelay": 1,
      "speed": 600,
      "id": 7,
      "name": "wid 7",
      "teamImmunity": 0
    },
    {
      // wid8 used in DOOMSDAY
      "detectDistance": 2,
      "blowAway": 0.6499999761581421,
      "gravity": 0,
      "exploSound": -1,
      "addSpeed": 3,
      "distribution": 0.04119873046875,
      "multSpeed": 1,
      "createOnExp": 2,
      "dirtEffect": 1,
      "wormExplode": true,
      "explGround": true,
      "wormCollide": true,
      "collideWithObjects": false,
      "affectByExplosions": false,
      "bounce": 0,
      "bounceFriction": 0.800000011920929,
      "timeToExplo": 0,
      "timeToExploV": 0,
      "hitDamage": 7,
      "bloodOnHit": 10,
      "startFrame": 127,
      "numFrames": 0,
      "loopAnim": false,
      "shotType": 3,
      "repeat": 1,
      "colorBullets": 0,
      "splinterAmount": 0,
      "splinterColour": 0,
      "splinterType": 2,
      "splinterScatter": 1,
      "objTrailType": 6,
      "objTrailDelay": 3,
      "partTrailType": 0,
      "partTrailObj": -1,
      "partTrailDelay": 0,
      "speed": 230,
      "id": 8,
      "name": "wid 8",
      "teamImmunity": 0
    },
    {
      // wid9 used in FROG RAIN
      "detectDistance": 0,
      "blowAway": 0,
      "gravity": 0.0018310546875,
      "exploSound": 19,
      "addSpeed": 0,
      "distribution": 0.244140625,
      "multSpeed": 0.9900000095367432,
      "createOnExp": -1,
      "dirtEffect": 1,
      "wormExplode": false,
      "explGround": true,
      "wormCollide": false,
      "collideWithObjects": false,
      "affectByExplosions": false,
      "bounce": 0,
      "bounceFriction": 0.800000011920929,
      "timeToExplo": 70,
      "timeToExploV": 70,
      "hitDamage": 0,
      "bloodOnHit": 0,
      "startFrame": -1,
      "numFrames": 0,
      "loopAnim": false,
      "shotType": 0,
      "repeat": 1,
      "colorBullets": 54,
      "splinterAmount": 3,
      "splinterColour": 0,
      "splinterType": 8,
      "splinterScatter": 1,
      "objTrailType": -1,
      "objTrailDelay": 0,
      "partTrailType": 1,
      "partTrailObj": -1,
      "partTrailDelay": 0,
      "speed": 190,
      "id": 9,
      "name": "wid 9",
      "teamImmunity": 0
    },
    {
      // wid10 used in FALLING STARS
      "detectDistance": 0,
      "blowAway": 0,
      "gravity": 0.01220703125,
      "exploSound": -1,
      "addSpeed": 0,
      "distribution": 0.1068115234375,
      "multSpeed": 1,
      "createOnExp": 0,
      "dirtEffect": 0,
      "wormExplode": false,
      "explGround": false,
      "wormCollide": false,
      "collideWithObjects": false,
      "affectByExplosions": true,
      "bounce": 0.4000000059604645,
      "bounceFriction": 0.800000011920929,
      "timeToExplo": 45,
      "timeToExploV": 5,
      "hitDamage": 0,
      "bloodOnHit": 0,
      "startFrame": 206,
      "numFrames": 3,
      "loopAnim": true,
      "shotType": 0,
      "repeat": 1,
      "colorBullets": 0,
      "splinterAmount": 30,
      "splinterColour": 59,
      "splinterType": 13,
      "splinterScatter": 0,
      "objTrailType": -1,
      "objTrailDelay": 0,
      "partTrailType": 0,
      "partTrailObj": -1,
      "partTrailDelay": 0,
      "speed": 280,
      "id": 10,
      "name": "wid 10",
      "teamImmunity": 0
    },
    {
      // wid11 used in LARPA
      "detectDistance": 1,
      "blowAway": 0.6000000238418579,
      "gravity": -0.000762939453125,
      "exploSound": -1,
      "addSpeed": 0,
      "distribution": 0,
      "multSpeed": 1,
      "createOnExp": 1,
      "dirtEffect": 1,
      "wormExplode": true,
      "explGround": true,
      "wormCollide": true,
      "collideWithObjects": false,
      "affectByExplosions": false,
      "bounce": 0,
      "bounceFriction": 0.800000011920929,
      "timeToExplo": 0,
      "timeToExploV": 0,
      "hitDamage": 0,
      "bloodOnHit": 6,
      "startFrame": 140,
      "numFrames": 0,
      "loopAnim": true,
      "shotType": 1,
      "repeat": 1,
      "colorBullets": 0,
      "splinterAmount": 0,
      "splinterColour": 67,
      "splinterType": -1,
      "splinterScatter": 0,
      "objTrailType": -1,
      "objTrailDelay": 0,
      "partTrailType": 1,
      "partTrailObj": 13,
      "partTrailDelay": 5,
      "speed": 240,
      "id": 11,
      "name": "wid 11",
      "teamImmunity": 0
    },
    {
      // wid12 used in MROCK
      "detectDistance": 4,
      "blowAway": 1,
      "gravity": 0,
      "exploSound": -1,
      "addSpeed": 0,
      "distribution": 0,
      "multSpeed": 1,
      "createOnExp": 12,
      "dirtEffect": 0,
      "wormExplode": true,
      "explGround": true,
      "wormCollide": true,
      "collideWithObjects": false,
      "affectByExplosions": false,
      "bounce": 0,
      "bounceFriction": 0.800000011920929,
      "timeToExplo": 40,
      "timeToExploV": 10,
      "hitDamage": 13,
      "bloodOnHit": 0,
      "startFrame": -1,
      "numFrames": 0,
      "loopAnim": false,
      "shotType": 4,
      "repeat": 8,
      "colorBullets": 0,
      "splinterAmount": 0,
      "splinterColour": 25,
      "splinterType": -1,
      "splinterScatter": 0,
      "objTrailType": 9,
      "objTrailDelay": 4,
      "partTrailType": 0,
      "partTrailObj": -1,
      "partTrailDelay": 0,
      "speed": 230,
      "id": 12,
      "name": "wid 12",
      "teamImmunity": 0
    },
    {
      // wid13 used in CLAWS
      "detectDistance": 3,
      "blowAway": 0.699999988079071,
      "gravity": 0.00152587890625,
      "exploSound": -1,
      "addSpeed": 0,
      "distribution": 0.152587890625,
      "multSpeed": 1,
      "createOnExp": -1,
      "dirtEffect": -1,
      "wormExplode": false,
      "explGround": true,
      "wormCollide": true,
      "collideWithObjects": false,
      "affectByExplosions": true,
      "bounce": 0,
      "bounceFriction": 0.800000011920929,
      "timeToExplo": 0,
      "timeToExploV": 0,
      "hitDamage": 25,
      "bloodOnHit": 10,
      "startFrame": 163,
      "numFrames": 1,
      "loopAnim": true,
      "shotType": 0,
      "repeat": 1,
      "colorBullets": 0,
      "splinterAmount": 5,
      "splinterColour": 66,
      "splinterType": 2,
      "splinterScatter": 0,
      "objTrailType": 6,
      "objTrailDelay": 1,
      "partTrailType": 0,
      "partTrailObj": -1,
      "partTrailDelay": 0,
      "speed": 350,
      "id": 13,
      "name": "wid 13",
      "teamImmunity": 0
    },
    {
      // wid14 used in MINIGUN
      "detectDistance": 2,
      "blowAway": 0.10000000149011612,
      "gravity": 0.000152587890625,
      "exploSound": 7,
      "addSpeed": 0,
      "distribution": 0.1678466796875,
      "multSpeed": 1,
      "createOnExp": 2,
      "dirtEffect": 5,
      "wormExplode": true,
      "explGround": true,
      "wormCollide": true,
      "collideWithObjects": false,
      "affectByExplosions": false,
      "bounce": 0,
      "bounceFriction": 0.800000011920929,
      "timeToExplo": 0,
      "timeToExploV": 0,
      "hitDamage": 3,
      "bloodOnHit": 2,
      "startFrame": -1,
      "numFrames": 0,
      "loopAnim": false,
      "shotType": 0,
      "repeat": 1,
      "colorBullets": 68,
      "splinterAmount": 3,
      "splinterColour": 74,
      "splinterType": 2,
      "splinterScatter": 0,
      "objTrailType": -1,
      "objTrailDelay": 2,
      "partTrailType": 0,
      "partTrailObj": -1,
      "partTrailDelay": 0,
      "speed": 600,
      "id": 14,
      "name": "wid 14",
      "teamImmunity": 0
    },
    {
      // wid15 used in CLUSTER BOMBS
      "detectDistance": 0,
      "blowAway": 0,
      "gravity": 0.03509521484375,
      "exploSound": -1,
      "addSpeed": 0,
      "distribution": 0.1068115234375,
      "multSpeed": 1,
      "createOnExp": 10,
      "dirtEffect": 1,
      "wormExplode": false,
      "explGround": false,
      "wormCollide": false,
      "collideWithObjects": false,
      "affectByExplosions": true,
      "bounce": 0.5,
      "bounceFriction": 0.800000011920929,
      "timeToExplo": 110,
      "timeToExploV": 15,
      "hitDamage": 1,
      "bloodOnHit": 0,
      "startFrame": 206,
      "numFrames": 3,
      "loopAnim": true,
      "shotType": 0,
      "repeat": 1,
      "colorBullets": 0,
      "splinterAmount": 35,
      "splinterColour": 0,
      "splinterType": 8,
      "splinterScatter": 0,
      "objTrailType": 9,
      "objTrailDelay": 1,
      "partTrailType": 0,
      "partTrailObj": -1,
      "partTrailDelay": 0,
      "speed": 200,
      "id": 15,
      "name": "wid 15",
      "teamImmunity": 0
    },
    {
      // wid16 used in SUPER SHOTGUN
      "detectDistance": 1,
      "blowAway": 0.009999999776482582,
      "gravity": 0.006866455078125,
      "exploSound": -1,
      "addSpeed": 0,
      "distribution": 0.3509521484375,
      "multSpeed": 1,
      "createOnExp": 8,
      "dirtEffect": 1,
      "wormExplode": false,
      "explGround": true,
      "wormCollide": true,
      "collideWithObjects": false,
      "affectByExplosions": false,
      "bounce": 0,
      "bounceFriction": 0.800000011920929,
      "timeToExplo": 0,
      "timeToExploV": 0,
      "hitDamage": 1,
      "bloodOnHit": 2,
      "startFrame": -1,
      "numFrames": 0,
      "loopAnim": false,
      "shotType": 0,
      "repeat": 1,
      "colorBullets": 75,
      "splinterAmount": 0,
      "splinterColour": 0,
      "splinterType": -1,
      "splinterScatter": 0,
      "objTrailType": -1,
      "objTrailDelay": 0,
      "partTrailType": 0,
      "partTrailObj": -1,
      "partTrailDelay": 0,
      "speed": 390,
      "id": 16,
      "name": "wid 16",
      "teamImmunity": 0
    },
    {
      // wid17 used in PIGEON
      "detectDistance": 1,
      "blowAway": 0.15000000596046448,
      "gravity": 0.000152587890625,
      "exploSound": -1,
      "addSpeed": -50,
      "distribution": 0,
      "multSpeed": 1,
      "createOnExp": 1,
      "dirtEffect": 0,
      "wormExplode": false,
      "explGround": false,
      "wormCollide": false,
      "collideWithObjects": false,
      "affectByExplosions": true,
      "bounce": 1.2000000476837158,
      "bounceFriction": 0.800000011920929,
      "timeToExplo": 150,
      "timeToExploV": 0,
      "hitDamage": 0,
      "bloodOnHit": 0,
      "startFrame": 110,
      "numFrames": 0,
      "loopAnim": false,
      "shotType": 2,
      "repeat": 1,
      "colorBullets": 89,
      "splinterAmount": 18,
      "splinterColour": 5,
      "splinterType": 11,
      "splinterScatter": 0,
      "objTrailType": 7,
      "objTrailDelay": 8,
      "partTrailType": 0,
      "partTrailObj": -1,
      "partTrailDelay": 1,
      "speed": 180,
      "id": 17,
      "name": "wid 17",
      "teamImmunity": 0
    },
    {
      // wid18 used in MORTAR
      "detectDistance": 1,
      "blowAway": 1.7999999523162842,
      "gravity": 0.042724609375,
      "exploSound": -1,
      "addSpeed": 0,
      "distribution": 0,
      "multSpeed": 1,
      "createOnExp": 0,
      "dirtEffect": 0,
      "wormExplode": false,
      "explGround": true,
      "wormCollide": false,
      "collideWithObjects": false,
      "affectByExplosions": true,
      "bounce": 0,
      "bounceFriction": 0.800000011920929,
      "timeToExplo": 0,
      "timeToExploV": 0,
      "hitDamage": 0,
      "bloodOnHit": 0,
      "startFrame": 193,
      "numFrames": 0,
      "loopAnim": false,
      "shotType": 0,
      "repeat": 1,
      "colorBullets": 68,
      "splinterAmount": 11,
      "splinterColour": 0,
      "splinterType": 10,
      "splinterScatter": 0,
      "objTrailType": -1,
      "objTrailDelay": 1,
      "partTrailType": 1,
      "partTrailObj": -1,
      "partTrailDelay": 0,
      "speed": 350,
      "id": 18,
      "name": "wid 18",
      "teamImmunity": 0
    },
    {
      // wid19 used in VERY BIG NUKE
      "detectDistance": 0,
      "blowAway": 0,
      "gravity": 0.0152587890625,
      "exploSound": 4,
      "addSpeed": 0,
      "distribution": 0.030517578125,
      "multSpeed": 1,
      "createOnExp": -1,
      "dirtEffect": -1,
      "wormExplode": false,
      "explGround": false,
      "wormCollide": false,
      "collideWithObjects": false,
      "affectByExplosions": true,
      "bounce": 0.5,
      "bounceFriction": 0.800000011920929,
      "timeToExplo": 105,
      "timeToExploV": 5,
      "hitDamage": 0,
      "bloodOnHit": 0,
      "startFrame": 126,
      "numFrames": 0,
      "loopAnim": false,
      "shotType": 0,
      "repeat": 1,
      "colorBullets": 0,
      "splinterAmount": 65,
      "splinterColour": 0,
      "splinterType": 9,
      "splinterScatter": 0,
      "objTrailType": -1,
      "objTrailDelay": 0,
      "partTrailType": 0,
      "partTrailObj": -1,
      "partTrailDelay": 0,
      "speed": 170,
      "id": 19,
      "name": "wid 19",
      "teamImmunity": 0
    },
    {
      // wid20 used in ZIMM
      "detectDistance": 10,
      "blowAway": 1,
      "gravity": 0,
      "exploSound": -1,
      "addSpeed": 0,
      "distribution": 0.0152587890625,
      "multSpeed": 1,
      "createOnExp": 2,
      "dirtEffect": -1,
      "wormExplode": true,
      "explGround": false,
      "wormCollide": true,
      "collideWithObjects": false,
      "affectByExplosions": false,
      "bounce": 1,
      "bounceFriction": 1,
      "timeToExplo": 300,
      "timeToExploV": 20,
      "hitDamage": 40,
      "bloodOnHit": 0,
      "startFrame": 194,
      "numFrames": 0,
      "loopAnim": false,
      "shotType": 0,
      "repeat": 1,
      "colorBullets": 0,
      "splinterAmount": 0,
      "splinterColour": 75,
      "splinterType": -1,
      "splinterScatter": 0,
      "objTrailType": 4,
      "objTrailDelay": 20,
      "partTrailType": 0,
      "partTrailObj": -1,
      "partTrailDelay": 2,
      "speed": 200,
      "id": 20,
      "name": "wid 20",
      "teamImmunity": 0
    },
    {
      // wid21 used in TOFFA BALL
      "detectDistance": 2,
      "blowAway": 1,
      "gravity": 0.0030517578125,
      "exploSound": -1,
      "addSpeed": 0,
      "distribution": 0,
      "multSpeed": 1,
      "createOnExp": 13,
      "dirtEffect": -1,
      "wormExplode": true,
      "explGround": false,
      "wormCollide": true,
      "collideWithObjects": false,
      "affectByExplosions": true,
      "bounce": 0.5,
      "bounceFriction": 0.800000011920929,
      "timeToExplo": 90,
      "timeToExploV": 0,
      "hitDamage": 0,
      "bloodOnHit": 0,
      "startFrame": 126,
      "numFrames": 0,
      "loopAnim": false,
      "shotType": 0,
      "repeat": 1,
      "colorBullets": 66,
      "splinterAmount": 5,
      "splinterColour": 46,
      "splinterType": 5,
      "splinterScatter": 0,
      "objTrailType": -1,
      "objTrailDelay": 0,
      "partTrailType": 1,
      "partTrailObj": 11,
      "partTrailDelay": 7,
      "speed": 200,
      "id": 21,
      "name": "wid 21",
      "teamImmunity": 0
    },
    {
      // wid22 used in MINI NUKES
      "detectDistance": 0,
      "blowAway": 0,
      "gravity": 0.01678466796875,
      "exploSound": 4,
      "addSpeed": 0,
      "distribution": 0.0457763671875,
      "multSpeed": 1,
      "createOnExp": -1,
      "dirtEffect": -1,
      "wormExplode": false,
      "explGround": false,
      "wormCollide": false,
      "collideWithObjects": false,
      "affectByExplosions": true,
      "bounce": 0.6000000238418579,
      "bounceFriction": 0.800000011920929,
      "timeToExplo": 50,
      "timeToExploV": 8,
      "hitDamage": 0,
      "bloodOnHit": 0,
      "startFrame": 179,
      "numFrames": 0,
      "loopAnim": false,
      "shotType": 0,
      "repeat": 1,
      "colorBullets": 0,
      "splinterAmount": 5,
      "splinterColour": 0,
      "splinterType": 11,
      "splinterScatter": 1,
      "objTrailType": -1,
      "objTrailDelay": 0,
      "partTrailType": 0,
      "partTrailObj": -1,
      "partTrailDelay": 0,
      "speed": 160,
      "id": 22,
      "name": "wid 22",
      "teamImmunity": 0
    },
    {
      // wid23 used in FLOAT MINE
      "detectDistance": 3,
      "blowAway": 0.10000000149011612,
      "gravity": 0.00152587890625,
      "exploSound": -1,
      "addSpeed": 0,
      "distribution": 0.213623046875,
      "multSpeed": 0.9900000095367432,
      "createOnExp": 0,
      "dirtEffect": 0,
      "wormExplode": true,
      "explGround": false,
      "wormCollide": true,
      "collideWithObjects": false,
      "affectByExplosions": true,
      "bounce": 0.8999999761581421,
      "bounceFriction": 0.800000011920929,
      "timeToExplo": 400,
      "timeToExploV": 100,
      "hitDamage": 4,
      "bloodOnHit": 7,
      "startFrame": 178,
      "numFrames": 0,
      "loopAnim": false,
      "shotType": 0,
      "repeat": 1,
      "colorBullets": 0,
      "splinterAmount": 8,
      "splinterColour": 67,
      "splinterType": 5,
      "splinterScatter": 1,
      "objTrailType": -1,
      "objTrailDelay": 1,
      "partTrailType": 0,
      "partTrailObj": -1,
      "partTrailDelay": 1,
      "speed": 220,
      "id": 23,
      "name": "wid 23",
      "teamImmunity": 0
    },
    {
      // wid24 used in WHITE MAGIC
      "detectDistance": 3,
      "blowAway": 0.30000001192092896,
      "gravity": 0,
      "exploSound": -1,
      "addSpeed": 0,
      "distribution": 0.18310546875,
      "multSpeed": 0.9900000095367432,
      "createOnExp": -1,
      "dirtEffect": -1,
      "wormExplode": true,
      "explGround": false,
      "wormCollide": true,
      "collideWithObjects": true,
      "affectByExplosions": false,
      "bounce": 0.949999988079071,
      "bounceFriction": 0.800000011920929,
      "timeToExplo": 70,
      "timeToExploV": 5,
      "hitDamage": 0,
      "bloodOnHit": 0,
      "startFrame": -1,
      "numFrames": 0,
      "loopAnim": false,
      "shotType": 0,
      "repeat": 1,
      "colorBullets": 69,
      "splinterAmount": 0,
      "splinterColour": 0,
      "splinterType": -1,
      "splinterScatter": 0,
      "objTrailType": -1,
      "objTrailDelay": 3,
      "partTrailType": 0,
      "partTrailObj": -1,
      "partTrailDelay": 0,
      "speed": 210,
      "id": 24,
      "name": "wid 24",
      "teamImmunity": 0
    },
    {
      // wid25 used in HONEY
      "detectDistance": 2,
      "blowAway": 0.03999999910593033,
      "gravity": 0.001068115234375,
      "exploSound": -1,
      "addSpeed": 0,
      "distribution": 0.18310546875,
      "multSpeed": 1,
      "createOnExp": 6,
      "dirtEffect": -1,
      "wormExplode": true,
      "explGround": false,
      "wormCollide": true,
      "collideWithObjects": false,
      "affectByExplosions": true,
      "bounce": 0.029999999329447746,
      "bounceFriction": 0.800000011920929,
      "timeToExplo": 330,
      "timeToExploV": 50,
      "hitDamage": 2,
      "bloodOnHit": 5,
      "startFrame": -1,
      "numFrames": 0,
      "loopAnim": false,
      "shotType": 0,
      "repeat": 1,
      "colorBullets": 75,
      "splinterAmount": 0,
      "splinterColour": 0,
      "splinterType": -1,
      "splinterScatter": 0,
      "objTrailType": -1,
      "objTrailDelay": 1,
      "partTrailType": 0,
      "partTrailObj": -1,
      "partTrailDelay": 0,
      "speed": 230,
      "id": 25,
      "name": "wid 25",
      "teamImmunity": 0
    },
    {
      // wid26 used in MAD BEES
      "detectDistance": 3,
      "blowAway": 1,
      "gravity": 0.042724609375,
      "exploSound": -1,
      "addSpeed": 0,
      "distribution": 0.00457763671875,
      "multSpeed": 1,
      "createOnExp": 2,
      "dirtEffect": 1,
      "wormExplode": false,
      "explGround": false,
      "wormCollide": false,
      "collideWithObjects": false,
      "affectByExplosions": true,
      "bounce": 0.699999988079071,
      "bounceFriction": 0.800000011920929,
      "timeToExplo": 90,
      "timeToExploV": 10,
      "hitDamage": 10,
      "bloodOnHit": 5,
      "startFrame": 193,
      "numFrames": 0,
      "loopAnim": false,
      "shotType": 0,
      "repeat": 1,
      "colorBullets": 0,
      "splinterAmount": 10,
      "splinterColour": 65,
      "splinterType": 2,
      "splinterScatter": 0,
      "objTrailType": 9,
      "objTrailDelay": 2,
      "partTrailType": 0,
      "partTrailObj": -1,
      "partTrailDelay": 0,
      "speed": 300,
      "id": 26,
      "name": "wid 26",
      "teamImmunity": 0
    },
    {
      // wid27 used in DOUBLE LARPAS
      "detectDistance": 1,
      "blowAway": 0.30000001192092896,
      "gravity": 0.004119873046875,
      "exploSound": -1,
      "addSpeed": 0,
      "distribution": 0.1373291015625,
      "multSpeed": 1,
      "createOnExp": 2,
      "dirtEffect": -1,
      "wormExplode": true,
      "explGround": true,
      "wormCollide": true,
      "collideWithObjects": false,
      "affectByExplosions": true,
      "bounce": 0.5,
      "bounceFriction": 0.800000011920929,
      "timeToExplo": 140,
      "timeToExploV": 10,
      "hitDamage": 0,
      "bloodOnHit": 6,
      "startFrame": 194,
      "numFrames": 0,
      "loopAnim": false,
      "shotType": 0,
      "repeat": 1,
      "colorBullets": 0,
      "splinterAmount": 5,
      "splinterColour": 67,
      "splinterType": 4,
      "splinterScatter": 0,
      "objTrailType": -1,
      "objTrailDelay": 1,
      "partTrailType": 1,
      "partTrailObj": 4,
      "partTrailDelay": 4,
      "speed": 150,
      "id": 27,
      "name": "wid 27",
      "teamImmunity": 0
    },
    {
      // wid28 used in GATLING LASER
      "detectDistance": 1,
      "blowAway": 0,
      "gravity": 0,
      "exploSound": -1,
      "addSpeed": 0,
      "distribution": 0,
      "multSpeed": 1,
      "createOnExp": 10,
      "dirtEffect": -1,
      "wormExplode": true,
      "explGround": true,
      "wormCollide": true,
      "collideWithObjects": false,
      "affectByExplosions": true,
      "bounce": 0,
      "bounceFriction": 0.800000011920929,
      "timeToExplo": 0,
      "timeToExploV": 0,
      "hitDamage": 0,
      "bloodOnHit": 30,
      "startFrame": -1,
      "numFrames": 0,
      "loopAnim": false,
      "shotType": 4,
      "repeat": 1000,
      "colorBullets": 48,
      "splinterAmount": 0,
      "splinterColour": 0,
      "splinterType": -1,
      "splinterScatter": 0,
      "objTrailType": -1,
      "objTrailDelay": 0,
      "partTrailType": 0,
      "partTrailObj": -1,
      "partTrailDelay": 0,
      "speed": 150,
      "id": 28,
      "name": "wid 28",
      "teamImmunity": 0
    },
    {
      // wid29 used in SPIKEBALLS
      "detectDistance": 3,
      "blowAway": 0.20000000298023224,
      "gravity": 0.01678466796875,
      "exploSound": -1,
      "addSpeed": 0,
      "distribution": 0.457763671875,
      "multSpeed": 1,
      "createOnExp": 2,
      "dirtEffect": -1,
      "wormExplode": false,
      "explGround": false,
      "wormCollide": true,
      "collideWithObjects": false,
      "affectByExplosions": true,
      "bounce": 0.3499999940395355,
      "bounceFriction": 0.800000011920929,
      "timeToExplo": 600,
      "timeToExploV": 100,
      "hitDamage": 9,
      "bloodOnHit": 20,
      "startFrame": 181,
      "numFrames": 3,
      "loopAnim": true,
      "shotType": 0,
      "repeat": 1,
      "colorBullets": 0,
      "splinterAmount": 0,
      "splinterColour": 0,
      "splinterType": -1,
      "splinterScatter": 0,
      "objTrailType": -1,
      "objTrailDelay": 0,
      "partTrailType": 0,
      "partTrailObj": -1,
      "partTrailDelay": 0,
      "speed": 150,
      "id": 29,
      "name": "wid 29",
      "teamImmunity": 0
    },
    {
      // wid30 used in BLACK MAGIC
      "detectDistance": 2,
      "blowAway": 0.800000011920929,
      "gravity": 0.000762939453125,
      "exploSound": -1,
      "addSpeed": 0,
      "distribution": 0.18310546875,
      "multSpeed": 0.9900000095367432,
      "createOnExp": 9,
      "dirtEffect": -1,
      "wormExplode": true,
      "explGround": false,
      "wormCollide": true,
      "collideWithObjects": true,
      "affectByExplosions": false,
      "bounce": 0.699999988079071,
      "bounceFriction": 0.800000011920929,
      "timeToExplo": 130,
      "timeToExploV": 0,
      "hitDamage": 1,
      "bloodOnHit": 0,
      "startFrame": 236,
      "numFrames": 2,
      "loopAnim": true,
      "shotType": 0,
      "repeat": 1,
      "colorBullets": 19,
      "splinterAmount": 0,
      "splinterColour": 24,
      "splinterType": -1,
      "splinterScatter": 0,
      "objTrailType": -1,
      "objTrailDelay": 0,
      "partTrailType": 0,
      "partTrailObj": -1,
      "partTrailDelay": 0,
      "speed": 100,
      "id": 30,
      "name": "wid 30",
      "teamImmunity": 0
    },
    {
      // wid31 used in MILKSWORD
      "detectDistance": 1,
      "blowAway": 0.699999988079071,
      "gravity": 0,
      "exploSound": -1,
      "addSpeed": 0,
      "distribution": 0.42724609375,
      "multSpeed": 1,
      "createOnExp": 2,
      "dirtEffect": 0,
      "wormExplode": true,
      "explGround": true,
      "wormCollide": true,
      "collideWithObjects": false,
      "affectByExplosions": false,
      "bounce": 0,
      "bounceFriction": 0.800000011920929,
      "timeToExplo": 0,
      "timeToExploV": 0,
      "hitDamage": 9,
      "bloodOnHit": 0,
      "startFrame": 140,
      "numFrames": 0,
      "loopAnim": false,
      "shotType": 1,
      "repeat": 1,
      "colorBullets": 168,
      "splinterAmount": 3,
      "splinterColour": 15,
      "splinterType": 2,
      "splinterScatter": 0,
      "objTrailType": -1,
      "objTrailDelay": 3,
      "partTrailType": 0,
      "partTrailObj": -1,
      "partTrailDelay": 0,
      "speed": 310,
      "id": 31,
      "name": "wid 31",
      "teamImmunity": 0
    },
    {
      // wid32 used in HALO ROCKETS
      "detectDistance": 2,
      "blowAway": 0.15000000596046448,
      "gravity": 0.000152587890625,
      "exploSound": 12,
      "addSpeed": 0,
      "distribution": 0.2593994140625,
      "multSpeed": 1.0299999713897705,
      "createOnExp": 1,
      "dirtEffect": 0,
      "wormExplode": false,
      "explGround": true,
      "wormCollide": false,
      "collideWithObjects": false,
      "affectByExplosions": false,
      "bounce": 0,
      "bounceFriction": 0.800000011920929,
      "timeToExplo": 0,
      "timeToExploV": 0,
      "hitDamage": 0,
      "bloodOnHit": 0,
      "startFrame": 127,
      "numFrames": 0,
      "loopAnim": false,
      "shotType": 1,
      "repeat": 1,
      "colorBullets": 54,
      "splinterAmount": 3,
      "splinterColour": 67,
      "splinterType": 4,
      "splinterScatter": 0,
      "objTrailType": 3,
      "objTrailDelay": 6,
      "partTrailType": 1,
      "partTrailObj": -1,
      "partTrailDelay": 0,
      "speed": 120,
      "id": 32,
      "name": "wid 32",
      "teamImmunity": 0
    },
    {
      // wid33 used in CHIQUITA BOMB
      "detectDistance": 0,
      "blowAway": 0,
      "gravity": 0.009918212890625,
      "exploSound": -1,
      "addSpeed": 0,
      "distribution": 0.1068115234375,
      "multSpeed": 1,
      "createOnExp": 0,
      "dirtEffect": -1,
      "wormExplode": false,
      "explGround": false,
      "wormCollide": false,
      "collideWithObjects": false,
      "affectByExplosions": true,
      "bounce": 0.4000000059604645,
      "bounceFriction": 0.800000011920929,
      "timeToExplo": 105,
      "timeToExploV": 5,
      "hitDamage": 0,
      "bloodOnHit": 0,
      "startFrame": 215,
      "numFrames": 3,
      "loopAnim": false,
      "shotType": 0,
      "repeat": 1,
      "colorBullets": 0,
      "splinterAmount": 35,
      "splinterColour": 0,
      "splinterType": 14,
      "splinterScatter": 0,
      "objTrailType": -1,
      "objTrailDelay": 1,
      "partTrailType": 0,
      "partTrailObj": -1,
      "partTrailDelay": 0,
      "speed": 170,
      "id": 33,
      "name": "wid 33",
      "teamImmunity": 0
    },
    {
      // wid34 used in DESERT EAGLE
      "detectDistance": 1,
      "blowAway": 0.05000000074505806,
      "gravity": 0.00030517578125,
      "exploSound": 11,
      "addSpeed": 0,
      "distribution": 0.18310546875,
      "multSpeed": 1,
      "createOnExp": 2,
      "dirtEffect": 1,
      "wormExplode": true,
      "explGround": true,
      "wormCollide": true,
      "collideWithObjects": false,
      "affectByExplosions": false,
      "bounce": 0,
      "bounceFriction": 0.800000011920929,
      "timeToExplo": 0,
      "timeToExploV": 0,
      "hitDamage": 2,
      "bloodOnHit": 20,
      "startFrame": -1,
      "numFrames": 0,
      "loopAnim": false,
      "shotType": 0,
      "repeat": 1,
      "colorBullets": 67,
      "splinterAmount": 2,
      "splinterColour": 66,
      "splinterType": 2,
      "splinterScatter": 0,
      "objTrailType": -1,
      "objTrailDelay": 0,
      "partTrailType": 0,
      "partTrailObj": -1,
      "partTrailDelay": 0,
      "speed": 500,
      "id": 34,
      "name": "wid 34",
      "teamImmunity": 0
    },
    {
      // wid35 used in H H GRENADE
      "detectDistance": 3,
      "blowAway": 2,
      "gravity": 0.0152587890625,
      "exploSound": -1,
      "addSpeed": 0,
      "distribution": 0.0152587890625,
      "multSpeed": 1,
      "createOnExp": 12,
      "dirtEffect": -1,
      "wormExplode": true,
      "explGround": false,
      "wormCollide": true,
      "collideWithObjects": false,
      "affectByExplosions": true,
      "bounce": 0.44999998807907104,
      "bounceFriction": 0.800000011920929,
      "timeToExplo": 300,
      "timeToExploV": 0,
      "hitDamage": 45,
      "bloodOnHit": 0,
      "startFrame": 206,
      "numFrames": 3,
      "loopAnim": false,
      "shotType": 0,
      "repeat": 1,
      "colorBullets": 0,
      "splinterAmount": 0,
      "splinterColour": 0,
      "splinterType": -1,
      "splinterScatter": 0,
      "objTrailType": -1,
      "objTrailDelay": 3,
      "partTrailType": 0,
      "partTrailObj": -1,
      "partTrailDelay": 1,
      "speed": 110,
      "id": 35,
      "name": "wid 35",
      "teamImmunity": 0
    },
    {
      // wid36 used in BULL DOZER
      "detectDistance": 3,
      "blowAway": 0,
      "gravity": 0,
      "exploSound": -1,
      "addSpeed": 0,
      "distribution": 0,
      "multSpeed": 1.0499999523162842,
      "createOnExp": 1,
      "dirtEffect": 0,
      "wormExplode": false,
      "explGround": true,
      "wormCollide": false,
      "collideWithObjects": false,
      "affectByExplosions": false,
      "bounce": 0,
      "bounceFriction": 0.800000011920929,
      "timeToExplo": 0,
      "timeToExploV": 0,
      "hitDamage": 0,
      "bloodOnHit": 0,
      "startFrame": 126,
      "numFrames": 0,
      "loopAnim": false,
      "shotType": 0,
      "repeat": 1,
      "colorBullets": 0,
      "splinterAmount": 80,
      "splinterColour": 0,
      "splinterType": 13,
      "splinterScatter": 0,
      "objTrailType": 5,
      "objTrailDelay": 1,
      "partTrailType": 0,
      "partTrailObj": -1,
      "partTrailDelay": 0,
      "speed": 1,
      "id": 36,
      "name": "wid 36",
      "teamImmunity": 0
    },
    {
      // wid37 used in DARTS
      "detectDistance": 2,
      "blowAway": 0.800000011920929,
      "gravity": 0,
      "exploSound": -1,
      "addSpeed": 0,
      "distribution": 0.030517578125,
      "multSpeed": 1.0099999904632568,
      "createOnExp": 2,
      "dirtEffect": 2,
      "wormExplode": true,
      "explGround": true,
      "wormCollide": true,
      "collideWithObjects": false,
      "affectByExplosions": false,
      "bounce": 0,
      "bounceFriction": 0.800000011920929,
      "timeToExplo": 0,
      "timeToExploV": 0,
      "hitDamage": 10,
      "bloodOnHit": 10,
      "startFrame": 223,
      "numFrames": 0,
      "loopAnim": false,
      "shotType": 1,
      "repeat": 1,
      "colorBullets": 0,
      "splinterAmount": 5,
      "splinterColour": 64,
      "splinterType": 3,
      "splinterScatter": 0,
      "objTrailType": -1,
      "objTrailDelay": 0,
      "partTrailType": 0,
      "partTrailObj": -1,
      "partTrailDelay": 0,
      "speed": 230,
      "id": 37,
      "name": "wid 37",
      "teamImmunity": 0
    },
    {
      // wid38 used in TONNA
      "detectDistance": 3,
      "blowAway": 2.299999952316284,
      "gravity": 0,
      "exploSound": -1,
      "addSpeed": 0,
      "distribution": 0.0152587890625,
      "multSpeed": 1,
      "createOnExp": 12,
      "dirtEffect": 0,
      "wormExplode": true,
      "explGround": true,
      "wormCollide": true,
      "collideWithObjects": false,
      "affectByExplosions": false,
      "bounce": 0,
      "bounceFriction": 0.800000011920929,
      "timeToExplo": 0,
      "timeToExploV": 0,
      "hitDamage": 10,
      "bloodOnHit": 15,
      "startFrame": 112,
      "numFrames": 0,
      "loopAnim": false,
      "shotType": 3,
      "repeat": 1,
      "colorBullets": 75,
      "splinterAmount": 25,
      "splinterColour": 0,
      "splinterType": 5,
      "splinterScatter": 0,
      "objTrailType": -1,
      "objTrailDelay": 1,
      "partTrailType": 0,
      "partTrailObj": -1,
      "partTrailDelay": 0,
      "speed": 310,
      "id": 38,
      "name": "wid 38",
      "teamImmunity": 0
    },
    {
      // wid39 used in THUNDER GUN
      "detectDistance": 2,
      "blowAway": 1.2999999523162842,
      "gravity": 0,
      "exploSound": -1,
      "addSpeed": 0,
      "distribution": 0,
      "multSpeed": 1,
      "createOnExp": 1,
      "dirtEffect": 0,
      "wormExplode": true,
      "explGround": true,
      "wormCollide": true,
      "collideWithObjects": false,
      "affectByExplosions": false,
      "bounce": 0,
      "bounceFriction": 0.800000011920929,
      "timeToExplo": 0,
      "timeToExploV": 0,
      "hitDamage": 2,
      "bloodOnHit": 7,
      "startFrame": 180,
      "numFrames": 0,
      "loopAnim": false,
      "shotType": 4,
      "repeat": 8,
      "colorBullets": 0,
      "splinterAmount": 0,
      "splinterColour": 75,
      "splinterType": -1,
      "splinterScatter": 0,
      "objTrailType": 6,
      "objTrailDelay": 1,
      "partTrailType": 0,
      "partTrailObj": -1,
      "partTrailDelay": 0,
      "speed": 220,
      "id": 39,
      "name": "wid 39",
      "teamImmunity": 0
    }
  ],
  "nObjects":
  [
    {
      // nid0
      "detectDistance": 0,
      "gravity": 0.0152587890625,
      "speed": 1.5,
      "speedV": 0.4000000059604645,
      "distribution": 0.1220703125,
      "blowAway": 0,
      "bounce": 0.30000001192092896,
      "hitDamage": 0,
      "wormExplode": false,
      "explGround": true,
      "wormDestroy": false,
      "bloodOnHit": 1,
      "startFrame": 165,
      "numFrames": 3,
      "drawOnMap": false,
      "colorBullets": 0,
      "createOnExp": 2,
      "affectByExplosions": false,
      "dirtEffect": -1,
      "splinterAmount": 0,
      "splinterColour": 0,
      "splinterType": -1,
      "bloodTrail": true,
      "bloodTrailDelay": 12,
      "leaveObj": -1,
      "leaveObjDelay": 0,
      "timeToExplo": 0,
      "timeToExploV": 0,
      "id": 0,
      "name": "nid 0",
      "teamImmunity": 0
    },
    {
      // nid1
      "detectDistance": 0,
      "gravity": 0.0152587890625,
      "speed": 1.5,
      "speedV": 0.4000000059604645,
      "distribution": 0.1220703125,
      "blowAway": 0,
      "bounce": 0.30000001192092896,
      "hitDamage": 0,
      "wormExplode": false,
      "explGround": true,
      "wormDestroy": false,
      "bloodOnHit": 1,
      "startFrame": 169,
      "numFrames": 3,
      "drawOnMap": false,
      "colorBullets": 0,
      "createOnExp": 2,
      "affectByExplosions": false,
      "dirtEffect": -1,
      "splinterAmount": 0,
      "splinterColour": 0,
      "splinterType": -1,
      "bloodTrail": true,
      "bloodTrailDelay": 12,
      "leaveObj": -1,
      "leaveObjDelay": 0,
      "timeToExplo": 0,
      "timeToExploV": 0,
      "id": 1,
      "name": "nid 1",
      "teamImmunity": 0
    },
    {
      // nid2 splinterType for wid1 wid8 wid13 wid14 wid26 wid31 wid34
      "detectDistance": 0,
      "gravity": 0.01068115234375,
      "speed": 0.800000011920929,
      "speedV": 0.4000000059604645,
      "distribution": 0.152587890625,
      "blowAway": 0,
      "bounce": 0,
      "hitDamage": 0,
      "wormExplode": false,
      "explGround": true,
      "wormDestroy": false,
      "bloodOnHit": 0,
      "startFrame": 0,
      "numFrames": 0,
      "drawOnMap": false,
      "colorBullets": 17,
      "createOnExp": -1,
      "affectByExplosions": false,
      "dirtEffect": -1,
      "splinterAmount": 0,
      "splinterColour": 0,
      "splinterType": -1,
      "bloodTrail": false,
      "bloodTrailDelay": 0,
      "leaveObj": -1,
      "leaveObjDelay": 0,
      "timeToExplo": 0,
      "timeToExploV": 0,
      "id": 2,
      "name": "nid 2",
      "teamImmunity": 0
    },
    {
      // nid3 splinterType for wid3 wid6 wid37 partTrailObj for wid10 splinterType for nid10 nid23
      "detectDistance": 0,
      "gravity": 0.01373291015625,
      "speed": 1.600000023841858,
      "speedV": 1.399999976158142,
      "distribution": 0.030517578125,
      "blowAway": 0.10000000149011612,
      "bounce": 0,
      "hitDamage": 2,
      "wormExplode": false,
      "explGround": true,
      "wormDestroy": true,
      "bloodOnHit": 1,
      "startFrame": 0,
      "numFrames": 0,
      "drawOnMap": false,
      "colorBullets": 67,
      "createOnExp": 9,
      "affectByExplosions": false,
      "dirtEffect": -1,
      "splinterAmount": 0,
      "splinterColour": 0,
      "splinterType": -1,
      "bloodTrail": false,
      "bloodTrailDelay": 0,
      "leaveObj": -1,
      "leaveObjDelay": 0,
      "timeToExplo": 0,
      "timeToExploV": 0,
      "id": 3,
      "name": "nid 3",
      "teamImmunity": 0
    },
    {
      // nid4 splinterType for wid27 wid32 partTrailObj for wid27 splinterType for nid11
      "detectDistance": 0,
      "gravity": 0.01373291015625,
      "speed": 1.899999976158142,
      "speedV": 1.600000023841858,
      "distribution": 0.030517578125,
      "blowAway": 0.10000000149011612,
      "bounce": 0,
      "hitDamage": 3,
      "wormExplode": false,
      "explGround": true,
      "wormDestroy": true,
      "bloodOnHit": 1,
      "startFrame": 0,
      "numFrames": 0,
      "drawOnMap": false,
      "colorBullets": 67,
      "createOnExp": 2,
      "affectByExplosions": false,
      "dirtEffect": -1,
      "splinterAmount": 0,
      "splinterColour": 0,
      "splinterType": -1,
      "bloodTrail": false,
      "bloodTrailDelay": 0,
      "leaveObj": -1,
      "leaveObjDelay": 0,
      "timeToExplo": 0,
      "timeToExploV": 0,
      "id": 4,
      "name": "nid 4",
      "teamImmunity": 0
    },
    {
      // nid5 splinterType for wid21 wid23 wid38 partTrailObj for wid9 wid11 splinterType for nid9
      "detectDistance": 0,
      "gravity": 0.01373291015625,
      "speed": 2.200000047683716,
      "speedV": 1.7999999523162842,
      "distribution": 0.30517578125,
      "blowAway": 0.15000000596046448,
      "bounce": 0,
      "hitDamage": 5,
      "wormExplode": false,
      "explGround": true,
      "wormDestroy": true,
      "bloodOnHit": 1,
      "startFrame": 0,
      "numFrames": 0,
      "drawOnMap": false,
      "colorBullets": 67,
      "createOnExp": 10,
      "affectByExplosions": false,
      "dirtEffect": -1,
      "splinterAmount": 0,
      "splinterColour": 0,
      "splinterType": -1,
      "bloodTrail": false,
      "bloodTrailDelay": 0,
      "leaveObj": -1,
      "leaveObjDelay": 0,
      "timeToExplo": 0,
      "timeToExploV": 0,
      "id": 5,
      "name": "nid 5",
      "teamImmunity": 0
    },
    {
      // nid6 partTrailObj for wid13
      "detectDistance": 0,
      "gravity": 0.018310546875,
      "speed": 1.7000000476837158,
      "speedV": 0.8999999761581421,
      "distribution": 0.457763671875,
      "blowAway": 0.009999999776482582,
      "bounce": 0.30000001192092896,
      "hitDamage": 0,
      "wormExplode": false,
      "explGround": true,
      "wormDestroy": false,
      "bloodOnHit": 0,
      "startFrame": 0,
      "numFrames": 0,
      "drawOnMap": false,
      "colorBullets": 82,
      "createOnExp": -1,
      "affectByExplosions": false,
      "dirtEffect": -1,
      "splinterAmount": 0,
      "splinterColour": 0,
      "splinterType": -1,
      "bloodTrail": true,
      "bloodTrailDelay": 16,
      "leaveObj": -1,
      "leaveObjDelay": 0,
      "timeToExplo": 0,
      "timeToExploV": 0,
      "id": 6,
      "name": "nid 6",
      "teamImmunity": 0
    },
    {
      // nid7
      "detectDistance": 0,
      "gravity": 0.0152587890625,
      "speed": 0,
      "speedV": 0,
      "distribution": 0.1220703125,
      "blowAway": 0,
      "bounce": 0.4000000059604645,
      "hitDamage": 0,
      "wormExplode": false,
      "explGround": true,
      "wormDestroy": false,
      "bloodOnHit": 0,
      "startFrame": 155,
      "numFrames": 3,
      "drawOnMap": false,
      "colorBullets": 0,
      "createOnExp": 2,
      "affectByExplosions": false,
      "dirtEffect": -1,
      "splinterAmount": 0,
      "splinterColour": 0,
      "splinterType": -1,
      "bloodTrail": false,
      "bloodTrailDelay": 0,
      "leaveObj": -1,
      "leaveObjDelay": 0,
      "timeToExplo": 0,
      "timeToExploV": 0,
      "id": 7,
      "name": "nid 7",
      "teamImmunity": 0
    },
    {
      // nid8 splinterType for wid9 wid15 partTrailObj for wid12
      "detectDistance": 1,
      "gravity": 0.018310546875,
      "speed": 2.200000047683716,
      "speedV": 1.2999999523162842,
      "distribution": 0.152587890625,
      "blowAway": 0.05000000074505806,
      "bounce": 0,
      "hitDamage": 3,
      "wormExplode": true,
      "explGround": true,
      "wormDestroy": true,
      "bloodOnHit": 3,
      "startFrame": 159,
      "numFrames": 3,
      "drawOnMap": false,
      "colorBullets": 0,
      "createOnExp": 1,
      "affectByExplosions": false,
      "dirtEffect": 1,
      "splinterAmount": 0,
      "splinterColour": 0,
      "splinterType": -1,
      "bloodTrail": false,
      "bloodTrailDelay": 0,
      "leaveObj": -1,
      "leaveObjDelay": 0,
      "timeToExplo": 0,
      "timeToExploV": 0,
      "id": 8,
      "name": "nid 8",
      "teamImmunity": 0
    },
    {
      // nid9 splinterType for wid19
      "detectDistance": 0,
      "gravity": 0.018310546875,
      "speed": 2.0999999046325684,
      "speedV": 1,
      "distribution": 0.30517578125,
      "blowAway": 0,
      "bounce": 0.6000000238418579,
      "hitDamage": 0,
      "wormExplode": false,
      "explGround": false,
      "wormDestroy": false,
      "bloodOnHit": 0,
      "startFrame": 177,
      "numFrames": 0,
      "drawOnMap": false,
      "colorBullets": 0,
      "createOnExp": 0,
      "affectByExplosions": true,
      "dirtEffect": -1,
      "splinterAmount": 4,
      "splinterColour": 75,
      "splinterType": 5,
      "bloodTrail": false,
      "bloodTrailDelay": 0,
      "leaveObj": 5,
      "leaveObjDelay": 4,
      "timeToExplo": 100,
      "timeToExploV": 0,
      "id": 9,
      "name": "nid 9",
      "teamImmunity": 0
    },
    {
      // nid10 splinterType for wid18
      "detectDistance": 1,
      "gravity": 0.01678466796875,
      "speed": 1.5,
      "speedV": 0.20000000298023224,
      "distribution": 0.30517578125,
      "blowAway": 0.15000000596046448,
      "bounce": 0,
      "hitDamage": 3,
      "wormExplode": true,
      "explGround": true,
      "wormDestroy": true,
      "bloodOnHit": 7,
      "startFrame": 193,
      "numFrames": 0,
      "drawOnMap": false,
      "colorBullets": 0,
      "createOnExp": 0,
      "affectByExplosions": false,
      "dirtEffect": -1,
      "splinterAmount": 5,
      "splinterColour": 66,
      "splinterType": 3,
      "bloodTrail": false,
      "bloodTrailDelay": 0,
      "leaveObj": 3,
      "leaveObjDelay": 8,
      "timeToExplo": 0,
      "timeToExploV": 0,
      "id": 10,
      "name": "nid 10",
      "teamImmunity": 0
    },
    {
      // nid11 splinterType for wid17 wid22 partTrailObj for wid21
      "detectDistance": 1,
      "gravity": 0.0152587890625,
      "speed": 1.7999999523162842,
      "speedV": 0.699999988079071,
      "distribution": 0.30517578125,
      "blowAway": 0,
      "bounce": 0.5,
      "hitDamage": 1,
      "wormExplode": true,
      "explGround": false,
      "wormDestroy": true,
      "bloodOnHit": 5,
      "startFrame": 177,
      "numFrames": 0,
      "drawOnMap": false,
      "colorBullets": 0,
      "createOnExp": 0,
      "affectByExplosions": true,
      "dirtEffect": -1,
      "splinterAmount": 7,
      "splinterColour": 75,
      "splinterType": 4,
      "bloodTrail": false,
      "bloodTrailDelay": 0,
      "leaveObj": 5,
      "leaveObjDelay": 5,
      "timeToExplo": 90,
      "timeToExploV": 30,
      "id": 11,
      "name": "nid 11",
      "teamImmunity": 0
    },
    {
      // nid12 splinterType for wid4
      "detectDistance": 5,
      "gravity": 0.0152587890625,
      "speed": 1.7999999523162842,
      "speedV": 0.30000001192092896,
      "distribution": 0.0152587890625,
      "blowAway": 0,
      "bounce": 1,
      "hitDamage": 1,
      "wormExplode": false,
      "explGround": true,
      "wormDestroy": false,
      "bloodOnHit": 0,
      "startFrame": 0,
      "numFrames": 0,
      "drawOnMap": false,
      "colorBullets": 75,
      "createOnExp": 8,
      "affectByExplosions": false,
      "dirtEffect": 0,
      "splinterAmount": 0,
      "splinterColour": 0,
      "splinterType": -1,
      "bloodTrail": false,
      "bloodTrailDelay": 0,
      "leaveObj": 8,
      "leaveObjDelay": 2,
      "timeToExplo": 30,
      "timeToExploV": 5,
      "id": 12,
      "name": "nid 12",
      "teamImmunity": 0
    },
    {
      // nid13 splinterType for wid10 wid36 partTrailObj for wid11
      "detectDistance": 2,
      "gravity": 0.03662109375,
      "speed": 2.200000047683716,
      "speedV": 1.2000000476837158,
      "distribution": 0.030517578125,
      "blowAway": 0.20000000298023224,
      "bounce": 0,
      "hitDamage": 7,
      "wormExplode": true,
      "explGround": true,
      "wormDestroy": true,
      "bloodOnHit": 1,
      "startFrame": 236,
      "numFrames": 2,
      "drawOnMap": false,
      "colorBullets": 7,
      "createOnExp": 1,
      "affectByExplosions": false,
      "dirtEffect": -1,
      "splinterAmount": 0,
      "splinterColour": 0,
      "splinterType": -1,
      "bloodTrail": false,
      "bloodTrailDelay": 0,
      "leaveObj": 6,
      "leaveObjDelay": 1,
      "timeToExplo": 0,
      "timeToExploV": 0,
      "id": 13,
      "name": "nid 13",
      "teamImmunity": 0
    },
    {
      // nid14 splinterType for wid5 wid33
      "detectDistance": 2,
      "gravity": 0.01983642578125,
      "speed": 2.299999952316284,
      "speedV": 0.5,
      "distribution": 0.3814697265625,
      "blowAway": 0.15000000596046448,
      "bounce": 0,
      "hitDamage": 8,
      "wormExplode": true,
      "explGround": true,
      "wormDestroy": true,
      "bloodOnHit": 8,
      "startFrame": 219,
      "numFrames": 3,
      "drawOnMap": false,
      "colorBullets": 0,
      "createOnExp": 0,
      "affectByExplosions": false,
      "dirtEffect": 0,
      "splinterAmount": 0,
      "splinterColour": 0,
      "splinterType": -1,
      "bloodTrail": false,
      "bloodTrailDelay": 0,
      "leaveObj": -1,
      "leaveObjDelay": 0,
      "timeToExplo": 0,
      "timeToExploV": 0,
      "id": 14,
      "name": "nid 14",
      "teamImmunity": 0
    },
    {
      // nid15
      "detectDistance": 2,
      "gravity": 0.01220703125,
      "speed": 1.2999999523162842,
      "speedV": 0.4000000059604645,
      "distribution": 0.152587890625,
      "blowAway": 0,
      "bounce": 0.8999999761581421,
      "hitDamage": 1,
      "wormExplode": true,
      "explGround": true,
      "wormDestroy": true,
      "bloodOnHit": 0,
      "startFrame": 194,
      "numFrames": 0,
      "drawOnMap": false,
      "colorBullets": 0,
      "createOnExp": 1,
      "affectByExplosions": true,
      "dirtEffect": -1,
      "splinterAmount": 1,
      "splinterColour": 0,
      "splinterType": 16,
      "bloodTrail": false,
      "bloodTrailDelay": 0,
      "leaveObj": -1,
      "leaveObjDelay": 0,
      "timeToExplo": 60,
      "timeToExploV": 10,
      "id": 15,
      "name": "nid 15",
      "teamImmunity": 0
    },
    {
      // nid16 splinterType for nid15
      "detectDistance": 2,
      "gravity": 0.0152587890625,
      "speed": 1.2999999523162842,
      "speedV": 0.4000000059604645,
      "distribution": 0.152587890625,
      "blowAway": 0,
      "bounce": 0.800000011920929,
      "hitDamage": 2,
      "wormExplode": true,
      "explGround": true,
      "wormDestroy": true,
      "bloodOnHit": 0,
      "startFrame": 194,
      "numFrames": 0,
      "drawOnMap": false,
      "colorBullets": 0,
      "createOnExp": 1,
      "affectByExplosions": true,
      "dirtEffect": -1,
      "splinterAmount": 1,
      "splinterColour": 0,
      "splinterType": 17,
      "bloodTrail": false,
      "bloodTrailDelay": 0,
      "leaveObj": -1,
      "leaveObjDelay": 0,
      "timeToExplo": 60,
      "timeToExploV": 10,
      "id": 16,
      "name": "nid 16",
      "teamImmunity": 0
    },
    {
      // nid17 splinterType for nid16
      "detectDistance": 2,
      "gravity": 0.0152587890625,
      "speed": 1.2000000476837158,
      "speedV": 0.4000000059604645,
      "distribution": 0.152587890625,
      "blowAway": 0,
      "bounce": 0.699999988079071,
      "hitDamage": 3,
      "wormExplode": true,
      "explGround": true,
      "wormDestroy": true,
      "bloodOnHit": 0,
      "startFrame": 194,
      "numFrames": 0,
      "drawOnMap": false,
      "colorBullets": 0,
      "createOnExp": 0,
      "affectByExplosions": true,
      "dirtEffect": -1,
      "splinterAmount": 1,
      "splinterColour": 0,
      "splinterType": 18,
      "bloodTrail": false,
      "bloodTrailDelay": 0,
      "leaveObj": -1,
      "leaveObjDelay": 0,
      "timeToExplo": 50,
      "timeToExploV": 10,
      "id": 17,
      "name": "nid 17",
      "teamImmunity": 0
    },
    {
      // nid18 splinterType for nid17
      "detectDistance": 2,
      "gravity": 0.0152587890625,
      "speed": 1.2000000476837158,
      "speedV": 0.4000000059604645,
      "distribution": 0.152587890625,
      "blowAway": 0,
      "bounce": 0.699999988079071,
      "hitDamage": 4,
      "wormExplode": true,
      "explGround": true,
      "wormDestroy": true,
      "bloodOnHit": 0,
      "startFrame": 194,
      "numFrames": 0,
      "drawOnMap": false,
      "colorBullets": 0,
      "createOnExp": 10,
      "affectByExplosions": true,
      "dirtEffect": -1,
      "splinterAmount": 1,
      "splinterColour": 0,
      "splinterType": 19,
      "bloodTrail": false,
      "bloodTrailDelay": 0,
      "leaveObj": -1,
      "leaveObjDelay": 0,
      "timeToExplo": 40,
      "timeToExploV": 10,
      "id": 18,
      "name": "nid 18",
      "teamImmunity": 0
    },
    {
      // nid19 splinterType for nid18
      "detectDistance": 2,
      "gravity": 0.0152587890625,
      "speed": 1.2000000476837158,
      "speedV": 0.4000000059604645,
      "distribution": 0.152587890625,
      "blowAway": 0,
      "bounce": 0.699999988079071,
      "hitDamage": 5,
      "wormExplode": true,
      "explGround": true,
      "wormDestroy": true,
      "bloodOnHit": 0,
      "startFrame": 194,
      "numFrames": 0,
      "drawOnMap": false,
      "colorBullets": 0,
      "createOnExp": 12,
      "affectByExplosions": true,
      "dirtEffect": -1,
      "splinterAmount": 2,
      "splinterColour": 0,
      "splinterType": 22,
      "bloodTrail": false,
      "bloodTrailDelay": 0,
      "leaveObj": -1,
      "leaveObjDelay": 0,
      "timeToExplo": 30,
      "timeToExploV": 10,
      "id": 19,
      "name": "nid 19",
      "teamImmunity": 0
    },
    {
      // nid20
      "detectDistance": 3,
      "gravity": 0.0152587890625,
      "speed": 0,
      "speedV": 0,
      "distribution": 0,
      "blowAway": 0,
      "bounce": 0.4000000059604645,
      "hitDamage": 0,
      "wormExplode": false,
      "explGround": false,
      "wormDestroy": false,
      "bloodOnHit": 0,
      "startFrame": 213,
      "numFrames": 0,
      "drawOnMap": false,
      "colorBullets": 0,
      "createOnExp": -1,
      "affectByExplosions": true,
      "dirtEffect": -1,
      "splinterAmount": 0,
      "splinterColour": 0,
      "splinterType": -1,
      "bloodTrail": false,
      "bloodTrailDelay": 0,
      "leaveObj": -1,
      "leaveObjDelay": 0,
      "timeToExplo": 0,
      "timeToExploV": 0,
      "id": 20,
      "name": "nid 20",
      "teamImmunity": 0
    },
    {
      // nid21
      "detectDistance": 3,
      "gravity": 0.0152587890625,
      "speed": 0,
      "speedV": 0,
      "distribution": 0,
      "blowAway": 0,
      "bounce": 0.4000000059604645,
      "hitDamage": 0,
      "wormExplode": false,
      "explGround": false,
      "wormDestroy": false,
      "bloodOnHit": 0,
      "startFrame": 214,
      "numFrames": 0,
      "drawOnMap": false,
      "colorBullets": 0,
      "createOnExp": -1,
      "affectByExplosions": true,
      "dirtEffect": -1,
      "splinterAmount": 0,
      "splinterColour": 0,
      "splinterType": -1,
      "bloodTrail": false,
      "bloodTrailDelay": 0,
      "leaveObj": -1,
      "leaveObjDelay": 0,
      "timeToExplo": 0,
      "timeToExploV": 0,
      "id": 21,
      "name": "nid 21",
      "teamImmunity": 0
    },
    {
      // nid22 splinterType for nid19
      "detectDistance": 2,
      "gravity": 0.0152587890625,
      "speed": 1.2000000476837158,
      "speedV": 0.4000000059604645,
      "distribution": 0.152587890625,
      "blowAway": 0,
      "bounce": 0.6000000238418579,
      "hitDamage": 6,
      "wormExplode": true,
      "explGround": true,
      "wormDestroy": true,
      "bloodOnHit": 0,
      "startFrame": 194,
      "numFrames": 0,
      "drawOnMap": false,
      "colorBullets": 0,
      "createOnExp": 0,
      "affectByExplosions": true,
      "dirtEffect": -1,
      "splinterAmount": 0,
      "splinterColour": 0,
      "splinterType": -1,
      "bloodTrail": false,
      "bloodTrailDelay": 0,
      "leaveObj": -1,
      "leaveObjDelay": 0,
      "timeToExplo": 20,
      "timeToExploV": 10,
      "id": 22,
      "name": "nid 22",
      "teamImmunity": 0
    },
    {
      // nid23 splinterType for wid0
      "detectDistance": 2,
      "gravity": 0.0030517578125,
      "speed": 3.4000000953674316,
      "speedV": 0.20000000298023224,
      "distribution": 0.000152587890625,
      "blowAway": 0.25,
      "bounce": 0,
      "hitDamage": 2,
      "wormExplode": true,
      "explGround": true,
      "wormDestroy": false,
      "bloodOnHit": 1,
      "startFrame": 239,
      "numFrames": 0,
      "drawOnMap": false,
      "colorBullets": 0,
      "createOnExp": 13,
      "affectByExplosions": true,
      "dirtEffect": 0,
      "splinterAmount": 1,
      "splinterColour": 45,
      "splinterType": 3,
      "bloodTrail": false,
      "bloodTrailDelay": 0,
      "leaveObj": -1,
      "leaveObjDelay": 0,
      "timeToExplo": 0,
      "timeToExploV": 0,
      "id": 23,
      "name": "nid 23",
      "teamImmunity": 0
    }
  ],
  "sObjects":
  [
    {
      // sid0 createOnExp for wid2 wid3 wid6 wid10 wid18 wid23 wid33 createOnExp for nid9 nid10 nid11 nid14 nid17 nid22
      "startSound": 9,
      "numSounds": 4,
      "animDelay": 2,
      "startFrame": 40,
      "numFrames": 15,
      "detectRange": 21,
      "damage": 15,
      "blowAway": 0.0457763671875,
      "shadow": true,
      "shake": 1,
      "flash": 8,
      "dirtEffect": 0,
      "id": 0,
      "name": "sid 0"
    },
    {
      // sid1 createOnExp for wid11 wid17 wid32 wid36 wid39 createOnExp for nid8 nid13 nid15 nid16
      "startSound": 9,
      "numSounds": 4,
      "animDelay": 2,
      "startFrame": 45,
      "numFrames": 10,
      "detectRange": 14,
      "damage": 10,
      "blowAway": 0.0457763671875,
      "shadow": false,
      "shake": 1,
      "flash": 3,
      "dirtEffect": 1,
      "id": 1,
      "name": "sid 1"
    },
    {
      // sid2 createOnExp for wid8 wid14 wid20 wid26 wid27 wid29 wid31 wid34 wid37 createOnExp for nid0 nid1 nid4 nid7
      "startSound": 7,
      "numSounds": 2,
      "animDelay": 4,
      "startFrame": 50,
      "numFrames": 5,
      "detectRange": 8,
      "damage": 5,
      "blowAway": 0.0457763671875,
      "shadow": false,
      "shake": 1,
      "flash": 2,
      "dirtEffect": 2,
      "id": 2,
      "name": "sid 2"
    },
    {
      // sid3 objTrailType for wid3 wid32
      "startSound": -1,
      "numSounds": 0,
      "animDelay": 4,
      "startFrame": 64,
      "numFrames": 4,
      "detectRange": 0,
      "damage": 0,
      "blowAway": 0,
      "shadow": false,
      "shake": 1,
      "flash": 0,
      "dirtEffect": -1,
      "id": 3,
      "name": "sid 3"
    },
    {
      // sid4 objTrailType for wid7 wid20
      "startSound": -1,
      "numSounds": 0,
      "animDelay": 0,
      "startFrame": 101,
      "numFrames": 0,
      "detectRange": 0,
      "damage": 0,
      "blowAway": 0,
      "shadow": true,
      "shake": 1,
      "flash": 0,
      "dirtEffect": 5,
      "id": 4,
      "name": "sid 4"
    },
    {
      // sid5 objTrailType for wid36
      "startSound": -1,
      "numSounds": 0,
      "animDelay": 2,
      "startFrame": 104,
      "numFrames": 3,
      "detectRange": 0,
      "damage": 0,
      "blowAway": 0,
      "shadow": true,
      "shake": 0,
      "flash": 0,
      "dirtEffect": -1,
      "id": 5,
      "name": "sid 5"
    },
    {
      // sid6 createOnExp for wid25 objTrailType for wid8 wid13 wid39
      "startSound": -1,
      "numSounds": 0,
      "animDelay": 3,
      "startFrame": 76,
      "numFrames": 2,
      "detectRange": 0,
      "damage": 0,
      "blowAway": 0,
      "shadow": false,
      "shake": 0,
      "flash": 0,
      "dirtEffect": -1,
      "id": 6,
      "name": "sid 6"
    },
    {
      // sid7 objTrailType for wid17
      "startSound": -1,
      "numSounds": 0,
      "animDelay": 1,
      "startFrame": 91,
      "numFrames": 0,
      "detectRange": 3,
      "damage": 5,
      "blowAway": 0.00152587890625,
      "shadow": false,
      "shake": 0,
      "flash": 0,
      "dirtEffect": -1,
      "id": 7,
      "name": "sid 7"
    },
    {
      // sid8 createOnExp for wid7 wid16 createOnExp for nid12
      "startSound": -1,
      "numSounds": 0,
      "animDelay": 3,
      "startFrame": 49,
      "numFrames": 6,
      "detectRange": 8,
      "damage": 7,
      "blowAway": 0,
      "shadow": false,
      "shake": 0,
      "flash": 0,
      "dirtEffect": 2,
      "id": 8,
      "name": "sid 8"
    },
    {
      // sid9 createOnExp for wid1 wid5 wid30 objTrailType for wid4 wid12 wid15 wid26 createOnExp for nid3
      "startSound": -1,
      "numSounds": 0,
      "animDelay": 2,
      "startFrame": 53,
      "numFrames": 2,
      "detectRange": 6,
      "damage": 0,
      "blowAway": 0,
      "shadow": false,
      "shake": 0,
      "flash": 0,
      "dirtEffect": 5,
      "id": 9,
      "name": "sid 9"
    },
    {
      // sid10 createOnExp for wid15 wid28 createOnExp for nid5 nid18
      "startSound": 9,
      "numSounds": 4,
      "animDelay": 2,
      "startFrame": 47,
      "numFrames": 8,
      "detectRange": 10,
      "damage": 8,
      "blowAway": 0.000457763671875,
      "shadow": false,
      "shake": 1,
      "flash": 3,
      "dirtEffect": 8,
      "id": 10,
      "name": "sid 10"
    },
    {
      // sid11
      "startSound": 9,
      "numSounds": 4,
      "animDelay": 2,
      "startFrame": 42,
      "numFrames": 13,
      "detectRange": 15,
      "damage": 13,
      "blowAway": 0.0457763671875,
      "shadow": true,
      "shake": 10,
      "flash": 6,
      "dirtEffect": 1,
      "id": 11,
      "name": "sid 11"
    },
    {
      // sid12 createOnExp for wid12 wid35 wid38 createOnExp for nid19
      "startSound": 9,
      "numSounds": 4,
      "animDelay": 3,
      "startFrame": 40,
      "numFrames": 15,
      "detectRange": 24,
      "damage": 22,
      "blowAway": 0.05340576171875,
      "shadow": false,
      "shake": 2,
      "flash": 5,
      "dirtEffect": 1,
      "id": 12,
      "name": "sid 12"
    },
    {
      // sid13 createOnExp for wid21 createOnExp for nid23
      "startSound": -1,
      "numSounds": 0,
      "animDelay": 3,
      "startFrame": 49,
      "numFrames": 6,
      "detectRange": 8,
      "damage": 4,
      "blowAway": 0.0000762939453125,
      "shadow": false,
      "shake": 1,
      "flash": 0,
      "dirtEffect": -1,
      "id": 13,
      "name": "sid 13"
    }
  ],
  "textures":
  [
    {
      "nDrawBack": true,
      "mFrame": 0,
      "sFrame": 73,
      "rFrame": 2,
      "id": 0,
      "name": "tid 0"
    },
    {
      "nDrawBack": true,
      "mFrame": 1,
      "sFrame": 73,
      "rFrame": 2,
      "id": 1,
      "name": "tid 1"
    },
    {
      "nDrawBack": true,
      "mFrame": 2,
      "sFrame": 73,
      "rFrame": 2,
      "id": 2,
      "name": "tid 2"
    },
    {
      "nDrawBack": true,
      "mFrame": 37,
      "sFrame": 73,
      "rFrame": 2,
      "id": 3,
      "name": "tid 3"
    },
    {
      "nDrawBack": false,
      "mFrame": 0,
      "sFrame": 87,
      "rFrame": 2,
      "id": 4,
      "name": "tid 4"
    },
    {
      "nDrawBack": true,
      "mFrame": 39,
      "sFrame": 73,
      "rFrame": 2,
      "id": 5,
      "name": "tid 5"
    },
    {
      "nDrawBack": false,
      "mFrame": 38,
      "sFrame": 82,
      "rFrame": 2,
      "id": 6,
      "name": "tid 6"
    },
    {
      "nDrawBack": true,
      "mFrame": 99,
      "sFrame": 73,
      "rFrame": 2,
      "id": 7,
      "name": "tid 7"
    },
    {
      "nDrawBack": true,
      "mFrame": 37,
      "sFrame": 73,
      "rFrame": 2,
      "id": 8,
      "name": "tid 8"
    }
  ],
  "colorAnim":
  [
    129,
    131,
    133,
    136,
    152,
    159,
    168,
    168
  ],
  "textSpritesStartIdx": 240,
  "crossHairSprite": 153,
  "name": "Liero Turbo",
  "author": "Koshmaar",
  "version": "1.0"
}
