{
  "soundpack": "blackwindv1.zip",
  "name": "Blackwind TC v1",
  "author": "Blackwind",
  "constants":
  {
    "nrInitialLength": 250,
    "nrAttachLength": 28.125,
    "minBounceUp": -0.8125,
    "minBounceDown": 0.8125,
    "minBounceHoriz": 0.8125,
    "wormGravity": 0.02288818359375,
    "wormAcc": 0.0457763671875,
    "wormMaxVel": 0.4453125,
    "jumpForce": 0.85546875,
    "maxAimVel": 0.05243098363280296,
    "aimAcc": 0.002996056340634823,
    "ninjaropeGravity": 0.0152587890625,
    "nrMinLength": 10.625,
    "nrMaxLength": 250,
    "bonusGravity": 0.02288818359375,
    "wormFricMult": 0.8899999856948853,
    "aimFric": 0.8299999833106995,
    "nrThrowVel": 4,
    "nrForce": 0.0833333358168602,
    "bonusBounce": 0.4000000059604645,
    "bonusFlickerTime": 220,
    "aimMaxAngle": 1.5707963705062866,
    "aimMinAngle": -0.9817476868629456,
    "nrAdjustVel": 1.5,
    "nrColourBegin": 62,
    "nrColourEnd": 64,
    "bonusExplodeRisk": 10,
    "bonusHealthVar": 51,
    "bonusMinHealth": 10,
    "firstBloodColour": 80,
    "numBloodColours": 2,
    "bObjGravity": 0.0152587890625,
    "splinterLarpaVelDiv": 3,
    "splinterCracklerVelDiv": 3,
    "fallDamageHoriz": 0,
    "fallDamageDown": 0,
    "fallDamageUp": 0,
    "hFallDamage": false,
    "hBonusReloadOnly": false
  },
  "weapons":
  [
    {
      "parts": 1,
      "bulletType": 0,
      "bulletSpeed": 1.899999976158142,
      "bulletSpeedInherit": 0.5263158082962036,
      "distribution": 0,
      "recoil": 0.03999999910593033,
      "ammo": 10,
      "delay": 2,
      "loadingTime": 260,
      "leaveShells": 1,
      "leaveShellDelay": 28,
      "fireCone": 6,
      "laserSight": false,
      "laserBeam": false,
      "launchSound": 1,
      "playReloadSound": true,
      "name": "RB HELL"
    },
    {
      "parts": 1,
      "bulletType": 1,
      "bulletSpeed": 5,
      "bulletSpeedInherit": 0.20000000298023224,
      "distribution": 0.4999847412109375,
      "recoil": 0,
      "ammo": 25,
      "delay": 60,
      "loadingTime": 600,
      "leaveShells": 0,
      "leaveShellDelay": 1,
      "fireCone": 0,
      "laserSight": false,
      "laserBeam": false,
      "launchSound": 4,
      "playReloadSound": true,
      "name": "FLAK CANNON"
    },
    {
      "parts": 1,
      "bulletType": 2,
      "bulletSpeed": 4,
      "bulletSpeedInherit": 0,
      "distribution": 0,
      "recoil": 0,
      "ammo": 1,
      "delay": 30,
      "loadingTime": 250,
      "leaveShells": 0,
      "leaveShellDelay": 1,
      "fireCone": 0,
      "laserSight": false,
      "laserBeam": false,
      "launchSound": 4,
      "playReloadSound": true,
      "name": "WHITE HOLE"
    },
    {
      "parts": 1,
      "bulletType": 3,
      "bulletSpeed": 0.009999999776482582,
      "bulletSpeedInherit": 0,
      "distribution": 0,
      "recoil": 0.25,
      "ammo": 1,
      "delay": 0,
      "loadingTime": 210,
      "leaveShells": 0,
      "leaveShellDelay": 1,
      "fireCone": 9,
      "laserSight": false,
      "laserBeam": false,
      "launchSound": 3,
      "playReloadSound": true,
      "name": "REDEYE ROCKET"
    },
    {
      "parts": 2,
      "bulletType": 4,
      "bulletSpeed": 25,
      "bulletSpeedInherit": 0,
      "distribution": 0,
      "recoil": 0.30000001192092896,
      "ammo": 1,
      "delay": 0,
      "loadingTime": 410,
      "leaveShells": 0,
      "leaveShellDelay": 1,
      "fireCone": 9,
      "laserSight": false,
      "laserBeam": false,
      "launchSound": 8,
      "playReloadSound": true,
      "name": "HYPERCANNON"
    },
    {
      "parts": 5,
      "bulletType": 5,
      "bulletSpeed": 1.5,
      "bulletSpeedInherit": 0.6666666865348816,
      "distribution": 0.244140625,
      "recoil": 0,
      "ammo": 5,
      "delay": 30,
      "loadingTime": 200,
      "leaveShells": 0,
      "leaveShellDelay": 1,
      "fireCone": 0,
      "laserSight": false,
      "laserBeam": false,
      "launchSound": 5,
      "playReloadSound": false,
      "name": "DYNAMITE"
    },
    {
      "parts": 3,
      "bulletType": 6,
      "bulletSpeed": 0.699999988079071,
      "bulletSpeedInherit": 0,
      "distribution": 0,
      "recoil": 0,
      "ammo": 4,
      "delay": 40,
      "loadingTime": 220,
      "leaveShells": 0,
      "leaveShellDelay": 1,
      "fireCone": 0,
      "laserSight": false,
      "laserBeam": false,
      "launchSound": 5,
      "playReloadSound": false,
      "name": "SHOCK MINES"
    },
    {
      "parts": 1,
      "bulletType": 7,
      "bulletSpeed": 2,
      "bulletSpeedInherit": 0.5,
      "distribution": 0.038909912109375,
      "recoil": 0.05000000074505806,
      "ammo": 9,
      "delay": 25,
      "loadingTime": 340,
      "leaveShells": 0,
      "leaveShellDelay": 1,
      "fireCone": 7,
      "laserSight": false,
      "laserBeam": false,
      "launchSound": 4,
      "playReloadSound": true,
      "name": "SCORPION"
    },
    {
      "parts": 6,
      "bulletType": 8,
      "bulletSpeed": 0.800000011920929,
      "bulletSpeedInherit": 0,
      "distribution": 0.06103515625,
      "recoil": 0.15000000596046448,
      "ammo": 1,
      "delay": 30,
      "loadingTime": 260,
      "leaveShells": 0,
      "leaveShellDelay": 1,
      "fireCone": 8,
      "laserSight": false,
      "laserBeam": false,
      "launchSound": 3,
      "playReloadSound": true,
      "name": "HELLFIRE"
    },
    {
      "parts": 1,
      "bulletType": 9,
      "bulletSpeed": 3.450000047683716,
      "bulletSpeedInherit": 0.28985506296157837,
      "distribution": 0.2593994140625,
      "recoil": 0,
      "ammo": 6,
      "delay": 25,
      "loadingTime": 230,
      "leaveShells": 0,
      "leaveShellDelay": 1,
      "fireCone": 8,
      "laserSight": false,
      "laserBeam": false,
      "launchSound": 4,
      "playReloadSound": false,
      "name": "SHRAPNEL RPG"
    },
    {
      "parts": 1,
      "bulletType": 10,
      "bulletSpeed": 0.019999999552965164,
      "bulletSpeedInherit": 0,
      "distribution": 0,
      "recoil": 0,
      "ammo": 1,
      "delay": 0,
      "loadingTime": 600,
      "leaveShells": 0,
      "leaveShellDelay": 1,
      "fireCone": 0,
      "laserSight": false,
      "laserBeam": false,
      "launchSound": 5,
      "playReloadSound": false,
      "name": "ENERGY CANNON"
    },
    {
      "parts": 1,
      "bulletType": 11,
      "bulletSpeed": 4,
      "bulletSpeedInherit": 0,
      "distribution": 0.2288818359375,
      "recoil": 0,
      "ammo": 3,
      "delay": 130,
      "loadingTime": 400,
      "leaveShells": 0,
      "leaveShellDelay": 1,
      "fireCone": 0,
      "laserSight": false,
      "laserBeam": false,
      "launchSound": 5,
      "playReloadSound": true,
      "name": "FIREFINGER"
    },
    {
      "parts": 10,
      "bulletType": 12,
      "bulletSpeed": 2,
      "bulletSpeedInherit": 0.5,
      "distribution": 0,
      "recoil": 0.8999999761581421,
      "ammo": 1,
      "delay": 5,
      "loadingTime": 500,
      "leaveShells": 0,
      "leaveShellDelay": 1,
      "fireCone": 14,
      "laserSight": true,
      "laserBeam": false,
      "launchSound": 10,
      "playReloadSound": true,
      "name": "RAIL GUN"
    },
    {
      "parts": 200,
      "bulletType": 13,
      "bulletSpeed": 0.15000000596046448,
      "bulletSpeedInherit": 0,
      "distribution": 0.0152587890625,
      "recoil": 0,
      "ammo": 1,
      "delay": 2,
      "loadingTime": 1000,
      "leaveShells": 1,
      "leaveShellDelay": 1,
      "fireCone": 6,
      "laserSight": false,
      "laserBeam": false,
      "launchSound": 1,
      "playReloadSound": false,
      "name": "VORTEX GEN"
    },
    {
      "parts": 1,
      "bulletType": 14,
      "bulletSpeed": 4,
      "bulletSpeedInherit": 0.25,
      "distribution": 0.0457763671875,
      "recoil": 0.05000000074505806,
      "ammo": 20,
      "delay": 2,
      "loadingTime": 120,
      "leaveShells": 1,
      "leaveShellDelay": 1,
      "fireCone": 6,
      "laserSight": true,
      "laserBeam": false,
      "launchSound": 1,
      "playReloadSound": true,
      "name": "VC AUTOCANNON"
    },
    {
      "parts": 1,
      "bulletType": 15,
      "bulletSpeed": 2,
      "bulletSpeedInherit": 0,
      "distribution": 0,
      "recoil": 0,
      "ammo": 3,
      "delay": 100,
      "loadingTime": 400,
      "leaveShells": 0,
      "leaveShellDelay": 1,
      "fireCone": 0,
      "laserSight": false,
      "laserBeam": false,
      "launchSound": 6,
      "playReloadSound": false,
      "name": "RIPPER"
    },
    {
      "parts": 1,
      "bulletType": 16,
      "bulletSpeed": 2.4000000953674316,
      "bulletSpeedInherit": 0,
      "distribution": 0,
      "recoil": 1,
      "ammo": 10,
      "delay": 100,
      "loadingTime": 40,
      "leaveShells": 0,
      "leaveShellDelay": 28,
      "fireCone": 12,
      "laserSight": true,
      "laserBeam": false,
      "launchSound": 8,
      "playReloadSound": true,
      "name": "PULSE BLASTER"
    },
    {
      "parts": 5,
      "bulletType": 17,
      "bulletSpeed": 2,
      "bulletSpeedInherit": 0.5,
      "distribution": 0.2288818359375,
      "recoil": 0.8999999761581421,
      "ammo": 1,
      "delay": 5,
      "loadingTime": 500,
      "leaveShells": 0,
      "leaveShellDelay": 1,
      "fireCone": 10,
      "laserSight": false,
      "laserBeam": false,
      "launchSound": 10,
      "playReloadSound": true,
      "name": "DRONE MINES"
    },
    {
      "parts": 1,
      "bulletType": 18,
      "bulletSpeed": 1.5,
      "bulletSpeedInherit": 0,
      "distribution": 0,
      "recoil": 1,
      "ammo": 1,
      "delay": 0,
      "loadingTime": 200,
      "leaveShells": 0,
      "leaveShellDelay": 1,
      "fireCone": 8,
      "laserSight": false,
      "laserBeam": false,
      "launchSound": 4,
      "playReloadSound": true,
      "name": "FUSION MORTAR"
    },
    {
      "parts": 1,
      "bulletType": 19,
      "bulletSpeed": 1.7000000476837158,
      "bulletSpeedInherit": 0.5882352590560913,
      "distribution": 0.30517578125,
      "recoil": 0,
      "ammo": 1,
      "delay": 0,
      "loadingTime": 600,
      "leaveShells": 0,
      "leaveShellDelay": 1,
      "fireCone": 0,
      "laserSight": false,
      "laserBeam": false,
      "launchSound": 5,
      "playReloadSound": false,
      "name": "HYDROGEN BOMB"
    },
    {
      "parts": 3,
      "bulletType": 20,
      "bulletSpeed": 2,
      "bulletSpeedInherit": 0.5,
      "distribution": 0.3899383544921875,
      "recoil": 0,
      "ammo": 20,
      "delay": 15,
      "loadingTime": 600,
      "leaveShells": 0,
      "leaveShellDelay": 1,
      "fireCone": 0,
      "laserSight": false,
      "laserBeam": false,
      "launchSound": 13,
      "playReloadSound": true,
      "name": "CONTAMINATOR"
    },
    {
      "parts": 6,
      "bulletType": 21,
      "bulletSpeed": 1,
      "bulletSpeedInherit": 1,
      "distribution": 0.152587890625,
      "recoil": 0.07000000029802322,
      "ammo": 6,
      "delay": 75,
      "loadingTime": 300,
      "leaveShells": 0,
      "leaveShellDelay": 1,
      "fireCone": 7,
      "laserSight": false,
      "laserBeam": false,
      "launchSound": 3,
      "playReloadSound": true,
      "name": "BERSERKERS"
    },
    {
      "parts": 3,
      "bulletType": 22,
      "bulletSpeed": 0.6000000238418579,
      "bulletSpeedInherit": 0,
      "distribution": 0.0762939453125,
      "recoil": 0.25,
      "ammo": 5,
      "delay": 50,
      "loadingTime": 100,
      "leaveShells": 0,
      "leaveShellDelay": 1,
      "fireCone": 0,
      "laserSight": false,
      "laserBeam": false,
      "launchSound": 8,
      "playReloadSound": false,
      "name": "PRISM GUN"
    },
    {
      "parts": 1,
      "bulletType": 23,
      "bulletSpeed": 1.7999999523162842,
      "bulletSpeedInherit": 0.5555555820465088,
      "distribution": 0.4999847412109375,
      "recoil": 0.05000000074505806,
      "ammo": 255,
      "delay": 0,
      "loadingTime": 100,
      "leaveShells": 0,
      "leaveShellDelay": 1,
      "fireCone": 0,
      "laserSight": false,
      "laserBeam": false,
      "launchSound": -1,
      "playReloadSound": true,
      "name": "JUMPJET"
    },
    {
      "parts": 80,
      "bulletType": 24,
      "bulletSpeed": 1,
      "bulletSpeedInherit": 1,
      "distribution": 0.4999847412109375,
      "recoil": 0.019999999552965164,
      "ammo": 1,
      "delay": 0,
      "loadingTime": 200,
      "leaveShells": 0,
      "leaveShellDelay": 1,
      "fireCone": 0,
      "laserSight": false,
      "laserBeam": false,
      "launchSound": 22,
      "playReloadSound": false,
      "name": "WARP RIFT"
    },
    {
      "parts": 3,
      "bulletType": 25,
      "bulletSpeed": 2,
      "bulletSpeedInherit": 0.5,
      "distribution": 0.0762939453125,
      "recoil": 0,
      "ammo": 1,
      "delay": 0,
      "loadingTime": 640,
      "leaveShells": 0,
      "leaveShellDelay": 1,
      "fireCone": 8,
      "laserSight": false,
      "laserBeam": false,
      "launchSound": 12,
      "playReloadSound": true,
      "name": "HELL WYRM"
    },
    {
      "parts": 50,
      "bulletType": 26,
      "bulletSpeed": 2.5999999046325684,
      "bulletSpeedInherit": 0.38461539149284363,
      "distribution": 0.4999847412109375,
      "recoil": 0,
      "ammo": 1,
      "delay": 3,
      "loadingTime": 140,
      "leaveShells": 1,
      "leaveShellDelay": 1,
      "fireCone": 10,
      "laserSight": false,
      "laserBeam": false,
      "launchSound": 6,
      "playReloadSound": true,
      "name": "DEATHWEB"
    },
    {
      "parts": 3,
      "bulletType": 27,
      "bulletSpeed": 4,
      "bulletSpeedInherit": 0,
      "distribution": 0.00152587890625,
      "recoil": 0.009999999776482582,
      "ammo": 10,
      "delay": 20,
      "loadingTime": 300,
      "leaveShells": 1,
      "leaveShellDelay": 1,
      "fireCone": 5,
      "laserSight": true,
      "laserBeam": false,
      "launchSound": 2,
      "playReloadSound": true,
      "name": "ASSAULT RIFLE"
    },
    {
      "parts": 1,
      "bulletType": 28,
      "bulletSpeed": 1,
      "bulletSpeedInherit": 0,
      "distribution": 0.0030517578125,
      "recoil": 0,
      "ammo": 100,
      "delay": 0,
      "loadingTime": 100,
      "leaveShells": 0,
      "leaveShellDelay": 1,
      "fireCone": 0,
      "laserSight": false,
      "laserBeam": true,
      "launchSound": -1,
      "playReloadSound": true,
      "name": "ION CANNON"
    },
    {
      "parts": 1,
      "bulletType": 29,
      "bulletSpeed": 2,
      "bulletSpeedInherit": 0.5,
      "distribution": 0.4999847412109375,
      "recoil": 0,
      "ammo": 5,
      "delay": 9,
      "loadingTime": 200,
      "leaveShells": 0,
      "leaveShellDelay": 1,
      "fireCone": 0,
      "laserSight": false,
      "laserBeam": false,
      "launchSound": 5,
      "playReloadSound": true,
      "name": "SHREDDER"
    },
    {
      "parts": 1,
      "bulletType": 30,
      "bulletSpeed": 1,
      "bulletSpeedInherit": 1,
      "distribution": 0.4999847412109375,
      "recoil": 0.15000000596046448,
      "ammo": 1,
      "delay": 0,
      "loadingTime": 540,
      "leaveShells": 0,
      "leaveShellDelay": 1,
      "fireCone": 9,
      "laserSight": false,
      "laserBeam": false,
      "launchSound": 3,
      "playReloadSound": false,
      "name": "TORPEDO"
    },
    {
      "parts": 12,
      "bulletType": 31,
      "bulletSpeed": 2,
      "bulletSpeedInherit": 0.5,
      "distribution": 0.18310546875,
      "recoil": 0.550000011920929,
      "ammo": 5,
      "delay": 57,
      "loadingTime": 235,
      "leaveShells": 1,
      "leaveShellDelay": 1,
      "fireCone": 9,
      "laserSight": false,
      "laserBeam": false,
      "launchSound": 0,
      "playReloadSound": true,
      "name": "HANDCANNON"
    },
    {
      "parts": 3,
      "bulletType": 32,
      "bulletSpeed": 0.009999999776482582,
      "bulletSpeedInherit": 0,
      "distribution": 0.0457763671875,
      "recoil": 0.4000000059604645,
      "ammo": 6,
      "delay": 18,
      "loadingTime": 380,
      "leaveShells": 0,
      "leaveShellDelay": 1,
      "fireCone": 7,
      "laserSight": false,
      "laserBeam": false,
      "launchSound": 6,
      "playReloadSound": true,
      "name": "MINI ROCKETS"
    },
    {
      "parts": 1,
      "bulletType": 33,
      "bulletSpeed": 5.699999809265137,
      "bulletSpeedInherit": 0.17543859779834747,
      "distribution": 0.1068115234375,
      "recoil": 0.09000000357627869,
      "ammo": 20,
      "delay": 4,
      "loadingTime": 320,
      "leaveShells": 1,
      "leaveShellDelay": 1,
      "fireCone": 8,
      "laserSight": false,
      "laserBeam": false,
      "launchSound": 1,
      "playReloadSound": false,
      "name": "MASS DRIVER"
    },
    {
      "parts": 1,
      "bulletType": 34,
      "bulletSpeed": 0,
      "bulletSpeedInherit": 0,
      "distribution": 0,
      "recoil": 0,
      "ammo": 1,
      "delay": 40,
      "loadingTime": 550,
      "leaveShells": 0,
      "leaveShellDelay": 1,
      "fireCone": 0,
      "laserSight": false,
      "laserBeam": false,
      "launchSound": 3,
      "playReloadSound": false,
      "name": "TURRET"
    },
    {
      "parts": 1,
      "bulletType": 35,
      "bulletSpeed": 1,
      "bulletSpeedInherit": 1,
      "distribution": 0.30517578125,
      "recoil": 0,
      "ammo": 1,
      "delay": 0,
      "loadingTime": 2000,
      "leaveShells": 0,
      "leaveShellDelay": 1,
      "fireCone": 0,
      "laserSight": false,
      "laserBeam": false,
      "launchSound": 5,
      "playReloadSound": false,
      "name": "CHRYSALIS"
    },
    {
      "parts": 1,
      "bulletType": 36,
      "bulletSpeed": 0,
      "bulletSpeedInherit": 0,
      "distribution": 0.1220703125,
      "recoil": 0,
      "ammo": 1,
      "delay": 0,
      "loadingTime": 300,
      "leaveShells": 0,
      "leaveShellDelay": 1,
      "fireCone": 9,
      "laserSight": false,
      "laserBeam": false,
      "launchSound": 27,
      "playReloadSound": true,
      "name": "CZ"
    },
    {
      "parts": 1,
      "bulletType": 37,
      "bulletSpeed": 1.7000000476837158,
      "bulletSpeedInherit": 0.5882352590560913,
      "distribution": 0.30517578125,
      "recoil": 0,
      "ammo": 1,
      "delay": 0,
      "loadingTime": 700,
      "leaveShells": 0,
      "leaveShellDelay": 1,
      "fireCone": 0,
      "laserSight": false,
      "laserBeam": false,
      "launchSound": 5,
      "playReloadSound": false,
      "name": "CHEMICAL BOMB"
    },
    {
      "parts": 1,
      "bulletType": 38,
      "bulletSpeed": 2,
      "bulletSpeedInherit": 0,
      "distribution": 0,
      "recoil": 0.30000001192092896,
      "ammo": 5,
      "delay": 30,
      "loadingTime": 200,
      "leaveShells": 0,
      "leaveShellDelay": 1,
      "fireCone": 8,
      "laserSight": false,
      "laserBeam": false,
      "launchSound": 4,
      "playReloadSound": true,
      "name": "ORB LAUNCHER"
    },
    {
      "parts": 5,
      "bulletType": 39,
      "bulletSpeed": 3,
      "bulletSpeedInherit": 0.3333333432674408,
      "distribution": 0.0030517578125,
      "recoil": 0.30000001192092896,
      "ammo": 1,
      "delay": 50,
      "loadingTime": 500,
      "leaveShells": 0,
      "leaveShellDelay": 1,
      "fireCone": 8,
      "laserSight": true,
      "laserBeam": false,
      "launchSound": 3,
      "playReloadSound": true,
      "name": "PRISM CANNON"
    }
  ],
  "wObjects":
  [
    {
 // wid0 bullet for: RB HELL
      "detectDistance": 0,
      "blowAway": 0.30000001192092896,
      "gravity": 0.01068115234375,
      "exploSound": -1,
      "addSpeed": 0,
      "distribution": 0,
      "multSpeed": 1,
      "createOnExp": 0,
      "dirtEffect": -1,
      "wormExplode": true,
      "explGround": false,
      "wormCollide": true,
      "collideWithObjects": false,
      "affectByExplosions": false,
      "bounce": 0.9900000095367432,
      "bounceFriction": 0.800000011920929,
      "timeToExplo": 580,
      "timeToExploV": 70,
      "hitDamage": 0,
      "bloodOnHit": 4,
      "startFrame": -1,
      "numFrames": 0,
      "loopAnim": false,
      "shotType": 0,
      "repeat": 1,
      "colorBullets": 101,
      "splinterAmount": 0,
      "splinterColour": 0,
      "splinterType": -1,
      "splinterScatter": 0,
      "objTrailType": -1,
      "objTrailDelay": 0,
      "partTrailType": 0,
      "partTrailObj": -1,
      "partTrailDelay": 0,
      "speed": 190
    },
    {
 // wid1 bullet for: FLAK CANNON
      "detectDistance": 15,
      "blowAway": 0,
      "gravity": 0.01678466796875,
      "exploSound": -1,
      "addSpeed": 0,
      "distribution": 0.4999847412109375,
      "multSpeed": 1,
      "createOnExp": 3,
      "dirtEffect": 1,
      "wormExplode": true,
      "explGround": true,
      "wormCollide": true,
      "collideWithObjects": false,
      "affectByExplosions": false,
      "bounce": 0,
      "bounceFriction": 0.800000011920929,
      "timeToExplo": 40,
      "timeToExploV": 0,
      "hitDamage": 0,
      "bloodOnHit": 3,
      "startFrame": 193,
      "numFrames": 0,
      "loopAnim": false,
      "shotType": 0,
      "repeat": 1,
      "colorBullets": 75,
      "splinterAmount": 30,
      "splinterColour": 0,
      "splinterType": 3,
      "splinterScatter": 0,
      "objTrailType": 3,
      "objTrailDelay": 30,
      "partTrailType": 0,
      "partTrailObj": -1,
      "partTrailDelay": 10,
      "speed": 500
    },
    {
 // wid2 bullet for: WHITE HOLE
      "detectDistance": 20,
      "blowAway": 2.549999952316284,
      "gravity": 0,
      "exploSound": -1,
      "addSpeed": 0,
      "distribution": 0,
      "multSpeed": 0.9800000190734863,
      "createOnExp": 0,
      "dirtEffect": 0,
      "wormExplode": true,
      "explGround": false,
      "wormCollide": true,
      "collideWithObjects": false,
      "affectByExplosions": false,
      "bounce": 1.0099999904632568,
      "bounceFriction": 0.800000011920929,
      "timeToExplo": 300,
      "timeToExploV": 0,
      "hitDamage": 255,
      "bloodOnHit": 0,
      "startFrame": 220,
      "numFrames": 0,
      "loopAnim": false,
      "shotType": 0,
      "repeat": 1,
      "colorBullets": 0,
      "splinterAmount": 12,
      "splinterColour": 0,
      "splinterType": 11,
      "splinterScatter": 0,
      "objTrailType": -1,
      "objTrailDelay": 0,
      "partTrailType": 0,
      "partTrailObj": 11,
      "partTrailDelay": 4,
      "speed": 400
    },
    {
 // wid3 bullet for: REDEYE ROCKET
      "detectDistance": 3,
      "blowAway": 0.25,
      "gravity": 0,
      "exploSound": -1,
      "addSpeed": 3,
      "distribution": 0,
      "multSpeed": 1.0099999904632568,
      "createOnExp": 0,
      "dirtEffect": 0,
      "wormExplode": true,
      "explGround": true,
      "wormCollide": true,
      "collideWithObjects": false,
      "affectByExplosions": false,
      "bounce": 0,
      "bounceFriction": 0.800000011920929,
      "timeToExplo": 0,
      "timeToExploV": 0,
      "hitDamage": 0,
      "bloodOnHit": 40,
      "startFrame": 112,
      "numFrames": 0,
      "loopAnim": false,
      "shotType": 3,
      "repeat": 1,
      "colorBullets": 0,
      "splinterAmount": 12,
      "splinterColour": 66,
      "splinterType": 11,
      "splinterScatter": 0,
      "objTrailType": 3,
      "objTrailDelay": 4,
      "partTrailType": 0,
      "partTrailObj": -1,
      "partTrailDelay": 0,
      "speed": 1
    },
    {
 // wid4 bullet for: HYPERCANNON
      "detectDistance": 12,
      "blowAway": 2.549999952316284,
      "gravity": 0,
      "exploSound": -1,
      "addSpeed": 0,
      "distribution": 0,
      "multSpeed": 1,
      "createOnExp": 0,
      "dirtEffect": 0,
      "wormExplode": true,
      "explGround": true,
      "wormCollide": true,
      "collideWithObjects": false,
      "affectByExplosions": false,
      "bounce": 0,
      "bounceFriction": 0.800000011920929,
      "timeToExplo": 0,
      "timeToExploV": 0,
      "hitDamage": 20,
      "bloodOnHit": 2,
      "startFrame": 149,
      "numFrames": 3,
      "loopAnim": false,
      "shotType": 3,
      "repeat": 1,
      "colorBullets": 0,
      "splinterAmount": 6,
      "splinterColour": 66,
      "splinterType": 18,
      "splinterScatter": 1,
      "objTrailType": 4,
      "objTrailDelay": 3,
      "partTrailType": 0,
      "partTrailObj": -1,
      "partTrailDelay": 0,
      "speed": 2500
    },
    {
 // wid5 bullet for: DYNAMITE
      "detectDistance": 0,
      "blowAway": 0,
      "gravity": 0.0152587890625,
      "exploSound": -1,
      "addSpeed": 0,
      "distribution": 0.244140625,
      "multSpeed": 1,
      "createOnExp": 0,
      "dirtEffect": -1,
      "wormExplode": true,
      "explGround": false,
      "wormCollide": false,
      "collideWithObjects": false,
      "affectByExplosions": true,
      "bounce": 0.4000000059604645,
      "bounceFriction": 0.800000011920929,
      "timeToExplo": 300,
      "timeToExploV": 90,
      "hitDamage": 0,
      "bloodOnHit": 0,
      "startFrame": 198,
      "numFrames": 3,
      "loopAnim": true,
      "shotType": 0,
      "repeat": 1,
      "colorBullets": 0,
      "splinterAmount": 10,
      "splinterColour": 0,
      "splinterType": 18,
      "splinterScatter": 0,
      "objTrailType": -1,
      "objTrailDelay": 0,
      "partTrailType": 0,
      "partTrailObj": -1,
      "partTrailDelay": 0,
      "speed": 150
    },
    {
 // wid6 bullet for: SHOCK MINES
      "detectDistance": 8,
      "blowAway": 1.2999999523162842,
      "gravity": 0,
      "exploSound": 2,
      "addSpeed": 0,
      "distribution": 0,
      "multSpeed": 0.9700000286102295,
      "createOnExp": 0,
      "dirtEffect": -1,
      "wormExplode": true,
      "explGround": false,
      "wormCollide": true,
      "collideWithObjects": true,
      "affectByExplosions": true,
      "bounce": 0.4000000059604645,
      "bounceFriction": 0.800000011920929,
      "timeToExplo": 3000,
      "timeToExploV": 50,
      "hitDamage": 0,
      "bloodOnHit": 50,
      "startFrame": 178,
      "numFrames": 0,
      "loopAnim": false,
      "shotType": 0,
      "repeat": 1,
      "colorBullets": 232,
      "splinterAmount": 45,
      "splinterColour": 66,
      "splinterType": 17,
      "splinterScatter": 0,
      "objTrailType": -1,
      "objTrailDelay": 0,
      "partTrailType": 0,
      "partTrailObj": -1,
      "partTrailDelay": 0,
      "speed": 70
    },
    {
 // wid7 bullet for: SCORPION
      "detectDistance": 1,
      "blowAway": 0.10000000149011612,
      "gravity": 0,
      "exploSound": -1,
      "addSpeed": 10,
      "distribution": 0.038909912109375,
      "multSpeed": 1,
      "createOnExp": 0,
      "dirtEffect": -1,
      "wormExplode": true,
      "explGround": true,
      "wormCollide": true,
      "collideWithObjects": true,
      "affectByExplosions": true,
      "bounce": 0.5,
      "bounceFriction": 0.800000011920929,
      "timeToExplo": 700,
      "timeToExploV": 0,
      "hitDamage": 0,
      "bloodOnHit": 8,
      "startFrame": 223,
      "numFrames": 0,
      "loopAnim": false,
      "shotType": 3,
      "repeat": 1,
      "colorBullets": 0,
      "splinterAmount": 0,
      "splinterColour": 0,
      "splinterType": -1,
      "splinterScatter": 0,
      "objTrailType": 9,
      "objTrailDelay": 2,
      "partTrailType": 0,
      "partTrailObj": -1,
      "partTrailDelay": 0,
      "speed": 200
    },
    {
 // wid8 bullet for: HELLFIRE
      "detectDistance": 4,
      "blowAway": 0.25,
      "gravity": 0,
      "exploSound": -1,
      "addSpeed": 10,
      "distribution": 0.06103515625,
      "multSpeed": 1,
      "createOnExp": 1,
      "dirtEffect": -1,
      "wormExplode": false,
      "explGround": true,
      "wormCollide": false,
      "collideWithObjects": false,
      "affectByExplosions": true,
      "bounce": 0,
      "bounceFriction": 0.800000011920929,
      "timeToExplo": 0,
      "timeToExploV": 0,
      "hitDamage": 1,
      "bloodOnHit": 30,
      "startFrame": 127,
      "numFrames": 0,
      "loopAnim": false,
      "shotType": 3,
      "repeat": 1,
      "colorBullets": 0,
      "splinterAmount": 4,
      "splinterColour": 0,
      "splinterType": 12,
      "splinterScatter": 0,
      "objTrailType": 6,
      "objTrailDelay": 2,
      "partTrailType": 0,
      "partTrailObj": -1,
      "partTrailDelay": 0,
      "speed": 80
    },
    {
 // wid9 bullet for: SHRAPNEL RPG
      "detectDistance": 6,
      "blowAway": 0.009999999776482582,
      "gravity": 0.0244140625,
      "exploSound": -1,
      "addSpeed": 0,
      "distribution": 0.2593994140625,
      "multSpeed": 1,
      "createOnExp": 0,
      "dirtEffect": -1,
      "wormExplode": false,
      "explGround": false,
      "wormCollide": false,
      "collideWithObjects": false,
      "affectByExplosions": true,
      "bounce": 0.15000000596046448,
      "bounceFriction": 0.800000011920929,
      "timeToExplo": 115,
      "timeToExploV": 10,
      "hitDamage": 0,
      "bloodOnHit": 0,
      "startFrame": 206,
      "numFrames": 3,
      "loopAnim": true,
      "shotType": 0,
      "repeat": 1,
      "colorBullets": 0,
      "splinterAmount": 50,
      "splinterColour": 68,
      "splinterType": 4,
      "splinterScatter": 0,
      "objTrailType": 6,
      "objTrailDelay": 5,
      "partTrailType": 1,
      "partTrailObj": -1,
      "partTrailDelay": 0,
      "speed": 345
    },
    {
 // wid10 bullet for: ENERGY CANNON
      "detectDistance": 8,
      "blowAway": 0.2800000011920929,
      "gravity": 0,
      "exploSound": -1,
      "addSpeed": 0,
      "distribution": 0,
      "multSpeed": 1.0399999618530273,
      "createOnExp": -1,
      "dirtEffect": -1,
      "wormExplode": false,
      "explGround": true,
      "wormCollide": false,
      "collideWithObjects": false,
      "affectByExplosions": true,
      "bounce": 0,
      "bounceFriction": 0.800000011920929,
      "timeToExplo": 0,
      "timeToExploV": 0,
      "hitDamage": 1,
      "bloodOnHit": 0,
      "startFrame": -1,
      "numFrames": 0,
      "loopAnim": false,
      "shotType": 0,
      "repeat": 1,
      "colorBullets": 0,
      "splinterAmount": 200,
      "splinterColour": 0,
      "splinterType": 8,
      "splinterScatter": 0,
      "objTrailType": 4,
      "objTrailDelay": 1,
      "partTrailType": 0,
      "partTrailObj": -1,
      "partTrailDelay": 0,
      "speed": 2
    },
    {
 // wid11 bullet for: FIREFINGER
      "detectDistance": 0,
      "blowAway": 0,
      "gravity": 0.0457763671875,
      "exploSound": -1,
      "addSpeed": 0,
      "distribution": 0.2288818359375,
      "multSpeed": 1,
      "createOnExp": -1,
      "dirtEffect": -1,
      "wormExplode": false,
      "explGround": false,
      "wormCollide": false,
      "collideWithObjects": false,
      "affectByExplosions": true,
      "bounce": 1,
      "bounceFriction": 1,
      "timeToExplo": 50,
      "timeToExploV": 0,
      "hitDamage": 0,
      "bloodOnHit": 0,
      "startFrame": 206,
      "numFrames": 3,
      "loopAnim": true,
      "shotType": 0,
      "repeat": 1,
      "colorBullets": 0,
      "splinterAmount": 1,
      "splinterColour": 0,
      "splinterType": 12,
      "splinterScatter": 1,
      "objTrailType": -1,
      "objTrailDelay": 0,
      "partTrailType": 1,
      "partTrailObj": 13,
      "partTrailDelay": 2,
      "speed": 400
    },
    {
 // wid12 bullet for: RAIL GUN
      "detectDistance": 1,
      "blowAway": 0.20000000298023224,
      "gravity": 0,
      "exploSound": -1,
      "addSpeed": 0,
      "distribution": 0,
      "multSpeed": 1,
      "createOnExp": 1,
      "dirtEffect": -1,
      "wormExplode": true,
      "explGround": true,
      "wormCollide": true,
      "collideWithObjects": false,
      "affectByExplosions": false,
      "bounce": 0,
      "bounceFriction": 0.800000011920929,
      "timeToExplo": 0,
      "timeToExploV": 0,
      "hitDamage": 0,
      "bloodOnHit": 7,
      "startFrame": 196,
      "numFrames": 0,
      "loopAnim": false,
      "shotType": 4,
      "repeat": 8,
      "colorBullets": 0,
      "splinterAmount": 10,
      "splinterColour": 75,
      "splinterType": 5,
      "splinterScatter": 0,
      "objTrailType": 6,
      "objTrailDelay": 1,
      "partTrailType": 0,
      "partTrailObj": -1,
      "partTrailDelay": 0,
      "speed": 200
    },
    {
 // wid13 bullet for: VORTEX GEN
      "detectDistance": 0,
      "blowAway": 0.20000000298023224,
      "gravity": 0,
      "exploSound": -1,
      "addSpeed": 0,
      "distribution": 0.0152587890625,
      "multSpeed": 1.0099999904632568,
      "createOnExp": 0,
      "dirtEffect": -1,
      "wormExplode": false,
      "explGround": false,
      "wormCollide": false,
      "collideWithObjects": true,
      "affectByExplosions": false,
      "bounce": 1,
      "bounceFriction": 1,
      "timeToExplo": 630,
      "timeToExploV": 70,
      "hitDamage": 0,
      "bloodOnHit": 0,
      "startFrame": -1,
      "numFrames": 0,
      "loopAnim": false,
      "shotType": 0,
      "repeat": 1,
      "colorBullets": 20,
      "splinterAmount": 16,
      "splinterColour": 0,
      "splinterType": 5,
      "splinterScatter": 0,
      "objTrailType": -1,
      "objTrailDelay": 0,
      "partTrailType": 0,
      "partTrailObj": 5,
      "partTrailDelay": 190,
      "speed": 15
    },
    {
 // wid14 bullet for: VC AUTOCANNON
      "detectDistance": 2,
      "blowAway": 0.07999999821186066,
      "gravity": 0.00152587890625,
      "exploSound": -1,
      "addSpeed": 0,
      "distribution": 0.0457763671875,
      "multSpeed": 1,
      "createOnExp": 2,
      "dirtEffect": 5,
      "wormExplode": false,
      "explGround": true,
      "wormCollide": true,
      "collideWithObjects": true,
      "affectByExplosions": false,
      "bounce": 0,
      "bounceFriction": 0.800000011920929,
      "timeToExplo": 0,
      "timeToExploV": 0,
      "hitDamage": 3,
      "bloodOnHit": 3,
      "startFrame": -1,
      "numFrames": 0,
      "loopAnim": false,
      "shotType": 0,
      "repeat": 1,
      "colorBullets": 68,
      "splinterAmount": 0,
      "splinterColour": 0,
      "splinterType": -1,
      "splinterScatter": 1,
      "objTrailType": 13,
      "objTrailDelay": 1,
      "partTrailType": 0,
      "partTrailObj": -1,
      "partTrailDelay": 50,
      "speed": 400
    },
    {
 // wid15 bullet for: RIPPER
      "detectDistance": 2,
      "blowAway": 0.30000001192092896,
      "gravity": 0.0396728515625,
      "exploSound": -1,
      "addSpeed": 0,
      "distribution": 0,
      "multSpeed": 1,
      "createOnExp": 2,
      "dirtEffect": -1,
      "wormExplode": false,
      "explGround": false,
      "wormCollide": false,
      "collideWithObjects": false,
      "affectByExplosions": false,
      "bounce": 1,
      "bounceFriction": 1,
      "timeToExplo": 1000,
      "timeToExploV": 100,
      "hitDamage": 2,
      "bloodOnHit": 20,
      "startFrame": 181,
      "numFrames": 3,
      "loopAnim": true,
      "shotType": 0,
      "repeat": 1,
      "colorBullets": 0,
      "splinterAmount": 1,
      "splinterColour": 0,
      "splinterType": 12,
      "splinterScatter": 1,
      "objTrailType": 9,
      "objTrailDelay": 1,
      "partTrailType": 0,
      "partTrailObj": -1,
      "partTrailDelay": 0,
      "speed": 200
    },
    {
 // wid16 bullet for: PULSE BLASTER
      "detectDistance": 2,
      "blowAway": 1,
      "gravity": 0,
      "exploSound": -1,
      "addSpeed": 0,
      "distribution": 0,
      "multSpeed": 1,
      "createOnExp": 0,
      "dirtEffect": -1,
      "wormExplode": true,
      "explGround": true,
      "wormCollide": true,
      "collideWithObjects": true,
      "affectByExplosions": false,
      "bounce": 0,
      "bounceFriction": 0.800000011920929,
      "timeToExplo": 350,
      "timeToExploV": 0,
      "hitDamage": 30,
      "bloodOnHit": 30,
      "startFrame": 149,
      "numFrames": 3,
      "loopAnim": false,
      "shotType": 0,
      "repeat": 1,
      "colorBullets": 104,
      "splinterAmount": 3,
      "splinterColour": 0,
      "splinterType": 12,
      "splinterScatter": 0,
      "objTrailType": 4,
      "objTrailDelay": 5,
      "partTrailType": 0,
      "partTrailObj": -1,
      "partTrailDelay": 0,
      "speed": 240
    },
    {
 // wid17 bullet for: DRONE MINES
      "detectDistance": 1,
      "blowAway": 2.549999952316284,
      "gravity": 0.000762939453125,
      "exploSound": -1,
      "addSpeed": 0,
      "distribution": 0.2288818359375,
      "multSpeed": 0.9900000095367432,
      "createOnExp": 10,
      "dirtEffect": -1,
      "wormExplode": true,
      "explGround": false,
      "wormCollide": true,
      "collideWithObjects": false,
      "affectByExplosions": true,
      "bounce": 0.9900000095367432,
      "bounceFriction": 0.800000011920929,
      "timeToExplo": 1000,
      "timeToExploV": 700,
      "hitDamage": 10,
      "bloodOnHit": 40,
      "startFrame": 181,
      "numFrames": 1,
      "loopAnim": false,
      "shotType": 3,
      "repeat": 1,
      "colorBullets": 0,
      "splinterAmount": 2,
      "splinterColour": 75,
      "splinterType": 5,
      "splinterScatter": 0,
      "objTrailType": -1,
      "objTrailDelay": 0,
      "partTrailType": 0,
      "partTrailObj": 4,
      "partTrailDelay": 10,
      "speed": 200
    },
    {
 // wid18 bullet for: FUSION MORTAR
      "detectDistance": 0,
      "blowAway": 0.30000001192092896,
      "gravity": 0.0091552734375,
      "exploSound": -1,
      "addSpeed": 0,
      "distribution": 0,
      "multSpeed": 1,
      "createOnExp": 0,
      "dirtEffect": -1,
      "wormExplode": true,
      "explGround": true,
      "wormCollide": true,
      "collideWithObjects": false,
      "affectByExplosions": true,
      "bounce": 0,
      "bounceFriction": 0.800000011920929,
      "timeToExplo": 0,
      "timeToExploV": 0,
      "hitDamage": 30,
      "bloodOnHit": 0,
      "startFrame": 196,
      "numFrames": 0,
      "loopAnim": false,
      "shotType": 0,
      "repeat": 1,
      "colorBullets": 0,
      "splinterAmount": 10,
      "splinterColour": 75,
      "splinterType": 16,
      "splinterScatter": 0,
      "objTrailType": 10,
      "objTrailDelay": 15,
      "partTrailType": 0,
      "partTrailObj": -1,
      "partTrailDelay": 0,
      "speed": 150
    },
    {
 // wid19 bullet for: HYDROGEN BOMB
      "detectDistance": 0,
      "blowAway": 0,
      "gravity": 0.091552734375,
      "exploSound": 4,
      "addSpeed": 0,
      "distribution": 0.30517578125,
      "multSpeed": 1,
      "createOnExp": 0,
      "dirtEffect": -1,
      "wormExplode": false,
      "explGround": false,
      "wormCollide": true,
      "collideWithObjects": true,
      "affectByExplosions": true,
      "bounce": 0.6499999761581421,
      "bounceFriction": 0.800000011920929,
      "timeToExplo": 300,
      "timeToExploV": 0,
      "hitDamage": 0,
      "bloodOnHit": 0,
      "startFrame": 126,
      "numFrames": 0,
      "loopAnim": false,
      "shotType": 0,
      "repeat": 1,
      "colorBullets": 0,
      "splinterAmount": 100,
      "splinterColour": 0,
      "splinterType": 16,
      "splinterScatter": 0,
      "objTrailType": -1,
      "objTrailDelay": 0,
      "partTrailType": 0,
      "partTrailObj": 16,
      "partTrailDelay": 30,
      "speed": 170
    },
    {
 // wid20 bullet for: CONTAMINATOR
      "detectDistance": 0,
      "blowAway": 0,
      "gravity": 0.0152587890625,
      "exploSound": 13,
      "addSpeed": 0,
      "distribution": 0.3899383544921875,
      "multSpeed": 1,
      "createOnExp": 10,
      "dirtEffect": 6,
      "wormExplode": false,
      "explGround": false,
      "wormCollide": false,
      "collideWithObjects": false,
      "affectByExplosions": true,
      "bounce": 0.30000001192092896,
      "bounceFriction": 0.800000011920929,
      "timeToExplo": 65,
      "timeToExploV": 0,
      "hitDamage": 0,
      "bloodOnHit": 0,
      "startFrame": -1,
      "numFrames": 0,
      "loopAnim": false,
      "shotType": 0,
      "repeat": 1,
      "colorBullets": 52,
      "splinterAmount": 1,
      "splinterColour": 0,
      "splinterType": 14,
      "splinterScatter": 0,
      "objTrailType": -1,
      "objTrailDelay": 0,
      "partTrailType": 0,
      "partTrailObj": -1,
      "partTrailDelay": 0,
      "speed": 200
    },
    {
 // wid21 bullet for: BERSERKERS
      "detectDistance": 0,
      "blowAway": 0.10000000149011612,
      "gravity": 0,
      "exploSound": -1,
      "addSpeed": 10,
      "distribution": 0.152587890625,
      "multSpeed": 1,
      "createOnExp": 1,
      "dirtEffect": -1,
      "wormExplode": true,
      "explGround": true,
      "wormCollide": true,
      "collideWithObjects": false,
      "affectByExplosions": false,
      "bounce": 0,
      "bounceFriction": 0.800000011920929,
      "timeToExplo": 0,
      "timeToExploV": 0,
      "hitDamage": 0,
      "bloodOnHit": 5,
      "startFrame": 112,
      "numFrames": 0,
      "loopAnim": false,
      "shotType": 3,
      "repeat": 1,
      "colorBullets": 0,
      "splinterAmount": 3,
      "splinterColour": 0,
      "splinterType": 3,
      "splinterScatter": 0,
      "objTrailType": 3,
      "objTrailDelay": 4,
      "partTrailType": 0,
      "partTrailObj": -1,
      "partTrailDelay": 0,
      "speed": 80
    },
    {
 // wid22 bullet for: PRISM GUN
      "detectDistance": 0,
      "blowAway": 0,
      "gravity": 0,
      "exploSound": 10,
      "addSpeed": 0,
      "distribution": 0.0762939453125,
      "multSpeed": 1,
      "createOnExp": 2,
      "dirtEffect": -1,
      "wormExplode": false,
      "explGround": false,
      "wormCollide": false,
      "collideWithObjects": false,
      "affectByExplosions": false,
      "bounce": 1,
      "bounceFriction": 1,
      "timeToExplo": 700,
      "timeToExploV": 0,
      "hitDamage": 1,
      "bloodOnHit": 1,
      "startFrame": -1,
      "numFrames": 0,
      "loopAnim": false,
      "shotType": 4,
      "repeat": 8,
      "colorBullets": 3,
      "splinterAmount": 3,
      "splinterColour": 3,
      "splinterType": 4,
      "splinterScatter": 0,
      "objTrailType": 6,
      "objTrailDelay": 1,
      "partTrailType": 0,
      "partTrailObj": -1,
      "partTrailDelay": 1,
      "speed": 60
    },
    {
 // wid23 bullet for: JUMPJET
      "detectDistance": 1,
      "blowAway": 0.5,
      "gravity": 0,
      "exploSound": -1,
      "addSpeed": 0,
      "distribution": 0.4999847412109375,
      "multSpeed": 1,
      "createOnExp": -1,
      "dirtEffect": 3,
      "wormExplode": false,
      "explGround": true,
      "wormCollide": true,
      "collideWithObjects": true,
      "affectByExplosions": false,
      "bounce": 0,
      "bounceFriction": 0.800000011920929,
      "timeToExplo": 45,
      "timeToExploV": 10,
      "hitDamage": 0,
      "bloodOnHit": 0,
      "startFrame": -1,
      "numFrames": 0,
      "loopAnim": false,
      "shotType": 0,
      "repeat": 1,
      "colorBullets": 23,
      "splinterAmount": 0,
      "splinterColour": 0,
      "splinterType": -1,
      "splinterScatter": 0,
      "objTrailType": 3,
      "objTrailDelay": 100,
      "partTrailType": 0,
      "partTrailObj": -1,
      "partTrailDelay": 0,
      "speed": 180
    },
    {
 // wid24 bullet for: WARP RIFT
      "detectDistance": 0,
      "blowAway": 0.10000000149011612,
      "gravity": -0.030517578125,
      "exploSound": -1,
      "addSpeed": 0,
      "distribution": 0.4999847412109375,
      "multSpeed": -1.0099999904632568,
      "createOnExp": 2,
      "dirtEffect": -1,
      "wormExplode": true,
      "explGround": true,
      "wormCollide": true,
      "collideWithObjects": true,
      "affectByExplosions": false,
      "bounce": 0,
      "bounceFriction": 0.800000011920929,
      "timeToExplo": 3141,
      "timeToExploV": 0,
      "hitDamage": 0,
      "bloodOnHit": 0,
      "startFrame": -1,
      "numFrames": 0,
      "loopAnim": false,
      "shotType": 3,
      "repeat": 1,
      "colorBullets": 25,
      "splinterAmount": 0,
      "splinterColour": 0,
      "splinterType": -1,
      "splinterScatter": 1,
      "objTrailType": -1,
      "objTrailDelay": 0,
      "partTrailType": 0,
      "partTrailObj": -1,
      "partTrailDelay": 0,
      "speed": 10
    },
    {
 // wid25 bullet for: HELL WYRM
      "detectDistance": 5,
      "blowAway": 0.029999999329447746,
      "gravity": 0.0457763671875,
      "exploSound": 2,
      "addSpeed": 0,
      "distribution": 0.0762939453125,
      "multSpeed": 1,
      "createOnExp": 0,
      "dirtEffect": 0,
      "wormExplode": true,
      "explGround": false,
      "wormCollide": false,
      "collideWithObjects": false,
      "affectByExplosions": false,
      "bounce": 1.100000023841858,
      "bounceFriction": 0.800000011920929,
      "timeToExplo": 400,
      "timeToExploV": 20,
      "hitDamage": 1,
      "bloodOnHit": 100,
      "startFrame": 179,
      "numFrames": 0,
      "loopAnim": false,
      "shotType": 0,
      "repeat": 1,
      "colorBullets": 0,
      "splinterAmount": 12,
      "splinterColour": 0,
      "splinterType": 10,
      "splinterScatter": 0,
      "objTrailType": 12,
      "objTrailDelay": 2,
      "partTrailType": 0,
      "partTrailObj": 12,
      "partTrailDelay": 50,
      "speed": 200
    },
    {
 // wid26 bullet for: DEATHWEB
      "detectDistance": 0,
      "blowAway": 0.10000000149011612,
      "gravity": 0,
      "exploSound": -1,
      "addSpeed": 0,
      "distribution": 0.4999847412109375,
      "multSpeed": 0.9800000190734863,
      "createOnExp": 0,
      "dirtEffect": -1,
      "wormExplode": false,
      "explGround": false,
      "wormCollide": false,
      "collideWithObjects": false,
      "affectByExplosions": false,
      "bounce": 0.3499999940395355,
      "bounceFriction": 0.800000011920929,
      "timeToExplo": 130,
      "timeToExploV": 0,
      "hitDamage": 0,
      "bloodOnHit": 0,
      "startFrame": -1,
      "numFrames": 0,
      "loopAnim": false,
      "shotType": 0,
      "repeat": 1,
      "colorBullets": 52,
      "splinterAmount": 1,
      "splinterColour": 52,
      "splinterType": 5,
      "splinterScatter": 0,
      "objTrailType": 2,
      "objTrailDelay": 110,
      "partTrailType": 0,
      "partTrailObj": -1,
      "partTrailDelay": 0,
      "speed": 260
    },
    {
 // wid27 bullet for: ASSAULT RIFLE
      "detectDistance": 1,
      "blowAway": 0.03999999910593033,
      "gravity": 0.00030517578125,
      "exploSound": 7,
      "addSpeed": 0,
      "distribution": 0.00152587890625,
      "multSpeed": 1,
      "createOnExp": 3,
      "dirtEffect": 1,
      "wormExplode": false,
      "explGround": true,
      "wormCollide": false,
      "collideWithObjects": true,
      "affectByExplosions": false,
      "bounce": 0,
      "bounceFriction": 0.800000011920929,
      "timeToExplo": 0,
      "timeToExploV": 0,
      "hitDamage": 3,
      "bloodOnHit": 8,
      "startFrame": -1,
      "numFrames": 0,
      "loopAnim": false,
      "shotType": 4,
      "repeat": 8,
      "colorBullets": 67,
      "splinterAmount": 3,
      "splinterColour": 0,
      "splinterType": 2,
      "splinterScatter": 0,
      "objTrailType": -1,
      "objTrailDelay": 0,
      "partTrailType": 0,
      "partTrailObj": -1,
      "partTrailDelay": 0,
      "speed": 400
    },
    {
 // wid28 bullet for: ION CANNON
      "detectDistance": 2,
      "blowAway": 1,
      "gravity": 0,
      "exploSound": -1,
      "addSpeed": 0,
      "distribution": 0.0030517578125,
      "multSpeed": 1,
      "createOnExp": 4,
      "dirtEffect": -1,
      "wormExplode": true,
      "explGround": true,
      "wormCollide": true,
      "collideWithObjects": false,
      "affectByExplosions": true,
      "bounce": 0,
      "bounceFriction": 0.800000011920929,
      "timeToExplo": 0,
      "timeToExploV": 0,
      "hitDamage": 1,
      "bloodOnHit": 4,
      "startFrame": -1,
      "numFrames": 0,
      "loopAnim": false,
      "shotType": 4,
      "repeat": 1000,
      "colorBullets": 34,
      "splinterAmount": 1,
      "splinterColour": 115,
      "splinterType": 18,
      "splinterScatter": 0,
      "objTrailType": -1,
      "objTrailDelay": 0,
      "partTrailType": 0,
      "partTrailObj": 11,
      "partTrailDelay": 100,
      "speed": 100
    },
    {
 // wid29 bullet for: SHREDDER
      "detectDistance": 1,
      "blowAway": 0.20000000298023224,
      "gravity": 0.030517578125,
      "exploSound": -1,
      "addSpeed": 0,
      "distribution": 0.4999847412109375,
      "multSpeed": 1,
      "createOnExp": 0,
      "dirtEffect": -1,
      "wormExplode": false,
      "explGround": false,
      "wormCollide": false,
      "collideWithObjects": true,
      "affectByExplosions": true,
      "bounce": 0.6000000238418579,
      "bounceFriction": 0.800000011920929,
      "timeToExplo": 200,
      "timeToExploV": 50,
      "hitDamage": 1,
      "bloodOnHit": 20,
      "startFrame": 181,
      "numFrames": 3,
      "loopAnim": true,
      "shotType": 0,
      "repeat": 1,
      "colorBullets": 0,
      "splinterAmount": 12,
      "splinterColour": 44,
      "splinterType": 12,
      "splinterScatter": 0,
      "objTrailType": 8,
      "objTrailDelay": 40,
      "partTrailType": 0,
      "partTrailObj": 4,
      "partTrailDelay": 15,
      "speed": 200
    },
    {
 // wid30 bullet for: TORPEDO
      "detectDistance": 1,
      "blowAway": 0,
      "gravity": 0,
      "exploSound": -1,
      "addSpeed": 100,
      "distribution": 0.4999847412109375,
      "multSpeed": 1,
      "createOnExp": 0,
      "dirtEffect": -1,
      "wormExplode": true,
      "explGround": true,
      "wormCollide": true,
      "collideWithObjects": true,
      "affectByExplosions": true,
      "bounce": 0,
      "bounceFriction": 0.800000011920929,
      "timeToExplo": 0,
      "timeToExploV": 0,
      "hitDamage": 0,
      "bloodOnHit": 255,
      "startFrame": 110,
      "numFrames": 0,
      "loopAnim": false,
      "shotType": 2,
      "repeat": 1,
      "colorBullets": 0,
      "splinterAmount": 25,
      "splinterColour": 66,
      "splinterType": 18,
      "splinterScatter": 0,
      "objTrailType": 3,
      "objTrailDelay": 4,
      "partTrailType": 1,
      "partTrailObj": -1,
      "partTrailDelay": 0,
      "speed": 100
    },
    {
 // wid31 bullet for: HANDCANNON
      "detectDistance": 3,
      "blowAway": 0.03999999910593033,
      "gravity": 0.01068115234375,
      "exploSound": -1,
      "addSpeed": 0,
      "distribution": 0.18310546875,
      "multSpeed": 1,
      "createOnExp": 10,
      "dirtEffect": 3,
      "wormExplode": true,
      "explGround": true,
      "wormCollide": true,
      "collideWithObjects": false,
      "affectByExplosions": false,
      "bounce": 0,
      "bounceFriction": 0.800000011920929,
      "timeToExplo": 0,
      "timeToExploV": 0,
      "hitDamage": 0,
      "bloodOnHit": 7,
      "startFrame": -1,
      "numFrames": 0,
      "loopAnim": false,
      "shotType": 0,
      "repeat": 1,
      "colorBullets": 75,
      "splinterAmount": 0,
      "splinterColour": 0,
      "splinterType": 2,
      "splinterScatter": 0,
      "objTrailType": -1,
      "objTrailDelay": 0,
      "partTrailType": 0,
      "partTrailObj": -1,
      "partTrailDelay": 0,
      "speed": 200
    },
    {
 // wid32 bullet for: MINI ROCKETS
      "detectDistance": 1,
      "blowAway": 0.10000000149011612,
      "gravity": 0,
      "exploSound": -1,
      "addSpeed": 6,
      "distribution": 0.0457763671875,
      "multSpeed": 1.0099999904632568,
      "createOnExp": 0,
      "dirtEffect": -1,
      "wormExplode": true,
      "explGround": true,
      "wormCollide": true,
      "collideWithObjects": false,
      "affectByExplosions": true,
      "bounce": 0,
      "bounceFriction": 0.800000011920929,
      "timeToExplo": 0,
      "timeToExploV": 0,
      "hitDamage": 6,
      "bloodOnHit": 8,
      "startFrame": 223,
      "numFrames": 0,
      "loopAnim": false,
      "shotType": 3,
      "repeat": 1,
      "colorBullets": 0,
      "splinterAmount": 0,
      "splinterColour": 0,
      "splinterType": -1,
      "splinterScatter": 0,
      "objTrailType": 6,
      "objTrailDelay": 4,
      "partTrailType": 0,
      "partTrailObj": -1,
      "partTrailDelay": 0,
      "speed": 1
    },
    {
 // wid33 bullet for: MASS DRIVER
      "detectDistance": 3,
      "blowAway": 0.25,
      "gravity": 0.00030517578125,
      "exploSound": 4,
      "addSpeed": 0,
      "distribution": 0.1068115234375,
      "multSpeed": 1,
      "createOnExp": 11,
      "dirtEffect": -1,
      "wormExplode": true,
      "explGround": true,
      "wormCollide": true,
      "collideWithObjects": false,
      "affectByExplosions": false,
      "bounce": 0,
      "bounceFriction": 0.800000011920929,
      "timeToExplo": 0,
      "timeToExploV": 0,
      "hitDamage": 0,
      "bloodOnHit": 15,
      "startFrame": 220,
      "numFrames": 0,
      "loopAnim": false,
      "shotType": 0,
      "repeat": 1,
      "colorBullets": 68,
      "splinterAmount": 1,
      "splinterColour": 67,
      "splinterType": 18,
      "splinterScatter": 0,
      "objTrailType": -1,
      "objTrailDelay": 0,
      "partTrailType": 0,
      "partTrailObj": -1,
      "partTrailDelay": 0,
      "speed": 570
    },
    {
 // wid34 bullet for: TURRET
      "detectDistance": 5,
      "blowAway": 2.549999952316284,
      "gravity": 0,
      "exploSound": -1,
      "addSpeed": 60,
      "distribution": 0,
      "multSpeed": 1,
      "createOnExp": 0,
      "dirtEffect": -1,
      "wormExplode": true,
      "explGround": true,
      "wormCollide": true,
      "collideWithObjects": true,
      "affectByExplosions": true,
      "bounce": 0,
      "bounceFriction": 0.800000011920929,
      "timeToExplo": 0,
      "timeToExploV": 0,
      "hitDamage": 5,
      "bloodOnHit": 5,
      "startFrame": 110,
      "numFrames": 0,
      "loopAnim": false,
      "shotType": 2,
      "repeat": 1,
      "colorBullets": 0,
      "splinterAmount": 0,
      "splinterColour": 75,
      "splinterType": -1,
      "splinterScatter": 1,
      "objTrailType": -1,
      "objTrailDelay": 0,
      "partTrailType": 1,
      "partTrailObj": 5,
      "partTrailDelay": 5,
      "speed": 0
    },
    {
 // wid35 bullet for: CHRYSALIS
      "detectDistance": 5,
      "blowAway": 0,
      "gravity": 0.018310546875,
      "exploSound": 2,
      "addSpeed": 0,
      "distribution": 0.30517578125,
      "multSpeed": 1,
      "createOnExp": 0,
      "dirtEffect": 4,
      "wormExplode": false,
      "explGround": false,
      "wormCollide": true,
      "collideWithObjects": false,
      "affectByExplosions": true,
      "bounce": 0.4000000059604645,
      "bounceFriction": 0.800000011920929,
      "timeToExplo": 2000,
      "timeToExploV": 0,
      "hitDamage": 0,
      "bloodOnHit": 255,
      "startFrame": 219,
      "numFrames": 0,
      "loopAnim": false,
      "shotType": 0,
      "repeat": 1,
      "colorBullets": 0,
      "splinterAmount": 6,
      "splinterColour": 0,
      "splinterType": 22,
      "splinterScatter": 0,
      "objTrailType": 9,
      "objTrailDelay": 255,
      "partTrailType": 0,
      "partTrailObj": 6,
      "partTrailDelay": 255,
      "speed": 30
    },
    {
 // wid36 bullet for: CZ
      "detectDistance": 0,
      "blowAway": 0,
      "gravity": 0,
      "exploSound": 27,
      "addSpeed": 0,
      "distribution": 0.1220703125,
      "multSpeed": 0,
      "createOnExp": 0,
      "dirtEffect": 0,
      "wormExplode": false,
      "explGround": false,
      "wormCollide": false,
      "collideWithObjects": true,
      "affectByExplosions": true,
      "bounce": 0,
      "bounceFriction": 0.800000011920929,
      "timeToExplo": 300,
      "timeToExploV": 0,
      "hitDamage": 0,
      "bloodOnHit": 0,
      "startFrame": 221,
      "numFrames": 0,
      "loopAnim": false,
      "shotType": 0,
      "repeat": 1,
      "colorBullets": 0,
      "splinterAmount": 255,
      "splinterColour": 66,
      "splinterType": 11,
      "splinterScatter": 0,
      "objTrailType": -1,
      "objTrailDelay": 4,
      "partTrailType": 1,
      "partTrailObj": -1,
      "partTrailDelay": 0,
      "speed": 0
    },
    {
 // wid37 bullet for: CHEMICAL BOMB
      "detectDistance": 2,
      "blowAway": 0,
      "gravity": 0.0457763671875,
      "exploSound": 4,
      "addSpeed": 0,
      "distribution": 0.30517578125,
      "multSpeed": 1,
      "createOnExp": 2,
      "dirtEffect": -1,
      "wormExplode": false,
      "explGround": false,
      "wormCollide": true,
      "collideWithObjects": false,
      "affectByExplosions": true,
      "bounce": 0.6499999761581421,
      "bounceFriction": 0.800000011920929,
      "timeToExplo": 200,
      "timeToExploV": 20,
      "hitDamage": 0,
      "bloodOnHit": 0,
      "startFrame": 126,
      "numFrames": 0,
      "loopAnim": false,
      "shotType": 0,
      "repeat": 1,
      "colorBullets": 0,
      "splinterAmount": 200,
      "splinterColour": 151,
      "splinterType": 23,
      "splinterScatter": 0,
      "objTrailType": -1,
      "objTrailDelay": 0,
      "partTrailType": 0,
      "partTrailObj": -1,
      "partTrailDelay": 0,
      "speed": 170
    },
    {
 // wid38 bullet for: ORB LAUNCHER
      "detectDistance": 0,
      "blowAway": 0,
      "gravity": 0.0213623046875,
      "exploSound": 9,
      "addSpeed": 0,
      "distribution": 0,
      "multSpeed": 1,
      "createOnExp": -1,
      "dirtEffect": -1,
      "wormExplode": true,
      "explGround": false,
      "wormCollide": true,
      "collideWithObjects": false,
      "affectByExplosions": false,
      "bounce": 0.800000011920929,
      "bounceFriction": 0.800000011920929,
      "timeToExplo": 60,
      "timeToExploV": 0,
      "hitDamage": 0,
      "bloodOnHit": 0,
      "startFrame": 193,
      "numFrames": 0,
      "loopAnim": false,
      "shotType": 0,
      "repeat": 1,
      "colorBullets": 0,
      "splinterAmount": 3,
      "splinterColour": 75,
      "splinterType": 10,
      "splinterScatter": 1,
      "objTrailType": 3,
      "objTrailDelay": 8,
      "partTrailType": 1,
      "partTrailObj": -1,
      "partTrailDelay": 0,
      "speed": 200
    },
    {
 // wid39 bullet for: PRISM CANNON
      "detectDistance": 5,
      "blowAway": 0.30000001192092896,
      "gravity": 0.000762939453125,
      "exploSound": -1,
      "addSpeed": 200,
      "distribution": 0.0030517578125,
      "multSpeed": 1.0099999904632568,
      "createOnExp": 4,
      "dirtEffect": 3,
      "wormExplode": false,
      "explGround": true,
      "wormCollide": false,
      "collideWithObjects": false,
      "affectByExplosions": true,
      "bounce": 0,
      "bounceFriction": 0.800000011920929,
      "timeToExplo": 0,
      "timeToExploV": 0,
      "hitDamage": 1,
      "bloodOnHit": 25,
      "startFrame": 149,
      "numFrames": 3,
      "loopAnim": false,
      "shotType": 0,
      "repeat": 1,
      "colorBullets": 0,
      "splinterAmount": 5,
      "splinterColour": 66,
      "splinterType": 10,
      "splinterScatter": 1,
      "objTrailType": 7,
      "objTrailDelay": 1,
      "partTrailType": 0,
      "partTrailObj": -1,
      "partTrailDelay": 0,
      "speed": 300
    }
  ],
  "nObjects":
  [
    {
 // nid0 
      "detectDistance": 1,
      "gravity": 0.0152587890625,
      "speed": 1.2000000476837158,
      "speedV": 0.4000000059604645,
      "distribution": 0.1220703125,
      "blowAway": 0,
      "bounce": 0.10000000149011612,
      "hitDamage": 10,
      "wormExplode": true,
      "explGround": true,
      "wormDestroy": true,
      "bloodOnHit": 0,
      "startFrame": 165,
      "numFrames": 3,
      "drawOnMap": true,
      "colorBullets": 0,
      "createOnExp": 1,
      "affectByExplosions": false,
      "dirtEffect": -1,
      "splinterAmount": 2,
      "splinterColour": 0,
      "splinterType": 18,
      "bloodTrail": true,
      "bloodTrailDelay": 10,
      "leaveObj": -1,
      "leaveObjDelay": 0,
      "timeToExplo": 700,
      "timeToExploV": 0
    },
    {
 // nid1 
      "detectDistance": 1,
      "gravity": 0.0152587890625,
      "speed": 1.2000000476837158,
      "speedV": 0.4000000059604645,
      "distribution": 0.1220703125,
      "blowAway": 0,
      "bounce": 0.10000000149011612,
      "hitDamage": 10,
      "wormExplode": true,
      "explGround": true,
      "wormDestroy": true,
      "bloodOnHit": 0,
      "startFrame": 169,
      "numFrames": 3,
      "drawOnMap": true,
      "colorBullets": 0,
      "createOnExp": 1,
      "affectByExplosions": false,
      "dirtEffect": -1,
      "splinterAmount": 2,
      "splinterColour": 0,
      "splinterType": 18,
      "bloodTrail": true,
      "bloodTrailDelay": 10,
      "leaveObj": -1,
      "leaveObjDelay": 0,
      "timeToExplo": 700,
      "timeToExploV": 0
    },
    {
 // nid2  splinterType for wObjects: [27,31]
      "detectDistance": 0,
      "gravity": 0.01068115234375,
      "speed": 0.800000011920929,
      "speedV": 0.4000000059604645,
      "distribution": 0.152587890625,
      "blowAway": 0,
      "bounce": 0,
      "hitDamage": 0,
      "wormExplode": false,
      "explGround": true,
      "wormDestroy": false,
      "bloodOnHit": 0,
      "startFrame": 0,
      "numFrames": 0,
      "drawOnMap": false,
      "colorBullets": 17,
      "createOnExp": -1,
      "affectByExplosions": false,
      "dirtEffect": -1,
      "splinterAmount": 0,
      "splinterColour": 0,
      "splinterType": -1,
      "bloodTrail": false,
      "bloodTrailDelay": 0,
      "leaveObj": -1,
      "leaveObjDelay": 0,
      "timeToExplo": 0,
      "timeToExploV": 0
    },
    {
 // nid3  splinterType for wObjects: [1,21]
      "detectDistance": 15,
      "gravity": 0,
      "speed": 3.200000047683716,
      "speedV": 0,
      "distribution": 0,
      "blowAway": 0.10000000149011612,
      "bounce": 0,
      "hitDamage": 1,
      "wormExplode": true,
      "explGround": true,
      "wormDestroy": true,
      "bloodOnHit": 0,
      "startFrame": 220,
      "numFrames": 0,
      "drawOnMap": false,
      "colorBullets": 0,
      "createOnExp": 3,
      "affectByExplosions": false,
      "dirtEffect": 0,
      "splinterAmount": 0,
      "splinterColour": 0,
      "splinterType": -1,
      "bloodTrail": false,
      "bloodTrailDelay": 0,
      "leaveObj": 3,
      "leaveObjDelay": 7,
      "timeToExplo": 5,
      "timeToExploV": 4
    },
    {
 // nid4  splinterType for wObjects: [9,22] partTrailObj for wObjects: [17,29] splinterType for nObjects: [10,11]
      "detectDistance": 0,
      "gravity": 0.01678466796875,
      "speed": 1.899999976158142,
      "speedV": 1.600000023841858,
      "distribution": 0.030517578125,
      "blowAway": 0.10000000149011612,
      "bounce": 0,
      "hitDamage": 8,
      "wormExplode": false,
      "explGround": true,
      "wormDestroy": true,
      "bloodOnHit": 1,
      "startFrame": 0,
      "numFrames": 0,
      "drawOnMap": false,
      "colorBullets": 67,
      "createOnExp": 2,
      "affectByExplosions": false,
      "dirtEffect": 3,
      "splinterAmount": 0,
      "splinterColour": 0,
      "splinterType": -1,
      "bloodTrail": false,
      "bloodTrailDelay": 0,
      "leaveObj": -1,
      "leaveObjDelay": 0,
      "timeToExplo": 0,
      "timeToExploV": 0
    },
    {
 // nid5  splinterType for wObjects: [12,13,17,26] partTrailObj for wObjects: [13,34]
      "detectDistance": 1,
      "gravity": 0.01068115234375,
      "speed": 6,
      "speedV": 1.7999999523162842,
      "distribution": 0,
      "blowAway": 0.15000000596046448,
      "bounce": 0,
      "hitDamage": 10,
      "wormExplode": false,
      "explGround": true,
      "wormDestroy": true,
      "bloodOnHit": 1,
      "startFrame": 0,
      "numFrames": 0,
      "drawOnMap": false,
      "colorBullets": 67,
      "createOnExp": 2,
      "affectByExplosions": false,
      "dirtEffect": 3,
      "splinterAmount": 0,
      "splinterColour": 200,
      "splinterType": -1,
      "bloodTrail": false,
      "bloodTrailDelay": 0,
      "leaveObj": -1,
      "leaveObjDelay": 0,
      "timeToExplo": 0,
      "timeToExploV": 0
    },
    {
 // nid6  partTrailObj for wObjects: [35]
      "detectDistance": 0,
      "gravity": 0.01068115234375,
      "speed": 0.75,
      "speedV": 0.4000000059604645,
      "distribution": 0.30517578125,
      "blowAway": 0,
      "bounce": 0,
      "hitDamage": 0,
      "wormExplode": false,
      "explGround": true,
      "wormDestroy": false,
      "bloodOnHit": 0,
      "startFrame": 0,
      "numFrames": 0,
      "drawOnMap": false,
      "colorBullets": 82,
      "createOnExp": -1,
      "affectByExplosions": false,
      "dirtEffect": -1,
      "splinterAmount": 0,
      "splinterColour": 0,
      "splinterType": -1,
      "bloodTrail": true,
      "bloodTrailDelay": 10,
      "leaveObj": -1,
      "leaveObjDelay": 0,
      "timeToExplo": 0,
      "timeToExploV": 0
    },
    {
 // nid7 
      "detectDistance": 0,
      "gravity": 0.0152587890625,
      "speed": 0,
      "speedV": 0,
      "distribution": 0.1220703125,
      "blowAway": 0,
      "bounce": 0.4000000059604645,
      "hitDamage": 0,
      "wormExplode": false,
      "explGround": true,
      "wormDestroy": false,
      "bloodOnHit": 0,
      "startFrame": 155,
      "numFrames": 3,
      "drawOnMap": true,
      "colorBullets": 0,
      "createOnExp": -1,
      "affectByExplosions": false,
      "dirtEffect": -1,
      "splinterAmount": 0,
      "splinterColour": 0,
      "splinterType": -1,
      "bloodTrail": false,
      "bloodTrailDelay": 0,
      "leaveObj": -1,
      "leaveObjDelay": 0,
      "timeToExplo": 0,
      "timeToExploV": 0
    },
    {
 // nid8  splinterType for wObjects: [10]
      "detectDistance": 1,
      "gravity": 0,
      "speed": 0.75,
      "speedV": 0,
      "distribution": 0,
      "blowAway": 0.15000000596046448,
      "bounce": 0,
      "hitDamage": 1,
      "wormExplode": false,
      "explGround": true,
      "wormDestroy": false,
      "bloodOnHit": 1,
      "startFrame": 0,
      "numFrames": 0,
      "drawOnMap": false,
      "colorBullets": 0,
      "createOnExp": 4,
      "affectByExplosions": false,
      "dirtEffect": -1,
      "splinterAmount": 0,
      "splinterColour": 0,
      "splinterType": -1,
      "bloodTrail": false,
      "bloodTrailDelay": 0,
      "leaveObj": 7,
      "leaveObjDelay": 6,
      "timeToExplo": 0,
      "timeToExploV": 0
    },
    {
 // nid9  splinterType for nObjects: [13]
      "detectDistance": 0,
      "gravity": 0,
      "speed": 0,
      "speedV": 0,
      "distribution": 0,
      "blowAway": 0,
      "bounce": 0,
      "hitDamage": 0,
      "wormExplode": true,
      "explGround": false,
      "wormDestroy": true,
      "bloodOnHit": 0,
      "startFrame": 222,
      "numFrames": 0,
      "drawOnMap": false,
      "colorBullets": 0,
      "createOnExp": 0,
      "affectByExplosions": true,
      "dirtEffect": 0,
      "splinterAmount": 2,
      "splinterColour": 0,
      "splinterType": 18,
      "bloodTrail": false,
      "bloodTrailDelay": 0,
      "leaveObj": -1,
      "leaveObjDelay": 0,
      "timeToExplo": 200,
      "timeToExploV": 0
    },
    {
 // nid10  splinterType for wObjects: [25,38,39]
      "detectDistance": 1,
      "gravity": 0.0152587890625,
      "speed": 1.399999976158142,
      "speedV": 0.20000000298023224,
      "distribution": 0.3509521484375,
      "blowAway": 0.15000000596046448,
      "bounce": 0,
      "hitDamage": 2,
      "wormExplode": true,
      "explGround": true,
      "wormDestroy": true,
      "bloodOnHit": 10,
      "startFrame": 193,
      "numFrames": 0,
      "drawOnMap": false,
      "colorBullets": 0,
      "createOnExp": 0,
      "affectByExplosions": false,
      "dirtEffect": -1,
      "splinterAmount": 5,
      "splinterColour": 66,
      "splinterType": 4,
      "bloodTrail": false,
      "bloodTrailDelay": 0,
      "leaveObj": 3,
      "leaveObjDelay": 8,
      "timeToExplo": 0,
      "timeToExploV": 0
    },
    {
 // nid11  splinterType for wObjects: [2,3,36] partTrailObj for wObjects: [2,28] splinterType for nObjects: [16]
      "detectDistance": 1,
      "gravity": 0.0152587890625,
      "speed": 5,
      "speedV": 0,
      "distribution": 0.30517578125,
      "blowAway": 0,
      "bounce": 0.6000000238418579,
      "hitDamage": 1,
      "wormExplode": true,
      "explGround": false,
      "wormDestroy": true,
      "bloodOnHit": 9,
      "startFrame": 222,
      "numFrames": 0,
      "drawOnMap": false,
      "colorBullets": 104,
      "createOnExp": 0,
      "affectByExplosions": true,
      "dirtEffect": -1,
      "splinterAmount": 3,
      "splinterColour": 104,
      "splinterType": 4,
      "bloodTrail": false,
      "bloodTrailDelay": 0,
      "leaveObj": 4,
      "leaveObjDelay": 5,
      "timeToExplo": 8,
      "timeToExploV": 5
    },
    {
 // nid12  splinterType for wObjects: [8,11,15,16,29] partTrailObj for wObjects: [25]
      "detectDistance": 0,
      "gravity": 0,
      "speed": 1.5,
      "speedV": 0.8999999761581421,
      "distribution": 0,
      "blowAway": 0,
      "bounce": 0,
      "hitDamage": 0,
      "wormExplode": false,
      "explGround": true,
      "wormDestroy": false,
      "bloodOnHit": 0,
      "startFrame": 0,
      "numFrames": 0,
      "drawOnMap": false,
      "colorBullets": 115,
      "createOnExp": 8,
      "affectByExplosions": false,
      "dirtEffect": -1,
      "splinterAmount": 0,
      "splinterColour": 0,
      "splinterType": -1,
      "bloodTrail": false,
      "bloodTrailDelay": 0,
      "leaveObj": 8,
      "leaveObjDelay": 4,
      "timeToExplo": 40,
      "timeToExploV": 10
    },
    {
 // nid13  partTrailObj for wObjects: [11]
      "detectDistance": 0,
      "gravity": 0,
      "speed": 4,
      "speedV": 8,
      "distribution": 0.152587890625,
      "blowAway": 0,
      "bounce": 1,
      "hitDamage": 0,
      "wormExplode": false,
      "explGround": false,
      "wormDestroy": false,
      "bloodOnHit": 0,
      "startFrame": 0,
      "numFrames": 0,
      "drawOnMap": false,
      "colorBullets": 0,
      "createOnExp": 0,
      "affectByExplosions": false,
      "dirtEffect": 6,
      "splinterAmount": 1,
      "splinterColour": 0,
      "splinterType": 9,
      "bloodTrail": false,
      "bloodTrailDelay": 0,
      "leaveObj": -1,
      "leaveObjDelay": 0,
      "timeToExplo": 1,
      "timeToExploV": 0
    },
    {
 // nid14  splinterType for wObjects: [20]
      "detectDistance": 6,
      "gravity": 0.030517578125,
      "speed": 0,
      "speedV": 0,
      "distribution": 0.152587890625,
      "blowAway": 0.5,
      "bounce": 0,
      "hitDamage": 3,
      "wormExplode": true,
      "explGround": false,
      "wormDestroy": true,
      "bloodOnHit": 0,
      "startFrame": 0,
      "numFrames": 0,
      "drawOnMap": false,
      "colorBullets": 54,
      "createOnExp": 0,
      "affectByExplosions": false,
      "dirtEffect": 0,
      "splinterAmount": 0,
      "splinterColour": 0,
      "splinterType": -1,
      "bloodTrail": false,
      "bloodTrailDelay": 0,
      "leaveObj": -1,
      "leaveObjDelay": 0,
      "timeToExplo": 1000,
      "timeToExploV": 60
    },
    {
 // nid15 
      "detectDistance": 1,
      "gravity": 0.030517578125,
      "speed": 2.200000047683716,
      "speedV": 1.5,
      "distribution": 0,
      "blowAway": 0,
      "bounce": 0,
      "hitDamage": 1,
      "wormExplode": true,
      "explGround": true,
      "wormDestroy": true,
      "bloodOnHit": 5,
      "startFrame": 202,
      "numFrames": 3,
      "drawOnMap": false,
      "colorBullets": 0,
      "createOnExp": 1,
      "affectByExplosions": true,
      "dirtEffect": -1,
      "splinterAmount": 8,
      "splinterColour": 0,
      "splinterType": 18,
      "bloodTrail": false,
      "bloodTrailDelay": 0,
      "leaveObj": -1,
      "leaveObjDelay": 0,
      "timeToExplo": 30,
      "timeToExploV": 0
    },
    {
 // nid16  splinterType for wObjects: [18,19] partTrailObj for wObjects: [19]
      "detectDistance": 0,
      "gravity": 0.0152587890625,
      "speed": 1,
      "speedV": 0.6000000238418579,
      "distribution": 0.30517578125,
      "blowAway": 0,
      "bounce": 1,
      "hitDamage": 0,
      "wormExplode": false,
      "explGround": false,
      "wormDestroy": false,
      "bloodOnHit": 0,
      "startFrame": 179,
      "numFrames": 0,
      "drawOnMap": false,
      "colorBullets": 104,
      "createOnExp": 4,
      "affectByExplosions": true,
      "dirtEffect": 2,
      "splinterAmount": 3,
      "splinterColour": 0,
      "splinterType": 11,
      "bloodTrail": false,
      "bloodTrailDelay": 0,
      "leaveObj": 5,
      "leaveObjDelay": 3,
      "timeToExplo": 150,
      "timeToExploV": 50
    },
    {
 // nid17  splinterType for wObjects: [6]
      "detectDistance": 0,
      "gravity": 0,
      "speed": 3,
      "speedV": 0,
      "distribution": 0,
      "blowAway": 0.15000000596046448,
      "bounce": 0,
      "hitDamage": 1,
      "wormExplode": false,
      "explGround": true,
      "wormDestroy": false,
      "bloodOnHit": 1,
      "startFrame": 0,
      "numFrames": 0,
      "drawOnMap": false,
      "colorBullets": 0,
      "createOnExp": -1,
      "affectByExplosions": true,
      "dirtEffect": -1,
      "splinterAmount": 0,
      "splinterColour": 0,
      "splinterType": -1,
      "bloodTrail": false,
      "bloodTrailDelay": 0,
      "leaveObj": -1,
      "leaveObjDelay": 0,
      "timeToExplo": 12,
      "timeToExploV": 0
    },
    {
 // nid18  splinterType for wObjects: [4,5,28,30,33] splinterType for nObjects: [0,1,9,15]
      "detectDistance": 1,
      "gravity": 0,
      "speed": 3,
      "speedV": 0.4000000059604645,
      "distribution": 0.152587890625,
      "blowAway": 0,
      "bounce": 0,
      "hitDamage": 0,
      "wormExplode": false,
      "explGround": true,
      "wormDestroy": true,
      "bloodOnHit": 3,
      "startFrame": 0,
      "numFrames": 0,
      "drawOnMap": false,
      "colorBullets": 0,
      "createOnExp": 1,
      "affectByExplosions": true,
      "dirtEffect": -1,
      "splinterAmount": 0,
      "splinterColour": 0,
      "splinterType": -1,
      "bloodTrail": false,
      "bloodTrailDelay": 0,
      "leaveObj": -1,
      "leaveObjDelay": 0,
      "timeToExplo": 5,
      "timeToExploV": 5
    },
    {
 // nid19  splinterType for nObjects: [22]
      "detectDistance": 4,
      "gravity": 0.030517578125,
      "speed": 1.2000000476837158,
      "speedV": 0.4000000059604645,
      "distribution": 0.152587890625,
      "blowAway": 0.15000000596046448,
      "bounce": 1,
      "hitDamage": 1,
      "wormExplode": false,
      "explGround": false,
      "wormDestroy": true,
      "bloodOnHit": 0,
      "startFrame": 179,
      "numFrames": 1,
      "drawOnMap": true,
      "colorBullets": 0,
      "createOnExp": 3,
      "affectByExplosions": true,
      "dirtEffect": 0,
      "splinterAmount": 1,
      "splinterColour": 0,
      "splinterType": 22,
      "bloodTrail": true,
      "bloodTrailDelay": 5,
      "leaveObj": 3,
      "leaveObjDelay": 7,
      "timeToExplo": 200,
      "timeToExploV": 90
    },
    {
 // nid20 
      "detectDistance": 3,
      "gravity": 0.0152587890625,
      "speed": 0,
      "speedV": 0,
      "distribution": 0,
      "blowAway": 0,
      "bounce": 0.4000000059604645,
      "hitDamage": 0,
      "wormExplode": false,
      "explGround": false,
      "wormDestroy": false,
      "bloodOnHit": 0,
      "startFrame": 213,
      "numFrames": 0,
      "drawOnMap": false,
      "colorBullets": 0,
      "createOnExp": -1,
      "affectByExplosions": true,
      "dirtEffect": -1,
      "splinterAmount": 0,
      "splinterColour": 0,
      "splinterType": -1,
      "bloodTrail": false,
      "bloodTrailDelay": 0,
      "leaveObj": -1,
      "leaveObjDelay": 0,
      "timeToExplo": 0,
      "timeToExploV": 0
    },
    {
 // nid21 
      "detectDistance": 3,
      "gravity": 0.0152587890625,
      "speed": 0,
      "speedV": 0,
      "distribution": 0,
      "blowAway": 0,
      "bounce": 0.4000000059604645,
      "hitDamage": 0,
      "wormExplode": false,
      "explGround": false,
      "wormDestroy": false,
      "bloodOnHit": 0,
      "startFrame": 214,
      "numFrames": 0,
      "drawOnMap": false,
      "colorBullets": 0,
      "createOnExp": -1,
      "affectByExplosions": true,
      "dirtEffect": -1,
      "splinterAmount": 0,
      "splinterColour": 0,
      "splinterType": -1,
      "bloodTrail": false,
      "bloodTrailDelay": 0,
      "leaveObj": -1,
      "leaveObjDelay": 0,
      "timeToExplo": 0,
      "timeToExploV": 0
    },
    {
 // nid22  splinterType for wObjects: [35] splinterType for nObjects: [19]
      "detectDistance": 1,
      "gravity": 0.0152587890625,
      "speed": 1.2000000476837158,
      "speedV": 0.4000000059604645,
      "distribution": 0.152587890625,
      "blowAway": 0,
      "bounce": 1.100000023841858,
      "hitDamage": 9,
      "wormExplode": false,
      "explGround": true,
      "wormDestroy": false,
      "bloodOnHit": 0,
      "startFrame": 179,
      "numFrames": 1,
      "drawOnMap": true,
      "colorBullets": 42,
      "createOnExp": 0,
      "affectByExplosions": true,
      "dirtEffect": -1,
      "splinterAmount": 1,
      "splinterColour": 0,
      "splinterType": 19,
      "bloodTrail": false,
      "bloodTrailDelay": 0,
      "leaveObj": 0,
      "leaveObjDelay": 10,
      "timeToExplo": 500,
      "timeToExploV": 200
    },
    {
 // nid23  splinterType for wObjects: [37]
      "detectDistance": 2,
      "gravity": 0.00762939453125,
      "speed": 4,
      "speedV": 0.4000000059604645,
      "distribution": 0.152587890625,
      "blowAway": 0,
      "bounce": 1,
      "hitDamage": 1,
      "wormExplode": false,
      "explGround": false,
      "wormDestroy": false,
      "bloodOnHit": 0,
      "startFrame": 0,
      "numFrames": 0,
      "drawOnMap": false,
      "colorBullets": 42,
      "createOnExp": 2,
      "affectByExplosions": true,
      "dirtEffect": 2,
      "splinterAmount": 0,
      "splinterColour": 0,
      "splinterType": -1,
      "bloodTrail": false,
      "bloodTrailDelay": 0,
      "leaveObj": -1,
      "leaveObjDelay": 0,
      "timeToExplo": 800,
      "timeToExploV": 60
    }
  ],
  "sObjects":
  [
    {
 // sid0  createOnExp for wObjects: [0,2,3,4,5,6,7,9,13,16,18,19,25,26,29,30,32,34,35,36] createOnExp for nObjects: [9,10,11,13,14,22] leaveObj for nObjects: [22]
      "startSound": 9,
      "numSounds": 4,
      "animDelay": 2,
      "startFrame": 40,
      "numFrames": 15,
      "detectRange": 20,
      "damage": 15,
      "blowAway": 0.0457763671875,
      "shadow": true,
      "shake": 4,
      "flash": 8,
      "dirtEffect": 0
    },
    {
 // sid1  createOnExp for wObjects: [8,12,21] createOnExp for nObjects: [0,1,15,18]
      "startSound": 9,
      "numSounds": 4,
      "animDelay": 2,
      "startFrame": 45,
      "numFrames": 10,
      "detectRange": 14,
      "damage": 10,
      "blowAway": 0.0457763671875,
      "shadow": false,
      "shake": 0,
      "flash": 3,
      "dirtEffect": 1
    },
    {
 // sid2  createOnExp for wObjects: [14,15,22,24,37] objTrailType for wObjects: [26] createOnExp for nObjects: [4,5,23]
      "startSound": 7,
      "numSounds": 2,
      "animDelay": 2,
      "startFrame": 50,
      "numFrames": 5,
      "detectRange": 8,
      "damage": 5,
      "blowAway": 0.0457763671875,
      "shadow": false,
      "shake": 0,
      "flash": 0,
      "dirtEffect": 2
    },
    {
 // sid3  createOnExp for wObjects: [1,27] objTrailType for wObjects: [1,3,21,23,30,38] createOnExp for nObjects: [3,19] leaveObj for nObjects: [3,10,19]
      "startSound": -1,
      "numSounds": 0,
      "animDelay": 4,
      "startFrame": 64,
      "numFrames": 4,
      "detectRange": 0,
      "damage": 0,
      "blowAway": 0,
      "shadow": false,
      "shake": 0,
      "flash": 0,
      "dirtEffect": -1
    },
    {
 // sid4  createOnExp for wObjects: [28,39] objTrailType for wObjects: [4,10,16] createOnExp for nObjects: [8,16] leaveObj for nObjects: [11]
      "startSound": -1,
      "numSounds": 0,
      "animDelay": 4,
      "startFrame": 100,
      "numFrames": 3,
      "detectRange": 0,
      "damage": 10,
      "blowAway": 0,
      "shadow": false,
      "shake": 0,
      "flash": 0,
      "dirtEffect": 5
    },
    {
 // sid5  leaveObj for nObjects: [16]
      "startSound": -1,
      "numSounds": 0,
      "animDelay": 2,
      "startFrame": 104,
      "numFrames": 3,
      "detectRange": 0,
      "damage": 0,
      "blowAway": 0,
      "shadow": false,
      "shake": 0,
      "flash": 0,
      "dirtEffect": -1
    },
    {
 // sid6  objTrailType for wObjects: [8,9,12,22,32]
      "startSound": -1,
      "numSounds": 0,
      "animDelay": 2,
      "startFrame": 76,
      "numFrames": 2,
      "detectRange": 0,
      "damage": 0,
      "blowAway": 0,
      "shadow": true,
      "shake": 0,
      "flash": 0,
      "dirtEffect": -1
    },
    {
 // sid7  objTrailType for wObjects: [39] leaveObj for nObjects: [8]
      "startSound": -1,
      "numSounds": 0,
      "animDelay": 2,
      "startFrame": 91,
      "numFrames": 4,
      "detectRange": 0,
      "damage": 0,
      "blowAway": 0,
      "shadow": true,
      "shake": 0,
      "flash": 0,
      "dirtEffect": -1
    },
    {
 // sid8  objTrailType for wObjects: [29] createOnExp for nObjects: [12] leaveObj for nObjects: [12]
      "startSound": -1,
      "numSounds": 0,
      "animDelay": 2,
      "startFrame": 49,
      "numFrames": 6,
      "detectRange": 8,
      "damage": 7,
      "blowAway": 0,
      "shadow": true,
      "shake": 0,
      "flash": 0,
      "dirtEffect": 2
    },
    {
 // sid9  objTrailType for wObjects: [7,15,35]
      "startSound": -1,
      "numSounds": 0,
      "animDelay": 2,
      "startFrame": 53,
      "numFrames": 2,
      "detectRange": 6,
      "damage": 0,
      "blowAway": 0,
      "shadow": true,
      "shake": 0,
      "flash": 0,
      "dirtEffect": 5
    },
    {
 // sid10  createOnExp for wObjects: [17,20,31] objTrailType for wObjects: [18]
      "startSound": 9,
      "numSounds": 4,
      "animDelay": 2,
      "startFrame": 47,
      "numFrames": 8,
      "detectRange": 10,
      "damage": 8,
      "blowAway": 0.0457763671875,
      "shadow": true,
      "shake": 2,
      "flash": 3,
      "dirtEffect": 8
    },
    {
 // sid11  createOnExp for wObjects: [33]
      "startSound": -1,
      "numSounds": 0,
      "animDelay": 2,
      "startFrame": 40,
      "numFrames": 15,
      "detectRange": 15,
      "damage": 5,
      "blowAway": 0.0457763671875,
      "shadow": true,
      "shake": 3,
      "flash": 6,
      "dirtEffect": 1
    },
    {
 // sid12  objTrailType for wObjects: [25]
      "startSound": -1,
      "numSounds": 0,
      "animDelay": 2,
      "startFrame": 44,
      "numFrames": 11,
      "detectRange": 14,
      "damage": 8,
      "blowAway": 0.0457763671875,
      "shadow": true,
      "shake": 3,
      "flash": 5,
      "dirtEffect": 1
    },
    {
 // sid13  objTrailType for wObjects: [14]
      "startSound": -1,
      "numSounds": 0,
      "animDelay": 0,
      "startFrame": 2,
      "numFrames": 0,
      "detectRange": 10,
      "damage": 1,
      "blowAway": 0.0000152587890625,
      "shadow": false,
      "shake": 0,
      "flash": 0,
      "dirtEffect": -1
    }
  ],
  "textures":
  [
    {
      "nDrawBack": true,
      "mFrame": 0,
      "sFrame": 73,
      "rFrame": 2
    },
    {
      "nDrawBack": true,
      "mFrame": 1,
      "sFrame": 73,
      "rFrame": 2
    },
    {
      "nDrawBack": true,
      "mFrame": 2,
      "sFrame": 73,
      "rFrame": 2
    },
    {
      "nDrawBack": true,
      "mFrame": 37,
      "sFrame": 73,
      "rFrame": 2
    },
    {
      "nDrawBack": false,
      "mFrame": 0,
      "sFrame": 87,
      "rFrame": 2
    },
    {
      "nDrawBack": true,
      "mFrame": 39,
      "sFrame": 73,
      "rFrame": 2
    },
    {
      "nDrawBack": false,
      "mFrame": 38,
      "sFrame": 82,
      "rFrame": 2
    },
    {
      "nDrawBack": true,
      "mFrame": 99,
      "sFrame": 73,
      "rFrame": 2
    },
    {
      "nDrawBack": true,
      "mFrame": 37,
      "sFrame": 73,
      "rFrame": 2
    }
  ],
  "colorAnim":
  [
    129,
    131,
    133,
    136,
    152,
    159,
    168,
    171
  ],
  "textSpritesStartIdx": 240,
  "crossHairSprite": 153
}
