{
  "constants":
  {
    "nrInitialLength": 250,
    "nrAttachLength": 28.125,
    "minBounceUp": -3.0517578125,
    "minBounceDown": 3.0517578125,
    "minBounceHoriz": 3.0517578125,
    "wormGravity": 0.03814697265625,
    "wormAcc": 0.06103515625,
    "wormMaxVel": 0.4999847412109375,
    "jumpForce": 1.068115234375,
    "maxAimVel": 0.05243098363280296,
    "aimAcc": 0.002996056340634823,
    "ninjaropeGravity": 0.0457763671875,
    "nrMinLength": 10.625,
    "nrMaxLength": 250,
    "bonusGravity": 0.0457763671875,
    "wormFricMult": 0.949999988079071,
    "aimFric": 0.8299999833106995,
    "nrThrowVel": 2,
    "nrForce": 0.0833333358168602,
    "bonusBounce": 0.4000000059604645,
    "bonusFlickerTime": 220,
    "aimMaxAngle": 1.5707963705062866,
    "aimMinAngle": -1.5217089653015137,
    "nrAdjustVel": 1.5,
    "nrColourBegin": 62,
    "nrColourEnd": 64,
    "bonusExplodeRisk": 13,
    "bonusHealthVar": 0,
    "bonusMinHealth": 25,
    "firstBloodColour": 80,
    "numBloodColours": 2,
    "bObjGravity": 0.0457763671875,
    "splinterLarpaVelDiv": 3,
    "splinterCracklerVelDiv": 3,
    "fallDamageHoriz": 10,
    "fallDamageDown": 10,
    "fallDamageUp": 10,
    "hFallDamage": true,
    "hBonusReloadOnly": true
  },
  "weapons":
  [
    {
      "parts": 9,
      "bulletType": 0,
      "bulletSpeed": 4,
      "bulletSpeedInherit": 0.25,
      "distribution": 0.0152587890625,
      "recoil": 0.09000000357627869,
      "ammo": 25,
      "delay": 7,
      "loadingTime": 360,
      "leaveShells": 1,
      "leaveShellDelay": 1,
      "fireCone": 5,
      "laserSight": true,
      "laserBeam": false,
      "launchSound": 1,
      "playReloadSound": true,
      "name": "AUG PARA",
      "id": 0,
      "reloadSound": -1
    },
    {
      "parts": 1,
      "bulletType": 1,
      "bulletSpeed": 1.600000023841858,
      "bulletSpeedInherit": 0.625,
      "distribution": 0.0762939453125,
      "recoil": 0,
      "ammo": 5,
      "delay": 120,
      "loadingTime": 480,
      "leaveShells": 0,
      "leaveShellDelay": 1,
      "fireCone": 0,
      "laserSight": false,
      "laserBeam": false,
      "launchSound": 5,
      "playReloadSound": false,
      "name": "FRAG GRENADE",
      "id": 1,
      "reloadSound": -1
    },
    {
      "parts": 9,
      "bulletType": 2,
      "bulletSpeed": 3,
      "bulletSpeedInherit": 0.3333333432674408,
      "distribution": 0.0152587890625,
      "recoil": 0.18000000715255737,
      "ammo": 20,
      "delay": 40,
      "loadingTime": 360,
      "leaveShells": 1,
      "leaveShellDelay": 1,
      "fireCone": 5,
      "laserSight": true,
      "laserBeam": false,
      "launchSound": 2,
      "playReloadSound": true,
      "name": "RUGER MINI IQ",
      "id": 2,
      "reloadSound": -1
    },
    {
      "parts": 9,
      "bulletType": 3,
      "bulletSpeed": 4,
      "bulletSpeedInherit": 0.25,
      "distribution": 0.0152587890625,
      "recoil": 0.18000000715255737,
      "ammo": 30,
      "delay": 8,
      "loadingTime": 360,
      "leaveShells": 1,
      "leaveShellDelay": 1,
      "fireCone": 5,
      "laserSight": false,
      "laserBeam": false,
      "launchSound": 2,
      "playReloadSound": true,
      "name": "COLT MQ",
      "id": 3,
      "reloadSound": -1
    },
    {
      "parts": 1,
      "bulletType": 4,
      "bulletSpeed": 4,
      "bulletSpeedInherit": 0,
      "distribution": 0.0000152587890625,
      "recoil": 0,
      "ammo": 255,
      "delay": 50,
      "loadingTime": 0,
      "leaveShells": 0,
      "leaveShellDelay": 1,
      "fireCone": 0,
      "laserSight": false,
      "laserBeam": false,
      "launchSound": 5,
      "playReloadSound": false,
      "name": "KNIFE",
      "id": 4,
      "reloadSound": -1
    },
    {
      "parts": 10,
      "bulletType": 5,
      "bulletSpeed": 4,
      "bulletSpeedInherit": 0.25,
      "distribution": 0.030517578125,
      "recoil": 0.09000000357627869,
      "ammo": 30,
      "delay": 5,
      "loadingTime": 360,
      "leaveShells": 1,
      "leaveShellDelay": 1,
      "fireCone": 1,
      "laserSight": false,
      "laserBeam": false,
      "launchSound": 9,
      "playReloadSound": true,
      "name": "MPSSD",
      "id": 5,
      "reloadSound": -1
    },
    {
      "parts": 1,
      "bulletType": 6,
      "bulletSpeed": 4,
      "bulletSpeedInherit": 0,
      "distribution": 0.0000152587890625,
      "recoil": 0,
      "ammo": 255,
      "delay": 80,
      "loadingTime": 0,
      "leaveShells": 0,
      "leaveShellDelay": 1,
      "fireCone": 0,
      "laserSight": false,
      "laserBeam": false,
      "launchSound": 5,
      "playReloadSound": false,
      "name": "MACHETE",
      "id": 6,
      "reloadSound": -1
    },
    {
      "parts": 5,
      "bulletType": 7,
      "bulletSpeed": 4,
      "bulletSpeedInherit": 0.25,
      "distribution": 0.0000152587890625,
      "recoil": 0,
      "ammo": 255,
      "delay": 70,
      "loadingTime": 0,
      "leaveShells": 0,
      "leaveShellDelay": 1,
      "fireCone": 0,
      "laserSight": false,
      "laserBeam": false,
      "launchSound": -1,
      "playReloadSound": true,
      "name": "PNEUMATIC RAM",
      "id": 7,
      "reloadSound": -1
    },
    {
      "parts": 1,
      "bulletType": 8,
      "bulletSpeed": 1.600000023841858,
      "bulletSpeedInherit": 0.625,
      "distribution": 0.0762939453125,
      "recoil": 0,
      "ammo": 5,
      "delay": 120,
      "loadingTime": 330,
      "leaveShells": 0,
      "leaveShellDelay": 1,
      "fireCone": 0,
      "laserSight": false,
      "laserBeam": false,
      "launchSound": 5,
      "playReloadSound": false,
      "name": "STUN GRENADE",
      "id": 8,
      "reloadSound": -1
    },
    {
      "parts": 9,
      "bulletType": 9,
      "bulletSpeed": 3,
      "bulletSpeedInherit": 0.3333333432674408,
      "distribution": 0.0030517578125,
      "recoil": 0.699999988079071,
      "ammo": 5,
      "delay": 50,
      "loadingTime": 360,
      "leaveShells": 1,
      "leaveShellDelay": 1,
      "fireCone": 5,
      "laserSight": true,
      "laserBeam": false,
      "launchSound": 8,
      "playReloadSound": true,
      "name": "PSGI",
      "id": 9,
      "reloadSound": -1
    },
    {
      "parts": 1,
      "bulletType": 10,
      "bulletSpeed": 0.009999999776482582,
      "bulletSpeedInherit": 0,
      "distribution": 0.0000152587890625,
      "recoil": 0,
      "ammo": 1,
      "delay": 70,
      "loadingTime": 0,
      "leaveShells": 0,
      "leaveShellDelay": 1,
      "fireCone": 0,
      "laserSight": false,
      "laserBeam": false,
      "launchSound": -1,
      "playReloadSound": false,
      "name": "SUICIDE BOMB",
      "id": 10,
      "reloadSound": -1
    },
    {
      "parts": 1,
      "bulletType": 11,
      "bulletSpeed": 1,
      "bulletSpeedInherit": 1,
      "distribution": 0.0000152587890625,
      "recoil": 0,
      "ammo": 1,
      "delay": 350,
      "loadingTime": 100,
      "leaveShells": 0,
      "leaveShellDelay": 1,
      "fireCone": 0,
      "laserSight": false,
      "laserBeam": false,
      "launchSound": -1,
      "playReloadSound": true,
      "name": "TNT BOMB",
      "id": 11,
      "reloadSound": -1
    },
    {
      "parts": 9,
      "bulletType": 12,
      "bulletSpeed": 4,
      "bulletSpeedInherit": 0.25,
      "distribution": 0.152587890625,
      "recoil": 0.17000000178813934,
      "ammo": 15,
      "delay": 20,
      "loadingTime": 200,
      "leaveShells": 1,
      "leaveShellDelay": 1,
      "fireCone": 5,
      "laserSight": false,
      "laserBeam": false,
      "launchSound": 1,
      "playReloadSound": true,
      "name": "GLOCK IT",
      "id": 12,
      "reloadSound": -1
    },
    {
      "parts": 1,
      "bulletType": 13,
      "bulletSpeed": 1,
      "bulletSpeedInherit": 1,
      "distribution": 0.0000152587890625,
      "recoil": 0,
      "ammo": 1,
      "delay": 100,
      "loadingTime": 0,
      "leaveShells": 0,
      "leaveShellDelay": 1,
      "fireCone": 0,
      "laserSight": false,
      "laserBeam": false,
      "launchSound": -1,
      "playReloadSound": false,
      "name": "RC TNT BOMB",
      "id": 13,
      "reloadSound": -1
    },
    {
      "parts": 12,
      "bulletType": 14,
      "bulletSpeed": 2.799999952316284,
      "bulletSpeedInherit": 0.3571428656578064,
      "distribution": 0.4999847412109375,
      "recoil": 1,
      "ammo": 2,
      "delay": 2,
      "loadingTime": 360,
      "leaveShells": 1,
      "leaveShellDelay": 1,
      "fireCone": 5,
      "laserSight": false,
      "laserBeam": false,
      "launchSound": 0,
      "playReloadSound": true,
      "name": "HANDCANNON",
      "id": 14,
      "reloadSound": -1
    },
    {
      "parts": 1,
      "bulletType": 15,
      "bulletSpeed": 1.600000023841858,
      "bulletSpeedInherit": 0.625,
      "distribution": 0.0762939453125,
      "recoil": 0,
      "ammo": 5,
      "delay": 120,
      "loadingTime": 480,
      "leaveShells": 0,
      "leaveShellDelay": 1,
      "fireCone": 0,
      "laserSight": false,
      "laserBeam": false,
      "launchSound": 5,
      "playReloadSound": false,
      "name": "HE GRENADE",
      "id": 15,
      "reloadSound": -1
    },
    {
      "parts": 1,
      "bulletType": 16,
      "bulletSpeed": 1,
      "bulletSpeedInherit": 1,
      "distribution": 0.0457763671875,
      "recoil": 0,
      "ammo": 2,
      "delay": 80,
      "loadingTime": 0,
      "leaveShells": 0,
      "leaveShellDelay": 1,
      "fireCone": 0,
      "laserSight": false,
      "laserBeam": false,
      "launchSound": -1,
      "playReloadSound": false,
      "name": "CLAYMORES",
      "id": 16,
      "reloadSound": -1
    },
    {
      "parts": 9,
      "bulletType": 17,
      "bulletSpeed": 4,
      "bulletSpeedInherit": 0.25,
      "distribution": 0.0457763671875,
      "recoil": 0.11999999731779099,
      "ammo": 25,
      "delay": 8,
      "loadingTime": 360,
      "leaveShells": 1,
      "leaveShellDelay": 1,
      "fireCone": 5,
      "laserSight": false,
      "laserBeam": false,
      "launchSound": 10,
      "playReloadSound": true,
      "name": "UMPQS",
      "id": 17,
      "reloadSound": -1
    },
    {
      "parts": 11,
      "bulletType": 18,
      "bulletSpeed": 4,
      "bulletSpeedInherit": 0.25,
      "distribution": 0.3814697265625,
      "recoil": 0.5,
      "ammo": 6,
      "delay": 25,
      "loadingTime": 360,
      "leaveShells": 1,
      "leaveShellDelay": 1,
      "fireCone": 5,
      "laserSight": false,
      "laserBeam": false,
      "launchSound": 0,
      "playReloadSound": true,
      "name": "BENELLI MI",
      "id": 18,
      "reloadSound": -1
    },
    {
      "parts": 1,
      "bulletType": 19,
      "bulletSpeed": 1,
      "bulletSpeedInherit": 1,
      "distribution": 0.0152587890625,
      "recoil": 0,
      "ammo": 10,
      "delay": 80,
      "loadingTime": 0,
      "leaveShells": 0,
      "leaveShellDelay": 1,
      "fireCone": 0,
      "laserSight": false,
      "laserBeam": false,
      "launchSound": -1,
      "playReloadSound": false,
      "name": "SANDBAGS",
      "id": 19,
      "reloadSound": -1
    },
    {
      "parts": 9,
      "bulletType": 20,
      "bulletSpeed": 4,
      "bulletSpeedInherit": 0.25,
      "distribution": 0.00762939453125,
      "recoil": 0.2199999988079071,
      "ammo": 30,
      "delay": 8,
      "loadingTime": 360,
      "leaveShells": 1,
      "leaveShellDelay": 1,
      "fireCone": 5,
      "laserSight": false,
      "laserBeam": false,
      "launchSound": 8,
      "playReloadSound": true,
      "name": "AKQT",
      "id": 20,
      "reloadSound": -1
    },
    {
      "parts": 1,
      "bulletType": 21,
      "bulletSpeed": 3,
      "bulletSpeedInherit": 0.3333333432674408,
      "distribution": 0.0457763671875,
      "recoil": 0,
      "ammo": 3,
      "delay": 100,
      "loadingTime": 400,
      "leaveShells": 0,
      "leaveShellDelay": 1,
      "fireCone": 0,
      "laserSight": false,
      "laserBeam": false,
      "launchSound": 5,
      "playReloadSound": false,
      "name": "MOLOTOVS",
      "id": 21,
      "reloadSound": -1
    },
    {
      "parts": 1,
      "bulletType": 22,
      "bulletSpeed": 1,
      "bulletSpeedInherit": 1,
      "distribution": 0.0000152587890625,
      "recoil": 0,
      "ammo": 15,
      "delay": 70,
      "loadingTime": 0,
      "leaveShells": 0,
      "leaveShellDelay": 1,
      "fireCone": 0,
      "laserSight": false,
      "laserBeam": false,
      "launchSound": -1,
      "playReloadSound": false,
      "name": "CZ EXPLOSIVES",
      "id": 22,
      "reloadSound": -1
    },
    {
      "parts": 10,
      "bulletType": 23,
      "bulletSpeed": 3,
      "bulletSpeedInherit": 0.3333333432674408,
      "distribution": 0.0000152587890625,
      "recoil": 1,
      "ammo": 5,
      "delay": 120,
      "loadingTime": 360,
      "leaveShells": 1,
      "leaveShellDelay": 60,
      "fireCone": 5,
      "laserSight": true,
      "laserBeam": false,
      "launchSound": 28,
      "playReloadSound": true,
      "name": "AI AW SM",
      "id": 23,
      "reloadSound": -1
    },
    {
      "parts": 10,
      "bulletType": 24,
      "bulletSpeed": 4,
      "bulletSpeedInherit": 0.25,
      "distribution": 0.2288818359375,
      "recoil": 0.20000000298023224,
      "ammo": 6,
      "delay": 80,
      "loadingTime": 360,
      "leaveShells": 0,
      "leaveShellDelay": 1,
      "fireCone": 5,
      "laserSight": false,
      "laserBeam": false,
      "launchSound": 14,
      "playReloadSound": false,
      "name": "COLT PYTHON",
      "id": 24,
      "reloadSound": -1
    },
    {
      "parts": 10,
      "bulletType": 25,
      "bulletSpeed": 3,
      "bulletSpeedInherit": 0.3333333432674408,
      "distribution": 0.4999847412109375,
      "recoil": 0.5,
      "ammo": 8,
      "delay": 50,
      "loadingTime": 360,
      "leaveShells": 1,
      "leaveShellDelay": 48,
      "fireCone": 5,
      "laserSight": false,
      "laserBeam": false,
      "launchSound": 12,
      "playReloadSound": true,
      "name": "RBTO BREACHER",
      "id": 25,
      "reloadSound": -1
    },
    {
      "parts": 9,
      "bulletType": 26,
      "bulletSpeed": 4,
      "bulletSpeedInherit": 0.25,
      "distribution": 0.0152587890625,
      "recoil": 0.18000000715255737,
      "ammo": 25,
      "delay": 5,
      "loadingTime": 480,
      "leaveShells": 1,
      "leaveShellDelay": 1,
      "fireCone": 5,
      "laserSight": false,
      "laserBeam": false,
      "launchSound": 2,
      "playReloadSound": true,
      "name": "FA MAS",
      "id": 26,
      "reloadSound": -1
    },
    {
      "parts": 1,
      "bulletType": 27,
      "bulletSpeed": 0.009999999776482582,
      "bulletSpeedInherit": 0,
      "distribution": 0.0000152587890625,
      "recoil": 0,
      "ammo": 2,
      "delay": 100,
      "loadingTime": 600,
      "leaveShells": 0,
      "leaveShellDelay": 1,
      "fireCone": 0,
      "laserSight": false,
      "laserBeam": false,
      "launchSound": -1,
      "playReloadSound": true,
      "name": "MEDKIT",
      "id": 27,
      "reloadSound": -1
    },
    {
      "parts": 1,
      "bulletType": 28,
      "bulletSpeed": 3,
      "bulletSpeedInherit": 0.3333333432674408,
      "distribution": 0.0762939453125,
      "recoil": 0.800000011920929,
      "ammo": 4,
      "delay": 140,
      "loadingTime": 480,
      "leaveShells": 1,
      "leaveShellDelay": 90,
      "fireCone": 5,
      "laserSight": false,
      "laserBeam": true,
      "launchSound": 13,
      "playReloadSound": true,
      "name": "GREN LAUNCHER",
      "id": 28,
      "reloadSound": -1
    },
    {
      "parts": 9,
      "bulletType": 29,
      "bulletSpeed": 3,
      "bulletSpeedInherit": 0.3333333432674408,
      "distribution": 0.00152587890625,
      "recoil": 0.699999988079071,
      "ammo": 10,
      "delay": 100,
      "loadingTime": 360,
      "leaveShells": 1,
      "leaveShellDelay": 50,
      "fireCone": 5,
      "laserSight": true,
      "laserBeam": false,
      "launchSound": 29,
      "playReloadSound": true,
      "name": "SAKO TRG ZZ",
      "id": 29,
      "reloadSound": -1
    },
    {
      "parts": 10,
      "bulletType": 30,
      "bulletSpeed": 4,
      "bulletSpeedInherit": 0.25,
      "distribution": 0.1068115234375,
      "recoil": 0.05000000074505806,
      "ammo": 15,
      "delay": 4,
      "loadingTime": 360,
      "leaveShells": 1,
      "leaveShellDelay": 1,
      "fireCone": 1,
      "laserSight": false,
      "laserBeam": false,
      "launchSound": 9,
      "playReloadSound": false,
      "name": "STEYR TMP",
      "id": 30,
      "reloadSound": -1
    },
    {
      "parts": 9,
      "bulletType": 31,
      "bulletSpeed": 4,
      "bulletSpeedInherit": 0.25,
      "distribution": 0.152587890625,
      "recoil": 0.11999999731779099,
      "ammo": 40,
      "delay": 8,
      "loadingTime": 360,
      "leaveShells": 1,
      "leaveShellDelay": 1,
      "fireCone": 5,
      "laserSight": false,
      "laserBeam": false,
      "launchSound": 1,
      "playReloadSound": true,
      "name": "UZI",
      "id": 31,
      "reloadSound": -1
    },
    {
      "parts": 9,
      "bulletType": 32,
      "bulletSpeed": 4,
      "bulletSpeedInherit": 0.25,
      "distribution": 0.0152587890625,
      "recoil": 0.30000001192092896,
      "ammo": 20,
      "delay": 7,
      "loadingTime": 360,
      "leaveShells": 1,
      "leaveShellDelay": 1,
      "fireCone": 5,
      "laserSight": false,
      "laserBeam": false,
      "launchSound": 8,
      "playReloadSound": true,
      "name": "FN FAL",
      "id": 32,
      "reloadSound": -1
    },
    {
      "parts": 1,
      "bulletType": 33,
      "bulletSpeed": 1.600000023841858,
      "bulletSpeedInherit": 0.625,
      "distribution": 0.0762939453125,
      "recoil": 0,
      "ammo": 5,
      "delay": 120,
      "loadingTime": 480,
      "leaveShells": 0,
      "leaveShellDelay": 1,
      "fireCone": 0,
      "laserSight": false,
      "laserBeam": false,
      "launchSound": 5,
      "playReloadSound": false,
      "name": "GAS GRENADE",
      "id": 33,
      "reloadSound": -1
    },
    {
      "parts": 9,
      "bulletType": 34,
      "bulletSpeed": 4,
      "bulletSpeedInherit": 0.25,
      "distribution": 0.152587890625,
      "recoil": 0.20000000298023224,
      "ammo": 13,
      "delay": 20,
      "loadingTime": 360,
      "leaveShells": 1,
      "leaveShellDelay": 1,
      "fireCone": 5,
      "laserSight": false,
      "laserBeam": false,
      "launchSound": 10,
      "playReloadSound": true,
      "name": "USP QS",
      "id": 34,
      "reloadSound": -1
    },
    {
      "parts": 11,
      "bulletType": 35,
      "bulletSpeed": 4,
      "bulletSpeedInherit": 0.25,
      "distribution": 0.3814697265625,
      "recoil": 0.5,
      "ammo": 8,
      "delay": 50,
      "loadingTime": 360,
      "leaveShells": 1,
      "leaveShellDelay": 48,
      "fireCone": 5,
      "laserSight": false,
      "laserBeam": false,
      "launchSound": 12,
      "playReloadSound": true,
      "name": "REMINGTON BTO",
      "id": 35,
      "reloadSound": -1
    },
    {
      "parts": 1,
      "bulletType": 36,
      "bulletSpeed": 1.2000000476837158,
      "bulletSpeedInherit": 0.8333333134651184,
      "distribution": 0.006103515625,
      "recoil": 0,
      "ammo": 3,
      "delay": 100,
      "loadingTime": 400,
      "leaveShells": 0,
      "leaveShellDelay": 1,
      "fireCone": 0,
      "laserSight": false,
      "laserBeam": false,
      "launchSound": 5,
      "playReloadSound": false,
      "name": "NAIL BOMB",
      "id": 36,
      "reloadSound": -1
    },
    {
      "parts": 1,
      "bulletType": 37,
      "bulletSpeed": 2.299999952316284,
      "bulletSpeedInherit": 0.43478262424468994,
      "distribution": 0.030517578125,
      "recoil": 0,
      "ammo": 5,
      "delay": 70,
      "loadingTime": 200,
      "leaveShells": 0,
      "leaveShellDelay": 1,
      "fireCone": 0,
      "laserSight": false,
      "laserBeam": false,
      "launchSound": 5,
      "playReloadSound": false,
      "name": "KNIFE THROW",
      "id": 37,
      "reloadSound": -1
    },
    {
      "parts": 9,
      "bulletType": 38,
      "bulletSpeed": 4,
      "bulletSpeedInherit": 0.25,
      "distribution": 0.1068115234375,
      "recoil": 0.10999999940395355,
      "ammo": 30,
      "delay": 5,
      "loadingTime": 360,
      "leaveShells": 1,
      "leaveShellDelay": 1,
      "fireCone": 5,
      "laserSight": false,
      "laserBeam": false,
      "launchSound": 1,
      "playReloadSound": true,
      "name": "MPSK",
      "id": 38,
      "reloadSound": -1
    },
    {
      "parts": 1,
      "bulletType": 39,
      "bulletSpeed": 2,
      "bulletSpeedInherit": 0,
      "distribution": 0.0152587890625,
      "recoil": 2.549999952316284,
      "ammo": 2,
      "delay": 210,
      "loadingTime": 400,
      "leaveShells": 0,
      "leaveShellDelay": 1,
      "fireCone": 10,
      "laserSight": true,
      "laserBeam": false,
      "launchSound": 3,
      "playReloadSound": true,
      "name": "RPGT",
      "id": 39,
      "reloadSound": -1
    }
  ],
  "wObjects":
  [
    {
      // wid0 used in AUG PARA
      "detectDistance": 1,
      "blowAway": 0.009999999776482582,
      "gravity": 0.0000762939453125,
      "exploSound": -1,
      "addSpeed": 0,
      "distribution": 0.0152587890625,
      "multSpeed": 1,
      "createOnExp": -1,
      "dirtEffect": 5,
      "wormExplode": true,
      "explGround": true,
      "wormCollide": true,
      "collideWithObjects": false,
      "affectByExplosions": false,
      "bounce": 0,
      "bounceFriction": 0.800000011920929,
      "timeToExplo": 70,
      "timeToExploV": 100,
      "hitDamage": 4,
      "bloodOnHit": 4,
      "startFrame": 239,
      "numFrames": 0,
      "loopAnim": false,
      "shotType": 4,
      "repeat": 8,
      "colorBullets": 66,
      "splinterAmount": 1,
      "splinterColour": 0,
      "splinterType": 4,
      "splinterScatter": 1,
      "objTrailType": 4,
      "objTrailDelay": 5,
      "partTrailType": 1,
      "partTrailObj": -1,
      "partTrailDelay": 1,
      "speed": 400,
      "id": 0,
      "name": "wid 0",
      "teamImmunity": 0
    },
    {
      // wid1 used in FRAG GRENADE
      "detectDistance": 0,
      "blowAway": 0,
      "gravity": 0.030517578125,
      "exploSound": 11,
      "addSpeed": 0,
      "distribution": 0.0762939453125,
      "multSpeed": 1,
      "createOnExp": 0,
      "dirtEffect": -1,
      "wormExplode": false,
      "explGround": false,
      "wormCollide": false,
      "collideWithObjects": false,
      "affectByExplosions": true,
      "bounce": 0.25,
      "bounceFriction": 0.800000011920929,
      "timeToExplo": 105,
      "timeToExploV": 10,
      "hitDamage": 0,
      "bloodOnHit": 0,
      "startFrame": 202,
      "numFrames": 7,
      "loopAnim": true,
      "shotType": 0,
      "repeat": 1,
      "colorBullets": 0,
      "splinterAmount": 150,
      "splinterColour": 66,
      "splinterType": 5,
      "splinterScatter": 0,
      "objTrailType": -1,
      "objTrailDelay": 0,
      "partTrailType": 0,
      "partTrailObj": -1,
      "partTrailDelay": 0,
      "speed": 160,
      "id": 1,
      "name": "wid 1",
      "teamImmunity": 0
    },
    {
      // wid2 used in RUGER MINI IQ
      "detectDistance": 1,
      "blowAway": 0.019999999552965164,
      "gravity": 0.0000762939453125,
      "exploSound": -1,
      "addSpeed": 0,
      "distribution": 0.0152587890625,
      "multSpeed": 1,
      "createOnExp": 6,
      "dirtEffect": 5,
      "wormExplode": true,
      "explGround": true,
      "wormCollide": true,
      "collideWithObjects": false,
      "affectByExplosions": false,
      "bounce": 0,
      "bounceFriction": 0.800000011920929,
      "timeToExplo": 180,
      "timeToExploV": 120,
      "hitDamage": 5,
      "bloodOnHit": 4,
      "startFrame": 239,
      "numFrames": 0,
      "loopAnim": false,
      "shotType": 4,
      "repeat": 8,
      "colorBullets": 66,
      "splinterAmount": 1,
      "splinterColour": 17,
      "splinterType": 4,
      "splinterScatter": 1,
      "objTrailType": 4,
      "objTrailDelay": 5,
      "partTrailType": 1,
      "partTrailObj": -1,
      "partTrailDelay": 1,
      "speed": 300,
      "id": 2,
      "name": "wid 2",
      "teamImmunity": 0
    },
    {
      // wid3 used in COLT MQ
      "detectDistance": 1,
      "blowAway": 0.019999999552965164,
      "gravity": 0.0000762939453125,
      "exploSound": -1,
      "addSpeed": 0,
      "distribution": 0.0152587890625,
      "multSpeed": 1,
      "createOnExp": 6,
      "dirtEffect": 5,
      "wormExplode": true,
      "explGround": true,
      "wormCollide": true,
      "collideWithObjects": false,
      "affectByExplosions": false,
      "bounce": 0,
      "bounceFriction": 0.800000011920929,
      "timeToExplo": 180,
      "timeToExploV": 120,
      "hitDamage": 5,
      "bloodOnHit": 4,
      "startFrame": 239,
      "numFrames": 0,
      "loopAnim": false,
      "shotType": 4,
      "repeat": 8,
      "colorBullets": 66,
      "splinterAmount": 1,
      "splinterColour": 17,
      "splinterType": 4,
      "splinterScatter": 1,
      "objTrailType": 4,
      "objTrailDelay": 5,
      "partTrailType": 1,
      "partTrailObj": -1,
      "partTrailDelay": 1,
      "speed": 400,
      "id": 3,
      "name": "wid 3",
      "teamImmunity": 0
    },
    {
      // wid4 used in KNIFE
      "detectDistance": 1,
      "blowAway": 0.10000000149011612,
      "gravity": 0,
      "exploSound": -1,
      "addSpeed": 0,
      "distribution": 0.0000152587890625,
      "multSpeed": 1,
      "createOnExp": -1,
      "dirtEffect": 2,
      "wormExplode": true,
      "explGround": true,
      "wormCollide": true,
      "collideWithObjects": false,
      "affectByExplosions": false,
      "bounce": 0,
      "bounceFriction": 0.800000011920929,
      "timeToExplo": 1,
      "timeToExploV": 0,
      "hitDamage": 70,
      "bloodOnHit": 20,
      "startFrame": 139,
      "numFrames": 0,
      "loopAnim": false,
      "shotType": 1,
      "repeat": 1,
      "colorBullets": 66,
      "splinterAmount": 0,
      "splinterColour": 17,
      "splinterType": -1,
      "splinterScatter": 0,
      "objTrailType": -1,
      "objTrailDelay": 0,
      "partTrailType": 1,
      "partTrailObj": -1,
      "partTrailDelay": 1,
      "speed": 400,
      "id": 4,
      "name": "wid 4",
      "teamImmunity": 0
    },
    {
      // wid5 used in MPSSD
      "detectDistance": 1,
      "blowAway": 0.009999999776482582,
      "gravity": 0.0000762939453125,
      "exploSound": -1,
      "addSpeed": 0,
      "distribution": 0.030517578125,
      "multSpeed": 1,
      "createOnExp": -1,
      "dirtEffect": 5,
      "wormExplode": true,
      "explGround": true,
      "wormCollide": true,
      "collideWithObjects": false,
      "affectByExplosions": false,
      "bounce": 0,
      "bounceFriction": 0.800000011920929,
      "timeToExplo": 60,
      "timeToExploV": 100,
      "hitDamage": 4,
      "bloodOnHit": 3,
      "startFrame": 239,
      "numFrames": 0,
      "loopAnim": false,
      "shotType": 4,
      "repeat": 8,
      "colorBullets": 66,
      "splinterAmount": 1,
      "splinterColour": 0,
      "splinterType": 4,
      "splinterScatter": 1,
      "objTrailType": -1,
      "objTrailDelay": 1,
      "partTrailType": 1,
      "partTrailObj": -1,
      "partTrailDelay": 1,
      "speed": 400,
      "id": 5,
      "name": "wid 5",
      "teamImmunity": 0
    },
    {
      // wid6 used in MACHETE
      "detectDistance": 1,
      "blowAway": 0.10000000149011612,
      "gravity": 0,
      "exploSound": -1,
      "addSpeed": 0,
      "distribution": 0.0000152587890625,
      "multSpeed": 1,
      "createOnExp": -1,
      "dirtEffect": 2,
      "wormExplode": true,
      "explGround": true,
      "wormCollide": true,
      "collideWithObjects": false,
      "affectByExplosions": false,
      "bounce": 0,
      "bounceFriction": 0.800000011920929,
      "timeToExplo": 1,
      "timeToExploV": 0,
      "hitDamage": 90,
      "bloodOnHit": 20,
      "startFrame": 112,
      "numFrames": 0,
      "loopAnim": false,
      "shotType": 1,
      "repeat": 1,
      "colorBullets": 65,
      "splinterAmount": 0,
      "splinterColour": 17,
      "splinterType": -1,
      "splinterScatter": 0,
      "objTrailType": -1,
      "objTrailDelay": 0,
      "partTrailType": 1,
      "partTrailObj": -1,
      "partTrailDelay": 1,
      "speed": 400,
      "id": 6,
      "name": "wid 6",
      "teamImmunity": 0
    },
    {
      // wid7 used in PNEUMATIC RAM
      "detectDistance": 0,
      "blowAway": 0.03999999910593033,
      "gravity": 0.000457763671875,
      "exploSound": 9,
      "addSpeed": 0,
      "distribution": 0.0000152587890625,
      "multSpeed": 1,
      "createOnExp": -1,
      "dirtEffect": 3,
      "wormExplode": true,
      "explGround": true,
      "wormCollide": true,
      "collideWithObjects": false,
      "affectByExplosions": false,
      "bounce": 0,
      "bounceFriction": 0.800000011920929,
      "timeToExplo": 1,
      "timeToExploV": 0,
      "hitDamage": 3,
      "bloodOnHit": 2,
      "startFrame": 223,
      "numFrames": 0,
      "loopAnim": false,
      "shotType": 1,
      "repeat": 1,
      "colorBullets": 66,
      "splinterAmount": 0,
      "splinterColour": 113,
      "splinterType": -1,
      "splinterScatter": 0,
      "objTrailType": -1,
      "objTrailDelay": 5,
      "partTrailType": 1,
      "partTrailObj": -1,
      "partTrailDelay": 1,
      "speed": 400,
      "id": 7,
      "name": "wid 7",
      "teamImmunity": 0
    },
    {
      // wid8 used in STUN GRENADE
      "detectDistance": 0,
      "blowAway": 0,
      "gravity": 0.030517578125,
      "exploSound": 11,
      "addSpeed": 0,
      "distribution": 0.0762939453125,
      "multSpeed": 1,
      "createOnExp": 11,
      "dirtEffect": -1,
      "wormExplode": false,
      "explGround": false,
      "wormCollide": false,
      "collideWithObjects": false,
      "affectByExplosions": true,
      "bounce": 0.25,
      "bounceFriction": 0.800000011920929,
      "timeToExplo": 105,
      "timeToExploV": 10,
      "hitDamage": 0,
      "bloodOnHit": 0,
      "startFrame": 215,
      "numFrames": 7,
      "loopAnim": true,
      "shotType": 0,
      "repeat": 1,
      "colorBullets": 0,
      "splinterAmount": 10,
      "splinterColour": 0,
      "splinterType": 9,
      "splinterScatter": 0,
      "objTrailType": -1,
      "objTrailDelay": 1,
      "partTrailType": 1,
      "partTrailObj": -1,
      "partTrailDelay": 1,
      "speed": 160,
      "id": 8,
      "name": "wid 8",
      "teamImmunity": 0
    },
    {
      // wid9 used in PSGI
      "detectDistance": 1,
      "blowAway": 0.029999999329447746,
      "gravity": 0.000030517578125,
      "exploSound": 7,
      "addSpeed": 0,
      "distribution": 0.0030517578125,
      "multSpeed": 1,
      "createOnExp": 6,
      "dirtEffect": 5,
      "wormExplode": true,
      "explGround": true,
      "wormCollide": true,
      "collideWithObjects": false,
      "affectByExplosions": false,
      "bounce": 0,
      "bounceFriction": 0.800000011920929,
      "timeToExplo": 220,
      "timeToExploV": 140,
      "hitDamage": 5,
      "bloodOnHit": 5,
      "startFrame": 239,
      "numFrames": 0,
      "loopAnim": false,
      "shotType": 4,
      "repeat": 8,
      "colorBullets": 66,
      "splinterAmount": 1,
      "splinterColour": 113,
      "splinterType": 4,
      "splinterScatter": 1,
      "objTrailType": 4,
      "objTrailDelay": 5,
      "partTrailType": 1,
      "partTrailObj": -1,
      "partTrailDelay": 1,
      "speed": 300,
      "id": 9,
      "name": "wid 9",
      "teamImmunity": 0
    },
    {
      // wid10 used in SUICIDE BOMB
      "detectDistance": 0,
      "blowAway": 0,
      "gravity": 0,
      "exploSound": 11,
      "addSpeed": 0,
      "distribution": 0.0000152587890625,
      "multSpeed": 1,
      "createOnExp": 0,
      "dirtEffect": -1,
      "wormExplode": false,
      "explGround": false,
      "wormCollide": false,
      "collideWithObjects": false,
      "affectByExplosions": false,
      "bounce": 0.10000000149011612,
      "bounceFriction": 0.800000011920929,
      "timeToExplo": 1,
      "timeToExploV": 0,
      "hitDamage": 1,
      "bloodOnHit": 0,
      "startFrame": 135,
      "numFrames": 0,
      "loopAnim": false,
      "shotType": 0,
      "repeat": 1,
      "colorBullets": 160,
      "splinterAmount": 10,
      "splinterColour": 17,
      "splinterType": 8,
      "splinterScatter": 0,
      "objTrailType": -1,
      "objTrailDelay": 0,
      "partTrailType": 1,
      "partTrailObj": -1,
      "partTrailDelay": 1,
      "speed": 1,
      "id": 10,
      "name": "wid 10",
      "teamImmunity": 0
    },
    {
      // wid11 used in TNT BOMB
      "detectDistance": 0,
      "blowAway": 0,
      "gravity": 0.030517578125,
      "exploSound": 6,
      "addSpeed": 0,
      "distribution": 0.0000152587890625,
      "multSpeed": 1,
      "createOnExp": -1,
      "dirtEffect": -1,
      "wormExplode": false,
      "explGround": false,
      "wormCollide": false,
      "collideWithObjects": false,
      "affectByExplosions": true,
      "bounce": 0,
      "bounceFriction": 0.800000011920929,
      "timeToExplo": 210,
      "timeToExploV": 0,
      "hitDamage": 0,
      "bloodOnHit": 0,
      "startFrame": 130,
      "numFrames": 0,
      "loopAnim": false,
      "shotType": 0,
      "repeat": 1,
      "colorBullets": 66,
      "splinterAmount": 1,
      "splinterColour": 0,
      "splinterType": 15,
      "splinterScatter": 1,
      "objTrailType": -1,
      "objTrailDelay": 0,
      "partTrailType": 1,
      "partTrailObj": -1,
      "partTrailDelay": 10,
      "speed": 1,
      "id": 11,
      "name": "wid 11",
      "teamImmunity": 0
    },
    {
      // wid12 used in GLOCK IT
      "detectDistance": 1,
      "blowAway": 0.009999999776482582,
      "gravity": 0,
      "exploSound": 7,
      "addSpeed": 0,
      "distribution": 0.152587890625,
      "multSpeed": 1,
      "createOnExp": 6,
      "dirtEffect": 5,
      "wormExplode": true,
      "explGround": true,
      "wormCollide": true,
      "collideWithObjects": false,
      "affectByExplosions": false,
      "bounce": 0,
      "bounceFriction": 0.800000011920929,
      "timeToExplo": 70,
      "timeToExploV": 100,
      "hitDamage": 4,
      "bloodOnHit": 4,
      "startFrame": 239,
      "numFrames": 0,
      "loopAnim": false,
      "shotType": 4,
      "repeat": 8,
      "colorBullets": 66,
      "splinterAmount": 1,
      "splinterColour": 0,
      "splinterType": 4,
      "splinterScatter": 1,
      "objTrailType": -1,
      "objTrailDelay": 5,
      "partTrailType": 0,
      "partTrailObj": -1,
      "partTrailDelay": 0,
      "speed": 400,
      "id": 12,
      "name": "wid 12",
      "teamImmunity": 0
    },
    {
      // wid13 used in RC TNT BOMB
      "detectDistance": 0,
      "blowAway": 0,
      "gravity": 0.030517578125,
      "exploSound": -1,
      "addSpeed": 0,
      "distribution": 0.0000152587890625,
      "multSpeed": 1,
      "createOnExp": 0,
      "dirtEffect": -1,
      "wormExplode": false,
      "explGround": false,
      "wormCollide": false,
      "collideWithObjects": false,
      "affectByExplosions": true,
      "bounce": 0,
      "bounceFriction": 0.800000011920929,
      "timeToExplo": 8400,
      "timeToExploV": 0,
      "hitDamage": 0,
      "bloodOnHit": 0,
      "startFrame": 130,
      "numFrames": 0,
      "loopAnim": false,
      "shotType": 0,
      "repeat": 1,
      "colorBullets": 66,
      "splinterAmount": 10,
      "splinterColour": 0,
      "splinterType": 8,
      "splinterScatter": 0,
      "objTrailType": -1,
      "objTrailDelay": 0,
      "partTrailType": 1,
      "partTrailObj": -1,
      "partTrailDelay": 10,
      "speed": 1,
      "id": 13,
      "name": "wid 13",
      "teamImmunity": 0
    },
    {
      // wid14 used in HANDCANNON
      "detectDistance": 2,
      "blowAway": 0.009999999776482582,
      "gravity": 0.0000762939453125,
      "exploSound": 7,
      "addSpeed": 0,
      "distribution": 0.4999847412109375,
      "multSpeed": 1,
      "createOnExp": -1,
      "dirtEffect": 5,
      "wormExplode": true,
      "explGround": true,
      "wormCollide": true,
      "collideWithObjects": false,
      "affectByExplosions": false,
      "bounce": 0,
      "bounceFriction": 0.800000011920929,
      "timeToExplo": 130,
      "timeToExploV": 200,
      "hitDamage": 7,
      "bloodOnHit": 5,
      "startFrame": 239,
      "numFrames": 0,
      "loopAnim": false,
      "shotType": 4,
      "repeat": 8,
      "colorBullets": 66,
      "splinterAmount": 1,
      "splinterColour": 113,
      "splinterType": 4,
      "splinterScatter": 1,
      "objTrailType": -1,
      "objTrailDelay": 5,
      "partTrailType": 1,
      "partTrailObj": -1,
      "partTrailDelay": 1,
      "speed": 280,
      "id": 14,
      "name": "wid 14",
      "teamImmunity": 0
    },
    {
      // wid15 used in HE GRENADE
      "detectDistance": 2,
      "blowAway": 0,
      "gravity": 0.030517578125,
      "exploSound": -1,
      "addSpeed": 0,
      "distribution": 0.0762939453125,
      "multSpeed": 1,
      "createOnExp": 0,
      "dirtEffect": -1,
      "wormExplode": false,
      "explGround": false,
      "wormCollide": false,
      "collideWithObjects": false,
      "affectByExplosions": true,
      "bounce": 0.25,
      "bounceFriction": 0.800000011920929,
      "timeToExplo": 105,
      "timeToExploV": 10,
      "hitDamage": 0,
      "bloodOnHit": 0,
      "startFrame": 194,
      "numFrames": 7,
      "loopAnim": true,
      "shotType": 0,
      "repeat": 1,
      "colorBullets": 66,
      "splinterAmount": 10,
      "splinterColour": 0,
      "splinterType": 12,
      "splinterScatter": 0,
      "objTrailType": -1,
      "objTrailDelay": 0,
      "partTrailType": 1,
      "partTrailObj": -1,
      "partTrailDelay": 1,
      "speed": 160,
      "id": 15,
      "name": "wid 15",
      "teamImmunity": 0
    },
    {
      // wid16 used in CLAYMORES
      "detectDistance": 0,
      "blowAway": 0,
      "gravity": 0.030517578125,
      "exploSound": -1,
      "addSpeed": 0,
      "distribution": 0.0457763671875,
      "multSpeed": 1,
      "createOnExp": -1,
      "dirtEffect": -1,
      "wormExplode": false,
      "explGround": false,
      "wormCollide": false,
      "collideWithObjects": false,
      "affectByExplosions": true,
      "bounce": 0,
      "bounceFriction": 0.800000011920929,
      "timeToExplo": 140,
      "timeToExploV": 0,
      "hitDamage": 0,
      "bloodOnHit": 0,
      "startFrame": 131,
      "numFrames": 0,
      "loopAnim": false,
      "shotType": 0,
      "repeat": 1,
      "colorBullets": 66,
      "splinterAmount": 1,
      "splinterColour": 0,
      "splinterType": 14,
      "splinterScatter": 1,
      "objTrailType": -1,
      "objTrailDelay": 0,
      "partTrailType": 1,
      "partTrailObj": -1,
      "partTrailDelay": 1,
      "speed": 1,
      "id": 16,
      "name": "wid 16",
      "teamImmunity": 0
    },
    {
      // wid17 used in UMPQS
      "detectDistance": 1,
      "blowAway": 0.029999999329447746,
      "gravity": 0.0000762939453125,
      "exploSound": -1,
      "addSpeed": 0,
      "distribution": 0.0457763671875,
      "multSpeed": 1,
      "createOnExp": -1,
      "dirtEffect": 5,
      "wormExplode": true,
      "explGround": true,
      "wormCollide": true,
      "collideWithObjects": false,
      "affectByExplosions": false,
      "bounce": 0,
      "bounceFriction": 0.800000011920929,
      "timeToExplo": 90,
      "timeToExploV": 120,
      "hitDamage": 5,
      "bloodOnHit": 5,
      "startFrame": 239,
      "numFrames": 0,
      "loopAnim": false,
      "shotType": 4,
      "repeat": 8,
      "colorBullets": 66,
      "splinterAmount": 1,
      "splinterColour": 113,
      "splinterType": 4,
      "splinterScatter": 1,
      "objTrailType": -1,
      "objTrailDelay": 5,
      "partTrailType": 1,
      "partTrailObj": -1,
      "partTrailDelay": 1,
      "speed": 400,
      "id": 17,
      "name": "wid 17",
      "teamImmunity": 0
    },
    {
      // wid18 used in BENELLI MI
      "detectDistance": 1,
      "blowAway": 0.07999999821186066,
      "gravity": 0.0000762939453125,
      "exploSound": 7,
      "addSpeed": 0,
      "distribution": 0.3814697265625,
      "multSpeed": 1,
      "createOnExp": -1,
      "dirtEffect": 5,
      "wormExplode": true,
      "explGround": true,
      "wormCollide": true,
      "collideWithObjects": false,
      "affectByExplosions": false,
      "bounce": 0,
      "bounceFriction": 0.800000011920929,
      "timeToExplo": 80,
      "timeToExploV": 100,
      "hitDamage": 7,
      "bloodOnHit": 5,
      "startFrame": 239,
      "numFrames": 0,
      "loopAnim": false,
      "shotType": 4,
      "repeat": 8,
      "colorBullets": 66,
      "splinterAmount": 1,
      "splinterColour": 113,
      "splinterType": 4,
      "splinterScatter": 1,
      "objTrailType": -1,
      "objTrailDelay": 5,
      "partTrailType": 1,
      "partTrailObj": -1,
      "partTrailDelay": 1,
      "speed": 400,
      "id": 18,
      "name": "wid 18",
      "teamImmunity": 0
    },
    {
      // wid19 used in SANDBAGS
      "detectDistance": 0,
      "blowAway": 0,
      "gravity": 0.030517578125,
      "exploSound": -1,
      "addSpeed": 0,
      "distribution": 0.0152587890625,
      "multSpeed": 1,
      "createOnExp": -1,
      "dirtEffect": -1,
      "wormExplode": false,
      "explGround": true,
      "wormCollide": false,
      "collideWithObjects": false,
      "affectByExplosions": false,
      "bounce": 0,
      "bounceFriction": 0.800000011920929,
      "timeToExplo": 0,
      "timeToExploV": 0,
      "hitDamage": 0,
      "bloodOnHit": 0,
      "startFrame": 132,
      "numFrames": 0,
      "loopAnim": false,
      "shotType": 0,
      "repeat": 1,
      "colorBullets": 66,
      "splinterAmount": 1,
      "splinterColour": 17,
      "splinterType": 19,
      "splinterScatter": 1,
      "objTrailType": -1,
      "objTrailDelay": 0,
      "partTrailType": 1,
      "partTrailObj": -1,
      "partTrailDelay": 1,
      "speed": 1,
      "id": 19,
      "name": "wid 19",
      "teamImmunity": 0
    },
    {
      // wid20 used in AKQT
      "detectDistance": 1,
      "blowAway": 0.029999999329447746,
      "gravity": 0.0000762939453125,
      "exploSound": -1,
      "addSpeed": 0,
      "distribution": 0.00762939453125,
      "multSpeed": 1,
      "createOnExp": 6,
      "dirtEffect": 5,
      "wormExplode": true,
      "explGround": true,
      "wormCollide": true,
      "collideWithObjects": false,
      "affectByExplosions": false,
      "bounce": 0,
      "bounceFriction": 0.800000011920929,
      "timeToExplo": 190,
      "timeToExploV": 130,
      "hitDamage": 5,
      "bloodOnHit": 5,
      "startFrame": 239,
      "numFrames": 0,
      "loopAnim": false,
      "shotType": 4,
      "repeat": 8,
      "colorBullets": 66,
      "splinterAmount": 1,
      "splinterColour": 17,
      "splinterType": 4,
      "splinterScatter": 1,
      "objTrailType": 4,
      "objTrailDelay": 5,
      "partTrailType": 1,
      "partTrailObj": -1,
      "partTrailDelay": 1,
      "speed": 400,
      "id": 20,
      "name": "wid 20",
      "teamImmunity": 0
    },
    {
      // wid21 used in MOLOTOVS
      "detectDistance": 1,
      "blowAway": 0,
      "gravity": 0.06103515625,
      "exploSound": 4,
      "addSpeed": 0,
      "distribution": 0.0457763671875,
      "multSpeed": 0.9800000190734863,
      "createOnExp": 9,
      "dirtEffect": 0,
      "wormExplode": true,
      "explGround": true,
      "wormCollide": true,
      "collideWithObjects": false,
      "affectByExplosions": false,
      "bounce": 0,
      "bounceFriction": 0.800000011920929,
      "timeToExplo": 0,
      "timeToExploV": 0,
      "hitDamage": 0,
      "bloodOnHit": 0,
      "startFrame": 185,
      "numFrames": 7,
      "loopAnim": true,
      "shotType": 0,
      "repeat": 1,
      "colorBullets": 0,
      "splinterAmount": 10,
      "splinterColour": 0,
      "splinterType": 16,
      "splinterScatter": 0,
      "objTrailType": 9,
      "objTrailDelay": 4,
      "partTrailType": 1,
      "partTrailObj": -1,
      "partTrailDelay": 1,
      "speed": 300,
      "id": 21,
      "name": "wid 21",
      "teamImmunity": 0
    },
    {
      // wid22 used in CZ EXPLOSIVES
      "detectDistance": 0,
      "blowAway": 0,
      "gravity": 0,
      "exploSound": 11,
      "addSpeed": 1,
      "distribution": 0.0000152587890625,
      "multSpeed": 0,
      "createOnExp": 10,
      "dirtEffect": 0,
      "wormExplode": false,
      "explGround": false,
      "wormCollide": false,
      "collideWithObjects": false,
      "affectByExplosions": true,
      "bounce": 0,
      "bounceFriction": 0.800000011920929,
      "timeToExplo": 140,
      "timeToExploV": 0,
      "hitDamage": 0,
      "bloodOnHit": 0,
      "startFrame": 229,
      "numFrames": 0,
      "loopAnim": false,
      "shotType": 0,
      "repeat": 1,
      "colorBullets": 66,
      "splinterAmount": 0,
      "splinterColour": 0,
      "splinterType": -1,
      "splinterScatter": 0,
      "objTrailType": -1,
      "objTrailDelay": 0,
      "partTrailType": 1,
      "partTrailObj": -1,
      "partTrailDelay": 1,
      "speed": 1,
      "id": 22,
      "name": "wid 22",
      "teamImmunity": 0
    },
    {
      // wid23 used in AI AW SM
      "detectDistance": 1,
      "blowAway": 0.05000000074505806,
      "gravity": 0.0000762939453125,
      "exploSound": 7,
      "addSpeed": 0,
      "distribution": 0.0000152587890625,
      "multSpeed": 1,
      "createOnExp": 6,
      "dirtEffect": 5,
      "wormExplode": true,
      "explGround": true,
      "wormCollide": true,
      "collideWithObjects": false,
      "affectByExplosions": false,
      "bounce": 0,
      "bounceFriction": 0.800000011920929,
      "timeToExplo": 250,
      "timeToExploV": 120,
      "hitDamage": 2,
      "bloodOnHit": 8,
      "startFrame": 239,
      "numFrames": 0,
      "loopAnim": false,
      "shotType": 4,
      "repeat": 8,
      "colorBullets": 66,
      "splinterAmount": 1,
      "splinterColour": 113,
      "splinterType": 4,
      "splinterScatter": 1,
      "objTrailType": 4,
      "objTrailDelay": 5,
      "partTrailType": 1,
      "partTrailObj": -1,
      "partTrailDelay": 1,
      "speed": 300,
      "id": 23,
      "name": "wid 23",
      "teamImmunity": 0
    },
    {
      // wid24 used in COLT PYTHON
      "detectDistance": 1,
      "blowAway": 0.029999999329447746,
      "gravity": 0.0000762939453125,
      "exploSound": 7,
      "addSpeed": 0,
      "distribution": 0.2288818359375,
      "multSpeed": 1,
      "createOnExp": 6,
      "dirtEffect": 5,
      "wormExplode": true,
      "explGround": true,
      "wormCollide": true,
      "collideWithObjects": false,
      "affectByExplosions": false,
      "bounce": 0,
      "bounceFriction": 0.800000011920929,
      "timeToExplo": 110,
      "timeToExploV": 100,
      "hitDamage": 4,
      "bloodOnHit": 6,
      "startFrame": 239,
      "numFrames": 0,
      "loopAnim": false,
      "shotType": 4,
      "repeat": 8,
      "colorBullets": 66,
      "splinterAmount": 1,
      "splinterColour": 17,
      "splinterType": 4,
      "splinterScatter": 1,
      "objTrailType": -1,
      "objTrailDelay": 5,
      "partTrailType": 1,
      "partTrailObj": -1,
      "partTrailDelay": 1,
      "speed": 400,
      "id": 24,
      "name": "wid 24",
      "teamImmunity": 0
    },
    {
      // wid25 used in RBTO BREACHER
      "detectDistance": 1,
      "blowAway": 0.05000000074505806,
      "gravity": 0.030517578125,
      "exploSound": -1,
      "addSpeed": 0,
      "distribution": 0.4999847412109375,
      "multSpeed": 1,
      "createOnExp": 6,
      "dirtEffect": 0,
      "wormExplode": true,
      "explGround": true,
      "wormCollide": true,
      "collideWithObjects": false,
      "affectByExplosions": false,
      "bounce": 0,
      "bounceFriction": 0.800000011920929,
      "timeToExplo": 3,
      "timeToExploV": 20,
      "hitDamage": 2,
      "bloodOnHit": 1,
      "startFrame": 239,
      "numFrames": 0,
      "loopAnim": false,
      "shotType": 4,
      "repeat": 8,
      "colorBullets": 66,
      "splinterAmount": 0,
      "splinterColour": 111,
      "splinterType": -1,
      "splinterScatter": 0,
      "objTrailType": -1,
      "objTrailDelay": 5,
      "partTrailType": 0,
      "partTrailObj": -1,
      "partTrailDelay": 5,
      "speed": 300,
      "id": 25,
      "name": "wid 25",
      "teamImmunity": 0
    },
    {
      // wid26 used in FA MAS
      "detectDistance": 1,
      "blowAway": 0.019999999552965164,
      "gravity": 0.0000762939453125,
      "exploSound": -1,
      "addSpeed": 0,
      "distribution": 0.0152587890625,
      "multSpeed": 1,
      "createOnExp": -1,
      "dirtEffect": 5,
      "wormExplode": true,
      "explGround": true,
      "wormCollide": true,
      "collideWithObjects": false,
      "affectByExplosions": false,
      "bounce": 0,
      "bounceFriction": 0.800000011920929,
      "timeToExplo": 180,
      "timeToExploV": 100,
      "hitDamage": 5,
      "bloodOnHit": 4,
      "startFrame": 239,
      "numFrames": 0,
      "loopAnim": false,
      "shotType": 4,
      "repeat": 8,
      "colorBullets": 75,
      "splinterAmount": 1,
      "splinterColour": 0,
      "splinterType": 4,
      "splinterScatter": 1,
      "objTrailType": 4,
      "objTrailDelay": 5,
      "partTrailType": 0,
      "partTrailObj": -1,
      "partTrailDelay": 4,
      "speed": 400,
      "id": 26,
      "name": "wid 26",
      "teamImmunity": 0
    },
    {
      // wid27 used in MEDKIT
      "detectDistance": 1,
      "blowAway": 0,
      "gravity": 0.030517578125,
      "exploSound": -1,
      "addSpeed": 0,
      "distribution": 0.0000152587890625,
      "multSpeed": 1,
      "createOnExp": -1,
      "dirtEffect": -1,
      "wormExplode": true,
      "explGround": false,
      "wormCollide": true,
      "collideWithObjects": false,
      "affectByExplosions": false,
      "bounce": 0.4000000059604645,
      "bounceFriction": 0.800000011920929,
      "timeToExplo": 2000,
      "timeToExploV": 0,
      "hitDamage": 224,
      "bloodOnHit": 0,
      "startFrame": 211,
      "numFrames": 0,
      "loopAnim": false,
      "shotType": 0,
      "repeat": 1,
      "colorBullets": 66,
      "splinterAmount": 0,
      "splinterColour": 0,
      "splinterType": -1,
      "splinterScatter": 1,
      "objTrailType": -1,
      "objTrailDelay": 4,
      "partTrailType": 1,
      "partTrailObj": -1,
      "partTrailDelay": 1,
      "speed": 1,
      "id": 27,
      "name": "wid 27",
      "teamImmunity": 0
    },
    {
      // wid28 used in GREN LAUNCHER
      "detectDistance": 0,
      "blowAway": 0,
      "gravity": 0.02288818359375,
      "exploSound": -1,
      "addSpeed": 0,
      "distribution": 0.0762939453125,
      "multSpeed": 1,
      "createOnExp": -1,
      "dirtEffect": -1,
      "wormExplode": false,
      "explGround": false,
      "wormCollide": false,
      "collideWithObjects": false,
      "affectByExplosions": false,
      "bounce": 0.009999999776482582,
      "bounceFriction": 0.800000011920929,
      "timeToExplo": 20,
      "timeToExploV": 4,
      "hitDamage": 0,
      "bloodOnHit": 0,
      "startFrame": 184,
      "numFrames": 0,
      "loopAnim": false,
      "shotType": 0,
      "repeat": 1,
      "colorBullets": 0,
      "splinterAmount": 1,
      "splinterColour": 0,
      "splinterType": 11,
      "splinterScatter": 1,
      "objTrailType": 3,
      "objTrailDelay": 1,
      "partTrailType": 0,
      "partTrailObj": -1,
      "partTrailDelay": 1,
      "speed": 300,
      "id": 28,
      "name": "wid 28",
      "teamImmunity": 0
    },
    {
      // wid29 used in SAKO TRG ZZ
      "detectDistance": 1,
      "blowAway": 0.029999999329447746,
      "gravity": 0.000030517578125,
      "exploSound": 7,
      "addSpeed": 0,
      "distribution": 0.00152587890625,
      "multSpeed": 1,
      "createOnExp": 6,
      "dirtEffect": 5,
      "wormExplode": true,
      "explGround": true,
      "wormCollide": true,
      "collideWithObjects": false,
      "affectByExplosions": false,
      "bounce": 0,
      "bounceFriction": 0.800000011920929,
      "timeToExplo": 220,
      "timeToExploV": 140,
      "hitDamage": 5,
      "bloodOnHit": 5,
      "startFrame": 239,
      "numFrames": 0,
      "loopAnim": false,
      "shotType": 4,
      "repeat": 8,
      "colorBullets": 66,
      "splinterAmount": 1,
      "splinterColour": 113,
      "splinterType": 4,
      "splinterScatter": 1,
      "objTrailType": 4,
      "objTrailDelay": 5,
      "partTrailType": 0,
      "partTrailObj": -1,
      "partTrailDelay": 1,
      "speed": 300,
      "id": 29,
      "name": "wid 29",
      "teamImmunity": 0
    },
    {
      // wid30 used in STEYR TMP
      "detectDistance": 1,
      "blowAway": 0.009999999776482582,
      "gravity": 0.0000762939453125,
      "exploSound": -1,
      "addSpeed": 0,
      "distribution": 0.1068115234375,
      "multSpeed": 1,
      "createOnExp": -1,
      "dirtEffect": 5,
      "wormExplode": true,
      "explGround": true,
      "wormCollide": true,
      "collideWithObjects": false,
      "affectByExplosions": false,
      "bounce": 0,
      "bounceFriction": 0.800000011920929,
      "timeToExplo": 70,
      "timeToExploV": 100,
      "hitDamage": 4,
      "bloodOnHit": 3,
      "startFrame": 239,
      "numFrames": 0,
      "loopAnim": false,
      "shotType": 4,
      "repeat": 8,
      "colorBullets": 66,
      "splinterAmount": 1,
      "splinterColour": 0,
      "splinterType": 4,
      "splinterScatter": 1,
      "objTrailType": -1,
      "objTrailDelay": 5,
      "partTrailType": 1,
      "partTrailObj": -1,
      "partTrailDelay": 1,
      "speed": 400,
      "id": 30,
      "name": "wid 30",
      "teamImmunity": 0
    },
    {
      // wid31 used in UZI
      "detectDistance": 1,
      "blowAway": 0.009999999776482582,
      "gravity": 0.0000762939453125,
      "exploSound": -1,
      "addSpeed": 0,
      "distribution": 0.152587890625,
      "multSpeed": 1,
      "createOnExp": -1,
      "dirtEffect": 5,
      "wormExplode": true,
      "explGround": true,
      "wormCollide": true,
      "collideWithObjects": false,
      "affectByExplosions": false,
      "bounce": 0,
      "bounceFriction": 0.800000011920929,
      "timeToExplo": 80,
      "timeToExploV": 100,
      "hitDamage": 4,
      "bloodOnHit": 4,
      "startFrame": 239,
      "numFrames": 0,
      "loopAnim": false,
      "shotType": 4,
      "repeat": 8,
      "colorBullets": 66,
      "splinterAmount": 1,
      "splinterColour": 0,
      "splinterType": 4,
      "splinterScatter": 1,
      "objTrailType": -1,
      "objTrailDelay": 5,
      "partTrailType": 1,
      "partTrailObj": -1,
      "partTrailDelay": 1,
      "speed": 400,
      "id": 31,
      "name": "wid 31",
      "teamImmunity": 0
    },
    {
      // wid32 used in FN FAL
      "detectDistance": 1,
      "blowAway": 0.029999999329447746,
      "gravity": 0.0000762939453125,
      "exploSound": -1,
      "addSpeed": 0,
      "distribution": 0.0152587890625,
      "multSpeed": 1,
      "createOnExp": 6,
      "dirtEffect": 5,
      "wormExplode": true,
      "explGround": true,
      "wormCollide": true,
      "collideWithObjects": false,
      "affectByExplosions": false,
      "bounce": 0,
      "bounceFriction": 0.800000011920929,
      "timeToExplo": 220,
      "timeToExploV": 140,
      "hitDamage": 5,
      "bloodOnHit": 5,
      "startFrame": 239,
      "numFrames": 0,
      "loopAnim": false,
      "shotType": 4,
      "repeat": 8,
      "colorBullets": 66,
      "splinterAmount": 1,
      "splinterColour": 17,
      "splinterType": 4,
      "splinterScatter": 1,
      "objTrailType": 4,
      "objTrailDelay": 5,
      "partTrailType": 1,
      "partTrailObj": -1,
      "partTrailDelay": 1,
      "speed": 400,
      "id": 32,
      "name": "wid 32",
      "teamImmunity": 0
    },
    {
      // wid33 used in GAS GRENADE
      "detectDistance": 0,
      "blowAway": 0,
      "gravity": 0.030517578125,
      "exploSound": 11,
      "addSpeed": 0,
      "distribution": 0.0762939453125,
      "multSpeed": 1,
      "createOnExp": 10,
      "dirtEffect": -1,
      "wormExplode": false,
      "explGround": false,
      "wormCollide": false,
      "collideWithObjects": false,
      "affectByExplosions": true,
      "bounce": 0.25,
      "bounceFriction": 0.800000011920929,
      "timeToExplo": 280,
      "timeToExploV": 0,
      "hitDamage": 0,
      "bloodOnHit": 0,
      "startFrame": 173,
      "numFrames": 7,
      "loopAnim": true,
      "shotType": 0,
      "repeat": 1,
      "colorBullets": 75,
      "splinterAmount": 0,
      "splinterColour": 0,
      "splinterType": -1,
      "splinterScatter": 0,
      "objTrailType": -1,
      "objTrailDelay": 0,
      "partTrailType": 0,
      "partTrailObj": 10,
      "partTrailDelay": 2,
      "speed": 160,
      "id": 33,
      "name": "wid 33",
      "teamImmunity": 0
    },
    {
      // wid34 used in USP QS
      "detectDistance": 1,
      "blowAway": 0.029999999329447746,
      "gravity": 0.0000762939453125,
      "exploSound": 7,
      "addSpeed": 0,
      "distribution": 0.152587890625,
      "multSpeed": 1,
      "createOnExp": 6,
      "dirtEffect": 5,
      "wormExplode": true,
      "explGround": true,
      "wormCollide": true,
      "collideWithObjects": false,
      "affectByExplosions": false,
      "bounce": 0,
      "bounceFriction": 0.800000011920929,
      "timeToExplo": 90,
      "timeToExploV": 110,
      "hitDamage": 5,
      "bloodOnHit": 5,
      "startFrame": 239,
      "numFrames": 0,
      "loopAnim": false,
      "shotType": 4,
      "repeat": 8,
      "colorBullets": 66,
      "splinterAmount": 1,
      "splinterColour": 17,
      "splinterType": 4,
      "splinterScatter": 1,
      "objTrailType": -1,
      "objTrailDelay": 5,
      "partTrailType": 1,
      "partTrailObj": -1,
      "partTrailDelay": 1,
      "speed": 400,
      "id": 34,
      "name": "wid 34",
      "teamImmunity": 0
    },
    {
      // wid35 used in REMINGTON BTO
      "detectDistance": 1,
      "blowAway": 0.07999999821186066,
      "gravity": 0.0000762939453125,
      "exploSound": 7,
      "addSpeed": 0,
      "distribution": 0.3814697265625,
      "multSpeed": 1,
      "createOnExp": -1,
      "dirtEffect": 5,
      "wormExplode": true,
      "explGround": true,
      "wormCollide": true,
      "collideWithObjects": false,
      "affectByExplosions": false,
      "bounce": 0,
      "bounceFriction": 0.800000011920929,
      "timeToExplo": 80,
      "timeToExploV": 100,
      "hitDamage": 7,
      "bloodOnHit": 5,
      "startFrame": 239,
      "numFrames": 0,
      "loopAnim": false,
      "shotType": 4,
      "repeat": 8,
      "colorBullets": 66,
      "splinterAmount": 1,
      "splinterColour": 113,
      "splinterType": 4,
      "splinterScatter": 1,
      "objTrailType": -1,
      "objTrailDelay": 5,
      "partTrailType": 0,
      "partTrailObj": -1,
      "partTrailDelay": 1,
      "speed": 400,
      "id": 35,
      "name": "wid 35",
      "teamImmunity": 0
    },
    {
      // wid36 used in NAIL BOMB
      "detectDistance": 0,
      "blowAway": 0,
      "gravity": 0.030517578125,
      "exploSound": 11,
      "addSpeed": 0,
      "distribution": 0.006103515625,
      "multSpeed": 1,
      "createOnExp": 0,
      "dirtEffect": -1,
      "wormExplode": false,
      "explGround": false,
      "wormCollide": false,
      "collideWithObjects": false,
      "affectByExplosions": true,
      "bounce": 0,
      "bounceFriction": 0.800000011920929,
      "timeToExplo": 120,
      "timeToExploV": 0,
      "hitDamage": 0,
      "bloodOnHit": 0,
      "startFrame": 133,
      "numFrames": 3,
      "loopAnim": true,
      "shotType": 0,
      "repeat": 1,
      "colorBullets": 66,
      "splinterAmount": 150,
      "splinterColour": 0,
      "splinterType": 18,
      "splinterScatter": 0,
      "objTrailType": -1,
      "objTrailDelay": 0,
      "partTrailType": 1,
      "partTrailObj": -1,
      "partTrailDelay": 10,
      "speed": 120,
      "id": 36,
      "name": "wid 36",
      "teamImmunity": 0
    },
    {
      // wid37 used in KNIFE THROW
      "detectDistance": 0,
      "blowAway": 0,
      "gravity": 0.030517578125,
      "exploSound": -1,
      "addSpeed": 0,
      "distribution": 0.030517578125,
      "multSpeed": 0.9900000095367432,
      "createOnExp": -1,
      "dirtEffect": 2,
      "wormExplode": false,
      "explGround": false,
      "wormCollide": false,
      "collideWithObjects": false,
      "affectByExplosions": false,
      "bounce": 0,
      "bounceFriction": 0.800000011920929,
      "timeToExplo": 2,
      "timeToExploV": 0,
      "hitDamage": 0,
      "bloodOnHit": 0,
      "startFrame": 126,
      "numFrames": 3,
      "loopAnim": true,
      "shotType": 0,
      "repeat": 1,
      "colorBullets": 66,
      "splinterAmount": 1,
      "splinterColour": 17,
      "splinterType": 3,
      "splinterScatter": 1,
      "objTrailType": -1,
      "objTrailDelay": 0,
      "partTrailType": 1,
      "partTrailObj": -1,
      "partTrailDelay": 1,
      "speed": 230,
      "id": 37,
      "name": "wid 37",
      "teamImmunity": 0
    },
    {
      // wid38 used in MPSK
      "detectDistance": 1,
      "blowAway": 0.009999999776482582,
      "gravity": 0.0000762939453125,
      "exploSound": -1,
      "addSpeed": 0,
      "distribution": 0.1068115234375,
      "multSpeed": 1,
      "createOnExp": -1,
      "dirtEffect": 5,
      "wormExplode": true,
      "explGround": true,
      "wormCollide": true,
      "collideWithObjects": false,
      "affectByExplosions": false,
      "bounce": 0,
      "bounceFriction": 0.800000011920929,
      "timeToExplo": 80,
      "timeToExploV": 100,
      "hitDamage": 4,
      "bloodOnHit": 4,
      "startFrame": 239,
      "numFrames": 0,
      "loopAnim": false,
      "shotType": 4,
      "repeat": 8,
      "colorBullets": 66,
      "splinterAmount": 1,
      "splinterColour": 0,
      "splinterType": 4,
      "splinterScatter": 1,
      "objTrailType": -1,
      "objTrailDelay": 5,
      "partTrailType": 1,
      "partTrailObj": -1,
      "partTrailDelay": 1,
      "speed": 400,
      "id": 38,
      "name": "wid 38",
      "teamImmunity": 0
    },
    {
      // wid39 used in RPGT
      "detectDistance": 2,
      "blowAway": 0,
      "gravity": 0.001220703125,
      "exploSound": 11,
      "addSpeed": 0,
      "distribution": 0.0152587890625,
      "multSpeed": 1,
      "createOnExp": 0,
      "dirtEffect": -1,
      "wormExplode": true,
      "explGround": true,
      "wormCollide": true,
      "collideWithObjects": false,
      "affectByExplosions": false,
      "bounce": 0,
      "bounceFriction": 0.800000011920929,
      "timeToExplo": 0,
      "timeToExploV": 0,
      "hitDamage": 0,
      "bloodOnHit": 0,
      "startFrame": 193,
      "numFrames": 0,
      "loopAnim": false,
      "shotType": 0,
      "repeat": 1,
      "colorBullets": 0,
      "splinterAmount": 20,
      "splinterColour": 0,
      "splinterType": 12,
      "splinterScatter": 1,
      "objTrailType": -1,
      "objTrailDelay": 3,
      "partTrailType": 1,
      "partTrailObj": 22,
      "partTrailDelay": 1,
      "speed": 200,
      "id": 39,
      "name": "wid 39",
      "teamImmunity": 0
    }
  ],
  "nObjects":
  [
    {
      // nid0 partTrailObj for wid12
      "detectDistance": 0,
      "gravity": 0.0457763671875,
      "speed": 0.5,
      "speedV": 0.05000000074505806,
      "distribution": 0.1220703125,
      "blowAway": 0,
      "bounce": 0.10000000149011612,
      "hitDamage": 0,
      "wormExplode": false,
      "explGround": true,
      "wormDestroy": false,
      "bloodOnHit": 0,
      "startFrame": 165,
      "numFrames": 3,
      "drawOnMap": true,
      "colorBullets": 0,
      "createOnExp": -1,
      "affectByExplosions": false,
      "dirtEffect": -1,
      "splinterAmount": 0,
      "splinterColour": 0,
      "splinterType": -1,
      "bloodTrail": true,
      "bloodTrailDelay": 10,
      "leaveObj": -1,
      "leaveObjDelay": 0,
      "timeToExplo": 0,
      "timeToExploV": 0,
      "id": 0,
      "name": "nid 0",
      "teamImmunity": 0
    },
    {
      // nid1
      "detectDistance": 0,
      "gravity": 0.0457763671875,
      "speed": 0.5,
      "speedV": 0.05000000074505806,
      "distribution": 0.1220703125,
      "blowAway": 0,
      "bounce": 0.10000000149011612,
      "hitDamage": 0,
      "wormExplode": false,
      "explGround": true,
      "wormDestroy": false,
      "bloodOnHit": 0,
      "startFrame": 169,
      "numFrames": 3,
      "drawOnMap": true,
      "colorBullets": 0,
      "createOnExp": -1,
      "affectByExplosions": false,
      "dirtEffect": -1,
      "splinterAmount": 0,
      "splinterColour": 0,
      "splinterType": -1,
      "bloodTrail": true,
      "bloodTrailDelay": 10,
      "leaveObj": -1,
      "leaveObjDelay": 0,
      "timeToExplo": 0,
      "timeToExploV": 0,
      "id": 1,
      "name": "nid 1",
      "teamImmunity": 0
    },
    {
      // nid2
      "detectDistance": 0,
      "gravity": 0.01068115234375,
      "speed": 0.800000011920929,
      "speedV": 0.4000000059604645,
      "distribution": 0.152587890625,
      "blowAway": 0,
      "bounce": 0,
      "hitDamage": 0,
      "wormExplode": false,
      "explGround": true,
      "wormDestroy": false,
      "bloodOnHit": 0,
      "startFrame": 0,
      "numFrames": 0,
      "drawOnMap": false,
      "colorBullets": 17,
      "createOnExp": -1,
      "affectByExplosions": false,
      "dirtEffect": -1,
      "splinterAmount": 0,
      "splinterColour": 0,
      "splinterType": -1,
      "bloodTrail": false,
      "bloodTrailDelay": 0,
      "leaveObj": -1,
      "leaveObjDelay": 0,
      "timeToExplo": 50,
      "timeToExploV": 0,
      "id": 2,
      "name": "nid 2",
      "teamImmunity": 0
    },
    {
      // nid3 splinterType for wid37 partTrailObj for wid5 wid11
      "detectDistance": 4,
      "gravity": 0.030517578125,
      "speed": 0.009999999776482582,
      "speedV": 0.009999999776482582,
      "distribution": 0,
      "blowAway": 0.20000000298023224,
      "bounce": 0,
      "hitDamage": 70,
      "wormExplode": true,
      "explGround": true,
      "wormDestroy": true,
      "bloodOnHit": 20,
      "startFrame": 126,
      "numFrames": 3,
      "drawOnMap": true,
      "colorBullets": 67,
      "createOnExp": -1,
      "affectByExplosions": false,
      "dirtEffect": -1,
      "splinterAmount": 0,
      "splinterColour": 0,
      "splinterType": -1,
      "bloodTrail": false,
      "bloodTrailDelay": 0,
      "leaveObj": -1,
      "leaveObjDelay": 0,
      "timeToExplo": 0,
      "timeToExploV": 0,
      "id": 3,
      "name": "nid 3",
      "teamImmunity": 0
    },
    {
      // nid4 splinterType for wid0 wid2 wid3 wid5 wid9 wid12 wid14 wid17 wid18 wid20 wid23 wid24 wid26 wid29 wid30 wid31 wid32 wid34 wid35 wid38
      "detectDistance": 0,
      "gravity": 0,
      "speed": 4,
      "speedV": 0,
      "distribution": 0,
      "blowAway": 0.009999999776482582,
      "bounce": 0,
      "hitDamage": 0,
      "wormExplode": true,
      "explGround": true,
      "wormDestroy": true,
      "bloodOnHit": 1,
      "startFrame": 239,
      "numFrames": 0,
      "drawOnMap": false,
      "colorBullets": 67,
      "createOnExp": -1,
      "affectByExplosions": false,
      "dirtEffect": 5,
      "splinterAmount": 1,
      "splinterColour": 111,
      "splinterType": 23,
      "bloodTrail": false,
      "bloodTrailDelay": 0,
      "leaveObj": -1,
      "leaveObjDelay": 5,
      "timeToExplo": 0,
      "timeToExploV": 0,
      "id": 4,
      "name": "nid 4",
      "teamImmunity": 0
    },
    {
      // nid5 splinterType for wid1 partTrailObj for wid9 wid10 splinterType for nid11 nid12 nid14
      "detectDistance": 2,
      "gravity": 0.030517578125,
      "speed": 1.7999999523162842,
      "speedV": 0.5,
      "distribution": 0.00457763671875,
      "blowAway": 0.15000000596046448,
      "bounce": 0,
      "hitDamage": 25,
      "wormExplode": true,
      "explGround": true,
      "wormDestroy": true,
      "bloodOnHit": 5,
      "startFrame": 159,
      "numFrames": 0,
      "drawOnMap": false,
      "colorBullets": 67,
      "createOnExp": 2,
      "affectByExplosions": false,
      "dirtEffect": -1,
      "splinterAmount": 0,
      "splinterColour": 0,
      "splinterType": -1,
      "bloodTrail": false,
      "bloodTrailDelay": 0,
      "leaveObj": 3,
      "leaveObjDelay": 2,
      "timeToExplo": 0,
      "timeToExploV": 0,
      "id": 5,
      "name": "nid 5",
      "teamImmunity": 0
    },
    {
      // nid6
      "detectDistance": 1,
      "gravity": 0.030517578125,
      "speed": 0.4000000059604645,
      "speedV": 0,
      "distribution": 0.30517578125,
      "blowAway": 0,
      "bounce": 0,
      "hitDamage": 1,
      "wormExplode": true,
      "explGround": true,
      "wormDestroy": true,
      "bloodOnHit": 0,
      "startFrame": 0,
      "numFrames": 0,
      "drawOnMap": false,
      "colorBullets": 82,
      "createOnExp": -1,
      "affectByExplosions": false,
      "dirtEffect": -1,
      "splinterAmount": 0,
      "splinterColour": 0,
      "splinterType": -1,
      "bloodTrail": true,
      "bloodTrailDelay": 1,
      "leaveObj": -1,
      "leaveObjDelay": 0,
      "timeToExplo": 1,
      "timeToExploV": 0,
      "id": 6,
      "name": "nid 6",
      "teamImmunity": 0
    },
    {
      // nid7
      "detectDistance": 0,
      "gravity": 0.030517578125,
      "speed": 0,
      "speedV": 0,
      "distribution": 0.1220703125,
      "blowAway": 0.019999999552965164,
      "bounce": 0.4000000059604645,
      "hitDamage": 0,
      "wormExplode": false,
      "explGround": true,
      "wormDestroy": false,
      "bloodOnHit": 0,
      "startFrame": 155,
      "numFrames": 3,
      "drawOnMap": true,
      "colorBullets": 0,
      "createOnExp": -1,
      "affectByExplosions": false,
      "dirtEffect": -1,
      "splinterAmount": 0,
      "splinterColour": 0,
      "splinterType": -1,
      "bloodTrail": false,
      "bloodTrailDelay": 0,
      "leaveObj": -1,
      "leaveObjDelay": 255,
      "timeToExplo": 0,
      "timeToExploV": 0,
      "id": 7,
      "name": "nid 7",
      "teamImmunity": 0
    },
    {
      // nid8 splinterType for wid10 wid13 partTrailObj for wid17 splinterType for nid15
      "detectDistance": 0,
      "gravity": 0,
      "speed": 7,
      "speedV": 0.4000000059604645,
      "distribution": 0.152587890625,
      "blowAway": 0,
      "bounce": 0,
      "hitDamage": 0,
      "wormExplode": false,
      "explGround": false,
      "wormDestroy": false,
      "bloodOnHit": 0,
      "startFrame": 239,
      "numFrames": 0,
      "drawOnMap": false,
      "colorBullets": 0,
      "createOnExp": 12,
      "affectByExplosions": false,
      "dirtEffect": -1,
      "splinterAmount": 5,
      "splinterColour": 0,
      "splinterType": 12,
      "bloodTrail": false,
      "bloodTrailDelay": 0,
      "leaveObj": 12,
      "leaveObjDelay": 1,
      "timeToExplo": 1,
      "timeToExploV": 0,
      "id": 8,
      "name": "nid 8",
      "teamImmunity": 0
    },
    {
      // nid9 splinterType for wid8 partTrailObj for wid16
      "detectDistance": 0,
      "gravity": 0,
      "speed": 0.029999999329447746,
      "speedV": 0.019999999552965164,
      "distribution": 0.30517578125,
      "blowAway": 0,
      "bounce": 1,
      "hitDamage": 0,
      "wormExplode": false,
      "explGround": false,
      "wormDestroy": false,
      "bloodOnHit": 0,
      "startFrame": 239,
      "numFrames": 0,
      "drawOnMap": false,
      "colorBullets": 0,
      "createOnExp": -1,
      "affectByExplosions": true,
      "dirtEffect": -1,
      "splinterAmount": 0,
      "splinterColour": 0,
      "splinterType": -1,
      "bloodTrail": false,
      "bloodTrailDelay": 0,
      "leaveObj": 5,
      "leaveObjDelay": 10,
      "timeToExplo": 100,
      "timeToExploV": 50,
      "id": 9,
      "name": "nid 9",
      "teamImmunity": 0
    },
    {
      // nid10 partTrailObj for wid33
      "detectDistance": 7,
      "gravity": 0,
      "speed": 1,
      "speedV": 0.5,
      "distribution": 0.30517578125,
      "blowAway": 0,
      "bounce": 1,
      "hitDamage": 2,
      "wormExplode": true,
      "explGround": false,
      "wormDestroy": true,
      "bloodOnHit": 0,
      "startFrame": 239,
      "numFrames": 0,
      "drawOnMap": false,
      "colorBullets": 0,
      "createOnExp": 5,
      "affectByExplosions": false,
      "dirtEffect": -1,
      "splinterAmount": 0,
      "splinterColour": 0,
      "splinterType": -1,
      "bloodTrail": false,
      "bloodTrailDelay": 0,
      "leaveObj": 5,
      "leaveObjDelay": 10,
      "timeToExplo": 120,
      "timeToExploV": 30,
      "id": 10,
      "name": "nid 10",
      "teamImmunity": 0
    },
    {
      // nid11 splinterType for wid28
      "detectDistance": 2,
      "gravity": 0.02288818359375,
      "speed": 3,
      "speedV": 0,
      "distribution": 0,
      "blowAway": 0,
      "bounce": 0,
      "hitDamage": 1,
      "wormExplode": true,
      "explGround": true,
      "wormDestroy": true,
      "bloodOnHit": 0,
      "startFrame": 184,
      "numFrames": 0,
      "drawOnMap": false,
      "colorBullets": 0,
      "createOnExp": 12,
      "affectByExplosions": true,
      "dirtEffect": 0,
      "splinterAmount": 100,
      "splinterColour": 75,
      "splinterType": 5,
      "bloodTrail": false,
      "bloodTrailDelay": 0,
      "leaveObj": 3,
      "leaveObjDelay": 1,
      "timeToExplo": 0,
      "timeToExploV": 0,
      "id": 11,
      "name": "nid 11",
      "teamImmunity": 0
    },
    {
      // nid12 splinterType for wid15 wid39 partTrailObj for wid8 splinterType for nid8
      "detectDistance": 0,
      "gravity": 0,
      "speed": 3,
      "speedV": 0.4000000059604645,
      "distribution": 0.152587890625,
      "blowAway": 0,
      "bounce": 0,
      "hitDamage": 0,
      "wormExplode": false,
      "explGround": false,
      "wormDestroy": false,
      "bloodOnHit": 0,
      "startFrame": 0,
      "numFrames": 0,
      "drawOnMap": false,
      "colorBullets": 10,
      "createOnExp": 12,
      "affectByExplosions": false,
      "dirtEffect": -1,
      "splinterAmount": 1,
      "splinterColour": 0,
      "splinterType": 5,
      "bloodTrail": false,
      "bloodTrailDelay": 0,
      "leaveObj": 0,
      "leaveObjDelay": 2,
      "timeToExplo": 9,
      "timeToExploV": 10,
      "id": 12,
      "name": "nid 12",
      "teamImmunity": 0
    },
    {
      // nid13
      "detectDistance": 0,
      "gravity": 0,
      "speed": 4,
      "speedV": 8,
      "distribution": 0.152587890625,
      "blowAway": 0,
      "bounce": 1,
      "hitDamage": 0,
      "wormExplode": false,
      "explGround": false,
      "wormDestroy": false,
      "bloodOnHit": 0,
      "startFrame": 0,
      "numFrames": 0,
      "drawOnMap": false,
      "colorBullets": 0,
      "createOnExp": -1,
      "affectByExplosions": false,
      "dirtEffect": 4,
      "splinterAmount": 0,
      "splinterColour": 0,
      "splinterType": -1,
      "bloodTrail": false,
      "bloodTrailDelay": 0,
      "leaveObj": -1,
      "leaveObjDelay": 0,
      "timeToExplo": 1,
      "timeToExploV": 0,
      "id": 13,
      "name": "nid 13",
      "teamImmunity": 0
    },
    {
      // nid14 splinterType for wid16
      "detectDistance": 12,
      "gravity": 0.030517578125,
      "speed": 0.009999999776482582,
      "speedV": 0,
      "distribution": 0,
      "blowAway": 0,
      "bounce": 0,
      "hitDamage": 1,
      "wormExplode": true,
      "explGround": false,
      "wormDestroy": true,
      "bloodOnHit": 0,
      "startFrame": 131,
      "numFrames": 0,
      "drawOnMap": false,
      "colorBullets": 0,
      "createOnExp": 12,
      "affectByExplosions": false,
      "dirtEffect": 0,
      "splinterAmount": 150,
      "splinterColour": 66,
      "splinterType": 5,
      "bloodTrail": false,
      "bloodTrailDelay": 0,
      "leaveObj": -1,
      "leaveObjDelay": 0,
      "timeToExplo": 8400,
      "timeToExploV": 0,
      "id": 14,
      "name": "nid 14",
      "teamImmunity": 0
    },
    {
      // nid15 splinterType for wid11
      "detectDistance": 4,
      "gravity": 0.030517578125,
      "speed": 0,
      "speedV": 0,
      "distribution": 0,
      "blowAway": 0,
      "bounce": 1,
      "hitDamage": 1,
      "wormExplode": false,
      "explGround": false,
      "wormDestroy": true,
      "bloodOnHit": 0,
      "startFrame": 130,
      "numFrames": 0,
      "drawOnMap": false,
      "colorBullets": 0,
      "createOnExp": -1,
      "affectByExplosions": true,
      "dirtEffect": -1,
      "splinterAmount": 15,
      "splinterColour": 0,
      "splinterType": 8,
      "bloodTrail": false,
      "bloodTrailDelay": 0,
      "leaveObj": -1,
      "leaveObjDelay": 10,
      "timeToExplo": 1050,
      "timeToExploV": 0,
      "id": 15,
      "name": "nid 15",
      "teamImmunity": 0
    },
    {
      // nid16 splinterType for wid21
      "detectDistance": 0,
      "gravity": 0.1220703125,
      "speed": 1,
      "speedV": 0,
      "distribution": 0,
      "blowAway": 0,
      "bounce": 0,
      "hitDamage": 0,
      "wormExplode": false,
      "explGround": true,
      "wormDestroy": false,
      "bloodOnHit": 0,
      "startFrame": 239,
      "numFrames": 0,
      "drawOnMap": false,
      "colorBullets": 0,
      "createOnExp": -1,
      "affectByExplosions": true,
      "dirtEffect": -1,
      "splinterAmount": 5,
      "splinterColour": 0,
      "splinterType": 17,
      "bloodTrail": false,
      "bloodTrailDelay": 0,
      "leaveObj": 9,
      "leaveObjDelay": 6,
      "timeToExplo": 20,
      "timeToExploV": 0,
      "id": 16,
      "name": "nid 16",
      "teamImmunity": 0
    },
    {
      // nid17 splinterType for nid16
      "detectDistance": 0,
      "gravity": -0.00152587890625,
      "speed": 0.10000000149011612,
      "speedV": 0,
      "distribution": 0,
      "blowAway": 0,
      "bounce": 0.10000000149011612,
      "hitDamage": 0,
      "wormExplode": false,
      "explGround": true,
      "wormDestroy": false,
      "bloodOnHit": 0,
      "startFrame": 239,
      "numFrames": 0,
      "drawOnMap": false,
      "colorBullets": 0,
      "createOnExp": 8,
      "affectByExplosions": true,
      "dirtEffect": -1,
      "splinterAmount": 0,
      "splinterColour": 0,
      "splinterType": -1,
      "bloodTrail": false,
      "bloodTrailDelay": 0,
      "leaveObj": 8,
      "leaveObjDelay": 10,
      "timeToExplo": 140,
      "timeToExploV": 40,
      "id": 17,
      "name": "nid 17",
      "teamImmunity": 0
    },
    {
      // nid18 splinterType for wid36
      "detectDistance": 1,
      "gravity": 0.03662109375,
      "speed": 3.4000000953674316,
      "speedV": 1,
      "distribution": 0.152587890625,
      "blowAway": 0.07999999821186066,
      "bounce": 0,
      "hitDamage": 15,
      "wormExplode": true,
      "explGround": true,
      "wormDestroy": true,
      "bloodOnHit": 10,
      "startFrame": 223,
      "numFrames": 12,
      "drawOnMap": false,
      "colorBullets": 0,
      "createOnExp": -1,
      "affectByExplosions": true,
      "dirtEffect": -1,
      "splinterAmount": 0,
      "splinterColour": 0,
      "splinterType": -1,
      "bloodTrail": false,
      "bloodTrailDelay": 0,
      "leaveObj": -1,
      "leaveObjDelay": 7,
      "timeToExplo": 0,
      "timeToExploV": 0,
      "id": 18,
      "name": "nid 18",
      "teamImmunity": 0
    },
    {
      // nid19 splinterType for wid19
      "detectDistance": 0,
      "gravity": 0,
      "speed": 0.009999999776482582,
      "speedV": 0.009999999776482582,
      "distribution": 0.0000152587890625,
      "blowAway": 0,
      "bounce": 0,
      "hitDamage": 0,
      "wormExplode": false,
      "explGround": true,
      "wormDestroy": false,
      "bloodOnHit": 0,
      "startFrame": 132,
      "numFrames": 0,
      "drawOnMap": true,
      "colorBullets": 0,
      "createOnExp": -1,
      "affectByExplosions": true,
      "dirtEffect": -1,
      "splinterAmount": 0,
      "splinterColour": 0,
      "splinterType": -1,
      "bloodTrail": false,
      "bloodTrailDelay": 0,
      "leaveObj": -1,
      "leaveObjDelay": 1,
      "timeToExplo": 1,
      "timeToExploV": 0,
      "id": 19,
      "name": "nid 19",
      "teamImmunity": 0
    },
    {
      // nid20
      "detectDistance": 0,
      "gravity": -0.5,
      "speed": 0,
      "speedV": 0,
      "distribution": 0,
      "blowAway": 0,
      "bounce": 0,
      "hitDamage": 0,
      "wormExplode": false,
      "explGround": false,
      "wormDestroy": false,
      "bloodOnHit": 0,
      "startFrame": 239,
      "numFrames": 0,
      "drawOnMap": false,
      "colorBullets": 0,
      "createOnExp": -1,
      "affectByExplosions": true,
      "dirtEffect": -1,
      "splinterAmount": 0,
      "splinterColour": 0,
      "splinterType": -1,
      "bloodTrail": false,
      "bloodTrailDelay": 0,
      "leaveObj": -1,
      "leaveObjDelay": 0,
      "timeToExplo": 1,
      "timeToExploV": 0,
      "id": 20,
      "name": "nid 20",
      "teamImmunity": 0
    },
    {
      // nid21
      "detectDistance": 0,
      "gravity": -0.4999847412109375,
      "speed": 0,
      "speedV": 0,
      "distribution": 0,
      "blowAway": 0,
      "bounce": 0,
      "hitDamage": 0,
      "wormExplode": false,
      "explGround": false,
      "wormDestroy": false,
      "bloodOnHit": 0,
      "startFrame": 239,
      "numFrames": 0,
      "drawOnMap": false,
      "colorBullets": 0,
      "createOnExp": -1,
      "affectByExplosions": true,
      "dirtEffect": -1,
      "splinterAmount": 0,
      "splinterColour": 0,
      "splinterType": -1,
      "bloodTrail": false,
      "bloodTrailDelay": 0,
      "leaveObj": -1,
      "leaveObjDelay": 0,
      "timeToExplo": 1,
      "timeToExploV": 0,
      "id": 21,
      "name": "nid 21",
      "teamImmunity": 0
    },
    {
      // nid22 partTrailObj for wid39
      "detectDistance": 1,
      "gravity": 0,
      "speed": 0.009999999776482582,
      "speedV": 0.009999999776482582,
      "distribution": 0.0000152587890625,
      "blowAway": 0,
      "bounce": 0,
      "hitDamage": 0,
      "wormExplode": false,
      "explGround": false,
      "wormDestroy": false,
      "bloodOnHit": 0,
      "startFrame": 239,
      "numFrames": 0,
      "drawOnMap": false,
      "colorBullets": 66,
      "createOnExp": -1,
      "affectByExplosions": true,
      "dirtEffect": -1,
      "splinterAmount": 5,
      "splinterColour": 0,
      "splinterType": 23,
      "bloodTrail": false,
      "bloodTrailDelay": 0,
      "leaveObj": -1,
      "leaveObjDelay": 1,
      "timeToExplo": 1,
      "timeToExploV": 0,
      "id": 22,
      "name": "nid 22",
      "teamImmunity": 0
    },
    {
      // nid23 splinterType for nid4 nid22
      "detectDistance": 0,
      "gravity": 0,
      "speed": 0.4000000059604645,
      "speedV": 0.30000001192092896,
      "distribution": 0.0000152587890625,
      "blowAway": 0,
      "bounce": 1,
      "hitDamage": 0,
      "wormExplode": false,
      "explGround": false,
      "wormDestroy": false,
      "bloodOnHit": 0,
      "startFrame": 0,
      "numFrames": 0,
      "drawOnMap": false,
      "colorBullets": 66,
      "createOnExp": 3,
      "affectByExplosions": true,
      "dirtEffect": -1,
      "splinterAmount": 0,
      "splinterColour": 0,
      "splinterType": -1,
      "bloodTrail": false,
      "bloodTrailDelay": 0,
      "leaveObj": -1,
      "leaveObjDelay": 1,
      "timeToExplo": 23,
      "timeToExploV": 23,
      "id": 23,
      "name": "nid 23",
      "teamImmunity": 0
    }
  ],
  "sObjects":
  [
    {
      // sid0 createOnExp for wid1 wid10 wid13 wid15 wid36 wid39
      "startSound": -1,
      "numSounds": 0,
      "animDelay": 3,
      "startFrame": 40,
      "numFrames": 8,
      "detectRange": 20,
      "damage": 8,
      "blowAway": 0.0457763671875,
      "shadow": true,
      "shake": 0,
      "flash": 0,
      "dirtEffect": 0,
      "id": 0,
      "name": "sid 0"
    },
    {
      // sid1
      "startSound": 11,
      "numSounds": 2,
      "animDelay": 2,
      "startFrame": 45,
      "numFrames": 10,
      "detectRange": 14,
      "damage": 10,
      "blowAway": 0,
      "shadow": true,
      "shake": 2,
      "flash": 4,
      "dirtEffect": 1,
      "id": 1,
      "name": "sid 1"
    },
    {
      // sid2 createOnExp for nid5
      "startSound": 7,
      "numSounds": 1,
      "animDelay": 2,
      "startFrame": 51,
      "numFrames": 4,
      "detectRange": 8,
      "damage": 5,
      "blowAway": 0.0457763671875,
      "shadow": true,
      "shake": 1,
      "flash": 0,
      "dirtEffect": 2,
      "id": 2,
      "name": "sid 2"
    },
    {
      // sid3 objTrailType for wid28 createOnExp for nid23
      "startSound": -1,
      "numSounds": 0,
      "animDelay": 5,
      "startFrame": 64,
      "numFrames": 4,
      "detectRange": 0,
      "damage": 0,
      "blowAway": 0.0457763671875,
      "shadow": false,
      "shake": 0,
      "flash": 0,
      "dirtEffect": -1,
      "id": 3,
      "name": "sid 3"
    },
    {
      // sid4 objTrailType for wid0 wid2 wid3 wid9 wid20 wid23 wid26 wid29 wid32
      "startSound": -1,
      "numSounds": 0,
      "animDelay": 2,
      "startFrame": 99,
      "numFrames": 1,
      "detectRange": 0,
      "damage": 0,
      "blowAway": 0,
      "shadow": true,
      "shake": 0,
      "flash": 0,
      "dirtEffect": -1,
      "id": 4,
      "name": "sid 4"
    },
    {
      // sid5 createOnExp for nid10
      "startSound": -1,
      "numSounds": 0,
      "animDelay": 4,
      "startFrame": 102,
      "numFrames": 5,
      "detectRange": 7,
      "damage": 0,
      "blowAway": 0,
      "shadow": false,
      "shake": 0,
      "flash": 0,
      "dirtEffect": -1,
      "id": 5,
      "name": "sid 5"
    },
    {
      // sid6 createOnExp for wid2 wid3 wid9 wid12 wid20 wid23 wid24 wid25 wid29 wid32 wid34
      "startSound": -1,
      "numSounds": 0,
      "animDelay": 2,
      "startFrame": 76,
      "numFrames": 2,
      "detectRange": 0,
      "damage": 0,
      "blowAway": 0,
      "shadow": true,
      "shake": 0,
      "flash": 0,
      "dirtEffect": -1,
      "id": 6,
      "name": "sid 6"
    },
    {
      // sid7
      "startSound": -1,
      "numSounds": 0,
      "animDelay": 0,
      "startFrame": 77,
      "numFrames": 0,
      "detectRange": 0,
      "damage": 0,
      "blowAway": 0,
      "shadow": true,
      "shake": 0,
      "flash": 0,
      "dirtEffect": -1,
      "id": 7,
      "name": "sid 7"
    },
    {
      // sid8 createOnExp for nid17
      "startSound": -1,
      "numSounds": 0,
      "animDelay": 3,
      "startFrame": 51,
      "numFrames": 4,
      "detectRange": 6,
      "damage": 1,
      "blowAway": 0,
      "shadow": true,
      "shake": 0,
      "flash": 0,
      "dirtEffect": 2,
      "id": 8,
      "name": "sid 8"
    },
    {
      // sid9 createOnExp for wid21 objTrailType for wid21
      "startSound": -1,
      "numSounds": 0,
      "animDelay": 2,
      "startFrame": 51,
      "numFrames": 4,
      "detectRange": 6,
      "damage": 0,
      "blowAway": 0,
      "shadow": true,
      "shake": 0,
      "flash": 0,
      "dirtEffect": 5,
      "id": 9,
      "name": "sid 9"
    },
    {
      // sid10 createOnExp for wid22 wid33
      "startSound": 11,
      "numSounds": 1,
      "animDelay": 2,
      "startFrame": 40,
      "numFrames": 8,
      "detectRange": 20,
      "damage": 2,
      "blowAway": 0.00762939453125,
      "shadow": true,
      "shake": 2,
      "flash": 3,
      "dirtEffect": 8,
      "id": 10,
      "name": "sid 10"
    },
    {
      // sid11 createOnExp for wid8
      "startSound": 11,
      "numSounds": 1,
      "animDelay": 2,
      "startFrame": 40,
      "numFrames": 8,
      "detectRange": 20,
      "damage": 2,
      "blowAway": 0.0762939453125,
      "shadow": true,
      "shake": 19,
      "flash": 50,
      "dirtEffect": 1,
      "id": 11,
      "name": "sid 11"
    },
    {
      // sid12 createOnExp for nid8 nid11 nid12 nid14
      "startSound": 11,
      "numSounds": 1,
      "animDelay": 3,
      "startFrame": 40,
      "numFrames": 8,
      "detectRange": 20,
      "damage": 4,
      "blowAway": 0.0457763671875,
      "shadow": true,
      "shake": 4,
      "flash": 8,
      "dirtEffect": 0,
      "id": 12,
      "name": "sid 12"
    },
    {
      // sid13
      "startSound": -1,
      "numSounds": 0,
      "animDelay": 0,
      "startFrame": 0,
      "numFrames": 0,
      "detectRange": 0,
      "damage": 0,
      "blowAway": 1.0039215087890625,
      "shadow": false,
      "shake": 0,
      "flash": 0,
      "dirtEffect": -1,
      "id": 13,
      "name": "sid 13"
    }
  ],
  "textures":
  [
    {
      "nDrawBack": true,
      "mFrame": 0,
      "sFrame": 73,
      "rFrame": 2,
      "id": 0,
      "name": "tid 0"
    },
    {
      "nDrawBack": true,
      "mFrame": 1,
      "sFrame": 73,
      "rFrame": 2,
      "id": 1,
      "name": "tid 1"
    },
    {
      "nDrawBack": true,
      "mFrame": 2,
      "sFrame": 73,
      "rFrame": 2,
      "id": 2,
      "name": "tid 2"
    },
    {
      "nDrawBack": true,
      "mFrame": 37,
      "sFrame": 73,
      "rFrame": 2,
      "id": 3,
      "name": "tid 3"
    },
    {
      "nDrawBack": false,
      "mFrame": 0,
      "sFrame": 87,
      "rFrame": 2,
      "id": 4,
      "name": "tid 4"
    },
    {
      "nDrawBack": true,
      "mFrame": 39,
      "sFrame": 73,
      "rFrame": 2,
      "id": 5,
      "name": "tid 5"
    },
    {
      "nDrawBack": false,
      "mFrame": 38,
      "sFrame": 82,
      "rFrame": 2,
      "id": 6,
      "name": "tid 6"
    },
    {
      "nDrawBack": true,
      "mFrame": 99,
      "sFrame": 73,
      "rFrame": 2,
      "id": 7,
      "name": "tid 7"
    },
    {
      "nDrawBack": true,
      "mFrame": 37,
      "sFrame": 73,
      "rFrame": 2,
      "id": 8,
      "name": "tid 8"
    }
  ],
  "colorAnim":
  [
    129,
    131,
    133,
    136,
    152,
    159,
    168,
    171
  ],
  "textSpritesStartIdx": 240,
  "crossHairSprite": 153,
  "name": "Urban Assault 2: SWAT",
  "author": "Weili Jiang",
  "version": ""
}
