{
  "constants":
  {
    "nrInitialLength": 250,
    "nrAttachLength": 28.125,
    "minBounceUp": -0.8125,
    "minBounceDown": 0.8125,
    "minBounceHoriz": 0.8125,
    "wormGravity": 0.011444091796875,
    "wormAcc": 0.0457763671875,
    "wormMaxVel": 0.4453125,
    "jumpForce": 0.85546875,
    "maxAimVel": 0.05243098363280296,
    "aimAcc": 0.002996056340634823,
    "ninjaropeGravity": 0.0152587890625,
    "nrMinLength": 10.625,
    "nrMaxLength": 250,
    "bonusGravity": 0.02288818359375,
    "wormFricMult": 0.8899999856948853,
    "aimFric": 0.8299999833106995,
    "nrThrowVel": 4,
    "nrForce": 0.0833333358168602,
    "bonusBounce": 0.4000000059604645,
    "bonusFlickerTime": 220,
    "aimMaxAngle": 1.5707963705062866,
    "aimMinAngle": -0.9817476868629456,
    "nrAdjustVel": 1.5,
    "nrColourBegin": 20,
    "nrColourEnd": 22,
    "bonusExplodeRisk": 10,
    "bonusHealthVar": 51,
    "bonusMinHealth": 10,
    "firstBloodColour": 80,
    "numBloodColours": 2,
    "bObjGravity": 0.00762939453125,
    "splinterLarpaVelDiv": 3,
    "splinterCracklerVelDiv": 3,
    "fallDamageHoriz": 0,
    "fallDamageDown": 0,
    "fallDamageUp": 0,
    "hFallDamage": true,
    "hBonusReloadOnly": false
  },
  "weapons":
  [
    {
      "parts": 40,
      "bulletType": 0,
      "bulletSpeed": 5,
      "bulletSpeedInherit": 0.20000000298023224,
      "distribution": 0.2899169921875,
      "recoil": 1.2999999523162842,
      "ammo": 5,
      "delay": 57,
      "loadingTime": 235,
      "leaveShells": 1,
      "leaveShellDelay": 28,
      "fireCone": 9,
      "laserSight": false,
      "laserBeam": false,
      "launchSound": 0,
      "playReloadSound": true,
      "name": "PREDATOR",
      "id": 0,
      "reloadSound": -1
    },
    {
      "parts": 1,
      "bulletType": 1,
      "bulletSpeed": 2.5,
      "bulletSpeedInherit": 0.4000000059604645,
      "distribution": 0.0457763671875,
      "recoil": 0.05999999865889549,
      "ammo": 50,
      "delay": 3,
      "loadingTime": 200,
      "leaveShells": 3,
      "leaveShellDelay": 1,
      "fireCone": 6,
      "laserSight": false,
      "laserBeam": false,
      "launchSound": 1,
      "playReloadSound": true,
      "name": "CHAINGUN",
      "id": 1,
      "reloadSound": -1
    },
    {
      "parts": 4,
      "bulletType": 2,
      "bulletSpeed": 1.7000000476837158,
      "bulletSpeedInherit": 0.5882352590560913,
      "distribution": 0.274658203125,
      "recoil": 0,
      "ammo": 150,
      "delay": 1,
      "loadingTime": 500,
      "leaveShells": 0,
      "leaveShellDelay": 1,
      "fireCone": 1,
      "laserSight": false,
      "laserBeam": false,
      "launchSound": 13,
      "playReloadSound": true,
      "name": "NAPALM GUN",
      "id": 2,
      "reloadSound": -1
    },
    {
      "parts": 10,
      "bulletType": 3,
      "bulletSpeed": 4,
      "bulletSpeedInherit": 0.25,
      "distribution": 0.0762939453125,
      "recoil": 0.009999999776482582,
      "ammo": 50,
      "delay": 0,
      "loadingTime": 750,
      "leaveShells": 4,
      "leaveShellDelay": 1,
      "fireCone": 6,
      "laserSight": true,
      "laserBeam": false,
      "launchSound": 1,
      "playReloadSound": true,
      "name": "KIZIA",
      "id": 3,
      "reloadSound": -1
    },
    {
      "parts": 1,
      "bulletType": 4,
      "bulletSpeed": 2,
      "bulletSpeedInherit": 0.5,
      "distribution": 0.18310546875,
      "recoil": 0,
      "ammo": 3,
      "delay": 20,
      "loadingTime": 670,
      "leaveShells": 0,
      "leaveShellDelay": 1,
      "fireCone": 0,
      "laserSight": false,
      "laserBeam": false,
      "launchSound": 4,
      "playReloadSound": true,
      "name": "DRAGON BALL",
      "id": 4,
      "reloadSound": -1
    },
    {
      "parts": 7,
      "bulletType": 5,
      "bulletSpeed": 1.899999976158142,
      "bulletSpeedInherit": 0.5263158082962036,
      "distribution": 0.244140625,
      "recoil": 0,
      "ammo": 1,
      "delay": 0,
      "loadingTime": 300,
      "leaveShells": 0,
      "leaveShellDelay": 1,
      "fireCone": 0,
      "laserSight": false,
      "laserBeam": false,
      "launchSound": 5,
      "playReloadSound": false,
      "name": "TRASH",
      "id": 5,
      "reloadSound": -1
    },
    {
      "parts": 2,
      "bulletType": 6,
      "bulletSpeed": 2.0999999046325684,
      "bulletSpeedInherit": 0,
      "distribution": 0.030517578125,
      "recoil": 0.10000000149011612,
      "ammo": 3,
      "delay": 13,
      "loadingTime": 900,
      "leaveShells": 0,
      "leaveShellDelay": 1,
      "fireCone": 0,
      "laserSight": false,
      "laserBeam": false,
      "launchSound": 3,
      "playReloadSound": false,
      "name": "NUKE ROCKET",
      "id": 6,
      "reloadSound": -1
    },
    {
      "parts": 1,
      "bulletType": 7,
      "bulletSpeed": 2.5,
      "bulletSpeedInherit": 0,
      "distribution": 0,
      "recoil": 0.15000000596046448,
      "ammo": 3,
      "delay": 50,
      "loadingTime": 500,
      "leaveShells": 1,
      "leaveShellDelay": 1,
      "fireCone": 8,
      "laserSight": true,
      "laserBeam": false,
      "launchSound": 29,
      "playReloadSound": true,
      "name": "RAIL GUN",
      "id": 7,
      "reloadSound": -1
    },
    {
      "parts": 5,
      "bulletType": 8,
      "bulletSpeed": 1.7000000476837158,
      "bulletSpeedInherit": 0.5882352590560913,
      "distribution": 0.2288818359375,
      "recoil": 0.15000000596046448,
      "ammo": 40,
      "delay": 11,
      "loadingTime": 520,
      "leaveShells": 0,
      "leaveShellDelay": 1,
      "fireCone": 8,
      "laserSight": false,
      "laserBeam": false,
      "launchSound": 6,
      "playReloadSound": true,
      "name": "BERSERKER",
      "id": 8,
      "reloadSound": -1
    },
    {
      "parts": 3,
      "bulletType": 9,
      "bulletSpeed": 0.44999998807907104,
      "bulletSpeedInherit": 0,
      "distribution": 0.00762939453125,
      "recoil": 0,
      "ammo": 100,
      "delay": 0,
      "loadingTime": 1500,
      "leaveShells": 0,
      "leaveShellDelay": 1,
      "fireCone": 0,
      "laserSight": false,
      "laserBeam": false,
      "launchSound": 13,
      "playReloadSound": false,
      "name": "FLAMEGUN",
      "id": 9,
      "reloadSound": -1
    },
    {
      "parts": 1,
      "bulletType": 10,
      "bulletSpeed": 1.5,
      "bulletSpeedInherit": 0.6666666865348816,
      "distribution": 0.001373291015625,
      "recoil": 1.5,
      "ammo": 1,
      "delay": 0,
      "loadingTime": 1000,
      "leaveShells": 0,
      "leaveShellDelay": 1,
      "fireCone": 8,
      "laserSight": false,
      "laserBeam": false,
      "launchSound": 4,
      "playReloadSound": false,
      "name": "SKIPER",
      "id": 10,
      "reloadSound": -1
    },
    {
      "parts": 1,
      "bulletType": 11,
      "bulletSpeed": 2.200000047683716,
      "bulletSpeedInherit": 0.45454543828964233,
      "distribution": 0,
      "recoil": 0.20000000298023224,
      "ammo": 5,
      "delay": 20,
      "loadingTime": 360,
      "leaveShells": 0,
      "leaveShellDelay": 1,
      "fireCone": 7,
      "laserSight": false,
      "laserBeam": false,
      "launchSound": 6,
      "playReloadSound": true,
      "name": "SUPER LARPA",
      "id": 11,
      "reloadSound": -1
    },
    {
      "parts": 25,
      "bulletType": 12,
      "bulletSpeed": 2,
      "bulletSpeedInherit": 0,
      "distribution": 0,
      "recoil": 0.8999999761581421,
      "ammo": 1,
      "delay": 5,
      "loadingTime": 800,
      "leaveShells": 0,
      "leaveShellDelay": 1,
      "fireCone": 10,
      "laserSight": false,
      "laserBeam": false,
      "launchSound": 12,
      "playReloadSound": true,
      "name": "HEAVY GAUSS",
      "id": 12,
      "reloadSound": -1
    },
    {
      "parts": 2,
      "bulletType": 13,
      "bulletSpeed": 2,
      "bulletSpeedInherit": 0.5,
      "distribution": 0.1220703125,
      "recoil": 0.10000000149011612,
      "ammo": 30,
      "delay": 4,
      "loadingTime": 700,
      "leaveShells": 0,
      "leaveShellDelay": 1,
      "fireCone": 0,
      "laserSight": false,
      "laserBeam": false,
      "launchSound": -1,
      "playReloadSound": false,
      "name": "ACID",
      "id": 13,
      "reloadSound": -1
    },
    {
      "parts": 1,
      "bulletType": 14,
      "bulletSpeed": 4,
      "bulletSpeedInherit": 0.25,
      "distribution": 0,
      "recoil": 0.05999999865889549,
      "ammo": 1,
      "delay": 0,
      "loadingTime": 700,
      "leaveShells": 0,
      "leaveShellDelay": 1,
      "fireCone": 6,
      "laserSight": false,
      "laserBeam": false,
      "launchSound": 1,
      "playReloadSound": true,
      "name": "CRACKSPIKES",
      "id": 14,
      "reloadSound": -1
    },
    {
      "parts": 1,
      "bulletType": 15,
      "bulletSpeed": 1.899999976158142,
      "bulletSpeedInherit": 0.5263158082962036,
      "distribution": 0,
      "recoil": 0,
      "ammo": 1,
      "delay": 0,
      "loadingTime": 700,
      "leaveShells": 0,
      "leaveShellDelay": 1,
      "fireCone": 0,
      "laserSight": false,
      "laserBeam": false,
      "launchSound": 5,
      "playReloadSound": false,
      "name": "DEAD HAMMER",
      "id": 15,
      "reloadSound": -1
    },
    {
      "parts": 40,
      "bulletType": 16,
      "bulletSpeed": 2.5999999046325684,
      "bulletSpeedInherit": 0.38461539149284363,
      "distribution": 0.30517578125,
      "recoil": 2,
      "ammo": 2,
      "delay": 80,
      "loadingTime": 360,
      "leaveShells": 1,
      "leaveShellDelay": 28,
      "fireCone": 10,
      "laserSight": false,
      "laserBeam": false,
      "launchSound": 0,
      "playReloadSound": true,
      "name": "BERTRAYER",
      "id": 16,
      "reloadSound": -1
    },
    {
      "parts": 15,
      "bulletType": 17,
      "bulletSpeed": 3.5999999046325684,
      "bulletSpeedInherit": 0,
      "distribution": 0,
      "recoil": 0.30000001192092896,
      "ammo": 2,
      "delay": 44,
      "loadingTime": 500,
      "leaveShells": 1,
      "leaveShellDelay": 1,
      "fireCone": 1,
      "laserSight": true,
      "laserBeam": false,
      "launchSound": 1,
      "playReloadSound": true,
      "name": "TELEPORT BOMB",
      "id": 17,
      "reloadSound": -1
    },
    {
      "parts": 1,
      "bulletType": 18,
      "bulletSpeed": 2,
      "bulletSpeedInherit": 0.5,
      "distribution": 0,
      "recoil": 0.10000000149011612,
      "ammo": 1,
      "delay": 3,
      "loadingTime": 1450,
      "leaveShells": 0,
      "leaveShellDelay": 1,
      "fireCone": 0,
      "laserSight": false,
      "laserBeam": false,
      "launchSound": 4,
      "playReloadSound": true,
      "name": "GHOST",
      "id": 18,
      "reloadSound": -1
    },
    {
      "parts": 3,
      "bulletType": 19,
      "bulletSpeed": 1.7000000476837158,
      "bulletSpeedInherit": 0.5882352590560913,
      "distribution": 0.1068115234375,
      "recoil": 0,
      "ammo": 1,
      "delay": 0,
      "loadingTime": 470,
      "leaveShells": 0,
      "leaveShellDelay": 1,
      "fireCone": 0,
      "laserSight": false,
      "laserBeam": false,
      "launchSound": 5,
      "playReloadSound": false,
      "name": "FIREBOMBS",
      "id": 19,
      "reloadSound": -1
    },
    {
      "parts": 1,
      "bulletType": 20,
      "bulletSpeed": 5,
      "bulletSpeedInherit": 0,
      "distribution": 0.0762939453125,
      "recoil": 0.4000000059604645,
      "ammo": 1,
      "delay": 0,
      "loadingTime": 300,
      "leaveShells": 0,
      "leaveShellDelay": 1,
      "fireCone": 3,
      "laserSight": false,
      "laserBeam": false,
      "launchSound": 7,
      "playReloadSound": true,
      "name": "EARTH QUAKE",
      "id": 20,
      "reloadSound": -1
    },
    {
      "parts": 2,
      "bulletType": 21,
      "bulletSpeed": 3,
      "bulletSpeedInherit": 0.3333333432674408,
      "distribution": 0,
      "recoil": 0.10999999940395355,
      "ammo": 15,
      "delay": 10,
      "loadingTime": 360,
      "leaveShells": 0,
      "leaveShellDelay": 1,
      "fireCone": 0,
      "laserSight": false,
      "laserBeam": false,
      "launchSound": 6,
      "playReloadSound": true,
      "name": "PSYCHO",
      "id": 21,
      "reloadSound": -1
    },
    {
      "parts": 1,
      "bulletType": 22,
      "bulletSpeed": 4,
      "bulletSpeedInherit": 0.25,
      "distribution": 0.48828125,
      "recoil": 0,
      "ammo": 1,
      "delay": 0,
      "loadingTime": 850,
      "leaveShells": 0,
      "leaveShellDelay": 1,
      "fireCone": 0,
      "laserSight": false,
      "laserBeam": false,
      "launchSound": 5,
      "playReloadSound": false,
      "name": "NEURON",
      "id": 22,
      "reloadSound": -1
    },
    {
      "parts": 1,
      "bulletType": 23,
      "bulletSpeed": 3,
      "bulletSpeedInherit": 0.3333333432674408,
      "distribution": 0,
      "recoil": 0,
      "ammo": 5,
      "delay": 70,
      "loadingTime": 280,
      "leaveShells": 0,
      "leaveShellDelay": 1,
      "fireCone": 0,
      "laserSight": false,
      "laserBeam": false,
      "launchSound": 5,
      "playReloadSound": true,
      "name": "KILLER",
      "id": 23,
      "reloadSound": -1
    },
    {
      "parts": 50,
      "bulletType": 24,
      "bulletSpeed": 0,
      "bulletSpeedInherit": 0,
      "distribution": 0.0762939453125,
      "recoil": 0,
      "ammo": 1,
      "delay": 35,
      "loadingTime": 2200,
      "leaveShells": 0,
      "leaveShellDelay": 1,
      "fireCone": 0,
      "laserSight": false,
      "laserBeam": false,
      "launchSound": 28,
      "playReloadSound": false,
      "name": "WINDOWS ME",
      "id": 24,
      "reloadSound": -1
    },
    {
      "parts": 1,
      "bulletType": 25,
      "bulletSpeed": 3,
      "bulletSpeedInherit": 0.3333333432674408,
      "distribution": 0.152587890625,
      "recoil": 0.5,
      "ammo": 1,
      "delay": 0,
      "loadingTime": 700,
      "leaveShells": 0,
      "leaveShellDelay": 1,
      "fireCone": 8,
      "laserSight": false,
      "laserBeam": false,
      "launchSound": 3,
      "playReloadSound": true,
      "name": "NAPALM",
      "id": 25,
      "reloadSound": -1
    },
    {
      "parts": 1,
      "bulletType": 26,
      "bulletSpeed": 1.7000000476837158,
      "bulletSpeedInherit": 0.5882352590560913,
      "distribution": 0.30517578125,
      "recoil": 0,
      "ammo": 1,
      "delay": 0,
      "loadingTime": 700,
      "leaveShells": 0,
      "leaveShellDelay": 1,
      "fireCone": 0,
      "laserSight": false,
      "laserBeam": false,
      "launchSound": 5,
      "playReloadSound": true,
      "name": "DIRT NUKE",
      "id": 26,
      "reloadSound": -1
    },
    {
      "parts": 10,
      "bulletType": 27,
      "bulletSpeed": 1,
      "bulletSpeedInherit": 1,
      "distribution": 0.457763671875,
      "recoil": 0.20000000298023224,
      "ammo": 2,
      "delay": 45,
      "loadingTime": 400,
      "leaveShells": 0,
      "leaveShellDelay": 1,
      "fireCone": 0,
      "laserSight": false,
      "laserBeam": false,
      "launchSound": 4,
      "playReloadSound": true,
      "name": "FLY BULLET",
      "id": 27,
      "reloadSound": -1
    },
    {
      "parts": 20,
      "bulletType": 28,
      "bulletSpeed": 0.25,
      "bulletSpeedInherit": 0,
      "distribution": 0.152587890625,
      "recoil": 0,
      "ammo": 100,
      "delay": 5,
      "loadingTime": 400,
      "leaveShells": 0,
      "leaveShellDelay": 1,
      "fireCone": 0,
      "laserSight": false,
      "laserBeam": true,
      "launchSound": 23,
      "playReloadSound": true,
      "name": "ZICA LASER",
      "id": 28,
      "reloadSound": -1
    },
    {
      "parts": 10,
      "bulletType": 29,
      "bulletSpeed": 1.100000023841858,
      "bulletSpeedInherit": 0.9090908765792847,
      "distribution": 0.3662109375,
      "recoil": 0,
      "ammo": 1,
      "delay": 0,
      "loadingTime": 400,
      "leaveShells": 0,
      "leaveShellDelay": 1,
      "fireCone": 0,
      "laserSight": false,
      "laserBeam": false,
      "launchSound": 5,
      "playReloadSound": true,
      "name": "SPIKEBALLS",
      "id": 29,
      "reloadSound": -1
    },
    {
      "parts": 1,
      "bulletType": 30,
      "bulletSpeed": 2.559999942779541,
      "bulletSpeedInherit": 0.390625,
      "distribution": 0,
      "recoil": 0.20000000298023224,
      "ammo": 1,
      "delay": 20,
      "loadingTime": 470,
      "leaveShells": 0,
      "leaveShellDelay": 1,
      "fireCone": 7,
      "laserSight": false,
      "laserBeam": false,
      "launchSound": 3,
      "playReloadSound": false,
      "name": "CASCADE",
      "id": 30,
      "reloadSound": -1
    },
    {
      "parts": 1,
      "bulletType": 31,
      "bulletSpeed": 4,
      "bulletSpeedInherit": 0,
      "distribution": 0.0152587890625,
      "recoil": 0.019999999552965164,
      "ammo": 3,
      "delay": 100,
      "loadingTime": 700,
      "leaveShells": 1,
      "leaveShellDelay": 1,
      "fireCone": 6,
      "laserSight": false,
      "laserBeam": false,
      "launchSound": 2,
      "playReloadSound": true,
      "name": "DRAGUNOV",
      "id": 31,
      "reloadSound": -1
    },
    {
      "parts": 1,
      "bulletType": 32,
      "bulletSpeed": 2.299999952316284,
      "bulletSpeedInherit": 0.43478262424468994,
      "distribution": 0,
      "recoil": 0.15000000596046448,
      "ammo": 1,
      "delay": 0,
      "loadingTime": 1200,
      "leaveShells": 0,
      "leaveShellDelay": 1,
      "fireCone": 9,
      "laserSight": false,
      "laserBeam": false,
      "launchSound": 3,
      "playReloadSound": true,
      "name": "ANNIHILATOR",
      "id": 32,
      "reloadSound": -1
    },
    {
      "parts": 1,
      "bulletType": 33,
      "bulletSpeed": 1,
      "bulletSpeedInherit": 1,
      "distribution": 0.1068115234375,
      "recoil": 0,
      "ammo": 1,
      "delay": 0,
      "loadingTime": 600,
      "leaveShells": 0,
      "leaveShellDelay": 1,
      "fireCone": 0,
      "laserSight": false,
      "laserBeam": false,
      "launchSound": 5,
      "playReloadSound": false,
      "name": "GRAVITY BOMB",
      "id": 33,
      "reloadSound": -1
    },
    {
      "parts": 1,
      "bulletType": 34,
      "bulletSpeed": 1.100000023841858,
      "bulletSpeedInherit": 0.9090908765792847,
      "distribution": 0.30517578125,
      "recoil": 0,
      "ammo": 1,
      "delay": 0,
      "loadingTime": 600,
      "leaveShells": 0,
      "leaveShellDelay": 1,
      "fireCone": 0,
      "laserSight": false,
      "laserBeam": false,
      "launchSound": -1,
      "playReloadSound": false,
      "name": "TRAP",
      "id": 34,
      "reloadSound": -1
    },
    {
      "parts": 1,
      "bulletType": 35,
      "bulletSpeed": 1.899999976158142,
      "bulletSpeedInherit": 0.5263158082962036,
      "distribution": 0.1068115234375,
      "recoil": 0,
      "ammo": 2,
      "delay": 35,
      "loadingTime": 500,
      "leaveShells": 0,
      "leaveShellDelay": 1,
      "fireCone": 0,
      "laserSight": false,
      "laserBeam": false,
      "launchSound": 4,
      "playReloadSound": false,
      "name": "G-LUNCHER",
      "id": 35,
      "reloadSound": -1
    },
    {
      "parts": 1,
      "bulletType": 36,
      "bulletSpeed": 1,
      "bulletSpeedInherit": 1,
      "distribution": 0.1220703125,
      "recoil": 0,
      "ammo": 1,
      "delay": 0,
      "loadingTime": 700,
      "leaveShells": 0,
      "leaveShellDelay": 1,
      "fireCone": 10,
      "laserSight": false,
      "laserBeam": false,
      "launchSound": 5,
      "playReloadSound": true,
      "name": "CRAZY LARPA",
      "id": 36,
      "reloadSound": -1
    },
    {
      "parts": 20,
      "bulletType": 37,
      "bulletSpeed": 2,
      "bulletSpeedInherit": 0.5,
      "distribution": 0.2288818359375,
      "recoil": 0,
      "ammo": 3,
      "delay": 10,
      "loadingTime": 400,
      "leaveShells": 0,
      "leaveShellDelay": 1,
      "fireCone": 0,
      "laserSight": false,
      "laserBeam": false,
      "launchSound": 5,
      "playReloadSound": false,
      "name": "KNIVES",
      "id": 37,
      "reloadSound": -1
    },
    {
      "parts": 2,
      "bulletType": 38,
      "bulletSpeed": 1.2000000476837158,
      "bulletSpeedInherit": 0.8333333134651184,
      "distribution": 0,
      "recoil": 0,
      "ammo": 1,
      "delay": 40,
      "loadingTime": 500,
      "leaveShells": 0,
      "leaveShellDelay": 1,
      "fireCone": 0,
      "laserSight": false,
      "laserBeam": false,
      "launchSound": 5,
      "playReloadSound": true,
      "name": "MINES",
      "id": 38,
      "reloadSound": -1
    },
    {
      "parts": 15,
      "bulletType": 39,
      "bulletSpeed": 2,
      "bulletSpeedInherit": 0,
      "distribution": 0,
      "recoil": 0.8999999761581421,
      "ammo": 3,
      "delay": 20,
      "loadingTime": 500,
      "leaveShells": 0,
      "leaveShellDelay": 1,
      "fireCone": 10,
      "laserSight": false,
      "laserBeam": false,
      "launchSound": 12,
      "playReloadSound": true,
      "name": "GAUSS GUN",
      "id": 39,
      "reloadSound": -1
    }
  ],
  "wObjects":
  [
    {
      // wid0 used in PREDATOR
      "detectDistance": 0,
      "blowAway": 0,
      "gravity": 0,
      "exploSound": -1,
      "addSpeed": 0,
      "distribution": 0.2899169921875,
      "multSpeed": 1,
      "createOnExp": 2,
      "dirtEffect": -1,
      "wormExplode": true,
      "explGround": true,
      "wormCollide": true,
      "collideWithObjects": false,
      "affectByExplosions": false,
      "bounce": 0,
      "bounceFriction": 0.800000011920929,
      "timeToExplo": 200,
      "timeToExploV": 190,
      "hitDamage": 1,
      "bloodOnHit": 2,
      "startFrame": -1,
      "numFrames": 0,
      "loopAnim": false,
      "shotType": 0,
      "repeat": 1,
      "colorBullets": 45,
      "splinterAmount": 0,
      "splinterColour": 0,
      "splinterType": 2,
      "splinterScatter": 0,
      "objTrailType": -1,
      "objTrailDelay": 0,
      "partTrailType": 0,
      "partTrailObj": -1,
      "partTrailDelay": 0,
      "speed": 500,
      "id": 0,
      "name": "wid 0",
      "teamImmunity": 0
    },
    {
      // wid1 used in CHAINGUN
      "detectDistance": 0,
      "blowAway": 0.5,
      "gravity": 0,
      "exploSound": -1,
      "addSpeed": 0,
      "distribution": 0.0457763671875,
      "multSpeed": 1,
      "createOnExp": 2,
      "dirtEffect": -1,
      "wormExplode": false,
      "explGround": true,
      "wormCollide": true,
      "collideWithObjects": true,
      "affectByExplosions": false,
      "bounce": 0,
      "bounceFriction": 0.800000011920929,
      "timeToExplo": 0,
      "timeToExploV": 0,
      "hitDamage": 10,
      "bloodOnHit": 4,
      "startFrame": -1,
      "numFrames": 0,
      "loopAnim": false,
      "shotType": 4,
      "repeat": 8,
      "colorBullets": 68,
      "splinterAmount": 0,
      "splinterColour": 0,
      "splinterType": 2,
      "splinterScatter": 0,
      "objTrailType": -1,
      "objTrailDelay": 0,
      "partTrailType": 0,
      "partTrailObj": -1,
      "partTrailDelay": 0,
      "speed": 250,
      "id": 1,
      "name": "wid 1",
      "teamImmunity": 0
    },
    {
      // wid2 used in NAPALM GUN
      "detectDistance": 0,
      "blowAway": 0.05000000074505806,
      "gravity": 0.018310546875,
      "exploSound": -1,
      "addSpeed": 0,
      "distribution": 0.274658203125,
      "multSpeed": 1,
      "createOnExp": 9,
      "dirtEffect": -1,
      "wormExplode": false,
      "explGround": true,
      "wormCollide": true,
      "collideWithObjects": false,
      "affectByExplosions": false,
      "bounce": 0,
      "bounceFriction": 0.800000011920929,
      "timeToExplo": 100,
      "timeToExploV": 90,
      "hitDamage": 2,
      "bloodOnHit": 0,
      "startFrame": 159,
      "numFrames": 5,
      "loopAnim": true,
      "shotType": 0,
      "repeat": 1,
      "colorBullets": 1,
      "splinterAmount": 0,
      "splinterColour": 0,
      "splinterType": 12,
      "splinterScatter": 1,
      "objTrailType": -1,
      "objTrailDelay": 35,
      "partTrailType": 0,
      "partTrailObj": -1,
      "partTrailDelay": 0,
      "speed": 170,
      "id": 2,
      "name": "wid 2",
      "teamImmunity": 0
    },
    {
      // wid3 used in KIZIA
      "detectDistance": 0,
      "blowAway": 0.05000000074505806,
      "gravity": 0,
      "exploSound": -1,
      "addSpeed": 0,
      "distribution": 0.0762939453125,
      "multSpeed": 1,
      "createOnExp": 2,
      "dirtEffect": -1,
      "wormExplode": false,
      "explGround": true,
      "wormCollide": true,
      "collideWithObjects": false,
      "affectByExplosions": false,
      "bounce": 0,
      "bounceFriction": 0.800000011920929,
      "timeToExplo": 200,
      "timeToExploV": 0,
      "hitDamage": 1,
      "bloodOnHit": 10,
      "startFrame": -1,
      "numFrames": 0,
      "loopAnim": false,
      "shotType": 4,
      "repeat": 8,
      "colorBullets": 70,
      "splinterAmount": 0,
      "splinterColour": 0,
      "splinterType": 2,
      "splinterScatter": 0,
      "objTrailType": -1,
      "objTrailDelay": 0,
      "partTrailType": 0,
      "partTrailObj": -1,
      "partTrailDelay": 0,
      "speed": 400,
      "id": 3,
      "name": "wid 3",
      "teamImmunity": 0
    },
    {
      // wid4 used in DRAGON BALL
      "detectDistance": 0,
      "blowAway": 0,
      "gravity": 0.0152587890625,
      "exploSound": 11,
      "addSpeed": 0,
      "distribution": 0.18310546875,
      "multSpeed": 1,
      "createOnExp": -1,
      "dirtEffect": 5,
      "wormExplode": true,
      "explGround": false,
      "wormCollide": false,
      "collideWithObjects": false,
      "affectByExplosions": true,
      "bounce": 0.30000001192092896,
      "bounceFriction": 0.800000011920929,
      "timeToExplo": 80,
      "timeToExploV": 20,
      "hitDamage": 5,
      "bloodOnHit": 0,
      "startFrame": 197,
      "numFrames": 0,
      "loopAnim": false,
      "shotType": 0,
      "repeat": 1,
      "colorBullets": 0,
      "splinterAmount": 10,
      "splinterColour": 0,
      "splinterType": 14,
      "splinterScatter": 0,
      "objTrailType": 9,
      "objTrailDelay": 1,
      "partTrailType": 0,
      "partTrailObj": -1,
      "partTrailDelay": 0,
      "speed": 200,
      "id": 4,
      "name": "wid 4",
      "teamImmunity": 0
    },
    {
      // wid5 used in TRASH
      "detectDistance": 0,
      "blowAway": 0,
      "gravity": 0.0030517578125,
      "exploSound": 12,
      "addSpeed": 0,
      "distribution": 0.244140625,
      "multSpeed": 1,
      "createOnExp": 0,
      "dirtEffect": -1,
      "wormExplode": true,
      "explGround": false,
      "wormCollide": false,
      "collideWithObjects": false,
      "affectByExplosions": true,
      "bounce": 0.5,
      "bounceFriction": 0.800000011920929,
      "timeToExplo": 200,
      "timeToExploV": 10,
      "hitDamage": 9,
      "bloodOnHit": 11,
      "startFrame": 181,
      "numFrames": 3,
      "loopAnim": true,
      "shotType": 0,
      "repeat": 1,
      "colorBullets": 0,
      "splinterAmount": 10,
      "splinterColour": 40,
      "splinterType": 2,
      "splinterScatter": 0,
      "objTrailType": 9,
      "objTrailDelay": 1,
      "partTrailType": 0,
      "partTrailObj": -1,
      "partTrailDelay": 0,
      "speed": 190,
      "id": 5,
      "name": "wid 5",
      "teamImmunity": 0
    },
    {
      // wid6 used in NUKE ROCKET
      "detectDistance": 0,
      "blowAway": 0.6000000238418579,
      "gravity": 0,
      "exploSound": -1,
      "addSpeed": 0,
      "distribution": 0.030517578125,
      "multSpeed": 1,
      "createOnExp": 5,
      "dirtEffect": -1,
      "wormExplode": false,
      "explGround": true,
      "wormCollide": false,
      "collideWithObjects": false,
      "affectByExplosions": false,
      "bounce": 0,
      "bounceFriction": 0.800000011920929,
      "timeToExplo": 15000,
      "timeToExploV": 600,
      "hitDamage": 0,
      "bloodOnHit": 20,
      "startFrame": 223,
      "numFrames": 0,
      "loopAnim": false,
      "shotType": 3,
      "repeat": 1,
      "colorBullets": 0,
      "splinterAmount": 20,
      "splinterColour": 0,
      "splinterType": 11,
      "splinterScatter": 0,
      "objTrailType": 6,
      "objTrailDelay": 1,
      "partTrailType": 0,
      "partTrailObj": -1,
      "partTrailDelay": 0,
      "speed": 210,
      "id": 6,
      "name": "wid 6",
      "teamImmunity": 0
    },
    {
      // wid7 used in RAIL GUN
      "detectDistance": 1,
      "blowAway": 0.699999988079071,
      "gravity": 0.00030517578125,
      "exploSound": 11,
      "addSpeed": 0,
      "distribution": 0,
      "multSpeed": 1,
      "createOnExp": 2,
      "dirtEffect": -1,
      "wormExplode": true,
      "explGround": true,
      "wormCollide": false,
      "collideWithObjects": true,
      "affectByExplosions": false,
      "bounce": 0,
      "bounceFriction": 0.800000011920929,
      "timeToExplo": 0,
      "timeToExploV": 0,
      "hitDamage": 35,
      "bloodOnHit": 15,
      "startFrame": -1,
      "numFrames": 0,
      "loopAnim": false,
      "shotType": 4,
      "repeat": 8,
      "colorBullets": 239,
      "splinterAmount": 0,
      "splinterColour": 0,
      "splinterType": -1,
      "splinterScatter": 0,
      "objTrailType": 3,
      "objTrailDelay": 1,
      "partTrailType": 0,
      "partTrailObj": -1,
      "partTrailDelay": 0,
      "speed": 250,
      "id": 7,
      "name": "wid 7",
      "teamImmunity": 0
    },
    {
      // wid8 used in BERSERKER
      "detectDistance": 0,
      "blowAway": 0.15000000596046448,
      "gravity": 0,
      "exploSound": -1,
      "addSpeed": 3,
      "distribution": 0.2288818359375,
      "multSpeed": 1,
      "createOnExp": 1,
      "dirtEffect": -1,
      "wormExplode": true,
      "explGround": true,
      "wormCollide": true,
      "collideWithObjects": false,
      "affectByExplosions": false,
      "bounce": 0,
      "bounceFriction": 0.800000011920929,
      "timeToExplo": 0,
      "timeToExploV": 0,
      "hitDamage": 7,
      "bloodOnHit": 10,
      "startFrame": 127,
      "numFrames": 0,
      "loopAnim": false,
      "shotType": 3,
      "repeat": 1,
      "colorBullets": 0,
      "splinterAmount": 0,
      "splinterColour": 0,
      "splinterType": 2,
      "splinterScatter": 0,
      "objTrailType": 6,
      "objTrailDelay": 2,
      "partTrailType": 0,
      "partTrailObj": -1,
      "partTrailDelay": 0,
      "speed": 170,
      "id": 8,
      "name": "wid 8",
      "teamImmunity": 0
    },
    {
      // wid9 used in FLAMEGUN
      "detectDistance": 1,
      "blowAway": 0,
      "gravity": 0,
      "exploSound": -1,
      "addSpeed": 0,
      "distribution": 0.00762939453125,
      "multSpeed": 1,
      "createOnExp": 1,
      "dirtEffect": 5,
      "wormExplode": true,
      "explGround": true,
      "wormCollide": true,
      "collideWithObjects": false,
      "affectByExplosions": false,
      "bounce": 0,
      "bounceFriction": 0.800000011920929,
      "timeToExplo": 0,
      "timeToExploV": 0,
      "hitDamage": 0,
      "bloodOnHit": 0,
      "startFrame": 161,
      "numFrames": 3,
      "loopAnim": true,
      "shotType": 4,
      "repeat": 8,
      "colorBullets": 0,
      "splinterAmount": 0,
      "splinterColour": 0,
      "splinterType": -1,
      "splinterScatter": 0,
      "objTrailType": -1,
      "objTrailDelay": 0,
      "partTrailType": 0,
      "partTrailObj": -1,
      "partTrailDelay": 0,
      "speed": 45,
      "id": 9,
      "name": "wid 9",
      "teamImmunity": 0
    },
    {
      // wid10 used in SKIPER
      "detectDistance": 1,
      "blowAway": 2,
      "gravity": 0.0457763671875,
      "exploSound": 7,
      "addSpeed": 0,
      "distribution": 0.001373291015625,
      "multSpeed": 1,
      "createOnExp": 3,
      "dirtEffect": 4,
      "wormExplode": true,
      "explGround": false,
      "wormCollide": true,
      "collideWithObjects": false,
      "affectByExplosions": true,
      "bounce": 0.8999999761581421,
      "bounceFriction": 0.800000011920929,
      "timeToExplo": 500,
      "timeToExploV": 0,
      "hitDamage": 7,
      "bloodOnHit": 0,
      "startFrame": 193,
      "numFrames": 0,
      "loopAnim": false,
      "shotType": 0,
      "repeat": 1,
      "colorBullets": 0,
      "splinterAmount": 30,
      "splinterColour": 89,
      "splinterType": 10,
      "splinterScatter": 0,
      "objTrailType": 5,
      "objTrailDelay": 1,
      "partTrailType": 0,
      "partTrailObj": -1,
      "partTrailDelay": 0,
      "speed": 150,
      "id": 10,
      "name": "wid 10",
      "teamImmunity": 0
    },
    {
      // wid11 used in SUPER LARPA
      "detectDistance": 1,
      "blowAway": 0.4000000059604645,
      "gravity": 0.0030517578125,
      "exploSound": -1,
      "addSpeed": 0,
      "distribution": 0,
      "multSpeed": 1,
      "createOnExp": 1,
      "dirtEffect": -1,
      "wormExplode": true,
      "explGround": true,
      "wormCollide": true,
      "collideWithObjects": false,
      "affectByExplosions": false,
      "bounce": 0,
      "bounceFriction": 0.800000011920929,
      "timeToExplo": 0,
      "timeToExploV": 0,
      "hitDamage": 0,
      "bloodOnHit": 6,
      "startFrame": 140,
      "numFrames": 0,
      "loopAnim": false,
      "shotType": 1,
      "repeat": 1,
      "colorBullets": 0,
      "splinterAmount": 5,
      "splinterColour": 111,
      "splinterType": 5,
      "splinterScatter": 0,
      "objTrailType": -1,
      "objTrailDelay": 0,
      "partTrailType": 1,
      "partTrailObj": 5,
      "partTrailDelay": 2,
      "speed": 220,
      "id": 11,
      "name": "wid 11",
      "teamImmunity": 0
    },
    {
      // wid12 used in HEAVY GAUSS
      "detectDistance": 1,
      "blowAway": 0.20000000298023224,
      "gravity": 0,
      "exploSound": -1,
      "addSpeed": 0,
      "distribution": 0,
      "multSpeed": 1,
      "createOnExp": 0,
      "dirtEffect": -1,
      "wormExplode": true,
      "explGround": true,
      "wormCollide": true,
      "collideWithObjects": false,
      "affectByExplosions": false,
      "bounce": 0,
      "bounceFriction": 0.800000011920929,
      "timeToExplo": 0,
      "timeToExploV": 0,
      "hitDamage": 0,
      "bloodOnHit": 7,
      "startFrame": 196,
      "numFrames": 0,
      "loopAnim": false,
      "shotType": 4,
      "repeat": 8,
      "colorBullets": 0,
      "splinterAmount": 1,
      "splinterColour": 75,
      "splinterType": 3,
      "splinterScatter": 0,
      "objTrailType": -1,
      "objTrailDelay": 0,
      "partTrailType": 0,
      "partTrailObj": -1,
      "partTrailDelay": 0,
      "speed": 200,
      "id": 12,
      "name": "wid 12",
      "teamImmunity": 0
    },
    {
      // wid13 used in ACID
      "detectDistance": 3,
      "blowAway": 0,
      "gravity": 0.01068115234375,
      "exploSound": -1,
      "addSpeed": 0,
      "distribution": 0.1220703125,
      "multSpeed": 1,
      "createOnExp": 5,
      "dirtEffect": -1,
      "wormExplode": true,
      "explGround": true,
      "wormCollide": true,
      "collideWithObjects": false,
      "affectByExplosions": true,
      "bounce": 0,
      "bounceFriction": 0.800000011920929,
      "timeToExplo": 0,
      "timeToExploV": 0,
      "hitDamage": 10,
      "bloodOnHit": 10,
      "startFrame": -1,
      "numFrames": 0,
      "loopAnim": false,
      "shotType": 0,
      "repeat": 1,
      "colorBullets": 54,
      "splinterAmount": 0,
      "splinterColour": 0,
      "splinterType": -1,
      "splinterScatter": 0,
      "objTrailType": -1,
      "objTrailDelay": 0,
      "partTrailType": 0,
      "partTrailObj": -1,
      "partTrailDelay": 0,
      "speed": 200,
      "id": 13,
      "name": "wid 13",
      "teamImmunity": 0
    },
    {
      // wid14 used in CRACKSPIKES
      "detectDistance": 0,
      "blowAway": 0.05000000074505806,
      "gravity": 0,
      "exploSound": -1,
      "addSpeed": 0,
      "distribution": 0,
      "multSpeed": 1,
      "createOnExp": 0,
      "dirtEffect": -1,
      "wormExplode": true,
      "explGround": true,
      "wormCollide": true,
      "collideWithObjects": false,
      "affectByExplosions": false,
      "bounce": 0,
      "bounceFriction": 0.800000011920929,
      "timeToExplo": 144,
      "timeToExploV": 0,
      "hitDamage": 0,
      "bloodOnHit": 4,
      "startFrame": 114,
      "numFrames": 0,
      "loopAnim": false,
      "shotType": 0,
      "repeat": 1,
      "colorBullets": 67,
      "splinterAmount": 0,
      "splinterColour": 0,
      "splinterType": -1,
      "splinterScatter": 0,
      "objTrailType": -1,
      "objTrailDelay": 3,
      "partTrailType": 0,
      "partTrailObj": 18,
      "partTrailDelay": 1,
      "speed": 400,
      "id": 14,
      "name": "wid 14",
      "teamImmunity": 0
    },
    {
      // wid15 used in DEAD HAMMER
      "detectDistance": 0,
      "blowAway": 0,
      "gravity": 0.01983642578125,
      "exploSound": -1,
      "addSpeed": 0,
      "distribution": 0,
      "multSpeed": 1,
      "createOnExp": 0,
      "dirtEffect": -1,
      "wormExplode": true,
      "explGround": false,
      "wormCollide": true,
      "collideWithObjects": false,
      "affectByExplosions": true,
      "bounce": 0.30000001192092896,
      "bounceFriction": 0.800000011920929,
      "timeToExplo": 200,
      "timeToExploV": 0,
      "hitDamage": 6,
      "bloodOnHit": 0,
      "startFrame": 206,
      "numFrames": 3,
      "loopAnim": true,
      "shotType": 0,
      "repeat": 1,
      "colorBullets": 0,
      "splinterAmount": 200,
      "splinterColour": 0,
      "splinterType": 5,
      "splinterScatter": 0,
      "objTrailType": -1,
      "objTrailDelay": 0,
      "partTrailType": 0,
      "partTrailObj": -1,
      "partTrailDelay": 0,
      "speed": 190,
      "id": 15,
      "name": "wid 15",
      "teamImmunity": 0
    },
    {
      // wid16 used in BERTRAYER
      "detectDistance": 3,
      "blowAway": 0.029999999329447746,
      "gravity": 0.01068115234375,
      "exploSound": -1,
      "addSpeed": 0,
      "distribution": 0.30517578125,
      "multSpeed": 1,
      "createOnExp": 2,
      "dirtEffect": -1,
      "wormExplode": false,
      "explGround": true,
      "wormCollide": true,
      "collideWithObjects": false,
      "affectByExplosions": false,
      "bounce": 0.4000000059604645,
      "bounceFriction": 0.800000011920929,
      "timeToExplo": 400,
      "timeToExploV": 0,
      "hitDamage": 3,
      "bloodOnHit": 4,
      "startFrame": -1,
      "numFrames": 0,
      "loopAnim": false,
      "shotType": 0,
      "repeat": 1,
      "colorBullets": 45,
      "splinterAmount": 0,
      "splinterColour": 0,
      "splinterType": -1,
      "splinterScatter": 0,
      "objTrailType": -1,
      "objTrailDelay": 0,
      "partTrailType": 0,
      "partTrailObj": -1,
      "partTrailDelay": 0,
      "speed": 260,
      "id": 16,
      "name": "wid 16",
      "teamImmunity": 0
    },
    {
      // wid17 used in TELEPORT BOMB
      "detectDistance": 1,
      "blowAway": 0,
      "gravity": 0,
      "exploSound": -1,
      "addSpeed": 0,
      "distribution": 0,
      "multSpeed": 1,
      "createOnExp": -1,
      "dirtEffect": -1,
      "wormExplode": false,
      "explGround": true,
      "wormCollide": false,
      "collideWithObjects": false,
      "affectByExplosions": false,
      "bounce": 0,
      "bounceFriction": 0.800000011920929,
      "timeToExplo": 0,
      "timeToExploV": 0,
      "hitDamage": 2,
      "bloodOnHit": 5,
      "startFrame": 193,
      "numFrames": 0,
      "loopAnim": false,
      "shotType": 4,
      "repeat": 8,
      "colorBullets": 68,
      "splinterAmount": 3,
      "splinterColour": 0,
      "splinterType": 19,
      "splinterScatter": 0,
      "objTrailType": -1,
      "objTrailDelay": 5,
      "partTrailType": 1,
      "partTrailObj": -1,
      "partTrailDelay": 1,
      "speed": 360,
      "id": 17,
      "name": "wid 17",
      "teamImmunity": 0
    },
    {
      // wid18 used in GHOST
      "detectDistance": 3,
      "blowAway": 0,
      "gravity": 0.01068115234375,
      "exploSound": -1,
      "addSpeed": 11,
      "distribution": 0,
      "multSpeed": 1,
      "createOnExp": 9,
      "dirtEffect": -1,
      "wormExplode": true,
      "explGround": false,
      "wormCollide": false,
      "collideWithObjects": false,
      "affectByExplosions": true,
      "bounce": 1.5,
      "bounceFriction": 0.800000011920929,
      "timeToExplo": 1000,
      "timeToExploV": 0,
      "hitDamage": 7,
      "bloodOnHit": 3,
      "startFrame": -1,
      "numFrames": 0,
      "loopAnim": false,
      "shotType": 2,
      "repeat": 1,
      "colorBullets": 57,
      "splinterAmount": 2,
      "splinterColour": 0,
      "splinterType": 2,
      "splinterScatter": 0,
      "objTrailType": 4,
      "objTrailDelay": 1,
      "partTrailType": 0,
      "partTrailObj": -1,
      "partTrailDelay": 0,
      "speed": 200,
      "id": 18,
      "name": "wid 18",
      "teamImmunity": 0
    },
    {
      // wid19 used in FIREBOMBS
      "detectDistance": 0,
      "blowAway": 0,
      "gravity": 0.01983642578125,
      "exploSound": -1,
      "addSpeed": 0,
      "distribution": 0.1068115234375,
      "multSpeed": 1,
      "createOnExp": 0,
      "dirtEffect": -1,
      "wormExplode": true,
      "explGround": false,
      "wormCollide": true,
      "collideWithObjects": false,
      "affectByExplosions": true,
      "bounce": 0.6000000238418579,
      "bounceFriction": 0.800000011920929,
      "timeToExplo": 160,
      "timeToExploV": 45,
      "hitDamage": 0,
      "bloodOnHit": 0,
      "startFrame": 206,
      "numFrames": 3,
      "loopAnim": true,
      "shotType": 0,
      "repeat": 1,
      "colorBullets": 0,
      "splinterAmount": 15,
      "splinterColour": 5,
      "splinterType": 12,
      "splinterScatter": 0,
      "objTrailType": -1,
      "objTrailDelay": 0,
      "partTrailType": 0,
      "partTrailObj": -1,
      "partTrailDelay": 0,
      "speed": 170,
      "id": 19,
      "name": "wid 19",
      "teamImmunity": 0
    },
    {
      // wid20 used in EARTH QUAKE
      "detectDistance": 0,
      "blowAway": 0.10000000149011612,
      "gravity": 0,
      "exploSound": 11,
      "addSpeed": 0,
      "distribution": 0.0762939453125,
      "multSpeed": 4,
      "createOnExp": 4,
      "dirtEffect": 0,
      "wormExplode": false,
      "explGround": false,
      "wormCollide": false,
      "collideWithObjects": false,
      "affectByExplosions": false,
      "bounce": 0.6600000262260437,
      "bounceFriction": 0.800000011920929,
      "timeToExplo": 1500,
      "timeToExploV": 0,
      "hitDamage": 0,
      "bloodOnHit": 1,
      "startFrame": 126,
      "numFrames": 0,
      "loopAnim": false,
      "shotType": 0,
      "repeat": 1,
      "colorBullets": 0,
      "splinterAmount": 0,
      "splinterColour": 45,
      "splinterType": -1,
      "splinterScatter": 0,
      "objTrailType": 4,
      "objTrailDelay": 1,
      "partTrailType": 0,
      "partTrailObj": -1,
      "partTrailDelay": 0,
      "speed": 500,
      "id": 20,
      "name": "wid 20",
      "teamImmunity": 0
    },
    {
      // wid21 used in PSYCHO
      "detectDistance": 1,
      "blowAway": 0,
      "gravity": 0,
      "exploSound": 9,
      "addSpeed": 0,
      "distribution": 0,
      "multSpeed": 1,
      "createOnExp": 2,
      "dirtEffect": -1,
      "wormExplode": true,
      "explGround": true,
      "wormCollide": true,
      "collideWithObjects": false,
      "affectByExplosions": false,
      "bounce": 0,
      "bounceFriction": 0.800000011920929,
      "timeToExplo": 1000,
      "timeToExploV": 300,
      "hitDamage": 25,
      "bloodOnHit": 15,
      "startFrame": -1,
      "numFrames": 0,
      "loopAnim": false,
      "shotType": 4,
      "repeat": 8,
      "colorBullets": 0,
      "splinterAmount": 0,
      "splinterColour": 0,
      "splinterType": -1,
      "splinterScatter": 0,
      "objTrailType": 6,
      "objTrailDelay": 1,
      "partTrailType": 0,
      "partTrailObj": -1,
      "partTrailDelay": 0,
      "speed": 300,
      "id": 21,
      "name": "wid 21",
      "teamImmunity": 0
    },
    {
      // wid22 used in NEURON
      "detectDistance": 0,
      "blowAway": 0,
      "gravity": 0,
      "exploSound": -1,
      "addSpeed": 0,
      "distribution": 0.48828125,
      "multSpeed": 1,
      "createOnExp": 1,
      "dirtEffect": -1,
      "wormExplode": false,
      "explGround": false,
      "wormCollide": false,
      "collideWithObjects": false,
      "affectByExplosions": true,
      "bounce": 1,
      "bounceFriction": 1,
      "timeToExplo": 1000,
      "timeToExploV": 0,
      "hitDamage": 0,
      "bloodOnHit": 0,
      "startFrame": 198,
      "numFrames": 3,
      "loopAnim": false,
      "shotType": 0,
      "repeat": 1,
      "colorBullets": 0,
      "splinterAmount": 90,
      "splinterColour": 75,
      "splinterType": 16,
      "splinterScatter": 0,
      "objTrailType": -1,
      "objTrailDelay": 20,
      "partTrailType": 0,
      "partTrailObj": 16,
      "partTrailDelay": 2,
      "speed": 400,
      "id": 22,
      "name": "wid 22",
      "teamImmunity": 0
    },
    {
      // wid23 used in KILLER
      "detectDistance": 2,
      "blowAway": 0.2199999988079071,
      "gravity": 0.00152587890625,
      "exploSound": 10,
      "addSpeed": 0,
      "distribution": 0,
      "multSpeed": 1,
      "createOnExp": 0,
      "dirtEffect": -1,
      "wormExplode": true,
      "explGround": true,
      "wormCollide": true,
      "collideWithObjects": false,
      "affectByExplosions": true,
      "bounce": 0,
      "bounceFriction": 0.800000011920929,
      "timeToExplo": 13000,
      "timeToExploV": 600,
      "hitDamage": 35,
      "bloodOnHit": 18,
      "startFrame": 223,
      "numFrames": 0,
      "loopAnim": false,
      "shotType": 3,
      "repeat": 1,
      "colorBullets": 0,
      "splinterAmount": 50,
      "splinterColour": 67,
      "splinterType": 4,
      "splinterScatter": 0,
      "objTrailType": 5,
      "objTrailDelay": 1,
      "partTrailType": 0,
      "partTrailObj": -1,
      "partTrailDelay": 0,
      "speed": 300,
      "id": 23,
      "name": "wid 23",
      "teamImmunity": 0
    },
    {
      // wid24 used in WINDOWS ME
      "detectDistance": 5,
      "blowAway": 0,
      "gravity": 0,
      "exploSound": -1,
      "addSpeed": 0,
      "distribution": 0.0762939453125,
      "multSpeed": 1.2999999523162842,
      "createOnExp": -1,
      "dirtEffect": -1,
      "wormExplode": true,
      "explGround": false,
      "wormCollide": false,
      "collideWithObjects": false,
      "affectByExplosions": false,
      "bounce": 1,
      "bounceFriction": 1,
      "timeToExplo": 20,
      "timeToExploV": 0,
      "hitDamage": 200,
      "bloodOnHit": 1,
      "startFrame": -1,
      "numFrames": 100,
      "loopAnim": false,
      "shotType": 0,
      "repeat": 1,
      "colorBullets": 42,
      "splinterAmount": 0,
      "splinterColour": 0,
      "splinterType": -1,
      "splinterScatter": 0,
      "objTrailType": -1,
      "objTrailDelay": 0,
      "partTrailType": 0,
      "partTrailObj": -1,
      "partTrailDelay": 0,
      "speed": 0,
      "id": 24,
      "name": "wid 24",
      "teamImmunity": 0
    },
    {
      // wid25 used in NAPALM
      "detectDistance": 0,
      "blowAway": 0.6000000238418579,
      "gravity": 0.0152587890625,
      "exploSound": -1,
      "addSpeed": 0,
      "distribution": 0.152587890625,
      "multSpeed": 1,
      "createOnExp": -1,
      "dirtEffect": -1,
      "wormExplode": true,
      "explGround": true,
      "wormCollide": true,
      "collideWithObjects": false,
      "affectByExplosions": false,
      "bounce": 0,
      "bounceFriction": 0.800000011920929,
      "timeToExplo": 50,
      "timeToExploV": 20,
      "hitDamage": 6,
      "bloodOnHit": 15,
      "startFrame": 140,
      "numFrames": 0,
      "loopAnim": false,
      "shotType": 1,
      "repeat": 1,
      "colorBullets": 0,
      "splinterAmount": 5,
      "splinterColour": 111,
      "splinterType": 5,
      "splinterScatter": 0,
      "objTrailType": -1,
      "objTrailDelay": 0,
      "partTrailType": 1,
      "partTrailObj": 22,
      "partTrailDelay": 2,
      "speed": 300,
      "id": 25,
      "name": "wid 25",
      "teamImmunity": 0
    },
    {
      // wid26 used in DIRT NUKE
      "detectDistance": 0,
      "blowAway": 0,
      "gravity": 0.0152587890625,
      "exploSound": 4,
      "addSpeed": 0,
      "distribution": 0.30517578125,
      "multSpeed": 1,
      "createOnExp": -1,
      "dirtEffect": -1,
      "wormExplode": false,
      "explGround": false,
      "wormCollide": false,
      "collideWithObjects": false,
      "affectByExplosions": true,
      "bounce": 0.6499999761581421,
      "bounceFriction": 0.800000011920929,
      "timeToExplo": 100,
      "timeToExploV": 20,
      "hitDamage": 0,
      "bloodOnHit": 0,
      "startFrame": 126,
      "numFrames": 0,
      "loopAnim": false,
      "shotType": 0,
      "repeat": 1,
      "colorBullets": 0,
      "splinterAmount": 50,
      "splinterColour": 0,
      "splinterType": 9,
      "splinterScatter": 0,
      "objTrailType": -1,
      "objTrailDelay": 0,
      "partTrailType": 0,
      "partTrailObj": -1,
      "partTrailDelay": 0,
      "speed": 170,
      "id": 26,
      "name": "wid 26",
      "teamImmunity": 0
    },
    {
      // wid27 used in FLY BULLET
      "detectDistance": 0,
      "blowAway": 0,
      "gravity": -0.000030517578125,
      "exploSound": 12,
      "addSpeed": 0,
      "distribution": 0.457763671875,
      "multSpeed": 1,
      "createOnExp": 0,
      "dirtEffect": -1,
      "wormExplode": true,
      "explGround": false,
      "wormCollide": true,
      "collideWithObjects": false,
      "affectByExplosions": false,
      "bounce": 0.6000000238418579,
      "bounceFriction": 0.800000011920929,
      "timeToExplo": 600,
      "timeToExploV": 0,
      "hitDamage": 20,
      "bloodOnHit": 25,
      "startFrame": 185,
      "numFrames": 7,
      "loopAnim": true,
      "shotType": 0,
      "repeat": 1,
      "colorBullets": 0,
      "splinterAmount": 0,
      "splinterColour": 0,
      "splinterType": -1,
      "splinterScatter": 0,
      "objTrailType": -1,
      "objTrailDelay": 0,
      "partTrailType": 0,
      "partTrailObj": -1,
      "partTrailDelay": 0,
      "speed": 90,
      "id": 27,
      "name": "wid 27",
      "teamImmunity": 0
    },
    {
      // wid28 used in ZICA LASER
      "detectDistance": 0,
      "blowAway": 0,
      "gravity": 0,
      "exploSound": -1,
      "addSpeed": 0,
      "distribution": 0.152587890625,
      "multSpeed": 1,
      "createOnExp": 9,
      "dirtEffect": -1,
      "wormExplode": true,
      "explGround": true,
      "wormCollide": true,
      "collideWithObjects": false,
      "affectByExplosions": true,
      "bounce": 0,
      "bounceFriction": 0.800000011920929,
      "timeToExplo": 0,
      "timeToExploV": 0,
      "hitDamage": 1,
      "bloodOnHit": 0,
      "startFrame": -1,
      "numFrames": 0,
      "loopAnim": false,
      "shotType": 4,
      "repeat": 1000,
      "colorBullets": 104,
      "splinterAmount": 0,
      "splinterColour": 0,
      "splinterType": -1,
      "splinterScatter": 0,
      "objTrailType": -1,
      "objTrailDelay": 0,
      "partTrailType": 0,
      "partTrailObj": -1,
      "partTrailDelay": 0,
      "speed": 25,
      "id": 28,
      "name": "wid 28",
      "teamImmunity": 0
    },
    {
      // wid29 used in SPIKEBALLS
      "detectDistance": 2,
      "blowAway": 0.20000000298023224,
      "gravity": 0.0152587890625,
      "exploSound": -1,
      "addSpeed": 0,
      "distribution": 0.3662109375,
      "multSpeed": 1,
      "createOnExp": 2,
      "dirtEffect": -1,
      "wormExplode": false,
      "explGround": false,
      "wormCollide": true,
      "collideWithObjects": false,
      "affectByExplosions": true,
      "bounce": 0.6000000238418579,
      "bounceFriction": 0.800000011920929,
      "timeToExplo": 700,
      "timeToExploV": 100,
      "hitDamage": 25,
      "bloodOnHit": 20,
      "startFrame": 181,
      "numFrames": 3,
      "loopAnim": true,
      "shotType": 0,
      "repeat": 1,
      "colorBullets": 0,
      "splinterAmount": 0,
      "splinterColour": 0,
      "splinterType": -1,
      "splinterScatter": 0,
      "objTrailType": -1,
      "objTrailDelay": 0,
      "partTrailType": 0,
      "partTrailObj": -1,
      "partTrailDelay": 0,
      "speed": 110,
      "id": 29,
      "name": "wid 29",
      "teamImmunity": 0
    },
    {
      // wid30 used in CASCADE
      "detectDistance": 2,
      "blowAway": 0.4000000059604645,
      "gravity": 0.0030517578125,
      "exploSound": 9,
      "addSpeed": 0,
      "distribution": 0,
      "multSpeed": 1,
      "createOnExp": 2,
      "dirtEffect": -1,
      "wormExplode": true,
      "explGround": true,
      "wormCollide": true,
      "collideWithObjects": false,
      "affectByExplosions": false,
      "bounce": 0,
      "bounceFriction": 0.800000011920929,
      "timeToExplo": 23,
      "timeToExploV": 0,
      "hitDamage": 3,
      "bloodOnHit": 6,
      "startFrame": -1,
      "numFrames": 0,
      "loopAnim": true,
      "shotType": 0,
      "repeat": 1,
      "colorBullets": 0,
      "splinterAmount": 1,
      "splinterColour": 67,
      "splinterType": 5,
      "splinterScatter": 0,
      "objTrailType": 2,
      "objTrailDelay": 1,
      "partTrailType": 1,
      "partTrailObj": 10,
      "partTrailDelay": 1,
      "speed": 256,
      "id": 30,
      "name": "wid 30",
      "teamImmunity": 0
    },
    {
      // wid31 used in DRAGUNOV
      "detectDistance": 1,
      "blowAway": 0.05000000074505806,
      "gravity": 0,
      "exploSound": -1,
      "addSpeed": 0,
      "distribution": 0.0152587890625,
      "multSpeed": 1,
      "createOnExp": 2,
      "dirtEffect": -1,
      "wormExplode": true,
      "explGround": true,
      "wormCollide": true,
      "collideWithObjects": false,
      "affectByExplosions": false,
      "bounce": 0,
      "bounceFriction": 0.800000011920929,
      "timeToExplo": 0,
      "timeToExploV": 0,
      "hitDamage": 200,
      "bloodOnHit": 10,
      "startFrame": -1,
      "numFrames": 0,
      "loopAnim": false,
      "shotType": 4,
      "repeat": 8,
      "colorBullets": 7,
      "splinterAmount": 0,
      "splinterColour": 0,
      "splinterType": -1,
      "splinterScatter": 0,
      "objTrailType": -1,
      "objTrailDelay": 0,
      "partTrailType": 0,
      "partTrailObj": -1,
      "partTrailDelay": 0,
      "speed": 400,
      "id": 31,
      "name": "wid 31",
      "teamImmunity": 0
    },
    {
      // wid32 used in ANNIHILATOR
      "detectDistance": 1,
      "blowAway": 1,
      "gravity": 0,
      "exploSound": -1,
      "addSpeed": 150,
      "distribution": 0,
      "multSpeed": 1,
      "createOnExp": 0,
      "dirtEffect": -1,
      "wormExplode": true,
      "explGround": true,
      "wormCollide": true,
      "collideWithObjects": false,
      "affectByExplosions": false,
      "bounce": 0,
      "bounceFriction": 0.800000011920929,
      "timeToExplo": 0,
      "timeToExploV": 0,
      "hitDamage": 2,
      "bloodOnHit": 30,
      "startFrame": 110,
      "numFrames": 0,
      "loopAnim": false,
      "shotType": 2,
      "repeat": 1,
      "colorBullets": 0,
      "splinterAmount": 90,
      "splinterColour": 66,
      "splinterType": 11,
      "splinterScatter": 0,
      "objTrailType": 3,
      "objTrailDelay": 4,
      "partTrailType": 0,
      "partTrailObj": -1,
      "partTrailDelay": 0,
      "speed": 230,
      "id": 32,
      "name": "wid 32",
      "teamImmunity": 0
    },
    {
      // wid33 used in GRAVITY BOMB
      "detectDistance": 0,
      "blowAway": 0,
      "gravity": 0,
      "exploSound": -1,
      "addSpeed": 444,
      "distribution": 0.1068115234375,
      "multSpeed": 1,
      "createOnExp": 0,
      "dirtEffect": -1,
      "wormExplode": false,
      "explGround": false,
      "wormCollide": false,
      "collideWithObjects": false,
      "affectByExplosions": true,
      "bounce": 0.4000000059604645,
      "bounceFriction": 0.800000011920929,
      "timeToExplo": 150,
      "timeToExploV": 15,
      "hitDamage": 0,
      "bloodOnHit": 0,
      "startFrame": 215,
      "numFrames": 3,
      "loopAnim": true,
      "shotType": 0,
      "repeat": 1,
      "colorBullets": 0,
      "splinterAmount": 30,
      "splinterColour": 0,
      "splinterType": 14,
      "splinterScatter": 0,
      "objTrailType": -1,
      "objTrailDelay": 0,
      "partTrailType": 0,
      "partTrailObj": -1,
      "partTrailDelay": 0,
      "speed": 60,
      "id": 33,
      "name": "wid 33",
      "teamImmunity": 0
    },
    {
      // wid34 used in TRAP
      "detectDistance": 5,
      "blowAway": 0,
      "gravity": 0.02288818359375,
      "exploSound": 24,
      "addSpeed": 0,
      "distribution": 0.30517578125,
      "multSpeed": 1,
      "createOnExp": -1,
      "dirtEffect": -1,
      "wormExplode": true,
      "explGround": false,
      "wormCollide": true,
      "collideWithObjects": false,
      "affectByExplosions": true,
      "bounce": 0.30000001192092896,
      "bounceFriction": 0.800000011920929,
      "timeToExplo": 4000,
      "timeToExploV": 600,
      "hitDamage": 255,
      "bloodOnHit": 0,
      "startFrame": 210,
      "numFrames": 0,
      "loopAnim": true,
      "shotType": 0,
      "repeat": 1,
      "colorBullets": 0,
      "splinterAmount": 0,
      "splinterColour": 0,
      "splinterType": -1,
      "splinterScatter": 0,
      "objTrailType": -1,
      "objTrailDelay": 0,
      "partTrailType": 0,
      "partTrailObj": -1,
      "partTrailDelay": 1,
      "speed": 110,
      "id": 34,
      "name": "wid 34",
      "teamImmunity": 0
    },
    {
      // wid35 used in G-LUNCHER
      "detectDistance": 1,
      "blowAway": 0,
      "gravity": 0.01678466796875,
      "exploSound": 10,
      "addSpeed": 0,
      "distribution": 0.1068115234375,
      "multSpeed": 1,
      "createOnExp": 0,
      "dirtEffect": -1,
      "wormExplode": true,
      "explGround": true,
      "wormCollide": true,
      "collideWithObjects": false,
      "affectByExplosions": true,
      "bounce": 0.3499999940395355,
      "bounceFriction": 0.800000011920929,
      "timeToExplo": 130,
      "timeToExploV": 50,
      "hitDamage": 35,
      "bloodOnHit": 0,
      "startFrame": 239,
      "numFrames": 0,
      "loopAnim": false,
      "shotType": 0,
      "repeat": 1,
      "colorBullets": 0,
      "splinterAmount": 30,
      "splinterColour": 0,
      "splinterType": 8,
      "splinterScatter": 0,
      "objTrailType": 5,
      "objTrailDelay": 1,
      "partTrailType": 0,
      "partTrailObj": -1,
      "partTrailDelay": 0,
      "speed": 190,
      "id": 35,
      "name": "wid 35",
      "teamImmunity": 0
    },
    {
      // wid36 used in CRAZY LARPA
      "detectDistance": 1,
      "blowAway": 0,
      "gravity": -0.00457763671875,
      "exploSound": -1,
      "addSpeed": 0,
      "distribution": 0.1220703125,
      "multSpeed": 1,
      "createOnExp": 0,
      "dirtEffect": -1,
      "wormExplode": true,
      "explGround": false,
      "wormCollide": true,
      "collideWithObjects": false,
      "affectByExplosions": true,
      "bounce": 1.0099999904632568,
      "bounceFriction": 0.800000011920929,
      "timeToExplo": 2000,
      "timeToExploV": 500,
      "hitDamage": 50,
      "bloodOnHit": 255,
      "startFrame": 193,
      "numFrames": 0,
      "loopAnim": false,
      "shotType": 4,
      "repeat": 8,
      "colorBullets": 5,
      "splinterAmount": 0,
      "splinterColour": 5,
      "splinterType": -1,
      "splinterScatter": 0,
      "objTrailType": 3,
      "objTrailDelay": 3,
      "partTrailType": 1,
      "partTrailObj": 5,
      "partTrailDelay": 1,
      "speed": 95,
      "id": 36,
      "name": "wid 36",
      "teamImmunity": 0
    },
    {
      // wid37 used in KNIVES
      "detectDistance": 0,
      "blowAway": 0,
      "gravity": 0.0030517578125,
      "exploSound": -1,
      "addSpeed": 0,
      "distribution": 0.2288818359375,
      "multSpeed": 1,
      "createOnExp": 2,
      "dirtEffect": -1,
      "wormExplode": false,
      "explGround": true,
      "wormCollide": false,
      "collideWithObjects": false,
      "affectByExplosions": false,
      "bounce": 0,
      "bounceFriction": 0.800000011920929,
      "timeToExplo": 15,
      "timeToExploV": 0,
      "hitDamage": 4,
      "bloodOnHit": 10,
      "startFrame": 223,
      "numFrames": 0,
      "loopAnim": false,
      "shotType": 1,
      "repeat": 1,
      "colorBullets": 0,
      "splinterAmount": 0,
      "splinterColour": 0,
      "splinterType": -1,
      "splinterScatter": 0,
      "objTrailType": -1,
      "objTrailDelay": 0,
      "partTrailType": 0,
      "partTrailObj": -1,
      "partTrailDelay": 0,
      "speed": 200,
      "id": 37,
      "name": "wid 37",
      "teamImmunity": 0
    },
    {
      // wid38 used in MINES
      "detectDistance": 3,
      "blowAway": 0,
      "gravity": 0.0152587890625,
      "exploSound": 19,
      "addSpeed": 0,
      "distribution": 0,
      "multSpeed": 1,
      "createOnExp": 0,
      "dirtEffect": -1,
      "wormExplode": true,
      "explGround": false,
      "wormCollide": true,
      "collideWithObjects": false,
      "affectByExplosions": true,
      "bounce": 0.5,
      "bounceFriction": 0.800000011920929,
      "timeToExplo": 1000,
      "timeToExploV": 500,
      "hitDamage": 50,
      "bloodOnHit": 10,
      "startFrame": 173,
      "numFrames": 3,
      "loopAnim": true,
      "shotType": 0,
      "repeat": 1,
      "colorBullets": 0,
      "splinterAmount": 255,
      "splinterColour": 0,
      "splinterType": 13,
      "splinterScatter": 0,
      "objTrailType": -1,
      "objTrailDelay": 0,
      "partTrailType": 0,
      "partTrailObj": -1,
      "partTrailDelay": 0,
      "speed": 120,
      "id": 38,
      "name": "wid 38",
      "teamImmunity": 0
    },
    {
      // wid39 used in GAUSS GUN
      "detectDistance": 1,
      "blowAway": 0.20000000298023224,
      "gravity": 0.000762939453125,
      "exploSound": -1,
      "addSpeed": 0,
      "distribution": 0,
      "multSpeed": 1,
      "createOnExp": 1,
      "dirtEffect": -1,
      "wormExplode": true,
      "explGround": true,
      "wormCollide": true,
      "collideWithObjects": false,
      "affectByExplosions": false,
      "bounce": 0,
      "bounceFriction": 0.800000011920929,
      "timeToExplo": 0,
      "timeToExploV": 0,
      "hitDamage": 0,
      "bloodOnHit": 7,
      "startFrame": 196,
      "numFrames": 0,
      "loopAnim": false,
      "shotType": 4,
      "repeat": 8,
      "colorBullets": 0,
      "splinterAmount": 1,
      "splinterColour": 75,
      "splinterType": 3,
      "splinterScatter": 0,
      "objTrailType": -1,
      "objTrailDelay": 0,
      "partTrailType": 0,
      "partTrailObj": -1,
      "partTrailDelay": 0,
      "speed": 200,
      "id": 39,
      "name": "wid 39",
      "teamImmunity": 0
    }
  ],
  "nObjects":
  [
    {
      // nid0
      "detectDistance": 0,
      "gravity": 0.0152587890625,
      "speed": 1.2000000476837158,
      "speedV": 0.4000000059604645,
      "distribution": 0.1220703125,
      "blowAway": 0,
      "bounce": 0,
      "hitDamage": 4,
      "wormExplode": true,
      "explGround": true,
      "wormDestroy": true,
      "bloodOnHit": 0,
      "startFrame": 165,
      "numFrames": 3,
      "drawOnMap": true,
      "colorBullets": 0,
      "createOnExp": 0,
      "affectByExplosions": false,
      "dirtEffect": -1,
      "splinterAmount": 0,
      "splinterColour": 0,
      "splinterType": -1,
      "bloodTrail": true,
      "bloodTrailDelay": 10,
      "leaveObj": 5,
      "leaveObjDelay": 5,
      "timeToExplo": 0,
      "timeToExploV": 0,
      "id": 0,
      "name": "nid 0",
      "teamImmunity": 0
    },
    {
      // nid1
      "detectDistance": 0,
      "gravity": 0.0152587890625,
      "speed": 1.2000000476837158,
      "speedV": 0.4000000059604645,
      "distribution": 0.1220703125,
      "blowAway": 0,
      "bounce": 0,
      "hitDamage": 4,
      "wormExplode": false,
      "explGround": true,
      "wormDestroy": false,
      "bloodOnHit": 0,
      "startFrame": 169,
      "numFrames": 3,
      "drawOnMap": true,
      "colorBullets": 0,
      "createOnExp": 0,
      "affectByExplosions": false,
      "dirtEffect": -1,
      "splinterAmount": 0,
      "splinterColour": 0,
      "splinterType": -1,
      "bloodTrail": true,
      "bloodTrailDelay": 10,
      "leaveObj": 5,
      "leaveObjDelay": 5,
      "timeToExplo": 0,
      "timeToExploV": 0,
      "id": 1,
      "name": "nid 1",
      "teamImmunity": 0
    },
    {
      // nid2 splinterType for wid0 wid1 wid3 wid5 wid8 wid18
      "detectDistance": 0,
      "gravity": 0.01068115234375,
      "speed": 0.800000011920929,
      "speedV": 0.4000000059604645,
      "distribution": 0.152587890625,
      "blowAway": 0,
      "bounce": 0,
      "hitDamage": 0,
      "wormExplode": false,
      "explGround": true,
      "wormDestroy": false,
      "bloodOnHit": 0,
      "startFrame": 0,
      "numFrames": 0,
      "drawOnMap": false,
      "colorBullets": 17,
      "createOnExp": -1,
      "affectByExplosions": false,
      "dirtEffect": -1,
      "splinterAmount": 0,
      "splinterColour": 0,
      "splinterType": -1,
      "bloodTrail": false,
      "bloodTrailDelay": 0,
      "leaveObj": -1,
      "leaveObjDelay": 0,
      "timeToExplo": 0,
      "timeToExploV": 0,
      "id": 2,
      "name": "nid 2",
      "teamImmunity": 0
    },
    {
      // nid3 splinterType for wid12 wid39 partTrailObj for wid10 splinterType for nid10
      "detectDistance": 0,
      "gravity": 0.01068115234375,
      "speed": 1.600000023841858,
      "speedV": 1.399999976158142,
      "distribution": 0.030517578125,
      "blowAway": 0.10000000149011612,
      "bounce": 0,
      "hitDamage": 2,
      "wormExplode": false,
      "explGround": true,
      "wormDestroy": true,
      "bloodOnHit": 1,
      "startFrame": 0,
      "numFrames": 0,
      "drawOnMap": false,
      "colorBullets": 67,
      "createOnExp": 2,
      "affectByExplosions": false,
      "dirtEffect": -1,
      "splinterAmount": 0,
      "splinterColour": 0,
      "splinterType": -1,
      "bloodTrail": false,
      "bloodTrailDelay": 0,
      "leaveObj": -1,
      "leaveObjDelay": 0,
      "timeToExplo": 0,
      "timeToExploV": 0,
      "id": 3,
      "name": "nid 3",
      "teamImmunity": 0
    },
    {
      // nid4 splinterType for wid23 splinterType for nid11
      "detectDistance": 0,
      "gravity": 0.01068115234375,
      "speed": 1.899999976158142,
      "speedV": 1.600000023841858,
      "distribution": 0.030517578125,
      "blowAway": 0.10000000149011612,
      "bounce": 0,
      "hitDamage": 3,
      "wormExplode": false,
      "explGround": true,
      "wormDestroy": true,
      "bloodOnHit": 1,
      "startFrame": 0,
      "numFrames": 0,
      "drawOnMap": false,
      "colorBullets": 67,
      "createOnExp": 2,
      "affectByExplosions": false,
      "dirtEffect": -1,
      "splinterAmount": 0,
      "splinterColour": 0,
      "splinterType": -1,
      "bloodTrail": false,
      "bloodTrailDelay": 0,
      "leaveObj": -1,
      "leaveObjDelay": 0,
      "timeToExplo": 0,
      "timeToExploV": 0,
      "id": 4,
      "name": "nid 4",
      "teamImmunity": 0
    },
    {
      // nid5 splinterType for wid11 wid15 wid25 wid30 partTrailObj for wid11 wid36 wid0 wid1 wid9 wid11 wid22 splinterType for nid17
      "detectDistance": 0,
      "gravity": 0.01068115234375,
      "speed": 2.200000047683716,
      "speedV": 0,
      "distribution": 0,
      "blowAway": 0.15000000596046448,
      "bounce": 0,
      "hitDamage": 4,
      "wormExplode": false,
      "explGround": true,
      "wormDestroy": true,
      "bloodOnHit": 1,
      "startFrame": 0,
      "numFrames": 0,
      "drawOnMap": false,
      "colorBullets": 67,
      "createOnExp": 2,
      "affectByExplosions": false,
      "dirtEffect": -1,
      "splinterAmount": 0,
      "splinterColour": 0,
      "splinterType": -1,
      "bloodTrail": false,
      "bloodTrailDelay": 0,
      "leaveObj": -1,
      "leaveObjDelay": 0,
      "timeToExplo": 0,
      "timeToExploV": 0,
      "id": 5,
      "name": "nid 5",
      "teamImmunity": 0
    },
    {
      // nid6 partTrailObj for wid16
      "detectDistance": 0,
      "gravity": 0.01068115234375,
      "speed": 0.75,
      "speedV": 0.4000000059604645,
      "distribution": 0.30517578125,
      "blowAway": 0,
      "bounce": 0,
      "hitDamage": 0,
      "wormExplode": false,
      "explGround": true,
      "wormDestroy": false,
      "bloodOnHit": 0,
      "startFrame": 0,
      "numFrames": 0,
      "drawOnMap": false,
      "colorBullets": 82,
      "createOnExp": -1,
      "affectByExplosions": false,
      "dirtEffect": -1,
      "splinterAmount": 0,
      "splinterColour": 0,
      "splinterType": -1,
      "bloodTrail": true,
      "bloodTrailDelay": 10,
      "leaveObj": -1,
      "leaveObjDelay": 0,
      "timeToExplo": 100,
      "timeToExploV": 0,
      "id": 6,
      "name": "nid 6",
      "teamImmunity": 0
    },
    {
      // nid7
      "detectDistance": 0,
      "gravity": 0.0152587890625,
      "speed": 0,
      "speedV": 0,
      "distribution": 0.1220703125,
      "blowAway": 0,
      "bounce": 0.4000000059604645,
      "hitDamage": 0,
      "wormExplode": false,
      "explGround": true,
      "wormDestroy": false,
      "bloodOnHit": 0,
      "startFrame": 155,
      "numFrames": 3,
      "drawOnMap": true,
      "colorBullets": 0,
      "createOnExp": -1,
      "affectByExplosions": false,
      "dirtEffect": -1,
      "splinterAmount": 0,
      "splinterColour": 0,
      "splinterType": -1,
      "bloodTrail": false,
      "bloodTrailDelay": 0,
      "leaveObj": -1,
      "leaveObjDelay": 0,
      "timeToExplo": 0,
      "timeToExploV": 0,
      "id": 7,
      "name": "nid 7",
      "teamImmunity": 0
    },
    {
      // nid8 splinterType for wid35 partTrailObj for wid12
      "detectDistance": 1,
      "gravity": 0.0152587890625,
      "speed": 2.200000047683716,
      "speedV": 1.399999976158142,
      "distribution": 0.152587890625,
      "blowAway": 0,
      "bounce": 0,
      "hitDamage": 1,
      "wormExplode": true,
      "explGround": true,
      "wormDestroy": true,
      "bloodOnHit": 5,
      "startFrame": 202,
      "numFrames": 3,
      "drawOnMap": false,
      "colorBullets": 0,
      "createOnExp": 1,
      "affectByExplosions": false,
      "dirtEffect": -1,
      "splinterAmount": 0,
      "splinterColour": 0,
      "splinterType": -1,
      "bloodTrail": false,
      "bloodTrailDelay": 0,
      "leaveObj": -1,
      "leaveObjDelay": 0,
      "timeToExplo": 0,
      "timeToExploV": 0,
      "id": 8,
      "name": "nid 8",
      "teamImmunity": 0
    },
    {
      // nid9 splinterType for wid26
      "detectDistance": 0,
      "gravity": 0,
      "speed": 2,
      "speedV": 1.2000000476837158,
      "distribution": 0.30517578125,
      "blowAway": 0,
      "bounce": 0.6000000238418579,
      "hitDamage": 0,
      "wormExplode": false,
      "explGround": false,
      "wormDestroy": false,
      "bloodOnHit": 0,
      "startFrame": 177,
      "numFrames": 0,
      "drawOnMap": false,
      "colorBullets": 0,
      "createOnExp": 0,
      "affectByExplosions": true,
      "dirtEffect": -1,
      "splinterAmount": 3,
      "splinterColour": 153,
      "splinterType": 13,
      "bloodTrail": false,
      "bloodTrailDelay": 0,
      "leaveObj": 5,
      "leaveObjDelay": 5,
      "timeToExplo": 100,
      "timeToExploV": 50,
      "id": 9,
      "name": "nid 9",
      "teamImmunity": 0
    },
    {
      // nid10 splinterType for wid10 partTrailObj for wid30
      "detectDistance": 1,
      "gravity": 0.0152587890625,
      "speed": 1.399999976158142,
      "speedV": 0.20000000298023224,
      "distribution": 0.30517578125,
      "blowAway": 0.15000000596046448,
      "bounce": 0,
      "hitDamage": 3,
      "wormExplode": true,
      "explGround": true,
      "wormDestroy": true,
      "bloodOnHit": 10,
      "startFrame": 193,
      "numFrames": 0,
      "drawOnMap": false,
      "colorBullets": 0,
      "createOnExp": 0,
      "affectByExplosions": false,
      "dirtEffect": -1,
      "splinterAmount": 5,
      "splinterColour": 66,
      "splinterType": 3,
      "bloodTrail": false,
      "bloodTrailDelay": 0,
      "leaveObj": 3,
      "leaveObjDelay": 8,
      "timeToExplo": 0,
      "timeToExploV": 0,
      "id": 10,
      "name": "nid 10",
      "teamImmunity": 0
    },
    {
      // nid11 splinterType for wid6 wid32
      "detectDistance": 1,
      "gravity": 0.0152587890625,
      "speed": 2,
      "speedV": 1.2000000476837158,
      "distribution": 0.30517578125,
      "blowAway": 0,
      "bounce": 0.6000000238418579,
      "hitDamage": 1,
      "wormExplode": true,
      "explGround": false,
      "wormDestroy": true,
      "bloodOnHit": 9,
      "startFrame": 177,
      "numFrames": 0,
      "drawOnMap": false,
      "colorBullets": 0,
      "createOnExp": 0,
      "affectByExplosions": true,
      "dirtEffect": -1,
      "splinterAmount": 6,
      "splinterColour": 75,
      "splinterType": 4,
      "bloodTrail": false,
      "bloodTrailDelay": 0,
      "leaveObj": 5,
      "leaveObjDelay": 5,
      "timeToExplo": 100,
      "timeToExploV": 40,
      "id": 11,
      "name": "nid 11",
      "teamImmunity": 0
    },
    {
      // nid12 splinterType for wid2 wid19 splinterType for nid19
      "detectDistance": 0,
      "gravity": 0.0152587890625,
      "speed": 1.5,
      "speedV": 0.8999999761581421,
      "distribution": 0.152587890625,
      "blowAway": 0,
      "bounce": 0,
      "hitDamage": 0,
      "wormExplode": false,
      "explGround": true,
      "wormDestroy": false,
      "bloodOnHit": 0,
      "startFrame": 0,
      "numFrames": 0,
      "drawOnMap": false,
      "colorBullets": 10,
      "createOnExp": 8,
      "affectByExplosions": false,
      "dirtEffect": -1,
      "splinterAmount": 0,
      "splinterColour": 0,
      "splinterType": -1,
      "bloodTrail": false,
      "bloodTrailDelay": 0,
      "leaveObj": 8,
      "leaveObjDelay": 4,
      "timeToExplo": 40,
      "timeToExploV": 10,
      "id": 12,
      "name": "nid 12",
      "teamImmunity": 0
    },
    {
      // nid13 splinterType for wid38 splinterType for nid9 nid16
      "detectDistance": 0,
      "gravity": 0,
      "speed": 4,
      "speedV": 8,
      "distribution": 0.152587890625,
      "blowAway": 0,
      "bounce": 1,
      "hitDamage": 0,
      "wormExplode": false,
      "explGround": false,
      "wormDestroy": false,
      "bloodOnHit": 0,
      "startFrame": 0,
      "numFrames": 0,
      "drawOnMap": false,
      "colorBullets": 0,
      "createOnExp": -1,
      "affectByExplosions": false,
      "dirtEffect": 4,
      "splinterAmount": 0,
      "splinterColour": 0,
      "splinterType": -1,
      "bloodTrail": false,
      "bloodTrailDelay": 0,
      "leaveObj": -1,
      "leaveObjDelay": 0,
      "timeToExplo": 1,
      "timeToExploV": 0,
      "id": 13,
      "name": "nid 13",
      "teamImmunity": 0
    },
    {
      // nid14 splinterType for wid4 wid33
      "detectDistance": 1,
      "gravity": 0.0152587890625,
      "speed": 2.200000047683716,
      "speedV": 1.5,
      "distribution": 0.152587890625,
      "blowAway": 0,
      "bounce": 0,
      "hitDamage": 9,
      "wormExplode": true,
      "explGround": true,
      "wormDestroy": true,
      "bloodOnHit": 10,
      "startFrame": 219,
      "numFrames": 3,
      "drawOnMap": false,
      "colorBullets": 0,
      "createOnExp": 0,
      "affectByExplosions": false,
      "dirtEffect": -1,
      "splinterAmount": 0,
      "splinterColour": 0,
      "splinterType": -1,
      "bloodTrail": false,
      "bloodTrailDelay": 0,
      "leaveObj": -1,
      "leaveObjDelay": 0,
      "timeToExplo": 0,
      "timeToExploV": 0,
      "id": 14,
      "name": "nid 14",
      "teamImmunity": 0
    },
    {
      // nid15
      "detectDistance": 1,
      "gravity": 0.0152587890625,
      "speed": 1.2000000476837158,
      "speedV": 0.4000000059604645,
      "distribution": 0.3662109375,
      "blowAway": 2.549999952316284,
      "bounce": 0.6000000238418579,
      "hitDamage": 0,
      "wormExplode": true,
      "explGround": false,
      "wormDestroy": true,
      "bloodOnHit": 0,
      "startFrame": 181,
      "numFrames": 3,
      "drawOnMap": false,
      "colorBullets": 0,
      "createOnExp": -1,
      "affectByExplosions": true,
      "dirtEffect": 6,
      "splinterAmount": 0,
      "splinterColour": 0,
      "splinterType": -1,
      "bloodTrail": false,
      "bloodTrailDelay": 0,
      "leaveObj": -1,
      "leaveObjDelay": 0,
      "timeToExplo": 200,
      "timeToExploV": 60,
      "id": 15,
      "name": "nid 15",
      "teamImmunity": 0
    },
    {
      // nid16 splinterType for wid22 partTrailObj for wid22
      "detectDistance": 1,
      "gravity": 0.0152587890625,
      "speed": 7,
      "speedV": 0.4000000059604645,
      "distribution": 0.152587890625,
      "blowAway": 0,
      "bounce": 0,
      "hitDamage": 40,
      "wormExplode": true,
      "explGround": true,
      "wormDestroy": true,
      "bloodOnHit": 0,
      "startFrame": 0,
      "numFrames": 0,
      "drawOnMap": false,
      "colorBullets": 0,
      "createOnExp": 2,
      "affectByExplosions": true,
      "dirtEffect": -1,
      "splinterAmount": 0,
      "splinterColour": 0,
      "splinterType": 13,
      "bloodTrail": false,
      "bloodTrailDelay": 0,
      "leaveObj": 6,
      "leaveObjDelay": 1,
      "timeToExplo": 0,
      "timeToExploV": 0,
      "id": 16,
      "name": "nid 16",
      "teamImmunity": 0
    },
    {
      // nid17
      "detectDistance": 1,
      "gravity": 0.0152587890625,
      "speed": 1.2000000476837158,
      "speedV": 0.4000000059604645,
      "distribution": 0.152587890625,
      "blowAway": 0,
      "bounce": 0,
      "hitDamage": 1,
      "wormExplode": true,
      "explGround": true,
      "wormDestroy": true,
      "bloodOnHit": 0,
      "startFrame": 239,
      "numFrames": 0,
      "drawOnMap": false,
      "colorBullets": 0,
      "createOnExp": -1,
      "affectByExplosions": true,
      "dirtEffect": -1,
      "splinterAmount": 3,
      "splinterColour": 0,
      "splinterType": 5,
      "bloodTrail": false,
      "bloodTrailDelay": 0,
      "leaveObj": -1,
      "leaveObjDelay": 0,
      "timeToExplo": 0,
      "timeToExploV": 0,
      "id": 17,
      "name": "nid 17",
      "teamImmunity": 0
    },
    {
      // nid18 partTrailObj for wid14
      "detectDistance": 2,
      "gravity": 0.0152587890625,
      "speed": 1.2000000476837158,
      "speedV": 0.4000000059604645,
      "distribution": 0.152587890625,
      "blowAway": 0,
      "bounce": 0.6000000238418579,
      "hitDamage": 10,
      "wormExplode": true,
      "explGround": false,
      "wormDestroy": false,
      "bloodOnHit": 30,
      "startFrame": 236,
      "numFrames": 2,
      "drawOnMap": false,
      "colorBullets": 0,
      "createOnExp": 2,
      "affectByExplosions": true,
      "dirtEffect": -1,
      "splinterAmount": 0,
      "splinterColour": 0,
      "splinterType": -1,
      "bloodTrail": false,
      "bloodTrailDelay": 0,
      "leaveObj": -1,
      "leaveObjDelay": 0,
      "timeToExplo": 300,
      "timeToExploV": 0,
      "id": 18,
      "name": "nid 18",
      "teamImmunity": 0
    },
    {
      // nid19 splinterType for wid17
      "detectDistance": 1,
      "gravity": 0.091552734375,
      "speed": 1.2000000476837158,
      "speedV": 0.4000000059604645,
      "distribution": 0.152587890625,
      "blowAway": 0,
      "bounce": 0.6000000238418579,
      "hitDamage": 4,
      "wormExplode": true,
      "explGround": false,
      "wormDestroy": true,
      "bloodOnHit": 0,
      "startFrame": 239,
      "numFrames": 0,
      "drawOnMap": false,
      "colorBullets": 0,
      "createOnExp": 12,
      "affectByExplosions": true,
      "dirtEffect": -1,
      "splinterAmount": 1,
      "splinterColour": 0,
      "splinterType": 12,
      "bloodTrail": false,
      "bloodTrailDelay": 0,
      "leaveObj": -1,
      "leaveObjDelay": 0,
      "timeToExplo": 70,
      "timeToExploV": 60,
      "id": 19,
      "name": "nid 19",
      "teamImmunity": 0
    },
    {
      // nid20
      "detectDistance": 3,
      "gravity": 0.0152587890625,
      "speed": 0,
      "speedV": 0,
      "distribution": 0,
      "blowAway": 0,
      "bounce": 0.4000000059604645,
      "hitDamage": 0,
      "wormExplode": false,
      "explGround": false,
      "wormDestroy": false,
      "bloodOnHit": 0,
      "startFrame": 213,
      "numFrames": 0,
      "drawOnMap": false,
      "colorBullets": 0,
      "createOnExp": -1,
      "affectByExplosions": true,
      "dirtEffect": -1,
      "splinterAmount": 0,
      "splinterColour": 0,
      "splinterType": -1,
      "bloodTrail": false,
      "bloodTrailDelay": 0,
      "leaveObj": -1,
      "leaveObjDelay": 0,
      "timeToExplo": 0,
      "timeToExploV": 0,
      "id": 20,
      "name": "nid 20",
      "teamImmunity": 0
    },
    {
      // nid21
      "detectDistance": 3,
      "gravity": 0.0152587890625,
      "speed": 0,
      "speedV": 0,
      "distribution": 0,
      "blowAway": 0,
      "bounce": 0.4000000059604645,
      "hitDamage": 0,
      "wormExplode": false,
      "explGround": false,
      "wormDestroy": false,
      "bloodOnHit": 0,
      "startFrame": 214,
      "numFrames": 0,
      "drawOnMap": false,
      "colorBullets": 0,
      "createOnExp": -1,
      "affectByExplosions": true,
      "dirtEffect": -1,
      "splinterAmount": 0,
      "splinterColour": 0,
      "splinterType": -1,
      "bloodTrail": false,
      "bloodTrailDelay": 0,
      "leaveObj": -1,
      "leaveObjDelay": 0,
      "timeToExplo": 0,
      "timeToExploV": 0,
      "id": 21,
      "name": "nid 21",
      "teamImmunity": 0
    },
    {
      // nid22 partTrailObj for wid25
      "detectDistance": 0,
      "gravity": 0.0274658203125,
      "speed": 1.399999976158142,
      "speedV": 0.20000000298023224,
      "distribution": 0.06103515625,
      "blowAway": 0.15000000596046448,
      "bounce": 0,
      "hitDamage": 1,
      "wormExplode": true,
      "explGround": true,
      "wormDestroy": true,
      "bloodOnHit": 10,
      "startFrame": 158,
      "numFrames": 6,
      "drawOnMap": false,
      "colorBullets": 0,
      "createOnExp": -1,
      "affectByExplosions": true,
      "dirtEffect": -1,
      "splinterAmount": 20,
      "splinterColour": 33,
      "splinterType": 23,
      "bloodTrail": false,
      "bloodTrailDelay": 0,
      "leaveObj": 5,
      "leaveObjDelay": 2,
      "timeToExplo": 0,
      "timeToExploV": 0,
      "id": 22,
      "name": "nid 22",
      "teamImmunity": 0
    },
    {
      // nid23 splinterType for nid22
      "detectDistance": 1,
      "gravity": 0.01220703125,
      "speed": 1.2000000476837158,
      "speedV": 0.4000000059604645,
      "distribution": 0.0000152587890625,
      "blowAway": 0,
      "bounce": 0.33000001311302185,
      "hitDamage": 3,
      "wormExplode": true,
      "explGround": true,
      "wormDestroy": false,
      "bloodOnHit": 0,
      "startFrame": 159,
      "numFrames": 5,
      "drawOnMap": false,
      "colorBullets": 0,
      "createOnExp": -1,
      "affectByExplosions": true,
      "dirtEffect": -1,
      "splinterAmount": 0,
      "splinterColour": 0,
      "splinterType": -1,
      "bloodTrail": false,
      "bloodTrailDelay": 0,
      "leaveObj": -1,
      "leaveObjDelay": 1,
      "timeToExplo": 233,
      "timeToExploV": 60,
      "id": 23,
      "name": "nid 23",
      "teamImmunity": 0
    }
  ],
  "sObjects":
  [
    {
      // sid0 createOnExp for wid5 wid12 wid14 wid15 wid19 wid23 wid27 wid32 wid33 wid35 wid36 wid38 createOnExp for nid0 nid1 nid9 nid10 nid11 nid14
      "startSound": 9,
      "numSounds": 4,
      "animDelay": 2,
      "startFrame": 40,
      "numFrames": 15,
      "detectRange": 20,
      "damage": 15,
      "blowAway": 0.0457763671875,
      "shadow": true,
      "shake": 4,
      "flash": 8,
      "dirtEffect": 0,
      "id": 0,
      "name": "sid 0"
    },
    {
      // sid1 createOnExp for wid8 wid9 wid11 wid22 wid39 createOnExp for nid8
      "startSound": 11,
      "numSounds": 2,
      "animDelay": 2,
      "startFrame": 45,
      "numFrames": 10,
      "detectRange": 14,
      "damage": 10,
      "blowAway": 0.0457763671875,
      "shadow": true,
      "shake": 2,
      "flash": 4,
      "dirtEffect": 1,
      "id": 1,
      "name": "sid 1"
    },
    {
      // sid2 createOnExp for wid0 wid1 wid3 wid7 wid16 wid21 wid29 wid30 wid31 wid37 objTrailType for wid30 createOnExp for nid3 nid4 nid5 nid16 nid18
      "startSound": 7,
      "numSounds": 2,
      "animDelay": 2,
      "startFrame": 50,
      "numFrames": 5,
      "detectRange": 8,
      "damage": 5,
      "blowAway": 0.0457763671875,
      "shadow": false,
      "shake": 1,
      "flash": 0,
      "dirtEffect": 2,
      "id": 2,
      "name": "sid 2"
    },
    {
      // sid3 createOnExp for wid10 objTrailType for wid7 wid32 wid36
      "startSound": -1,
      "numSounds": 0,
      "animDelay": 4,
      "startFrame": 64,
      "numFrames": 4,
      "detectRange": 0,
      "damage": 0,
      "blowAway": 0,
      "shadow": false,
      "shake": 0,
      "flash": 0,
      "dirtEffect": -1,
      "id": 3,
      "name": "sid 3"
    },
    {
      // sid4 createOnExp for wid20 objTrailType for wid18 wid20
      "startSound": -1,
      "numSounds": 0,
      "animDelay": 4,
      "startFrame": 100,
      "numFrames": 3,
      "detectRange": 0,
      "damage": 9,
      "blowAway": 0,
      "shadow": true,
      "shake": 4,
      "flash": 0,
      "dirtEffect": 5,
      "id": 4,
      "name": "sid 4"
    },
    {
      // sid5 createOnExp for wid6 wid13 objTrailType for wid10 wid23 wid35
      "startSound": -1,
      "numSounds": 0,
      "animDelay": 2,
      "startFrame": 104,
      "numFrames": 3,
      "detectRange": 0,
      "damage": 0,
      "blowAway": 0,
      "shadow": false,
      "shake": 0,
      "flash": 0,
      "dirtEffect": -1,
      "id": 5,
      "name": "sid 5"
    },
    {
      // sid6 objTrailType for wid6 wid8 wid21
      "startSound": -1,
      "numSounds": 0,
      "animDelay": 2,
      "startFrame": 76,
      "numFrames": 2,
      "detectRange": 0,
      "damage": 0,
      "blowAway": 0,
      "shadow": true,
      "shake": 0,
      "flash": 0,
      "dirtEffect": -1,
      "id": 6,
      "name": "sid 6"
    },
    {
      // sid7
      "startSound": -1,
      "numSounds": 0,
      "animDelay": 5,
      "startFrame": 91,
      "numFrames": 4,
      "detectRange": 0,
      "damage": 2,
      "blowAway": 0,
      "shadow": true,
      "shake": 0,
      "flash": 0,
      "dirtEffect": -1,
      "id": 7,
      "name": "sid 7"
    },
    {
      // sid8 createOnExp for nid12
      "startSound": -1,
      "numSounds": 0,
      "animDelay": 2,
      "startFrame": 49,
      "numFrames": 6,
      "detectRange": 8,
      "damage": 7,
      "blowAway": 0,
      "shadow": true,
      "shake": 0,
      "flash": 0,
      "dirtEffect": 2,
      "id": 8,
      "name": "sid 8"
    },
    {
      // sid9 createOnExp for wid2 wid18 wid28 objTrailType for wid4 wid5
      "startSound": -1,
      "numSounds": 0,
      "animDelay": 2,
      "startFrame": 53,
      "numFrames": 2,
      "detectRange": 6,
      "damage": 0,
      "blowAway": 0,
      "shadow": true,
      "shake": 0,
      "flash": 0,
      "dirtEffect": 5,
      "id": 9,
      "name": "sid 9"
    },
    {
      // sid10
      "startSound": 9,
      "numSounds": 4,
      "animDelay": 2,
      "startFrame": 47,
      "numFrames": 8,
      "detectRange": 10,
      "damage": 8,
      "blowAway": 0.0457763671875,
      "shadow": false,
      "shake": 2,
      "flash": 3,
      "dirtEffect": 8,
      "id": 10,
      "name": "sid 10"
    },
    {
      // sid11
      "startSound": 9,
      "numSounds": 4,
      "animDelay": 2,
      "startFrame": 42,
      "numFrames": 13,
      "detectRange": 15,
      "damage": 13,
      "blowAway": 0.0457763671875,
      "shadow": false,
      "shake": 8,
      "flash": 6,
      "dirtEffect": 1,
      "id": 11,
      "name": "sid 11"
    },
    {
      // sid12 createOnExp for nid19
      "startSound": 9,
      "numSounds": 4,
      "animDelay": 2,
      "startFrame": 44,
      "numFrames": 11,
      "detectRange": 14,
      "damage": 12,
      "blowAway": 0.0457763671875,
      "shadow": true,
      "shake": 3,
      "flash": 5,
      "dirtEffect": 1,
      "id": 12,
      "name": "sid 12"
    },
    {
      // sid13
      "startSound": 9,
      "numSounds": 4,
      "animDelay": 3,
      "startFrame": 44,
      "numFrames": 11,
      "detectRange": 20,
      "damage": 13,
      "blowAway": 0.18310546875,
      "shadow": false,
      "shake": 0,
      "flash": 0,
      "dirtEffect": -1,
      "id": 13,
      "name": "sid 13"
    }
  ],
  "textures":
  [
    {
      "nDrawBack": true,
      "mFrame": 0,
      "sFrame": 73,
      "rFrame": 2,
      "id": 0,
      "name": "tid 0"
    },
    {
      "nDrawBack": true,
      "mFrame": 1,
      "sFrame": 73,
      "rFrame": 2,
      "id": 1,
      "name": "tid 1"
    },
    {
      "nDrawBack": true,
      "mFrame": 2,
      "sFrame": 73,
      "rFrame": 2,
      "id": 2,
      "name": "tid 2"
    },
    {
      "nDrawBack": true,
      "mFrame": 37,
      "sFrame": 73,
      "rFrame": 2,
      "id": 3,
      "name": "tid 3"
    },
    {
      "nDrawBack": false,
      "mFrame": 0,
      "sFrame": 87,
      "rFrame": 2,
      "id": 4,
      "name": "tid 4"
    },
    {
      "nDrawBack": true,
      "mFrame": 39,
      "sFrame": 73,
      "rFrame": 2,
      "id": 5,
      "name": "tid 5"
    },
    {
      "nDrawBack": false,
      "mFrame": 38,
      "sFrame": 82,
      "rFrame": 2,
      "id": 6,
      "name": "tid 6"
    },
    {
      "nDrawBack": true,
      "mFrame": 99,
      "sFrame": 73,
      "rFrame": 2,
      "id": 7,
      "name": "tid 7"
    },
    {
      "nDrawBack": true,
      "mFrame": 37,
      "sFrame": 73,
      "rFrame": 2,
      "id": 8,
      "name": "tid 8"
    }
  ],
  "colorAnim":
  [
    129,
    131,
    133,
    136,
    152,
    159,
    168,
    171
  ],
  "textSpritesStartIdx": 240,
  "crossHairSprite": 153,
  "name": "lierix 2.3",
  "author": "Creo and Psycho",
  "version": "2.3"
}
